Mishnah Bekhorot
משנה בכורות
Torat Emet 357
תורת אמת - Torat Emet 357 - http://www.toratemetfreeware.com/index.html?downloads

משנה בכורות



Chapter 1

הַלּוֹקֵחַ עֻבַּר חֲמוֹרוֹ שֶׁל נָכְרִי, וְהַמּוֹכֵר לוֹ אַף עַל פִּי שֶׁאֵינוֹ רַשַּׁאי, וְהַמִּשְׁתַּתֵּף לוֹ, וְהַמְקַבֵּל מִמֶּנּוּ, וְהַנּוֹתֵן לוֹ בְקַבָּלָה, פָּטוּר מִן הַבְּכוֹרָה, שֶׁנֶּאֱמַר (במדבר ג), בְּיִשְׂרָאֵל, אֲבָל לֹא בַאֲחֵרִים. כֹּהֲנִים וּלְוִיִּם פְּטוּרִין מִקַּל וָחֹמֶר, אִם פָּטְרוּ שֶׁל יִשְׂרָאֵל בַּמִּדְבָּר, דִּין הוּא שֶׁיִּפְטְרוּ שֶׁל עַצְמָן:
פָּרָה שֶׁיָּלְדָה כְּמִין חֲמוֹר, וַחֲמוֹר שֶׁיָּלְדָה כְּמִין סוּס, פָּטוּר מִן הַבְּכוֹרָה, שֶׁנֶּאֱמַר פֶּטֶר חֲמוֹר פֶּטֶר חֲמוֹר, שְׁנֵי פְעָמִים, עַד שֶׁיְּהֵא הַיּוֹלֵד חֲמוֹר וְהַנּוֹלָד חֲמוֹר. וּמָה הֵם בַּאֲכִילָה. בְּהֵמָה טְהוֹרָה שֶׁיָּלְדָה כְּמִין בְּהֵמָה טְמֵאָה, מֻתָּר בַּאֲכִילָה. וּטְמֵאָה שֶׁיָּלְדָה כְּמִין בְּהֵמָה טְהוֹרָה, אָסוּר בַּאֲכִילָה, שֶׁהַיּוֹצֵא מֵהַטָּמֵא, טָמֵא. וְהַיּוֹצֵא מִן הַטָּהוֹר, טָהוֹר. דָּג טָמֵא שֶׁבָּלַע דָּג טָהוֹר, מֻתָּר בַּאֲכִילָה. וְטָהוֹר שֶׁבָּלַע דָּג טָמֵא, אָסוּר בַּאֲכִילָה, לְפִי שֶׁאֵינוֹ גִדּוּלָיו:
חֲמוֹר שֶׁלֹּא בִכְּרָה, וְיָלְדָה שְׁנֵי זְכָרִים, נוֹתֵן טָלֶה אֶחָד לַכֹּהֵן. זָכָר וּנְקֵבָה, מַפְרִישׁ טָלֶה אֶחָד לְעַצְמוֹ. שְׁתֵּי חֲמוֹרִים שֶׁלֹּא בִכְּרוּ, וְיָלְדוּ שְׁנֵי זְכָרִים, נוֹתֵן שְׁנֵי טְלָיִים לַכֹּהֵן. זָכָר וּנְקֵבָה, אוֹ שְׁנֵי זְכָרִים וּנְקֵבָה, נוֹתֵן טָלֶה אֶחָד לַכֹּהֵן. שְׁתֵּי נְקֵבוֹת וְזָכָר אוֹ שְׁנֵי זְכָרִים וּשְׁתֵּי נְקֵבוֹת, אֵין כָּאן לַכֹּהֵן כְּלוּם:
אַחַת בִּכְּרָה וְאַחַת שֶׁלֹּא בִכְּרָה וְיָלְדוּ שְׁנֵי זְכָרִים, נוֹתֵן טָלֶה אֶחָד לַכֹּהֵן. זָכָר וּנְקֵבָה, מַפְרִישׁ טָלֶה אֶחָד לְעַצְמוֹ, שֶׁנֶּאֱמַר (שמות לד), וּפֶטֶר חֲמוֹר תִּפְדֶּה בְשֶׂה, מִן הַכְּבָשִׂים וּמִן הָעִזִּים, זָכָר וּנְקֵבָה, גָּדוֹל וְקָטָן, תָּמִים וּבַעַל מוּם. וּפוֹדֶה בוֹ פְּעָמִים הַרְבֵּה. נִכְנָס לַדִּיר לְהִתְעַשֵּׂר. וְאִם מֵת, נֶהֱנִים בּוֹ:
אֵין פּוֹדִים לֹא בָעֵגֶל, וְלֹא בַחַיָּה, וְלֹא בַשְּׁחוּטָה, וְלֹא בַטְּרֵפָה, וְלֹא בַכִּלְאַיִם, וְלֹא בַכּוֹי. רַבִּי אֶלְעָזָר מַתִּיר בַּכִּלְאַיִם מִפְּנֵי שֶׁהוּא שֶׂה, וְאוֹסֵר בַּכּוֹי מִפְּנֵי שֶׁהוּא סָפֵק. נְתָנוֹ לַכֹּהֵן, אֵין הַכֹּהֵן רַשַּׁאי לְקַיְּמוֹ עַד שֶׁיַּפְרִישׁ שֶׂה תַחְתָּיו:
הַמַּפְרִישׁ פִּדְיוֹן פֶּטֶר חֲמוֹר וּמֵת, רַבִּי אֱלִיעֶזֶר אוֹמֵר, חַיָּבִין בְּאַחֲרָיוּתוֹ, כַּחֲמֵשׁ סְלָעִים שֶׁל בֵּן. וַחֲכָמִים אוֹמְרִים, אֵין חַיָּבִין בְּאַחֲרָיוּתוֹ, כְּפִדְיוֹן מַעֲשֵׂר שֵׁנִי. הֵעִיד רַבִּי יְהוֹשֻׁעַ וְרַבִּי צָדוֹק עַל פִּדְיוֹן פֶּטֶר חֲמוֹר שֶׁמֵּת, שֶׁאֵין כָּאן לַכֹּהֵן כְּלוּם. מֵת פֶּטֶר חֲמוֹר, רַבִּי אֱלִיעֶזֶר אוֹמֵר, יִקָּבֵר, וּמֻתָּר בַּהֲנָאָתוֹ שֶׁל טָלֶה. וַחֲכָמִים אוֹמְרִים, אֵינוֹ צָרִיךְ לְהִקָּבֵר, וְהַטָּלֶה לַכֹּהֵן:
לֹא רָצָה לִפְדּוֹתוֹ, עוֹרְפוֹ בְקוֹפִיץ מֵאַחֲרָיו וְקוֹבְרוֹ. מִצְוַת פְּדִיָּה קוֹדֶמֶת לְמִצְוַת עֲרִיפָה, שֶׁנֶּאֱמַר (שמות יג), וְאִם לֹא תִפְדֶּה וַעֲרַפְתּוֹ. מִצְוַת יְעִידָה קוֹדֶמֶת לְמִצְוַת פְּדִיָּה, שֶׁנֶּאֱמַר (שם כא), אֲשֶׁר לֹא יְעָדָהּ וְהֶפְדָּהּ. מִצְוַת יִבּוּם קוֹדֶמֶת לְמִצְוַת חֲלִיצָה, בָּרִאשׁוֹנָה, שֶׁהָיוּ מִתְכַּוְּנִין לְשֵׁם מִצְוָה. וְעַכְשָׁיו שֶׁאֵין מִתְכַּוְּנִין לְשֵׁם מִצְוָה, אָמְרוּ מִצְוַת חֲלִיצָה קוֹדֶמֶת לְמִצְוַת יִבּוּם. מִצְוַת גְּאֻלָּה בָּאָדוֹן הוּא קוֹדֵם לְכָל אָדָם, שֶׁנֶּאֱמַר (ויקרא כז), וְאִם לֹא יִגָּאֵל וְנִמְכַּר בְּעֶרְכֶּךְ:

Chapter 2

הַלּוֹקֵחַ עֻבַּר פָּרָתוֹ שֶׁל נָכְרִי, וְהַמּוֹכֵר לוֹ אַף עַל פִּי שֶׁאֵינוֹ רַשַּׁאי, הַמִּשְׁתַּתֵּף לוֹ, וְהַמְקַבֵּל מִמֶּנּוּ, וְהַנּוֹתֵן לוֹ בְקַבָּלָה, פָּטוּר מִן הַבְּכוֹרָה, שֶׁנֶּאֱמַר (במדבר ג), בְּיִשְׂרָאֵל, אֲבָל לֹא בַאֲחֵרִים. כֹּהֲנִים וּלְוִיִּם חַיָּבִין. לֹא נִפְטְרוּ מִבְּכוֹר בְּהֵמָה טְהוֹרָה, (וְלֹא נִפְטְרוּ) אֶלָּא מִפִּדְיוֹן הַבֵּן וּמִפֶּטֶר חֲמוֹר:
כָּל הַקֳּדָשִׁים שֶׁקָּדַם מוּם קָבוּעַ לְהֶקְדֵּשָׁן, וְנִפְדּוּ, חַיָּבִים בַּבְּכוֹרָה וּבַמַּתָּנוֹת, וְיוֹצְאִין לְחֻלִּין לִגָּזֵז וּלְהֵעָבֵד, וּוְלָדָן וַחֲלָבָן מֻתָּר לְאַחַר פִּדְיוֹנָן, וְהַשּׁוֹחֲטָן בַּחוּץ פָּטוּר, וְאֵין עוֹשִׂים תְּמוּרָה, וְאִם מֵתוּ יִפָּדוּ, חוּץ מִן הַבְּכוֹר וּמִן הַמַּעֲשֵׂר:
כֹּל שֶׁקָּדַם הֶקְדֵּשָׁן אֶת מוּמָן, אוֹ מוּם עוֹבֵר לְהֶקְדֵּשָׁן, וּלְאַחַר מִכָּאן נוֹלָד לָהֶם מוּם קָבוּעַ (וְנִפְדּוּ), פְּטוּרִין מִן הַבְּכוֹרָה וּמִן הַמַּתָּנוֹת, וְאֵינָן יוֹצְאִין לְחֻלִּין לִגָּזֵז וּלְהֵעָבֵד, וּוְלָדָן וַחֲלָבָן אָסוּר לְאַחַר פִּדְיוֹנָן, וְהַשּׁוֹחֲטָן בַּחוּץ חַיָּב, וְעוֹשִׂין תְּמוּרָה, וְאִם מֵתוּ יִקָּבֵרוּ:
הַמְקַבֵּל צֹאן בַּרְזֶל מִן הַנָּכְרִי, וְלָדוֹת פְּטוּרִין, וּוַלְדֵי וְלָדוֹת חַיָּבִין. הֶעֱמִיד וְלָדוֹת תַּחַת אִמּוֹתֵיהֶם, וַלְדֵי וְלָדוֹת פְטוּרִין, וּוַלְדֵי וַלְדֵי וְלָדוֹת חַיָּבִין. רַבָּן שִׁמְעוֹן בֶּן גַּמְלִיאֵל אוֹמֵר, אֲפִלּוּ עַד עֲשָׂרָה דוֹרוֹת, פְּטוּרִין, שֶׁאַחֲרָיוּתָן לַנָּכְרִי:
רָחֵל שֶׁיָּלְדָה כְּמִין עֵז, וְעֵז שֶׁיָּלְדָה כְּמִין רָחֵל, פָּטוּר מִן הַבְּכוֹרָה. וְאִם יֵשׁ בּוֹ מִקְצָת סִימָנִין, חַיָּב:
רָחֵל שֶׁלֹּא בִכְּרָה וְיָלְדָה שְׁנֵי זְכָרִים וְיָצְאוּ שְׁנֵי רָאשֵׁיהֶן כְּאֶחָד, רַבִּי יוֹסֵי הַגְּלִילִי אוֹמֵר, שְׁנֵיהֶן לַכֹּהֵן. שֶׁנֶּאֱמַר (שמות יג), הַזְּכָרִים לַה'. וַחֲכָמִים אוֹמְרִים, אִי אֶפְשָׁר, אֶלָּא אֶחָד לוֹ וְאֶחָד לַכֹּהֵן. רַבִּי טַרְפוֹן אוֹמֵר, הַכֹּהֵן בּוֹרֵר לוֹ אֶת הַיָפֶה. רַבִּי עֲקִיבָא אוֹמֵר, מְשַׁמְּנִים בֵּינֵיהֶן, וְהַשֵּׁנִי יִרְעֶה עַד שֶׁיִּסְתָּאֵב. וְחַיָּב בַּמַּתָּנוֹת. רַבִּי יוֹסֵי פּוֹטֵר. מֵת אֶחָד מֵהֶן, רַבִּי טַרְפוֹן אוֹמֵר, יַחֲלוֹקוּ. רַבִּי עֲקִיבָא אוֹמֵר, הַמּוֹצִיא מֵחֲבֵרוֹ עָלָיו הָרְאָיָה. זָכָר וּנְקֵבָה, אֵין כָּאן לַכֹּהֵן כְּלוּם:
שְׁתֵּי רְחֵלוֹת שֶׁלֹּא בִכְּרוּ, וְיָלְדוּ שְׁנֵי זְכָרִים, נוֹתֵן שְׁנֵיהֶם לַכֹּהֵן. זָכָר וּנְקֵבָה, הַזָּכָר לַכֹּהֵן. שְׁנֵי זְכָרִים וּנְקֵבָה, אֶחָד לוֹ וְאֶחָד לַכֹּהֵן. רַבִּי טַרְפוֹן אוֹמֵר, הַכֹּהֵן בּוֹרֵר לוֹ אֶת הַיָּפֶה. רַבִּי עֲקִיבָא אוֹמֵר, מְשַׁמְּנִים בֵּינֵיהֶן, וְהַשֵּׁנִי יִרְעֶה עַד שֶׁיִּסְתָּאֵב. וְחַיָּב בַּמַּתָּנוֹת. רַבִּי יוֹסֵי פּוֹטֵר. מֵת אֶחָד מֵהֶן, רַבִּי טַרְפוֹן אוֹמֵר, יַחֲלוֹקוּ. רַבִּי עֲקִיבָא אוֹמֵר, הַמּוֹצִיא מֵחֲבֵרוֹ עָלָיו הָרְאָיָה. שְׁתֵּי נְקֵבוֹת וְזָכָר, אוֹ שְׁנֵי זְכָרִים וּשְׁתֵּי נְקֵבוֹת, אֵין כָּאן לַכֹּהֵן כְּלוּם:
אַחַת בִּכְּרָה וְאַחַת שֶׁלֹּא בִכְּרָה וְיָלְדוּ שְׁנֵי זְכָרִים, אֶחָד לוֹ וְאֶחָד לַכֹּהֵן. רַבִּי טַרְפוֹן אוֹמֵר, הַכֹּהֵן בּוֹרֵר לוֹ אֶת הַיָּפֶה. רַבִּי עֲקִיבָא אוֹמֵר, מְשַׁמְּנִין בֵּינֵיהֶן, וְהַשֵּׁנִי יִרְעֶה עַד שֶׁיִּסְתָּאֵב. וְחַיָּב בַּמַּתָּנוֹת. רַבִּי יוֹסֵי פּוֹטֵר, שֶׁהָיָה רַבִּי יוֹסֵי אוֹמֵר, כֹּל שֶׁחֲלִיפָיו בְּיַד כֹּהֵן, פָּטוּר מִן הַמַתָּנוֹת. רַבִּי מֵאִיר מְחַיֵּב. מֵת אֶחָד מֵהֶן, רַבִּי טַרְפוֹן אוֹמֵר, יַחֲלוֹקוּ. רַבִּי עֲקִיבָא אוֹמֵר, הַמּוֹצִיא מֵחֲבֵרוֹ עָלָיו הָרְאָיָה. זָכָר וּנְקֵבָה, אֵין כָּאן לַכֹּהֵן כְּלוּם:
יוֹצֵא דֹּפֶן וְהַבָּא אַחֲרָיו, רַבִּי טַרְפוֹן אוֹמֵר, שְׁנֵיהֶם יִרְעוּ עַד שֶׁיִּסְתָּאֲבוּ וְיֵאָכְלוּ בְמוּמָן לַבְּעָלִים. רַבִּי עֲקִיבָא אוֹמֵר, שְׁנֵיהֶן אֵינָן בְּכוֹר, הָרִאשׁוֹן מִשּׁוּם שֶׁאֵינוֹ פֶטֶר רֶחֶם, וְהַשֵּׁנִי מִשּׁוּם שֶׁקִּדְּמוֹ אַחֵר:

Chapter 3

הַלּוֹקֵחַ בְּהֵמָה מִן הַנָּכְרִי וְאֵין יָדוּעַ אִם בִּכְּרָה וְאִם לֹא בִכְּרָה, רַבִּי יִשְׁמָעֵאל אוֹמֵר, עֵז בַּת שְׁנָתָהּ וַדַּאי לַכֹּהֵן, מִכָּאן וְאֵילָךְ סָפֵק. רָחֵל בַּת שְׁתַּיִם וַדַּאי לַכֹּהֵן, מִכָּאן וְאֵילָךְ סָפֵק. פָּרָה וַחֲמוֹר בְּנוֹת שָׁלשׁ וַדַּאי לַכֹּהֵן, מִכָּאן וְאֵילָךְ סָפֵק. אָמַר לוֹ רַבִּי עֲקִיבָא, אִלּוּ בַּוָּלָד בִּלְבַד בְּהֵמָה נִפְטֶרֶת, הָיָה כִדְבָרֶיךָ, אֶלָּא אָמְרוּ, סִימַן הַוָּלָד בִּבְהֵמָה דַקָּה, טִנוּף. וּבְגַסָּה, שִׁלְיָא. וּבְאִשָּׁה, שְׁפִיר וְשִׁלְיָא. זֶה הַכְּלָל, כֹּל שֶׁיָדוּעַ שֶׁבִּכְּרָה, אֵין כָּאן לַכֹּהֵן כְּלוּם. וְכֹל שֶׁלֹּא בִכְּרָה, הֲרֵי זֶה לַכֹּהֵן. אִם סָפֵק, יֵאָכֵל בְּמוּמוֹ לַבְּעָלִים. רַבִּי אֱלִיעֶזֶר בֶּן יַעֲקֹב אוֹמֵר, בְּהֵמָה גַסָּה שֶׁשָּׁפְעָה חֲרָרַת דָּם, הֲרֵי זוֹ תִקָּבֵר, וְנִפְטְרָה מִן הַבְּכוֹרָה:
רַבָּן שִׁמְעוֹן בֶּן גַּמְלִיאֵל אוֹמֵר, הַלּוֹקֵחַ בְּהֵמָה מְנִיקָה מִן הַנָּכְרִי, אֵינוֹ חוֹשֵׁשׁ שֶׁמָּא בְנָהּ שֶׁל אַחֶרֶת הָיָה. נִכְנַס לְתוֹךְ עֶדְרוֹ וְרָאָה אֶת הַמַּבְכִּירוֹת מְנִיקוֹת וְאֶת שֶׁאֵינָן מַבְכִּירוֹת מְנִיקוֹת, אֵינוֹ חוֹשֵׁשׁ שֶׁמָּא בְנָהּ שֶׁל זוֹ בָּא לוֹ אֵצֶל זוֹ, אוֹ שֶׁמָּא בְנָהּ שֶׁל זוֹ בָּא לוֹ אֵצֶל זוֹ:
רַבִּי יוֹסֵי בֶּן מְשֻׁלָּם אוֹמֵר, הַשּׁוֹחֵט אֶת הַבְּכוֹר, עוֹשֶׂה מָקוֹם בְּקוֹפִיץ מִכָּאן וּמִכָּאן וְתוֹלֵשׁ הַשֵּׂעָר, וּבִלְבַד שֶׁלֹּא יְזִיזֶנּוּ מִמְּקוֹמוֹ. וְכֵן הַתּוֹלֵשׁ אֶת הַשֵּׂעָר לִרְאוֹת מְקוֹם הַמּוּם:
שְׂעַר בְּכוֹר בַּעַל מוּם שֶׁנָּשַׁר וְהִנִּיחוֹ בַחַלּוֹן וְאַחַר כָּךְ שְׁחָטוֹ, עֲקַבְיָא בֶּן מַהֲלַלְאֵל מַתִּיר, וַחֲכָמִים אוֹסְרִין, דִּבְרֵי רַבִּי יְהוּדָה. אָמַר רַבִּי יוֹסֵי, לֹא בָזֶה הִתִּיר עֲקַבְיָא, אֶלָּא בִשְׂעַר בְּכוֹר בַּעַל מוּם שֶׁנָּשַׁר וְהִנִּיחוֹ בַּחַלּוֹן וְאַחַר כָּךְ מֵת, בָּזֶה עֲקַבְיָא בֶּן מַהֲלַלְאֵל מַתִּיר, וַחֲכָמִים אוֹסְרִין. הַצֶּמֶר הַמְדֻבְלָל בַּבְּכוֹר, אֶת שֶׁהוּא נִרְאֶה מִן הַגִּזָּה, מֻתָּר. וְאֶת שֶׁאֵינוֹ נִרְאֶה מִן הַגִּזָּה, אָסוּר:

Chapter 4

עַד כַּמָּה יִשְׂרָאֵל חַיָּבִים לְהִטַּפֵּל בַּבְּכוֹר. בִּבְהֵמָה דַקָּה, עַד שְׁלשִׁים יוֹם. וּבַגַּסָּה, חֲמִשִּׁים יוֹם. רַבִּי יוֹסֵי אוֹמֵר, בַּדַּקָּה שְׁלשָׁה חֳדָשִׁים. אָמַר לוֹ הַכֹּהֵן בְּתוֹךְ זְמַן זֶה תְּנֵהוּ לִי, הֲרֵי זֶה לֹא יִתְּנוֹ לוֹ. אִם הָיָה בַעַל מוּם, אָמַר לוֹ תֶּן לִי שֶׁאוֹכְלֶנּוּ, מֻתָּר. וּבִשְׁעַת הַמִּקְדָּשׁ, אִם הָיָה תָמִים, אָמַר לוֹ תֶּן לִי שֶׁאַקְרִיבֶנּוּ, מֻתָּר. הַבְּכוֹר נֶאֱכָל שָׁנָה בְשָׁנָה בֵּין תָּמִים בֵּין בַּעַל מוּם, שֶׁנֶּאֱמַר (דברים טו), לִפְנֵי ה' אֱלֹהֶיךָ תֹאכְלֶנּוּ שָׁנָה בְשָׁנָה:
נוֹלַד לוֹ מוּם בְּתוֹךְ שְׁנָתוֹ, מֻתָּר לְקַיְּמוֹ כָּל שְׁנֵים עָשָׂר חֹדֶשׁ. לְאַחַר שְׁנָתוֹ, אֵינוֹ רַשַּׁאי לְקַיְּמוֹ אֶלָּא עַד שְׁלשִׁים יוֹם:
הַשּׁוֹחֵט הַבְּכוֹר וּמַרְאֶה אֶת מוּמוֹ, רַבִּי יְהוּדָה מַתִּיר. רַבִּי מֵאִיר אוֹמֵר, הוֹאִיל וְהוּא נִשְׁחַט שֶׁלֹּא עַל פִּי מֻמְחֶה, אָסוּר:
מִי שֶׁאֵינוֹ מֻמְחֶה וְרָאָה אֶת הַבְּכוֹר וְנִשְׁחַט עַל פִּיו, הֲרֵי זֶה יִקָּבֵר, וִישַׁלֵּם מִבֵּיתוֹ. דָּן אֶת הַדִּין, זִכָּה אֶת הַחַיָּב וְחִיֵּב אֶת הַזַּכַּאי, טִמֵּא אֶת הַטָהוֹר וְטִהֵר אֶת הַטָּמֵא, מַה שֶּׁעָשָׂה עָשׂוּי וִישַׁלֵּם מִבֵּיתוֹ. וְאִם הָיָה מֻמְחֶה לְבֵית דִּין, פָּטוּר מִלְּשַׁלֵּם. מַעֲשֶׂה בְפָרָה שֶׁנִּטְּלָה הָאֵם שֶׁלָּהּ, וְהֶאֱכִילָהּ רַבִּי טַרְפוֹן לַכְּלָבִים, וּבָא מַעֲשֶׂה לִפְנֵי חֲכָמִים וְהִתִּירוּהָ. אָמַר תוֹדוֹס הָרוֹפֵא, אֵין פָּרָה וַחֲזִירָה יוֹצְאָה מֵאֲלֶכְּסַנְדְּרִיָּא עַד שֶׁהֵם חוֹתְכִין אֶת הָאֵם שֶׁלָּהּ, בִּשְׁבִיל שֶׁלֹּא תֵלֵד. אָמַר רַבִּי טַרְפוֹן, הָלְכָה חֲמוֹרְךָ טַרְפוֹן. אָמַר לוֹ רַבִּי עֲקִיבָא, רַבִּי טַרְפוֹן, פָּטוּר אַתָּה, שֶׁאַתָּה מֻמְחֶה לְבֵית דִּין, וְכָל הַמֻּמְחֶה לְבֵית דִּין פָּטוּר מִלְּשַׁלֵּם:
הַנּוֹטֵל שְׂכָרוֹ לִהְיוֹת רוֹאֶה בְכוֹרוֹת, אֵין שׁוֹחֲטִין עַל פִּיו, אֶלָּא אִם כֵּן הָיָה מֻמְחֶה כְּאִילָא בְיַבְנֶה, שֶׁהִתִּירוּ לוֹ חֲכָמִים לִהְיוֹת נוֹטֵל אַרְבָּעָה אִסָּרוֹת בִּבְהֵמָה דַקָּה, וְשִׁשָּׁה בַּגַּסָּה, בֵּין תָּמִים בֵּין בַּעַל מוּם:
הַנּוֹטֵל שְׂכָרוֹ לָדוּן, דִּינָיו בְּטֵלִים. לְהָעִיד, עֵדוּתָיו בְּטֵלִין. לְהַזּוֹת וּלְקַדֵּשׁ, מֵימָיו מֵי מְעָרָה וְאֶפְרוֹ אֵפֶר מִקְלֶה. אִם הָיָה כֹהֵן וְטִמְּאָהוּ מִתְּרוּמָתוֹ, מַאֲכִילוֹ וּמַשְׁקוֹ וְסָכוֹ. וְאִם הָיָה זָקֵן, מַרְכִּיבוֹ עַל הַחֲמוֹר. וְנוֹתֵן לוֹ שְׂכָרוֹ כַּפּוֹעֵל:
הֶחָשׁוּד עַל הַבְּכוֹרוֹת, אֵין לוֹקְחִין מִמֶּנּוּ בְּשַׂר צְבָאִים וְלֹא עוֹרוֹת שֶׁאֵינָן עֲבוּדִין. רַבִּי אֱלִיעֶזֶר אוֹמֵר, לוֹקְחִים מִמֶּנּוּ עוֹרוֹת שֶׁל נְקֵבָה, וְאֵין לוֹקְחִין מִמֶּנּוּ צֶמֶר מְלֻּבָּן וְצוֹאִי, אֲבָל לוֹקְחִין מִמֶּנּוּ טָווּי וּבְגָדִים:
הֶחָשׁוּד עַל הַשְׁבִיעִית אֵין לוֹקְחִין מִמֶּנּוּ פִשְׁתָּן וַאֲפִלּוּ סֶרֶק, אֲבָל לוֹקְחִין מִמֶּנּוּ טָווּי וְאָרִיג:
הֶחָשׁוּד לִהְיוֹת מוֹכֵר תְּרוּמָה לְשֵׁם חֻלִּין, אֵין לוֹקְחִין מִמֶּנּוּ אֲפִלּוּ מַיִם אוֹ מֶלַח, דִּבְרֵי רַבִּי יְהוּדָה. רַבִּי שִׁמְעוֹן אוֹמֵר, כּל שֶׁיֵּשׁ בּוֹ זִקַּת תְּרוּמוֹת וּמַעַשְׂרוֹת, אֵין לוֹקְחִין מִמֶּנּוּ:
הֶחָשׁוּד עַל הַשְּׁבִיעִית, אֵינוֹ חָשׁוּד עַל הַמַּעַשְׂרוֹת. הֶחָשׁוּד עַל הַמַּעַשְׂרוֹת, אֵינוֹ חָשׁוּד עַל הַשְּׁבִיעִית. הֶחָשׁוּד עַל זֶה וְעַל זֶה, חָשׁוּד עַל הַטָּהֳרוֹת. וְיֵשׁ שֶׁהוּא חָשׁוּד עַל הַטָּהֳרוֹת, וְאֵינוֹ חָשׁוּד לֹא עַל זֶה וְלֹא עַל זֶה. זֶה הַכְּלָל, כָּל הֶחָשׁוּד עַל הַדָּבָר, לֹא דָנוֹ וְלֹא מְעִידוֹ:

Chapter 5

כָּל פְּסוּלֵי הַמֻּקְדָּשִׁין (הֲנָאָתָן לַהֶקְדֵּשׁ), נִמְכָּרִין בָּאִטְלִיז (וְנִשְׁחָטִין בָּאִטְלִיז) וְנִשְׁקָלִין בְּלִטְרָא, חוּץ מִן הַבְּכוֹר וּמִן הַמַּעֲשֵׂר, שֶׁהֲנָיָתָן לַבְּעָלִים. פְּסוּלֵי הַמֻּקְדָּשִׁין הֲנָיָתָן לַהֶקְדֵּשׁ. וְשׁוֹקְלִין מָנֶה כְנֶגֶד מָנֶה בַּבְּכוֹר:
בֵית שַׁמַּאי אוֹמְרִים, לֹא יִמָּנָה יִשְׂרָאֵל עִם הַכֹּהֵן עַל הַבְּכוֹר. בֵּית הִלֵּל מַתִּירִין, וַאֲפִלּוּ נָכְרִי. בְּכוֹר שֶׁאֲחָזוֹ דָם, אֲפִלּוּ הוּא מֵת, אֵין מַקִּיזִין לוֹ דָם, דִּבְרֵי רַבִּי יְהוּדָה. וַחֲכָמִים אוֹמְרִים, יַקִּיז, וּבִלְבַד שֶׁלֹּא יַעֲשֶׂה בוֹ מוּם. וְאִם עָשָׂה בוֹ מוּם, הֲרֵי זֶה לֹא יִשָּׁחֵט עָלָיו. רַבִּי שִׁמְעוֹן אוֹמֵר יַקִּיז, אַף עַל פִּי שֶׁהוּא עוֹשֶׂה בוֹ מוּם:
הַצּוֹרֵם בְּאֹזֶן הַבְּכוֹר, הֲרֵי זֶה לֹא יִשָּׁחֵט עוֹלָמִית, דִּבְרֵי רַבִּי אֱלִיעֶזֶר. וַחֲכָמִים אוֹמְרִים, כְּשֶׁיִּוָּלֵד לוֹ מוּם אַחֵר, יִשָּׁחֵט עָלָיו. מַעֲשֶׂה בְזָכָר שֶׁל רְחֵלִים זָקֵן וּשְׂעָרוֹ מְדֻלְדָּל, רָאָהוּ קַסְדּוֹר אֶחָד, אָמַר, מַה טִּיבוֹ שֶׁל זֶה. אָמְרוּ לוֹ, בְּכוֹר הוּא וְאֵינוֹ נִשְׁחָט אֶלָּא אִם כֵּן הָיָה בּוֹ מוּם. נָטַל פִּגְיוֹן וְצָרַם בְּאָזְנוֹ, וּבָא מַעֲשֶׂה לִפְנֵי חֲכָמִים וְהִתִּירוּהוּ. רָאָה שֶׁהִתִּירוּ, וְהָלַךְ וְצָרַם בְּאָזְנֵי בְכוֹרוֹת אֲחֵרִים, וְאָסָרוּ. פַּעַם אַחַת הָיוּ תִינוֹקוֹת מְשַׂחֲקִין בַּשָּׂדֶה וְקָשְׁרוּ זַנְבוֹת טְלָאִים זֶה לָזֶה, וְנִפְסְקָה זְנָבוֹ שֶׁל אֶחָד מֵהֶם וַהֲרֵי הוּא בְכוֹר, וּבָא מַעֲשֶׂה לִפְנֵי חֲכָמִים וְהִתִּירוּהוּ. רָאוּ שֶׁהִתִּירוּ, וְהָלְכוּ וְקָשְׁרוּ זַנְבוֹת בְּכוֹרוֹת אֲחֵרִים, וְאָסָרוּ. זֶה הַכְּלָל, כֹּל שֶׁהוּא לְדַעְתּוֹ, אָסוּר. וְשֶׁלֹּא לְדַעְתּוֹ, מֻתָּר:
הָיָה בְכוֹר רוֹדְפוֹ, וּבְעָטוֹ וְעָשָׂה בוֹ מוּם, הֲרֵי זֶה יִשְׁחוֹט עָלָיו. כָּל הַמּוּמִין הָרְאוּיִין לָבוֹא בִידֵי אָדָם, רוֹעִים יִשְׂרָאֵל נֶאֱמָנִים, וְרוֹעִים כֹּהֲנִים אֵינָן נֶאֱמָנִים. רַבָּן שִׁמְעוֹן בֶּן גַּמְלִיאֵל אוֹמֵר, נֶאֱמָן הוּא עַל שֶׁל חֲבֵרוֹ וְאֵינוֹ נֶאֱמָן עַל שֶׁל עַצְמוֹ. רַבִּי מֵאִיר אוֹמֵר, הֶחָשׁוּד עַל דָּבָר, לֹא דָנוֹ וְלֹא מְעִידוֹ:
נֶאֱמָן הַכֹּהֵן לוֹמַר הֶרְאֵיתִי בְּכוֹר זֶה וּבַעַל מוּם הוּא. הַכּל נֶאֱמָנִים עַל מוּמֵי הַמַּעֲשֵׂר. בְּכוֹר שֶׁנִּסְמֵית עֵינוֹ, שֶׁנִּקְטְעָה יָדוֹ, שֶׁנִּשְׁבְּרָה רַגְלוֹ, הֲרֵי זֶה יִשָּׁחֵט עַל פִּי שְׁלשָׁה בְנֵי הַכְּנֶסֶת, רַבִּי יוֹסֵי אוֹמֵר, אֲפִלּוּ יֵשׁ שָׁם עֶשְׂרִים וּשְׁלשָׁה, לֹא יִשָּׁחֵט אֶלָּא עַל פִּי מֻמְחֶה:
הַשּׁוֹחֵט אֶת הַבְּכוֹר (וּמְכָרוֹ) וְנוֹדַע שֶׁלֹּא הֶּרְאָהוּ, מַה שֶּׁאָכְלוּ אָכְלוּ וְהוּא יַחֲזִיר לָהֶם אֶת הַדָּמִים. וּמַה שֶׁלֹּא אָכְלוּ, הַבָּשָׂר יִקָּבֵר וְהוּא יַחֲזִיר לָהֶם אֶת הַדָּמִים. וְכֵן הַשּׁוֹחֵט אֶת הַפָּרָה וּמְכָרָהּ וְנוֹדַע שֶׁהִיא טְרֵפָה, מַה שֶׁאָכְלוּ אָכְלוּ וְיַחֲזִיר לָהֶם אֶת הַדָּמִים. וּמַה שֶּׁלֹּא אָכְלוּ, הֵן יַחֲזִירוּ לוֹ אֶת הַבָּשָׂר וְהוּא יַחֲזִיר לָהֶם אֶת הַדָּמִים. מְכָרוּהוּ לַנָּכְרִים אוֹ הִטִּילוּהוּ לַכְּלָבִים, יְשַׁלְּמוּ לוֹ דְמֵי הַטְּרֵפָה:

Chapter 6

עַל אֵלּוּ מוּמִין שׁוֹחֲטִין אֶת הַבְּכוֹר, נִפְגְּמָה אָזְנוֹ מִן הַסְּחוּס, אֲבָל לֹא מִן הָעוֹר, נִסְדְּקָה אַף עַל פִּי שֶׁלֹּא חָסְרָה, נִקְּבָה מְלֹא כַרְשִׁינָה, אוֹ שֶׁיָּבָשָׁה. אֵיזוֹ הִיא יְבֵשָׁה, כֹּל שֶׁתִּנָּקֵב וְאֵינָהּ מוֹצִיאָה טִפַּת דָּם. רַבִּי יוֹסֵי בֶּן מְשֻׁלָּם אוֹמֵר, יְבֵשָׁה, שֶׁתְּהֵא נִפְרָכֶת:
רִיס שֶׁל עַיִן שֶׁנִּקַּב, שֶׁנִּפְגַּם, שֶׁנִּסְדַּק, הֲרֵי בְעֵינָיו דַּק, תְּבַלּוּל, חִלָּזוֹן נָחָשׁ, וְעֵנָב. וְאֵיזֶהוּ תְּבַלּוּל, לָבָן הַפוֹסֵק בַּסִּירָא וְנִכְנָס בַּשָּׁחוֹר. בַּשָּׁחוֹר וְנִכְנָס בַּלָּבָן, אֵינוֹ מוּם, שֶׁאֵין מוּמִים בַּלָּבָן:
חֲוַרְוָד וְהַמַּיִם הַקְּבוּעִים. אֵיזֶהוּ חֲוַרְוָד הַקָּבוּעַ, כֹּל שֶׁשָּׁהָה שְׁמוֹנִים יוֹם. רַבִּי חֲנִינָא בֶּן אַנְטִיגְנוֹס אוֹמֵר, בּוֹדְקִין אוֹתוֹ שְׁלשָׁה פְעָמִים בְּתוֹךְ שְׁמוֹנִים יוֹם. וְאֵלּוּ הֵם מַיִם הַקְּבוּעִים, אָכַל לַח וְיָבֵשׁ שֶׁל גְּשָׁמִים, לַח וְיָבֵשׁ שֶׁל שְׁלָחִים. אָכַל הַיָּבֵשׁ וְאַחַר כָּךְ אָכַל הַלַּח, אֵינוֹ מוּם, עַד שֶׁיֹּאכַל הַיָּבֵשׁ אַחַר הַלַּח:
חָטְמוֹ שֶׁנִּקַּב, שֶׁנִּפְגַּם, שֶׁנִּסְדַּק, שְׂפָתוֹ שֶׁנִּקְּבָה, שֶׁנִּפְגְּמָה, שֶׁנִּסְדְּקָה, חִטָּיו הַחִיצוֹנוֹת שֶׁנִּפְגְּמוּ אוֹ שֶׁנִּגְמְמוּ, וְהַפְנִימִיּוֹת שֶׁנֶּעֱקָרוּ. רַבִּי חֲנִינָא בֶּן אַנְטִיגְנוֹס אוֹמֵר, אֵין בּוֹדְקִין מִן הַמַּתְאִימוֹת וְלִפְנִים, אַף לֹא אֶת הַמַתְאִימוֹת:
נִפְגַּם הַזּוֹבָן, אוֹ עֶרְיָה שֶׁל נְקֵבָּה בַּמֻּקְדָּשִׁים, נִפְגַּם הַזָּנָב מִן הָעֶצֶם, אֲבָל לֹא מִן הַפֶּרֶק, אוֹ שֶׁהָיָה רֹאשׁ הַזָּנָב מַפְצִיל עֶצֶם, אוֹ שֶׁיֵּשׁ (בָּשָׂר) בֵּין חֻלְיָא לְחֻלְיָא מְלֹא אֶצְבַּע:
אֵין לוֹ בֵיצִים, (אוֹ) אֵין לוֹ אֶלָּא בֵּיצָה אֶחָת. רַבִּי יִשְׁמָעֵאל אוֹמֵר, אִם יֵשׁ לוֹ שְׁנֵי כִיסִין, יֵשׁ לוֹ שְׁתֵּי בֵיצִים. אֵין לוֹ אֶלָּא כִיס אֶחָד, אֵין לוֹ אֶלָּא בֵיצָה אֶחָת. רַבִּי עֲקִיבָא אוֹמֵר, מוֹשִׁיבוֹ עַל עַכּוּזוֹ וּמְמַעֵךְ, אִם יֵשׁ שָׁם בֵּיצָה, סוֹפָהּ לָצֵאת. מַעֲשֶׂה שֶׁמִּעֵךְ וְלֹא יָצָאת, וְנִשְׁחַט וְנִמְצֵאת דְּבוּקָה בַּכְּסָלִים, וְהִתִּיר רַבִּי עֲקִיבָא וְאָסַר רַבִּי יוֹחָנָן בֶּן נוּרִי:
בַּעַל חָמֵשׁ רַגְלַיִם, אוֹ שֶׁאֵין לוֹ אֶלָּא שָׁלשׁ, וְשֶׁרַגְלָיו קְלוּטוֹת כְּשֶׁל חֲמוֹר, וְהַשָּׁחוּל, וְהַכָּסוּל. אֵיזֶהוּ שָׁחוּל, שֶׁנִּשְׁמְטָה יְרֵכוֹ. וְכָסוּל, שֶׁאַחַת מִיַּרְכוֹתָיו גְּבוֹהָה:
נִשְׁבַּר עֶצֶם יָדוֹ, וְעֶצֶם רַגְלוֹ, אַף עַל פִּי שֶׁאֵינוֹ נִכָּר. מוּמִין אֵלּוּ מָנָה אִילָא בְיַבְנֶה, וְהוֹדוּ לוֹ חֲכָמִים. וְעוֹד שְׁלשָׁה הוֹסִיף. אָמְרוּ לוֹ, לֹא שָׁמַעְנוּ אֶת אֵלּוּ. אֵת שֶׁגַּלְגַּל עֵינוֹ עָגוֹל כְּשֶׁל אָדָם, וּפִיו דּוֹמֶה לְשֶׁל חֲזִיר, וְשֶׁנִּטַּל רֹב הַמְדַבֵּר שֶׁל לְשׁוֹנוֹ. וּבֵית דִּין שֶׁל אַחֲרֵיהֶן אָמְרוּ, הֲרֵי אֵלּוּ מוּמִין:
מַעֲשֶׂה שֶׁהַלְּחִי הַתַּחְתּוֹן עוֹדֵף עַל הָעֶלְיוֹן, וְשָׁלַח רַבָּן שִׁמְעוֹן בֶּן גַּמְלִיאֵל לַחֲכָמִים וְאָמְרוּ, הֲרֵי זֶה מוּם. אֹזֶן הַגְּדִי שֶׁהָיְתָה כְפוּלָה, אָמְרוּ חֲכָמִים, בִּזְמַן שֶׁהִיא עֶצֶם אֶחָד, מוּם. וְאִם אֵינָהּ עֶצֶם אֶחָד, אֵינָהּ מוּם. רַבִּי חֲנַנְיָא בֶן גַּמְלִיאֵל אוֹמֵר, זְנַב הַגְּדִי שֶׁהִיא דוֹמָה לְשֶׁל חֲזִיר, וְשֶׁאֵין בָּהּ שָׁלשׁ חֻלְיוֹת, הֲרֵי זֶה מוּם:
רַבִּי חֲנִינָא בֶּן אַנְטִיגְנוֹס אוֹמֵר, אֶת שֶׁיַּבֶּלֶת בְּעֵינוֹ, וְשֶׁנִּפְגַּם עֶצֶם יָדוֹ, וְעֶצֶם רַגְלוֹ, וְשֶׁנִּפְסַק עַצְמוֹ שֶׁבְּפִיו. עֵינוֹ אַחַת גְּדוֹלָה וְאַחַת קְטַנָּה, אָזְנוֹ אַחַת גְּדוֹלָה וְאַחַת קְטַנָּה, בְּמַרְאֶה אֲבָל לֹא בְמִדָּה. רַבִּי יְהוּדָה אוֹמֵר, אַחַת מִבֵּיצָיו גְּדוֹלָה כִּשְׁתַּיִם בַּחֲבֶרְתָּהּ, וְלֹא הוֹדוּ לוֹ חֲכָמִים:
זְנַב הָעֶגֶל שֶׁאֵינָהּ מַגַּעַת לָעַרְקוֹב, אָמְרוּ חֲכָמִים, כָּל מַרְבִּית הָעֲגָלִים כֵּן, כָּל זְמַן שֶׁהֵן מַגְדִּילִין הֵם נִמְתָּחוֹת. לְאֵיזֶה עַרְקוֹב אָמְרוּ, רַבִּי חֲנִינָא בֶּן אַנְטִיגְנוֹס אוֹמֵר, לָעַרְקוֹב שֶׁבְּאֶמְצַע הַיָּרֵךְ. עַל אֵלּוּ מוּמִין שׁוֹחֲטִין אֶת הַבְּכוֹר, וּפְסוּלֵי הַמֻּקְדָּשִׁין נִפְדִּין עֲלֵיהֶן:
אֵלּוּ שֶׁאֵין שׁוֹחֲטִין עֲלֵיהֶן לֹא בַמִּקְדָּשׁ וְלֹא בַמְּדִינָה, חֲוַרְוָד וְהַמַּיִם שֶׁאֵינָם קְבוּעִין, וְחִטָּיו הַפְּנִימִיּוֹת שֶׁנִּפְגְּמוּ, (אֲבָל לֹא) שֶׁנֶּעֶקְרוּ, וּבַעַל גָּרָב, וּבַעַל יַבֶּלֶת, וּבַעַל חֲזָזִית, וְזָקֵן, וְחוֹלֶה, וּמְזֻהָם, וְשֶׁנֶּעֶבְדָה בוֹ עֲבֵרָה, וְשֶׁהֵמִית אֶת הָאָדָם (עַל פִּי עֵד אֶחָד אוֹ עַל פִּי הַבְּעָלִים), וְטֻמְטוּם, וְאַנְדְּרוֹגִינוֹס, לֹא בַמִּקְדָּשׁ וְלֹא בַמְּדִינָה. רַבִּי יִשְׁמָעֵאל אוֹמֵר, אֵין מוּם גָּדוֹל מִזֶּה. וַחֲכָמִים אוֹמְרִים, אֵינוֹ בְכוֹר, אֶלָּא נִגְזָז וְנֶעֱבָד:

Chapter 7

מוּמִין אֵלּוּ, בֵּין קְבוּעִין בֵּין עוֹבְרִין, פּוֹסְלִין בָּאָדָם. יוֹתֵר עֲלֵיהֶן בָּאָדָם, הַכִּילוֹן, וְהַלַּפְתָּן, הַמַּקָּבָן, וְשֶׁרֹאשׁוֹ שָׁקוּעַ, וּשְׁקִיפָס. וּבַעֲלֵי הַחֲטוֹטֶרֶת, רַבִּי יְהוּדָה מַכְשִׁיר, וַחֲכָמִים פּוֹסְלִין:
הַקֵּרֵחַ, פָּסוּל. אֵיזֶהוּ קֵרֵחַ, כֹּל שֶׁאֵין לוֹ שִׁטָּה שֶׁל שֵׂעָר מַקֶּפֶת מֵאֹזֶן לְאֹזֶן. וְאִם יֵשׁ לוֹ, הֲרֵי זֶה כָּשֵׁר. אֵין לוֹ גְבִּינִים, אֵין לוֹ אֶלָּא גְבִין אֶחָד, הוּא גִבֵּן הָאָמוּר בַּתּוֹרָה. רַבִּי דוֹסָא אוֹמֵר, כֹּל שֶׁגְּבִּינָיו שׁוֹכְבִין. רַבִּי חֲנִינָא בֶן אַנְטִיגְנוֹס אוֹמֵר, כֹּל שֶׁיֵּשׁ לוֹ שְׁנֵי גַבִּים וּשְׁתֵּי שִׁדְרָאוֹת:
הֶחָרוּם, פָּסוּל. אֵיזֶהוּ חָרוּם, הַכּוֹחֵל שְׁתֵּי עֵינָיו כְּאֶחָת. שְׁתֵּי עֵינָיו לְמַעְלָה, וּשְׁתֵּי עֵינָיו לְמַטָּה, עֵינוֹ אַחַת לְמַעְלָה, וְעֵינוֹ אַחַת לְמַטָּה, רוֹאֶה אֶת הַחֶדֶר וְאֶת הָעֲלִיָּה כְּאֶחָת, סָכֵי שֶׁמֶשׁ, זוּגְדוֹס, וְהַצִּירָן. וְשֶׁנָּשְׁרוּ רִיסֵי עֵינָיו, פָּסוּל, מִפְּנֵי מַרְאִית הָעָיִן:
עֵינָיו גְּדוֹלוֹת כְּשֶׁל עֵגֶל, אוֹ קְטַנּוֹת כְּשֶׁל אַוָּז, גּוּפוֹ גָּדוֹל מֵאֵבָרָיו אוֹ קָטָן מֵאֵבָרָיו, חָטְמוֹ גָּדוֹל מֵאֵבָרָיו אוֹ קָטָן מֵאֵבָרָיו, הַצִּמֵּם, וְהַצִּמֵּעַ. אֵיזֶה הוּא צִמֵּעַ, שֶׁאָזְנָיו קְטַנּוֹת. וְהַצִּמֵּם, שֶׁאָזְנָיו דּוֹמוֹת לִסְפוֹג:
שְׂפָתוֹ הָעֶלְיוֹנָה עוֹדֶפֶת עַל הַתַּחְתּוֹנָה, וְהַתַּחְתּוֹנָה עוֹדֶפֶת עַל הָעֶלְיוֹנָה, הֲרֵי זֶה מוּם. וְשֶׁנִּטְּלוּ שִׁנָּיו, פָּסוּל, מִפְּנֵי מַרְאִית הָעָיִן. דַּדָּיו שׁוֹכְבִים כְּשֶׁל אִשָּׁה, כְּרֵסוֹ צָבָה, טַבּוּרוֹ יוֹצֵא, נִכְפֶּה אֲפִלּוּ אַחַת לְיָמִים, רוּחַ קַצְרִית בָּאָה עָלָיו, הַמְאֻשְׁכָּן, וּבַעַל גֶּבֶר. אֵין לוֹ בֵיצִים, אוֹ אֵין לוֹ אֶלָּא בֵיצָה אַחַת, זֶהוּ מְרוֹחַ אָשֶׁךְ הָאָמוּר בַּתּוֹרָה. רַבִּי יִשְׁמָעֵאל אוֹמֵר, כּל שֶׁנִּמְרְחוּ אֲשָׁכָיו. רַבִּי עֲקִיבָא אוֹמֵר, כּל שֶׁרוּחַ בַּאֲשָׁכָיו. רַבִּי חֲנִינָא בֶּן אַנְטִיגְנוֹס אוֹמֵר, כֹּל שֶׁמַּרְאָיו חֲשׁוּכִין:
הַמַּקִּישׁ בְּקַרְסֻלָּיו, וּבְאַרְכּוּבוֹתָיו, וּבַעַל פִּיקָה, וְהָעִקֵּל. אֵיזֶהוּ עִקֵּל, כֹּל שֶׁמַּקִּיף פַּרְסוֹתָיו וְאֵין אַרְכּוּבוֹתָיו נוֹשְׁקוֹת זוֹ לָזוֹ. פִּיקָה יוֹצְאָה מִגּוּדָלוֹ, עֲקֵבוֹ יוֹצֵא לַאֲחוֹרָיו, פַּרְסָתוֹ רְחָבָה כְּשֶׁל אַוָּז. אֶצְבְּעוֹתָיו מֻרְכָּבוֹת זוֹ עַל זוֹ, אוֹ קְלוּטוֹת (לְמַעְלָה) עַד הַפֶּרֶק, כָּשֵׁר. לְמַטָּה מִן הַפֶּרֶק וַחֲתָכָהּ, כָּשֵׁר. הָיְתָה בוֹ יְתֶרֶת וַחֲתָכָהּ, אִם יֵשׁ בָּהּ עֶצֶם, פָּסוּל. וְאִם לָאו, כָּשֵׁר. יָתֵר בְּיָדָיו וּבְרַגְלָיו שֵׁשׁ וָשֵׁשׁ עֶשְׂרִים וְאַרְבַּע, רַבִּי יְהוּדָה מַכְשִׁיר, וַחֲכָמִים פּוֹסְלִים. הַשּׁוֹלֵט בִּשְׁתֵּי יָדָיו, רַבִּי פּוֹסֵל, וַחֲכָמִים מַכְשִׁירִים. הַכּוּשִׁי, וְהַגִּיחוֹר, וְהַלַּבְקָן, וְהַקִּפֵּחַ, וְהַנַּנָּס, וְהַחֵרֵשׁ, וְהַשּׁוֹטֶה, וְהַשִּׁכּוֹר, וּבַעֲלֵי נְגָעִים טְהוֹרִין, פְּסוּלִין בָּאָדָם, וּכְשֵׁרִין בַּבְּהֵמָה. רַבָּן שִׁמְעוֹן בֶּן גַּמְלִיאֵל אוֹמֵר, שׁוֹטָה בַבְּהֵמָה אֵינָהּ מִן הַמֻּבְחָר, רַבִּי אֱלִיעֶזֶר אוֹמֵר, אַף בַּעֲלֵי דִלְדּוּלִין, פְּסוּלִין בָּאָדָם, וּכְשֵׁרִין בַּבְּהֵמָה:
אֵלּוּ כְּשֵׁרִין בָּאָדָם, וּפְסוּלִין בַּבְּהֵמָה, אוֹתוֹ וְאֶת בְּנוֹ, וּטְרֵפָה, וְיוֹצֵא דֹפֶן, (וְשֶׁנֶּעֶבְדָה בָהֶן עֲבֵרָה, וְשֶׁהֵמִית אֶת הָאָדָם). הַנּוֹשֵׂא נָשִׁים בַּעֲבֵרָה, פָּסוּל, עַד שֶׁיַּדִּיר הֲנָיָה. הַמִּטַּמֵּא לַמֵּתִים, פָּסוּל, עַד שֶׁיְּקַבֵּל עָלָיו שֶׁלֹּא יְהֵא מִטַּמֵּא לַמֵּתִים:

Chapter 8

יֵשׁ בְּכוֹר לַנַּחֲלָה וְאֵינוֹ בְכוֹר לַכֹּהֵן, בְּכוֹר לַכֹּהֵן וְאֵינוֹ בְכוֹר לַנַּחֲלָה, בְּכוֹר לַנַּחֲלָה וְלַכֹּהֵן, יֵשׁ שֶׁאֵינוֹ בְכוֹר לֹא לַנַּחֲלָה וְלֹא לַכֹּהֵן. אֵיזֶהוּ בְּכוֹר לַנַּחֲלָה וְאֵינוֹ בְכוֹר לַכֹּהֵן, הַבָּא אַחַר הַנְּפָלִים שֶׁיָּצָא רֹאשׁוֹ חַי, וּבֶן תִּשְׁעָה שֶׁיָּצָא רֹאשׁוֹ מֵת, וְהַמַּפֶּלֶת כְּמִין בְּהֵמָה חַיָּה וָעוֹף, דִּבְרֵי רַבִּי מֵאִיר. וַחֲכָמִים אוֹמְרִים, עַד שֶׁיְּהֵא בוֹ מִצּוּרַת הָאָדָם. הַמַּפֶּלֶת סַנְדָּל, אוֹ שִׁלְיָא, וּשְׁפִיר מְרֻקָּם, וְהַיּוֹצֵא מְחֻתָּךְ, הַבָּא אַחֲרֵיהֶן, בְּכוֹר לַנַּחֲלָה וְאֵינוֹ בְכוֹר לַכֹּהֵן. מִי שֶׁלֹּא הָיוּ לוֹ בָנִים וְנָשָׂא אִשָּׁה שֶׁכְּבָר יָלְדָה, עוֹדָהּ שִׁפְחָה וְנִשְׁתַּחְרְרָה, עוֹדָהּ נָכְרִית וְנִתְגַּיְּרָה, מִשֶּׁבָּאת לְיִשְׁרָאֵל יָלְדָה, בְּכוֹר לַנַּחֲלָה וְאֵינוֹ בְכוֹר לַכֹּהֵן. רַבִּי יוֹסֵי הַגְּלִילִי אוֹמֵר, בְּכוֹר לַנַּחֲלָה וְלַכֹּהֵן, שֶׁנֶּאֱמַר (שמות יג), פֶּטֶר כָּל רֶחֶם בִּבְנֵי יִשְׂרָאֵל, עַד שֶׁיִּפְטְרוּ רֶחֶם מִיִּשְׂרָאֵל. מִי שֶׁהָיוּ לוֹ בָנִים וְנָשָׂא אִשָּׁה שֶׁלֹא יָלְדָה, נִתְגַּיְּרָה מְעֻבֶּרֶת, נִשְׁתַּחְרְרָה מְעֻבֶּרֶת, יָלְדָה הִיא וְכֹהֶנֶת, הִיא וּלְוִיָּה, הִיא וְאִשָּׁה שֶׁכְּבָר יָלְדָה, וְכֵן מִי שֶׁלֹּא שָׁהֲתָה אַחַר בַּעְלָהּ שְׁלשָׁה חֳדָשִׁים וְנִשֵּׂאת וְיָלְדָה, וְאֵין יָדוּעַ אִם בֶּן תִּשְׁעָה לָרִאשׁוֹן, אוֹ בֶן שִׁבְעָה לָאַחֲרוֹן, בְּכוֹר לַכֹּהֵן וְאֵינוֹ בְכוֹר לַנַּחֲלָה. אֵיזֶהוּ בְּכוֹר לַנַּחֲלָה וְלַכֹּהֵן, הַמַּפֶּלֶת שְׁפִיר מָלֵא דָם, מָלֵא מַיִם, מָלֵא גְנִינִים, הַמַּפֶּלֶת כְּמִין דָּגִים וַחֲגָבִים שְׁקָצִים וּרְמָשִׂים, הַמַּפֶּלֶת יוֹם אַרְבָּעִים, הַבָּא אַחֲרֵיהֶן, בְּכוֹר לַנַּחֲלָה וְלַכֹּהֵן:
יוֹצֵא דֹפֶן וְהַבָּא אַחֲרָיו, שְׁנֵיהֶם אֵינָן בְּכוֹר לֹא לַנַּחֲלָה וְלֹא לַכֹּהֵן. רַבִּי שִׁמְעוֹן אוֹמֵר, הָרִאשׁוֹן לַנַּחֲלָה, וְהַשֵּׁנִי לְחָמֵשׁ סְלָעִים:
מִי שֶׁלֹּא בִכְּרָה אִשְׁתּוֹ וְיָלְדָה שְׁנֵי זְכָרִים, נוֹתֵן חָמֵשׁ סְלָעִים לַכֹּהֵן. מֵת אֶחָד מֵהֶן בְּתוֹךְ שְׁלשִׁים יוֹם, הָאָב פָּטוּר. מֵת הָאָב וְהַבָּנִים קַיָּמִים, רַבִּי מֵאִיר אוֹמֵר, אִם נָתְנוּ עַד שֶׁלֹּא חָלְקוּ, נָתָנוּ. וְאִם לָאו, פְּטוּרִין. רַבִּי יְהוּדָה אוֹמֵר נִתְחַיְּבוּ נְכָסִים. זָכָר וּנְקֵבָה, אֵין כָּאן לַכֹּהֵן כְּלוּם:
שְׁתֵּי נָשִׁים שֶׁלֹּא בִכְּרוּ וְיָלְדוּ שְׁנֵי זְכָרִים, נוֹתֵן עֶשֶׂר סְלָעִים לַכֹּהֵן. מֵת אֶחָד מֵהֶן בְּתוֹךְ שְׁלשִׁים יוֹם, אִם לְכֹהֵן אֶחָד נָתַן, יַחֲזִיר לוֹ חָמֵשׁ סְלָעִים. אִם לִשְׁנֵי כֹהֲנִים נָתַן, אֵינוֹ יָכוֹל לְהוֹצִיא מִיָּדָם. זָכָר וּנְקֵבָה אוֹ שְׁנֵי זְכָרִים וּנְקֵבָה, נוֹתֵן חָמֵשׁ סְלָעִים לַכֹּהֵן. שְׁתֵּי נְקֵבוֹת וְזָכָר אוֹ שְׁנֵי זְכָרִים וּשְׁתֵּי נְקֵבוֹת, אֵין כָּאן לַכֹּהֵן כְּלוּם. אַחַת בִּכְּרָה וְאַחַת שֶׁלֹּא בִכְּרָה וְיָלְדוּ שְׁנֵי זְכָרִים. נוֹתֵן חָמֵשׁ סְלָעִים לַכֹּהֵן. מֵת אֶחָד מֵהֶן בְּתוֹךְ שְׁלשִׁים יוֹם, הָאָב פָּטוּר. מֵת הָאָב וְהַבָּנִים קַיָּמִין, רַבִּי מֵאִיר אוֹמֵר, אִם נָתְנוּ עַד שֶׁלֹּא חָלְקוּ, נָתָנוּ. וְאִם לָאו, פְּטוּרִין. רַבִּי יְהוּדָה אוֹמֵר, נִתְחַיְּבוּ נְכָסִים. זָכָר וּנְקֵבָה, אֵין כָּאן לַכֹּהֵן כְּלוּם:
שְׁתֵּי נָשִׁים שֶׁל שְׁנֵי אֲנָשִׁים שֶׁלֹּא בִכְּרוּ וְיָלְדוּ שְׁנֵי זְכָרִים, זֶה נוֹתֵן חָמֵשׁ סְלָעִים לַכֹּהֵן, וְזֶה נוֹתֵן חָמֵשׁ סְלָעִים לַכֹּהֵן. מֵת אֶחָד מֵהֶן בְּתוֹךְ שְׁלשִׁים יוֹם, אִם לְכֹהֵן אֶחָד נָתְנוּ, יַחֲזִיר לָהֶן חָמֵשׁ סְלָעִים. אִם לִשְׁנֵי כֹהֲנִים נָתְנוּ, אֵינָן יְכוֹלִין לְהוֹצִיא מִיָּדָם. זָכָר וּנְקֵבָה, הָאָבוֹת פְּטוּרִין, וְהַבֵּן חַיָּב לִפְדּוֹת אֶת עַצְמוֹ. שְׁתֵּי נְקֵבוֹת וְזָכָר אוֹ שְׁנֵי זְכָרִים וּשְׁתֵּי נְקֵבוֹת, אֵין כָּאן לַכֹּהֵן כְּלוּם:
אַחַת בִּכְּרָה וְאַחַת שֶׁלֹּא בִכְּרָה שֶׁל שְׁנֵי אֲנָשִׁים, וְיָלְדוּ שְׁנֵי זְכָרִים, זֶה שֶׁלֹּא בִכְּרָה אִשְׁתּוֹ, נוֹתֵן חָמֵשׁ סְלָעִים לַכֹּהֵן. זָכָר וּנְקֵבָה, אֵין כָּאן לַכֹּהֵן כְּלוּם. מֵת הַבֵּן בְּתוֹךְ שְׁלשִׁים יוֹם, אַף עַל פִּי שֶׁנָּתַן לַכֹּהֵן, יַחֲזִיר (לוֹ חָמֵשׁ סְלָעִים). לְאַחַר שְׁלשִׁים יוֹם, אַף עַל פִּי שֶׁלֹּא נָתַן, יִתֵּן. מֵת בְּיוֹם שְׁלשִׁים, כְּיוֹם שֶׁלְּפָנָיו. רַבִּי עֲקִיבָא אוֹמֵר, אִם נָתַן, לֹא יִטּוֹל. וְאִם לֹא נָתַן, לֹא יִתֵּן. מֵת הָאָב בְּתוֹךְ שְׁלשִׁים יוֹם, בְּחֶזְקַת שֶׁלֹּא נִפְדָּה, עַד שֶׁיָּבִיא רְאָיָה שֶׁנִּפְדָּה. לְאַחַר שְׁלשִׁים יוֹם, בְּחֶזִקַת שֶׁנִּפְדָּה, עַד (שֶׁיָּבִיא רְאָיָה) שֶׁלֹּא נִפְדָּה. הוּא לִפָּדוֹת וּבְנוֹ לִפָּדוֹת, הוּא קוֹדֵם אֶת בְּנוֹ. רַבִּי יְהוּדָה אוֹמֵר, בְּנוֹ קוֹדְמוֹ, שֶׁמִּצְוָתוֹ עַל אָבִיו, וּמִצְוַת בְּנוֹ עָלָיו:
חָמֵשׁ סְלָעִים שֶׁל בֵּן, בְּמָנֶה צוֹרִי. שְׁלשִׁים שֶׁל עֶבֶד, וַחֲמִשִּׁים שֶׁל אוֹנֵס וְשֶׁל מְפַתֶּה, וּמֵאָה שֶׁל מוֹצִיא שֵׁם רָע, כֻּלָּם בְּשֶׁקֶל הַקֹּדֶשׁ, בְּמָנֶה צוֹרִי. וְכֻלָּן נִפְדִּין בְּכֶסֶף, וּבְשָׁוֶה כֶסֶף, חוּץ מִן הַשְּׁקָלִים:
אֵין פּוֹדִין לֹא בַעֲבָדִים, וְלֹא בִשְׁטָרוֹת, וְלֹא בְקַרְקָעוֹת, וְלֹא בְהֶקְדֵּשׁוֹת. כָּתַב לַכֹּהֵן שֶׁהוּא חַיָּב לוֹ חָמֵשׁ סְלָעִים, חַיָּב לִתֵּן לוֹ וּבְנוֹ אֵינוֹ פָדוּי, לְפִיכָךְ אִם רָצָה הַכֹּהֵן לִתֵּן לוֹ מַתָּנָה, רַשַּׁאי. הַמַּפְרִישׁ פִּדְיוֹן בְּנוֹ וְאָבַד, חַיָּב בְּאַחֲרָיוּתוֹ, שֶׁנֶּאֱמַר (במדבר יח), יִהְיֶה לָּךְ וּפָדֹה תִפְדֶּה:
הַבְּכוֹר נוֹטֵל פִּי שְׁנַיִם בְּנִכְסֵי הָאָב, וְאֵינוֹ נוֹטֵל פִּי שְׁנַיִם בְּנִכְסֵי הָאֵם. וְאֵינוֹ נוֹטֵל פִּי שְׁנַיִם בַּשֶּׁבַח, וְלֹא בָרָאוּי כְּבַמֻּחְזָק. וְלֹא הָאִשָּׁה בִּכְתֻבָּתָהּ, וְלֹא הַבָּנוֹת בִּמְזוֹנוֹתֵיהֶן, וְלֹא הַיָּבָם. וְכֻלָּן אֵין נוֹטְלִין בַּשֶּׁבַח, וְלֹא בָרָאוּי כְּבַמֻּחְזָק:
אֵלּוּ שֶׁאֵינָן חוֹזְרִין בַּיּוֹבֵל, הַבְּכוֹרָה, וְהַיּוֹרֵשׁ אֶת אִשְׁתּוֹ, וְהַמְיַבֵּם אֶת אֵשֶׁת אָחִיו, וְהַמַּתָּנָה, דִּבְרֵי רַבִּי מֵאִיר. וַחֲכָמִים אוֹמְרִים, מַתָּנָה כְּמֶכֶר. רַבִּי אֱלִיעֶזֶר אוֹמֵר, כֻּלָּן חוֹזְרִין בַּיּוֹבֵל. רַבִּי יוֹחָנָן בֶּן בְּרוֹקָא אוֹמֵר, הַיּוֹרֵשׁ אֶת אִשְׁתּוֹ, יַחֲזִיר לִבְנֵי מִשְׁפָּחָה וִינַכֶּה לָהֶם מִן הַדָּמִים:

Chapter 9

מַעְשַׂר בְּהֵמָה נוֹהֵג בָּאָרֶץ וּבְחוּצָה לָאָרֶץ, בִּפְנֵי הַבַּיִת וְשֶׁלֹּא בִּפְנֵי הַבַּיִת, בַּחֻלִּין אֲבָל לֹא בַמֻּקְדָּשִׁין. וְנוֹהֵג בַּבָּקָר וּבַצֹּאן, וְאֵינָן מִתְעַשְּׂרִים מִזֶּה עַל זֶה. בַּכְּבָשִׂים וּבָעִזִּים, וּמִתְעַשְּׂרִין מִזֶּה עַל זֶּה. בֶּחָדָשׁ, וּבַיָּשָׁן, וְאֵינָן מִתְעַשְּׂרִין מִזֶּה עַל זֶּה. שֶׁהָיָה בַּדִּין, מָה אִם הֶחָדָשׁ וְהַיָּשָׁן שֶׁאֵינָן כִּלְאַיִם זֶה בָזֶה, אֵין מִתְעַשְּׂרִין מִזֶּה עַל זֶה. הַכְּבָשִׂים וְהָעִזִּים שֶׁהֵם כִּלְאַיִם זֶה בָזֶה, אֵינוֹ דִין שֶׁלֹּא יִתְעַשְּׂרוּ מִזֶּה עַל זֶה, תַּלְמוּד לוֹמַר (ויקרא כז), וָצֹאן, מִשְׁמָע כָּל צֹאן, אֶחָד:
מַעְשַׂר בְּהֵמָה מִצְטָרֵף כִּמְלֹא רֶגֶל בְּהֵמָה רוֹעָה. וְכַמָּה הִיא רֶגֶל בְּהֵמָה רוֹעָה, שִׁשָּׁה עָשָׂר מִיל. הָיָה בֵּין אֵלּוּ לְאֵלּוּ שְׁלשִׁים וּשְׁנַיִם מִיל, אֵינָן מִצְטָרְפִין. הָיָה לוֹ בָאֶמְצָע, מֵבִיא וּמְעַשְּׂרָן בָּאֶמְצָע. רַבִּי מֵאִיר אוֹמֵר, הַיַּרְדֵּן מַפְסִיק לְמַעְשַׂר בְּהֵמָה:
הַלָּקוּחַ אוֹ שֶׁנִּתַּן לוֹ מַתָּנָה, פָּטוּר מִמַּעְשַׂר בְּהֵמָה. הָאַחִים הַשֻּׁתָּפִין שֶׁחַיָּבִין בַּקָּלְבּוֹן, פְּטוּרִין מִמַּעְשַׂר בְּהֵמָה. וְשֶׁחַיָּבִין בְּמַעְשַׂר בְּהֵמָה, פְּטוּרִין מִן הַקָּלְבּוֹן. קָנוּ מִתְּפוּסַת הַבַּיִת, חַיָּבִין. וְאִם לָאו, פְּטוּרִין. חָלְקוּ וְחָזְרוּ וְנִשְׁתַּתְּפוּ, חַיָּבִּין בַּקָּלְבּוֹן וּפְטוּרִין מִמַּעְשַׂר בְּהֵמָה:
הַכֹּל נִכְנָס לַדִּיר לְהִתְעַשֵּׂר, חוּץ מִן הַכִּלְאַיִם, וְהַטְּרֵפָה, וְיוֹצֵא דֹפֶן, וּמְחֻסַּר זְמָן, וְיָתוֹם. אֵיזֶהוּ יָתוֹם, כּל שֶׁמֵּתָה אִמּוֹ אוֹ שֶׁנִּשְׁחָטָה. רַבִּי יְהוֹשֻׁעַ אוֹמֵר, אֲפִלּוּ נִשְׁחֲטָה אִמּוֹ וְהַשֶּׁלַח קַיָּם, אֵין זֶה יָתוֹם:
שָׁלשׁ גְּרָנוֹת לְמַעְשַׂר בְּהֵמָה, בִּפְרוֹס הַפֶּסַח, בִּפְרוֹס הָעֲצֶרֶת, בִּפְרוֹס הֶחָג, דִּבְרֵי רַבִּי עֲקִיבָא. בֶּן עַזַּאי אוֹמֵר, בְּעֶשְׂרִים וְתִשְׁעָה בַּאֲדָר, בְּאֶחָד בְּסִיוָן, בְּעֶשְׂרִים וְתִשְׁעָה בְאָב. רַבִּי אֱלִיעֶזֶר וְרַבִּי שִׁמְעוֹן אוֹמְרִים, בְּאֶחָד בְּנִיסָן, בְּאֶחָד בְּסִיוָן, בְּעֶשְׂרִים וְתִשְׁעָה בֶאֱלוּל. וְלָמָּה אָמְרוּ בְּעֶשְׂרִים וְתִשְׁעָה בֶאֱלוּל וְלֹא אָמְרוּ בְּאֶחָד בְּתִשְׁרֵי, מִפְּנֵי שֶׁהוּא יוֹם טוֹב, וְאִי אֶפְשָׁר לְעַשֵּׂר בְּיוֹם טוֹב, לְפִיכָךְ הִקְדִּימוּהוּ בְּעֶשְׂרִים וְתִשְׁעָה בֶאֱלוּל. רַבִּי מֵאִיר אוֹמֵר, בְּאֶחָד בֶּאֱלוּל רֹאשׁ הַשָּׁנָה לְמַעְשַׂר בְּהֵמָה. בֶּן עַזַּאי אוֹמֵר, הָאֱלוּלִיִּין מִתְעַשְּׂרִין בִּפְנֵי עַצְמָן:
כָּל הַנּוֹלָדִים מֵאֶחָד בְּתִשְׁרֵי עַד עֶשְׂרִים וְתִשְׁעָה בֶּאֱלוּל, הֲרֵי אֵלּוּ מִצְטָרְפִין. חֲמִשָּׁה לִפְנֵי רֹאשׁ הַשָּׁנָה וַחֲמִשָּׁה לְאַחַר רֹאשׁ הַשָּׁנָה, אֵינָן מִצְטָרְפִין. חֲמִשָּׁה לִפְנֵי הַגֹּרֶן וַחֲמִשָּׁה לְאַחַר הַגֹּרֶן, הֲרֵי אֵלּוּ מִצְטָרְפִין. אִם כֵּן לָמָּה נֶאֱמַר שָׁלשׁ גְּרָנוֹת לְמַעְשַׂר בְּהֵמָה, שֶׁעַד שֶׁלֹּא הִגִּיעַ הַגֹּרֶן, מֻתָּר לִמְכּוֹר וְלִשְׁחוֹט. הִגִּיעַ הַגֹּרֶן, לֹא יִשְׁחוֹט. וְאִם שָׁחַט, פָּטוּר:
כֵּיצַד מְעַשְּׂרָן, כּוֹנְסָן לַדִּיר וְעוֹשֶׂה לָהֶן פֶּתַח קָטָן כְּדֵי שֶׁלֹּא יִהְיוּ שְׁנַיִם יְכוֹלִין לָצֵאת כְּאַחַת, וּמוֹנֶה בַשֵּׁבֶט, אֶחָד, שְׁנַיִם, שְׁלשָׁה, אַרְבָּעָה, חֲמִשָּׁה, שִׁשָּׁה, שִׁבְעָה, שְׁמוֹנָה, תִּשְׁעָה, וְהַיוֹצֵא עֲשִׂירִי סוֹקְרוֹ בְסִקְרָא וְאוֹמֵר הֲרֵי זֶה מַעֲשֵׂר. לֹא סְקָרוֹ בְסִקְרָא וְלֹא מְנָאָם בַּשֵּׁבֶט, אוֹ שֶׁמְּנָאָם רְבוּצִים, אוֹ עוֹמְדִים, הֲרֵי אֵלּוּ מְעֻשָּׂרִים, הָיָה לוֹ מֵאָה וְנָטַל עֲשָׂרָה, עֲשָׂרָה וְנָטַל אֶחָד, אֵין זֶה מַעֲשֵׂר. רַבִּי יוֹסֵי בְּרַבִּי יְהוּדָה אוֹמֵר, הֲרֵי זֶה מַעֲשֵׂר, קָפַץ (אֶחָד) מִן הַמְּנוּיִין לְתוֹכָן, הֲרֵי אֵלּוּ פְטוּרִין. מִן הַמְעֻשָּׂרִים לְתוֹכָן, כֻּלָּן יִרְעוּ עַד שֶׁיִּסְתָּאֲבוּ, וְיֵאָכְלוּ בְמוּמָן לַבְּעָלִים:
יָצְאוּ שְׁנַיִם כְּאֶחָד, מוֹנֶה אוֹתָן שְׁנַיִם שְׁנָיִם. מְנָאָן אֶחָד, תְּשִׁיעִי וַעֲשִׂירִי מְקֻלְקָלִין. יָצְאוּ תְּשִׁיעִי וַעֲשִׂירִי כְּאַחַת, תְּשִׁיעִי וַעֲשִׂירִי מְקֻלְקָלִין. קָרָא לַתְּשִׁיעִי עֲשִׂירִי וְלָעֲשִׂירִי תְּשִׁיעִי וּלְאַחַד עָשָׂר עֲשִׂירִי, שְׁלָשְׁתָּן מְקֻדָּשִׁין. הַתְּשִׁיעִי נֶאֱכָל בְּמוּמוֹ, וְהָעֲשִׂירִי מַעֲשֵׂר, וְאַחַד עָשָׂר קָרֵב שְׁלָמִים וְעוֹשֶׂה תְמוּרָה, דִּבְרֵי רַבִּי מֵאִיר. אָמַר רַבִּי יְהוּדָה, וְכִי יֵשׁ תְּמוּרָה עוֹשָׂה תְמוּרָה. אָמְרוּ מִשּׁוּם רַבִּי מֵאִיר, אִלּוּ הָיָה תְמוּרָה, לֹא הָיָה קָרֵב. קָרָא לַתְּשִׁיעִי עֲשִׂירִי וְלָעֲשִׂירִי עֲשִׂירִי וּלְאַחַד עָשָׂר עֲשִׂירִי, אֵין אַחַד עָשָׂר מְקֻדָּשׁ. זֶה הַכְּלָל, כֹּל שֶׁלֹּא נֶעֱקַר שֵׁם עֲשִׂירִי מִמֶּנּוּ, אֵין אַחַד עָשָׂר מְקֻדָּשׁ: