Mishnah Kinnim
משנה קינים
Torat Emet 357
תורת אמת - Torat Emet 357 - http://www.toratemetfreeware.com/index.html?downloads

משנה קינים



Chapter 1

חַטַּאת הָעוֹף נַעֲשֵׂית לְמַטָּה, וְחַטַּאת בְּהֵמָה לְמַעְלָה. עוֹלַת הָעוֹף נַעֲשֵׂית לְמַעְלָה, וְעוֹלַת הַבְּהֵמָה לְמַטָּה. אִם שִׁנָּה בָּזֶה וּבָזֶה, פָּסוּל. סֵדֶר קִנִּים כָּךְ הוּא. הַחוֹבָה, אֶחָד חַטָּאת וְאֶחָד עוֹלָה. בִּנְדָרִים וּנְדָבוֹת, כֻּלָּן עוֹלוֹת. אֵיזֶהוּ נֶדֶר, הָאוֹמֵר הֲרֵי עָלַי עוֹלָה. וְאֵיזוֹ הִיא נְדָבָה, הָאוֹמֵר הֲרֵי זוֹ עוֹלָה. מַה בֵּין נְדָרִים לִנְדָבוֹת. אֶלָּא שֶׁהַנְּדָרִים, מֵתוּ אוֹ נִגְנְבוּ, חַיָּבִים בְּאַחֲרָיוּתָם. וּנְדָבוֹת, מֵתוּ אוֹ נִגְנְבוּ, אֵין חַיָּבִים בְּאַחֲרָיוּתָן:
חַטָּאת שֶׁנִּתְעָרְבָה בְעוֹלָה וְעוֹלָה בְחַטָּאת, אֲפִלּוּ אֶחָד בְּרִבּוֹא, יָמוּתוּ כֻלָּם. חַטָּאת שֶׁנִּתְעָרְבָה בְחוֹבָה, אֵין כָּשֵׁר אֶלָּא כְמִנְיַן חַטָּאוֹת שֶׁבַּחוֹבָה. וְכֵן עוֹלָה שֶׁנִּתְעָרְבָה בְחוֹבָה, אֵין כָּשֵׁר אֶלָּא כְמִנְיַן עוֹלוֹת שֶׁבַּחוֹבָה, בֵּין שֶׁהַחוֹבָה מְרֻבָּה וְהַנְּדָבָה מְמֻעֶטֶת, בֵּין שֶׁהַנְּדָבָה מְרֻבָּה וְהַחוֹבָה מְמֻעֶטֶת, בֵּין שֶׁשְּׁתֵּיהֶן שָׁווֹת:
בַּמֶּה דְבָרִים אֲמוּרִים, בְּחוֹבָה וּבִנְדָבָה. אֲבָל בְּחוֹבָה שֶׁנִּתְעָרְבָה זוֹ בָזוֹ, אַחַת לָזוֹ וְאַחַת לָזוֹ, שְׁתַּיִם לָזוֹ וּשְׁתַּיִם לָזוֹ, שָׁלשׁ לָזוֹ וְשָׁלשׁ לָזוֹ, מֶחֱצָה כָּשֵׁר וּמֶחֱצָה פָּסוּל. אַחַת לָזוֹ וּשְׁתַּיִם לָזוֹ, וְשָׁלשׁ לָזוֹ, וְעֶשֶׂר לָזוֹ, וּמֵאָה לָזוֹ, הַמֻּעָט כָּשֵׁר, בֵּין מִשֵּׁם אֶחָד, בֵּין מִשְּׁנֵי שֵׁמוֹת, בֵּין מֵאִשָּׁה אַחַת, בֵּין מִשְּׁתֵּי נָשִׁים:
כֵּיצַד מִשֵּׁם אֶחָד, לֵידָה וְלֵידָה, זִיבָה וְזִיבָה, מִשֵּׁם אֶחָד. מִשְּׁנֵי שֵׁמוֹת, לֵידָה וְזִיבָה. כֵּיצַד שְׁתֵּי נָשִׁים, עַל זוֹ לֵידָה וְעַל זוֹ לֵידָה, עַל זוֹ זִיבָה וְעַל זוֹ זִיבָה, מִשֵּׁם אֶחָד. מִשְּׁנֵי שֵׁמוֹת, עַל זוֹ לֵידָה וְעַל זוֹ זִיבָה. רַבִּי יוֹסֵי אוֹמֵר, שְׁתֵּי נָשִׁים שֶׁלָּקְחוּ קִנֵּיהֶן בְּעֵרוּב, אוֹ שֶׁנָּתְנוּ דְמֵי קִנֵּיהֶן לַכֹּהֵן, לְאֵיזוֹ שֶׁיִּרְצֶה כֹהֵן יַקְרִיב חַטָּאת, וּלְאֵיזוֹ שֶׁיִּרְצֶה כֹהֵן יַקְרִיב עוֹלָה, בֵּין מִשֵּׁם אֶחָד, בֵּין מִשְּׁנֵי שֵׁמוֹת:

Chapter 2

קֵן סְתוּמָה שֶׁפָּרַח מִמֶּנָּה גוֹזָל לָאֲוִיר, אוֹ שֶׁפָּרַח בֵּין הַמֵּתוֹת, אוֹ שֶׁמֵּת אַחַד מֵהֶן, יִקַּח זוּג לַשֵּׁנִי. פָּרַח לְבֵין הַקְּרֵבוֹת, פָּסוּל וּפוֹסֵל אֶחָד כְּנֶגְדּוֹ, שֶׁהַגּוֹזָל הַפּוֹרֵחַ, פָּסוּל וּפוֹסֵל אֶחָד כְּנֶגְדּוֹ:
כֵּיצַד. שְׁתֵּי נָשִׁים, לָזוֹ שְׁתֵּי קִנִּים וְלָזוֹ שְׁתֵּי קִנִּים, פָּרַח מִזּוֹ לָזוֹ, פּוֹסֵל אֶחָד בַּהֲלִיכָתוֹ. חָזַר, פּוֹסֵל אֶחָד בַּחֲזִירָתוֹ. פָּרַח וְחָזַר, פָּרַח וְחָזַר, לֹא הִפְסִיד כְּלוּם, שֶׁאֲפִלּוּ הֵן מְעֹרָבוֹת, אֵין פָּחוֹת מִשְּׁתָּיִם:
לָזוֹ אַחַת, לָזוֹ שְׁתַּיִם, לָזוֹ שָׁלשׁ, לָזוֹ אַרְבַּע, לָזוֹ חָמֵשׁ, לָזוֹ שֵׁשׁ, לָזוֹ שֶׁבַע. פָּרַח מִן הָרִאשׁוֹנָה לַשְּׁנִיָּה, לַשְּׁלִישִׁית, לָרְבִיעִית, לַחֲמִישִׁית, לַשִּׁשִּׁית, לַשְּׁבִיעִית, חָזַר, פּוֹסֵל אֶחָד בַּהֲלִיכָתוֹ וְאֶחָד בַּחֲזִירָתוֹ. הָרִאשׁוֹנָה וְהַשְּׁנִיָּה אֵין לָהֶם כְּלוּם, הַשְּׁלִישִׁית יֶשׁ לָהּ אַחַת, הָרְבִיעִית יֶשׁ לָהּ שְׁתַּיִם, הַחֲמִישִׁית יֶשׁ לָהּ שָׁלשׁ, הַשִּׁשִּׁית יֶשׁ לָהּ אַרְבַּע, הַשְּׁבִיעִית יֶשׁ לָהּ שֵׁשׁ. פָּרַח וְחָזַר, פּוֹסֵל אֶחָד בַּהֲלִיכָתוֹ וְאֶחָד בַּחֲזִירָתוֹ. הַשְּׁלִישִׁית וְהָרְבִיעִית אֵין לָהֶם כְּלוּם, הַחֲמִישִׁית יֶשׁ לָהּ אַחַת, הַשִּׁשִּׁית יֶשׁ לָהּ שְׁתַּיִם, הַשְּׁבִיעִית יֶשׁ לָהּ חָמֵשׁ. פָּרַח וְחָזַר, פּוֹסֵל אֶחָד בַּהֲלִיכָתוֹ וְאֶחָד בַּחֲזִירָתוֹ, הַחֲמִישִׁית וְהַשִּׁשִּׁית אֵין לָהֶם כְּלוּם, הַשְּׁבִיעִית יֶשׁ לָהּ אַרְבַּע. וְיֵשׁ אוֹמְרִים, הַשְּׁבִיעִית לֹא הִפְסִידָה כְלוּם. וְאִם פָּרַח מִבֵּין הַמֵּתוֹת לְכֻלָּם, הֲרֵי כֻלָּם יָמוּתוּ:
קֵן סְתוּמָה וְקֵן מְפֹרֶשֶׁת, פָּרַח מִן הַסְּתוּמָה לַמְפֹרֶשֶׁת, יִקַּח זוּג לַשֵּׁנִי. חָזַר, אוֹ שֶׁפָּרַח מִן הַמְפֹרֶשֶׁת רִאשׁוֹן, הֲרֵי כֻלָּן יָמוּתוּ:
חַטָּאת מִיכָּן וְעוֹלָה מִיכָּן וּסְתוּמָה בָאֶמְצַע, פָּרַח מִן הָאֶמְצַע לַצְּדָדִין, אֶחָד הֵלָךְ וְאֶחָד הֵלָךְ, לֹא הִפְסִיד כְּלוּם, אֶלָּא יֹאמַר, זֶה שֶׁהָלַךְ אֵצֶל חַטָּאוֹת, חַטָּאת. וְזֶה שֶׁהָלַךְ אֵצֶל עוֹלוֹת, עוֹלָה. חָזַר לָאֶמְצַע, הָאֶמְצָעִיִּים יָמוּתוּ, אֵלּוּ יִקְרְבוּ חַטָּאוֹת, וְאֵלּוּ יִקְרְבוּ עוֹלוֹת. חָזַר אוֹ שֶׁפָּרַח מִן הָאֶמְצַע לַצְּדָדִין, הֲרֵי כֻלָּן יָמוּתוּ. אֵין מְבִיאִין תּוֹרִין כְּנֶגֶד בְּנֵי יוֹנָה, וְלֹא בְנֵי יוֹנָה כְּנֶגֶד תּוֹרִין. כֵּיצַד. הָאִשָּׁה שֶׁהֵבִיאָה חַטָּאתָהּ תּוֹר, וְעוֹלָתָהּ בֶּן יוֹנָה, תִּכְפֹּל וְתָבִיא עוֹלָתָהּ תּוֹר. עוֹלָתָהּ תּוֹר, וְחַטָּאתָהּ בֶּן יוֹנָה, תִּכְפֹּל וְתָבִיא עוֹלָתָהּ בֶּן יוֹנָה. בֶּן עַזַּאי אוֹמֵר, הוֹלְכִין אַחַר הָרִאשׁוֹן. הָאִשָּׁה שֶׁהֵבִיאָה חַטָּאתָהּ וּמֵתָה, יָבִיאוּ הַיּוֹרְשִׁין עוֹלָתָהּ. עוֹלָתָהּ וּמֵתָה, לֹא יָבִיאוּ הַיּוֹרְשִׁין חַטָּאתָהּ:

Chapter 3

בַּמֶּה דְבָרִים אֲמוּרִים, בְּכֹהֵן נִמְלָךְ. אֲבָל בְּכֹהֵן שֶׁאֵינוֹ נִמְלָךְ, אַחַת לָזוֹ וְאַחַת לָזוֹ, שְׁתַּיִם לָזוֹ וּשְׁתַּיִם לָזוֹ, שָׁלשׁ לָזוֹ וְשָׁלשׁ לָזוֹ, עָשָׂה כֻלָּן לְמַעְלָה, מֶחֱצָה כָשֵׁר וּמֶחֱצָה פָסוּל. כֻּלָּן לְמַטָּן, מֶחֱצָה כָשֵׁר וּמֶחֱצָה פָסוּל. חֶצְיָם לְמַעְלָה וְחֶצְיָם לְמַטָּה, אֶת שֶׁלְּמַעְלָה, מֶחֱצָה כָשֵׁר וּמֶחֱצָה פָסוּל, וְאֶת שֶׁלְּמַטָּה, מֶחֱצָה כָשֵׁר וּמֶחֱצָה פָסוּל:
אַחַת לָזוֹ, וּשְׁתַּיִם לָזוֹ, וְשָׁלשׁ לָזוֹ, וְעֶשֶׂר לָזוֹ, וּמֵאָה לָזוֹ, עָשָׂה כֻלָּן לְמַעְלָה, מֶחֱצָה כָשֵׁר וּמֶחֱצָה פָסוּל. כֻּלָּן לְמַטָּן, מֶחֱצָה כָשֵׁר וּמֶחֱצָה פָסוּל. חֶצְיָן לְמַעְלָן וְחֶצְיָן לְמַטָּן, הַמְרֻבֶּה כָשֵׁר. זֶה הַכְּלָל, כָּל מָקוֹם שֶׁאַתָּה יָכוֹל לַחֲלֹק אֶת הַקִּנִּין וְלֹא יְהוּ מִשֶּׁל אִשָּׁה אַחַת, בֵּין מִלְמַעְלָן בֵּין מִלְּמַטָּן, מֶחֱצָה כָשֵׁר וּמֶחֱצָה פָסוּל. כָּל מָקוֹם שֶׁאֵין אַתָּה יָכוֹל לַחֲלֹק אֶת הַקִּנִּין עַד שֶׁיְּהוּ מִשֶּׁל אִשָּׁה אַחַת, בֵּין מִלְמַעְלָן בֵּין מִלְּמַטָּן, הַמְרֻבֶּה כָשֵׁר:
חַטָּאת לָזוֹ, וְעוֹלָה לָזוֹ, עָשָׂה כֻלָּן לְמַעְלָן, מֶחֱצָה כָשֵׁר וּמֶחֱצָה פָסוּל. כֻּלָּן לְמַטָּן, מֱחֱצָה כָשֵׁר וּמֶחֱצָה פָסוּל. חֶצְיָן לְמַעְלָן וְחֶצְיָן לְמַטָּן, שְׁתֵּיהֶן פָּסוּל, שֶׁאֲנִי אוֹמֵר, חַטָּאת קְרֵבָה לְמַעְלָן וְעוֹלָה לְמַטָּן:
חַטָּאת וְעוֹלָה וּסְתוּמָה וּמְפֹרֶשֶׁת, עָשָׂה כֻלָּן לְמַעְלָן, מֶחֱצָה כָשֵׁר וּמֶחֱצָה פָסוּל. כֻּלָּן לְמַטָּה, מֶחֱצָה כָשֵׁר וּמֶחֱצָה פָסוּל. חֶצְיָן לְמַעְלָן וְחֶצְיָן לְמַטָּן, אֵין כָּשֵׁר אֶלָּא סְתוּמָה, וְהִיא מִתְחַלֶּקֶת בֵּינֵיהֶן:
חַטָּאת שֶׁנִּתְעָרְבָה בְחוֹבָה, אֵין כָּשֵׁר אֶלָּא מִנְיַן חַטָּאת שֶׁבַּחוֹבָה. חוֹבָה שְׁנַיִם בְּחַטָּאת, מֶחֱצָה כָשֵׁר וּמֶחֱצָה פָסוּל. וְחַטָּאת שְׁנַיִם בְּחוֹבָה, הַמִּנְיָן שֶׁבַּחוֹבָה כָּשֵׁר. וְכֵן עוֹלָה שֶׁנִּתְעָרְבָה בְחוֹבָה, אֵין כָּשֵׁר אֶלָּא מִנְיַן עוֹלוֹת שֶׁבַּחוֹבָה. חוֹבָה שְׁנַיִם בְּעוֹלָה, מֶחֱצָה כָשֵׁר וּמֶחֱצָה פָסוּל. עוֹלָה שְׁנַיִם בְּחוֹבָה, הַמִּנְיָן שֶׁבַּחוֹבָה כָּשֵׁר:
הָאִשָּׁה שֶׁאָמְרָה, הֲרֵי עָלַי קֵן כְּשֶׁאֵלֵד זָכָר, יָלְדָה זָכָר, מְבִיאָה שְׁתֵּי קִנִּים, אַחַת לְנִדְרָהּ וְאַחַת לְחוֹבָתָהּ. נְתָנָתַם לַכֹּהֵן, וְהַכֹּהֵן צָרִיךְ לַעֲשׂוֹת שָׁלשׁ פְּרִידִים מִלְמַעְלָן וְאַחַת מִלְּמַטָּן. לֹא עָשָׂה כֵן, אֶלָּא עָשָׂה שְׁתַּיִם לְמַעְלָן וּשְׁתַּיִם לְמַטָּן וְלֹא נִמְלַךְ, צְרִיכָה לְהָבִיא עוֹד פְּרִידָה אַחַת, וְיַקְרִיבֶנָּה לְמַעְלָן, מִמִּין אֶחָד. מִשְּׁנֵי מִינִין, תָּבִיא שְׁתַּיִם. פֵּרְשָׁה נִדְרָהּ, צְרִיכָה לְהָבִיא עוֹד שָׁלשׁ פְּרִידִים, מִמִּין אֶחָד. מִשְּׁנֵי מִינִין, תָּבִיא אַרְבַּע. קָבְעָה נִדְרָהּ, צְרִיכָה לְהָבִיא עוֹד חָמֵשׁ פְּרִידִים, מִמִּין אֶחָד. מִשְּׁנֵי מִינִין, תָּבִיא שֵׁשׁ. נְתָנָתַם לַכֹּהֵן וְאֵין יָדוּעַ מַה נָּתְנָה, הָלַךְ הַכֹּהֵן וְעָשָׂה וְאֵין יָדוּעַ מֶה עָשָׂה, צְרִיכָה לְהָבִיא עוֹד אַרְבַּע פְּרִידִים לְנִדְרָהּ, וּשְׁתַּיִם לְחוֹבָתָהּ, וְחַטָּאת אֶחָת. בֶּן עַזַּאי אוֹמֵר, שְׁתֵּי חַטָּאוֹת. אָמַר רַבִּי יְהוֹשֻׁעַ, זֶה הוּא שֶׁאָמְרוּ, כְּשֶׁהוּא חַי קוֹלוֹ אֶחָד, וּכְשֶׁהוּא מֵת קוֹלוֹ שִׁבְעָה. כֵּיצַד קוֹלוֹ שִׁבְעָה. שְׁתֵּי קַרְנָיו, שְׁתֵּי חֲצוֹצְרוֹת. שְׁתֵּי שׁוֹקָיו, שְׁנֵי חֲלִילִין. עוֹרוֹ, לְתֹף. מֵעָיו, לִנְבָלִים. בְּנֵי מֵעָיו, לְכִנּוֹרוֹת. וְיֵשׁ אוֹמְרִים, אַף צַמְרוֹ לִתְכֵלֶת. רַבִּי שִׁמְעוֹן בֶּן עֲקַשְׁיָא אוֹמֵר, זִקְנֵי עַם הָאָרֶץ, כָּל זְמַן שֶׁמַּזְקִינִין, דַּעְתָּן מִטָּרֶפֶת עֲלֵיהֶן, שֶׁנֶּאֱמַר (איוב יב), מֵסִיר שָׂפָה לְנֶאֱמָנִים וְטַעַם זְקֵנִים יִקָּח. אֲבָל זִקְנֵי תוֹרָה אֵינָן כֵן, אֶלָּא כָל זְמַן שֶׁמַּזְקִינִין, דַּעְתָּן מִתְיַשֶּׁבֶת עֲלֵיהֶן, שֶׁנֶּאֱמַר (שם), בִּישִׁישִׁים חָכְמָה וְאֹרֶךְ יָמִים תְּבוּנָה: