Mishnah Megillah
משנה מגילה
Torat Emet 357
תורת אמת - Torat Emet 357 - http://www.toratemetfreeware.com/index.html?downloads

משנה מגילה



Chapter 1

מְגִלָּה נִקְרֵאת בְּאַחַד עָשָׂר, בִּשְׁנֵים עָשָׂר, בִּשְׁלֹשָׁה עָשָׂר, בְּאַרְבָּעָה עָשָׂר, בַּחֲמִשָּׁה עָשָׂר, לֹא פָחוֹת וְלֹא יוֹתֵר. כְּרַכִּין הַמֻּקָּפִין חוֹמָה מִימוֹת יְהוֹשֻׁעַ בִּן נוּן, קוֹרִין בַּחֲמִשָּׁה עָשָׂר. כְּפָרִים וַעֲיָרוֹת גְּדוֹלוֹת, קוֹרִין בְּאַרְבָּעָה עָשָׂר, אֶלָּא שֶׁהַכְּפָרִים מַקְדִּימִין לְיוֹם הַכְּנִיסָה:
כֵּיצַד. חָל לִהְיוֹת יוֹם אַרְבָּעָה עָשָׂר בַּשֵּׁנִי, כְּפָרִים וַעֲיָרוֹת גְּדוֹלוֹת קוֹרִין בּוֹ בַיּוֹם, וּמֻקָּפוֹת חוֹמָה לְמָחָר. חָל לִהְיוֹת בַּשְּׁלִישִׁי אוֹ בָּרְבִיעִי, כְּפָרִים מַקְדִּימִין לְיוֹם הַכְּנִיסָה וַעֲיָרוֹת גְּדוֹלוֹת קוֹרִין בּוֹ בַיּוֹם, וּמֻקָּפוֹת חוֹמָה לְמָחָר. חָל לִהְיוֹת בָּחֲמִישִׁי, כְּפָרִים וַעֲיָרוֹת גְּדוֹלוֹת קוֹרִין בּוֹ בַיּוֹם, וּמֻקָּפוֹת חוֹמָה לְמָחָר. חָל לִהְיוֹת עֶרֶב שַׁבָּת, כְּפָרִים מַקְדִּימִין לְיוֹם הַכְּנִיסָה, וַעֲיָרוֹת גְּדוֹלוֹת וּמֻקָּפוֹת חוֹמָה קוֹרִין בּוֹ בַיּוֹם. חָל לִהְיוֹת בְּשַׁבָּת, כְּפָרִים וַעֲיָרוֹת גְּדוֹלוֹת מַקְדִּימִין וְקוֹרִין לְיוֹם הַכְּנִיסָה, וּמֻקָּפוֹת חוֹמָה לְמָחָר. חָל לִהְיוֹת אַחַר הַשַּׁבָּת, כְּפָרִים מַקְדִּימִין לְיוֹם הַכְּנִיסָה, וַעֲיָרוֹת גְּדוֹלוֹת קוֹרִין בּוֹ בַיּוֹם, וּמֻקָּפוֹת חוֹמָה לְמָחָר:
אֵיזוֹ הִיא עִיר גְּדוֹלָה, כֹּל שֶׁיֵּשׁ בָּהּ עֲשָׂרָה בַטְלָנִים. פָּחוֹת מִכָּאן, הֲרֵי זֶה כְפָר. בָּאֵלּוּ אָמְרוּ מַקְדִּימִין וְלֹא מְאַחֲרִין. אֲבָל זְמַן עֲצֵי כֹהֲנִים וְתִשְׁעָה בְאָב, חֲגִיגָה וְהַקְהֵל, מְאַחֲרִין וְלֹא מַקְדִּימִין. אַף עַל פִּי שֶׁאָמְרוּ מַקְדִּימִין וְלֹא מְאַחֲרִין, מֻתָּרִין בְּהֶסְפֵּד וּבְתַעֲנִיּוֹת וּמַתָּנוֹת לָאֶבְיוֹנִים. אָמַר רַבִּי יְהוּדָה, אֵימָתַי, מְקוֹם שֶׁנִּכְנָסִין בְּשֵׁנִי וּבַחֲמִישִׁי. אֲבָל מְקוֹם שֶׁאֵין נִכְנָסִין לֹא בְּשֵׁנִי וְלֹא בַחֲמִישִׁי, אֵין קוֹרִין אוֹתָהּ אֶלָּא בִזְמַנָּהּ:
קָרְאוּ אֶת הַמְּגִלָּה בַּאֲדָר הָרִאשׁוֹן וְנִתְעַבְּרָה הַשָּׁנָה, קוֹרִין אוֹתָהּ בַּאֲדָר הַשֵּׁנִי, אֵין בֵּין אֲדָר הָרִאשׁוֹן לַאֲדָר הַשֵּׁנִי אֶלָּא קְרִיאַת הַמְּגִלָּה וּמַתָּנוֹת לָאֶבְיוֹנִים:
אֵין בֵּין יוֹם טוֹב לְשַׁבָּת אֶלָּא אֹכֶל נֶפֶשׁ בִּלְבָד. אֵין בֵּין שַׁבָּת לְיוֹם הַכִּפּוּרִים אֶלָּא שֶׁזֶּה זְדוֹנוֹ בִּידֵי אָדָם וְזֶה זְדוֹנוֹ בְּכָרֵת:
אֵין בֵּין הַמֻּדָּר הֲנָאָה מֵחֲבֵרוֹ לַמֻּדָּר מִמֶּנּוּ מַאֲכָל אֶלָּא דְּרִיסַת הָרֶגֶל וְכֵלִים שֶׁאֵין עוֹשִׂין בָּהֶן אֹכֶל נֶפֶשׁ. אֵין בֵּין נְדָרִים לִנְדָבוֹת אֶלָּא שֶׁהַנְּדָרִים חַיָּב בְּאַחֲרָיוּתָן, וּנְדָבוֹת אֵינוֹ חַיָּב בְּאַחֲרָיוּתָן:
אֵין בֵּין זָב הָרוֹאֶה שְׁתֵּי רְאִיּוֹת לְרוֹאֶה שָׁלֹשׁ אֶלָּא קָרְבָּן. אֵין בֵּין מְצֹרָע מֻסְגָּר לִמְצֹרָע מֻחְלָט אֶלָּא פְרִיעָה וּפְרִימָה. אֵין בֵּין טָהוֹר מִתּוֹךְ הֶסְגֵּר לְטָהוֹר מִתּוֹךְ הֶחְלֵט אֶלָּא תִגְלַחַת וְצִפֳּרִים:
אֵין בֵּין סְפָרִים לִתְפִלִּין וּמְזוּזוֹת אֶלָּא שֶׁהַסְּפָרִים נִכְתָּבִין בְּכָל לָשׁוֹן, וּתְפִלִּין וּמְזוּזוֹת אֵינָן נִכְתָּבוֹת אֶלָּא אַשּׁוּרִית. רַבָּן שִׁמְעוֹן בֶּן גַּמְלִיאֵל אוֹמֵר, אַף בַּסְּפָרִים לֹא הִתִּירוּ שֶׁיִּכָּתְבוּ אֶלָּא יְוָנִית:
אֵין בֵּין כֹּהֵן מָשׁוּחַ בְּשֶׁמֶן הַמִּשְׁחָה לִמְרֻבֶּה בְגָדִים אֶלָּא פַּר הַבָּא עַל כָּל הַמִּצְוֹת. אֵין בֵּין כֹּהֵן מְשַׁמֵּשׁ לְכֹהֵן שֶׁעָבַר אֶלָּא פַּר יוֹם הַכִּפּוּרִים וַעֲשִׂירִית הָאֵיפָה:
אֵין בֵּין בָּמָה גְדוֹלָה לְבָמָה קְטַנָּה אֶלָּא פְסָחִים. זֶה הַכְּלָל, כָּל שֶׁהוּא נִדָּר וְנִדָּב, קָרֵב בַּבָּמָה. וְכֹל שֶׁאֵינוֹ לֹא נִדָּר וְלֹא נִדָּב, אֵינוֹ קָרֵב בַּבָּמָה:
אֵין בֵּין שִׁילֹה לִירוּשָׁלַיִם אֶלָּא שֶׁבְּשִׁילֹה אוֹכְלִים קָדָשִׁים קַלִּים וּמַעֲשֵׂר שֵׁנִי בְּכָל הָרוֹאֶה, וּבִירוּשָׁלַיִם לִפְנִים מִן הַחוֹמָה. וְכָאן וְכָאן קָדְשֵׁי קָדָשִׁים נֶאֱכָלִים לִפְנִים מִן הַקְּלָעִים. קְדֻשַּׁת שִׁילֹה יֵשׁ אַחֲרֶיהָ הֶתֵּר, וּקְדֻשַּׁת יְרוּשָׁלַיִם אֵין אַחֲרֶיהָ הֶתֵּר:

Chapter 2

הַקּוֹרֵא אֶת הַמְּגִלָּה לְמַפְרֵעַ, לֹא יָצָא. קְרָאָהּ עַל פֶּה, קְרָאָהּ תַּרְגּוּם, בְּכָל לָשׁוֹן, לֹא יָצָא. אֲבָל קוֹרִין אוֹתָהּ לַלּוֹעֲזוֹת בְּלַעַז. וְהַלּוֹעֵז שֶׁשָּׁמַע אַשּׁוּרִית, יָצָא:
קְרָאָהּ סֵרוּגִין, וּמִתְנַמְנֵם, יָצָא. הָיָה כוֹתְבָהּ, דּוֹרְשָׁהּ, וּמַגִּיהָהּ, אִם כִּוֵּן לִבּוֹ, יָצָא. וְאִם לָאו, לֹא יָצָא. הָיְתָה כְּתוּבָה בְּסַם, וּבְסִקְרָא, וּבְקוֹמוֹס וּבְקַנְקַנְתּוֹם, עַל הַנְּיָר וְעַל הַדִּפְתְּרָא, לֹא יָצָא, עַד שֶׁתְּהֵא כְּתוּבָה אַשּׁוּרִית, עַל הַסֵּפֶר וּבִדְיוֹ:
בֶּן עִיר שֶׁהָלַךְ לִכְרַךְ וּבֶן כְּרַךְ שֶׁהָלַךְ לְעִיר, אִם עָתִיד לַחֲזֹר לִמְקוֹמוֹ, קוֹרֵא כִמְקוֹמוֹ. וְאִם לָאו, קוֹרֵא עִמָּהֶן. וּמֵהֵיכָן קוֹרֵא אָדָם אֶת הַמְּגִלָּה וְיוֹצֵא בָּהּ יְדֵי חוֹבָתוֹ, רַבִּי מֵאִיר אוֹמֵר, כֻּלָּהּ. רַבִּי יְהוּדָה אוֹמֵר, מֵאִישׁ יְהוּדִי (אסתר ב ה). רַבִּי יוֹסֵי אוֹמֵר, מֵאַחַר הַדְּבָרִים הָאֵלֶּה (אסתר ג׳:א׳):
הַכֹּל כְּשֵׁרִין לִקְרוֹת אֶת הַמְּגִלָּה, חוּץ מֵחֵרֵשׁ, שׁוֹטֶה, וְקָטָן. רַבִּי יְהוּדָה מַכְשִׁיר בְּקָטָן. אֵין קוֹרִין אֶת הַמְּגִלָּה, וְלֹא מָלִין, וְלֹא טוֹבְלִין, וְלֹא מַזִּין, וְכֵן שׁוֹמֶרֶת יוֹם כְּנֶגֶד יוֹם לֹא תִטְבֹּל, עַד שֶׁתָּנֵץ הַחַמָּה. וְכֻלָּן שֶׁעָשׂוּ מִשֶּׁעָלָה עַמּוּד הַשַּׁחַר, כָּשֵׁר:
כָּל הַיּוֹם כָּשֵׁר לִקְרִיאַת הַמְּגִלָּה, וְלִקְרִיאַת הַהַלֵּל, וְלִתְקִיעַת שׁוֹפָר, וְלִנְטִילַת לוּלָב, וְלִתְפִלַּת הַמּוּסָפִין, וְלַמּוּסָפִין, וּלְוִדּוּי הַפָּרִים, וּלְוִדּוּי הַמַּעֲשֵׂר, וּלְוִדּוּי יוֹם הַכִּפּוּרִים, לַסְּמִיכָה, לַשְּׁחִיטָה, לַתְּנוּפָה, לַהַגָּשָׁה, לַקְּמִיצָה וְלַהַקְטָרָה, לַמְּלִיקָה, וְלַקַּבָּלָה, וְלַהַזָּיָה, וּלְהַשְׁקָיַת סוֹטָה, וְלַעֲרִיפַת הָעֶגְלָה, וּלְטַהֲרַת הַמְּצֹרָע:
כָּל הַלַּיְלָה כָּשֵׁר לִקְצִירַת הָעֹמֶר וּלְהֶקְטֵר חֲלָבִים וְאֵבָרִים. זֶה הַכְּלָל, דָּבָר שֶׁמִּצְוָתוֹ בַיּוֹם, כָּשֵׁר כָּל הַיּוֹם. דָּבָר שֶׁמִּצְוָתוֹ בַלַּיְלָה, כָּשֵׁר כָּל הַלָּיְלָה:

Chapter 3

בְּנֵי הָעִיר שֶׁמָּכְרוּ רְחוֹבָהּ שֶׁל עִיר, לוֹקְחִין בְּדָמָיו בֵּית הַכְּנֶסֶת. בֵּית הַכְּנֶסֶת, לוֹקְחִין תֵּבָה. תֵּבָה, לוֹקְחִין מִטְפָּחוֹת. מִטְפָּחוֹת, לוֹקְחִין סְפָרִים. סְפָרִים, לוֹקְחִין תּוֹרָה. אֲבָל אִם מָכְרוּ תוֹרָה, לֹא יִקְחוּ סְפָרִים. סְפָרִים, לֹא יִקְחוּ מִטְפָּחוֹת. מִטְפָּחוֹת, לֹא יִקְחוּ תֵבָה. תֵּבָה, לֹא יִקְחוּ בֵית הַכְּנֶסֶת. בֵּית הַכְּנֶסֶת, לֹא יִקְחוּ אֶת הָרְחוֹב. וְכֵן בְּמוֹתְרֵיהֶן. אֵין מוֹכְרִין אֶת שֶׁל רַבִּים לְיָחִיד, מִפְּנֵי שֶׁמּוֹרִידִין אוֹתוֹ מִקְּדֻשָּׁתוֹ, דִּבְרֵי רַבִּי יְהוּדָה. אָמְרוּ לוֹ, אִם כֵּן, אַף לֹא מֵעִיר גְּדוֹלָה לְעִיר קְטַנָּה:
אֵין מוֹכְרִין בֵּית הַכְּנֶסֶת, אֶלָּא עַל תְּנַאי שֶׁאִם יִרְצוּ יַחֲזִירוּהוּ, דִּבְרֵי רַבִּי מֵאִיר. וַחֲכָמִים אוֹמְרִים, מוֹכְרִים אוֹתוֹ מִמְכַּר עוֹלָם, חוּץ מֵאַרְבָּעָה דְּבָרִים, לְמֶרְחָץ וּלְבֻרְסְקִי וְלִטְבִילָה וּלְבֵית הַמָּיִם. רַבִּי יְהוּדָה אוֹמֵר, מוֹכְרִין אוֹתוֹ לְשֵׁם חָצֵר, וְהַלּוֹקֵחַ מַה שֶּׁיִּרְצֶה יַעֲשֶׂה:
וְעוֹד אָמַר רַבִּי יְהוּדָה, בֵּית הַכְּנֶסֶת שֶׁחָרַב, אֵין מַסְפִּידִין בְּתוֹכוֹ, וְאֵין מַפְשִׁילִין בְּתוֹכוֹ חֲבָלִים, וְאֵין פּוֹרְשִׂין לְתוֹכוֹ מְצוּדוֹת, וְאֵין שׁוֹטְחִין עַל גַּגּוֹ פֵרוֹת, וְאֵין עוֹשִׂין אוֹתוֹ קַפַּנְדַּרְיָא, שֶׁנֶּאֱמַר (ויקרא כו), וַהֲשִׁמּוֹתִי אֶת מִקְדְּשֵׁיכֶם, קְדֻשָּׁתָן אַף כְּשֶׁהֵן שׁוֹמֵמִין. עָלוּ בוֹ עֲשָׂבִים, לֹא יִתְלֹשׁ, מִפְּנֵי עָגְמַת נָפֶשׁ:
רֹאשׁ חֹדֶשׁ אֲדָר שֶׁחָל לִהְיוֹת בְּשַׁבָּת, קוֹרִין בְּפָרָשַׁת שְׁקָלִים (שמות ל). חָל לִהְיוֹת בְּתוֹךְ הַשַּׁבָּת, מַקְדִּימִין לְשֶׁעָבַר וּמַפְסִיקִין לְשַׁבָּת אַחֶרֶת. בַּשְּׁנִיָּה, זָכוֹר (דברים כה). בַּשְּׁלִישִׁית, פָּרָה אֲדֻמָּה (במדבר י״ט:ב׳). בָּרְבִיעִית, הַחֹדֶשׁ הַזֶּה לָכֶם (שמות יב). בָּחֲמִישִׁית, חוֹזְרִין לִכְסִדְרָן. לַכֹּל מַפְסִיקִין, בְּרָאשֵׁי חֳדָשִׁים, בַּחֲנֻכָּה וּבְפוּרִים, בַּתַּעֲנִיּוֹת וּבַמַּעֲמָדוֹת וּבְיוֹם הַכִּפּוּרִים:
בְּפֶסַח קוֹרִין בְּפָרָשַׁת מוֹעֲדוֹת שֶׁל תּוֹרַת כֹּהֲנִים (ויקרא כב). בַּעֲצֶרֶת, שִׁבְעָה שָׁבֻעוֹת (דברים טז). בְּרֹאשׁ הַשָּׁנָה, בַּחֹדֶשׁ הַשְּׁבִיעִי בְּאֶחָד לַחֹדֶשׁ (ויקרא כג). בְּיוֹם הַכִּפּוּרִים, אַחֲרֵי מוֹת (שם טז). בְּיוֹם טוֹב הָרִאשׁוֹן שֶׁל חָג קוֹרִין בְּפָרָשַׁת מוֹעֲדוֹת שֶׁבְּתוֹרַת כֹּהֲנִים (ויקרא כג), וּבִשְׁאָר כָּל יְמוֹת הֶחָג בְּקָרְבְּנוֹת הֶחָג (במדבר כט):
בַּחֲנֻכָּה, בַּנְּשִׂיאִים (שם ז). בְּפוּרִים, וַיָּבֹא עֲמָלֵק (שמות יז). בְּרָאשֵׁי חֳדָשִׁים, וּבְרָאשֵׁי חָדְשֵׁיכֶם (במדבר כח). בַּמַּעֲמָדוֹת, בְּמַעֲשֵׂה בְּרֵאשִׁית (בראשית א). בַּתַּעֲנִיּוֹת, בְּרָכוֹת וּקְלָלוֹת (ויקרא כו). אֵין מַפְסִיקִין בַּקְּלָלוֹת, אֶלָּא אֶחָד קוֹרֵא אֶת כֻּלָּן. בַּשֵּׁנִי וּבַחֲמִישִׁי וּבְשַׁבָּת בַּמִּנְחָה, קוֹרִין כְּסִדְרָן, וְאֵין עוֹלִין לָהֶם מִן הַחֶשְׁבּוֹן, שֶׁנֶּאֱמַר (ויקרא כג), וַיְדַבֵּר מֹשֶׁה אֶת מֹעֲדֵי יְיָ אֶל בְּנֵי יִשְׂרָאֵל, מִצְוָתָן שֶׁיְּהוּ קוֹרִין כָּל אֶחָד וְאֶחָד בִּזְמַנּוֹ:

Chapter 4

הַקּוֹרֵא אֶת הַמְּגִלָּה עוֹמֵד וְיוֹשֵׁב. קְרָאָהּ אֶחָד, קְרָאוּהָ שְׁנַיִם, יָצְאוּ. מְקוֹם שֶׁנָּהֲגוּ לְבָרֵךְ, יְבָרֵךְ. וְשֶׁלֹּא לְבָרֵךְ, לֹא יְבָרֵךְ. בְּשֵׁנִי וּבַחֲמִישִׁי וּבְשַׁבָּת בַּמִּנְחָה, קוֹרִין שְׁלֹשָׁה, אֵין פּוֹחֲתִין וְאֵין מוֹסִיפִין עֲלֵיהֶן, וְאֵין מַפְטִירִין בַּנָּבִיא. הַפּוֹתֵחַ וְהַחוֹתֵם בַּתּוֹרָה, מְבָרֵךְ לְפָנֶיהָ וּלְאַחֲרֶיהָ:
בְּרָאשֵׁי חֳדָשִׁים וּבְחֻלּוֹ שֶׁל מוֹעֵד, קוֹרִין אַרְבָּעָה, אֵין פּוֹחֲתִין מֵהֶן וְאֵין מוֹסִיפִין עֲלֵיהֶן, וְאֵין מַפְטִירִין בַּנָּבִיא. הַפּוֹתֵחַ וְהַחוֹתֵם בַּתּוֹרָה, מְבָרֵךְ לְפָנֶיהָ וּלְאַחֲרֶיהָ. זֶה הַכְּלָל, כָּל שֶׁיֵּשׁ בּוֹ מוּסָף וְאֵינוֹ יוֹם טוֹב, קוֹרִין אַרְבָּעָה. בְּיוֹם טוֹב, חֲמִשָּׁה. בְּיוֹם הַכִּפּוּרִים, שִׁשָּׁה. בְּשַׁבָּת, שִׁבְעָה. אֵין פּוֹחֲתִין מֵהֶן, אֲבָל מוֹסִיפִין עֲלֵיהֶן, וּמַפְטִירִין בַּנָּבִיא. הַפּוֹתֵחַ וְהַחוֹתֵם בַּתּוֹרָה, מְבָרֵךְ לְפָנֶיהָ וּלְאַחֲרֶיהָ:
אֵין פּוֹרְסִין אֶת שְׁמַע, וְאֵין עוֹבְרִין לִפְנֵי הַתֵּבָה, וְאֵין נוֹשְׂאִין אֶת כַּפֵּיהֶם, וְאֵין קוֹרִין בַּתּוֹרָה, וְאֵין מַפְטִירִין בַּנָּבִיא, וְאֵין עוֹשִׂין מַעֲמָד וּמוֹשָׁב, וְאֵין אוֹמְרִים בִּרְכַּת אֲבֵלִים וְתַנְחוּמֵי אֲבֵלִים וּבִרְכַּת חֲתָנִים, וְאֵין מְזַמְּנִין בַּשֵּׁם, פָּחוֹת מֵעֲשָׂרָה. וּבַקַּרְקָעוֹת, תִּשְׁעָה וְכֹהֵן. וְאָדָם, כַּיּוֹצֵא בָּהֶן:
הַקּוֹרֵא בַּתּוֹרָה לֹא יִפְחֹת מִשְּׁלֹשָׁה פְסוּקִים. לֹא יִקְרָא לַמְּתֻרְגְּמָן יוֹתֵר מִפָּסוּק אֶחָד, וּבַנָּבִיא שְׁלֹשָׁה. הָיוּ שְׁלָשְׁתָּן שָׁלֹשׁ פָּרָשִׁיּוֹת, קוֹרִין אֶחָד אֶחָד. מְדַלְּגִין בַּנָּבִיא וְאֵין מְדַלְּגִין בַּתּוֹרָה. וְעַד כַּמָּה הוּא מְדַלֵּג, עַד כְּדֵי שֶׁלֹּא יִפְסֹק הַמְּתֻרְגְּמָן:
הַמַּפְטִיר בַּנָּבִיא, הוּא פּוֹרֵס עַל שְׁמַע, וְהוּא עוֹבֵר לִפְנֵי הַתֵּבָה, וְהוּא נוֹשֵׂא אֶת כַּפָּיו. וְאִם הָיָה קָטָן, אָבִיו אוֹ רַבּוֹ עוֹבְרִין עַל יָדוֹ:
קָטָן קוֹרֵא בַּתּוֹרָה וּמְתַרְגֵּם, אֲבָל אֵינוֹ פּוֹרֵס עַל שְׁמַע, וְאֵינוֹ עוֹבֵר לִפְנֵי הַתֵּיבָה, וְאֵינוֹ נוֹשֵׂא אֶת כַּפָּיו. פּוֹחֵחַ פּוֹרֵס אֶת שְׁמַע וּמְתַרְגֵּם, אֲבָל אֵינוֹ קוֹרֵא בַתּוֹרָה וְאֵינוֹ עוֹבֵר לִפְנֵי הַתֵּבָה וְאֵינוֹ נוֹשֵׂא אֶת כַּפָּיו. סוּמָא פּוֹרֵס אֶת שְׁמַע וּמְתַרְגֵּם. רַבִּי יְהוּדָה אוֹמֵר, כֹּל שֶׁלֹּא רָאָה מְאוֹרוֹת מִיָּמָיו, אֵינוֹ פּוֹרֵס עַל שְׁמַע:
כֹּהֵן שֶׁיֵּשׁ בְּיָדָיו מוּמִין, לֹא יִשָּׂא אֶת כַּפָּיו. רַבִּי יְהוּדָה אוֹמֵר, אַף מִי שֶׁהָיוּ יָדָיו צְבוּעוֹת אִסְטִיס וּפוּאָה, לֹא יִשָּׂא אֶת כַּפָּיו, מִפְּנֵי שֶׁהָעָם מִסְתַּכְּלִין בּוֹ:
הָאוֹמֵר אֵינִי עוֹבֵר לִפְנֵי הַתֵּבָה בִצְבוּעִין, אַף בִּלְבָנִים לֹא יַעֲבֹר. בְּסַנְדָּל אֵינִי עוֹבֵר, אַף יָחֵף לֹא יַעֲבֹר. הָעוֹשֶׂה תְפִלָּתוֹ עֲגֻלָּה, סַכָּנָה וְאֵין בָּהּ מִצְוָה. נְתָנָהּ עַל מִצְחוֹ אוֹ עַל פַּס יָדוֹ, הֲרֵי זוֹ דֶּרֶךְ הַמִּינוּת. צִפָּן זָהָב, וּנְתָנָהּ עַל בֵּית אֻנְקְלִי שֶׁלּוֹ, הֲרֵי זוֹ דֶּרֶךְ הַחִיצוֹנִים:
הָאוֹמֵר יְבָרְכוּךָ טוֹבִים, הֲרֵי זוֹ דֶּרֶךְ הַמִּינוּת. עַל קַן צִפּוֹר יַגִּיעוּ רַחֲמֶיךָ, וְעַל טוֹב יִזָּכֵר שְׁמֶךָ, מוֹדִים מוֹדִים, מְשַׁתְּקִין אוֹתוֹ. הַמְכַנֶּה בָעֲרָיוֹת, מְשַׁתְּקִין אוֹתוֹ. הָאוֹמֵר, וּמִזַּרְעֲךָ לֹא תִתֵּן לְהַעֲבִיר לַמֹּלֶךְ (ויקרא יח), וּמִזַרְעָךְ לֹא תִתֵּן לְאַעְבָּרָא בְּאַרְמָיוּתָא, מְשַׁתְּקִין אוֹתוֹ בִנְזִיפָה:
מַעֲשֵׂה רְאוּבֵן (בראשית לה), נִקְרָא וְלֹא מִתַּרְגֵּם. מַעֲשֵׂה תָמָר (בראשית לח), נִקְרָא וּמִתַּרְגֵּם. מַעֲשֵׂה עֵגֶל הָרִאשׁוֹן (שמות לב), נִקְרָא וּמִתַּרְגֵּם. וְהַשֵּׁנִי (שם), נִקְרָא וְלֹא מִתַּרְגֵּם. בִּרְכַּת כֹּהֲנִים (במדבר ו), מַעֲשֵׂה דָּוִד (שמואל ב י״א:כ״ז) וְאַמְנוֹן (שמואל ב יג), לֹא נִקְרָאִין וְלֹא מִתַּרְגְּמִין. אֵין מַפְטִירִין בַּמֶּרְכָּבָה (יחזקאל א), וְרַבִּי יְהוּדָה מַתִּיר. רַבִּי אֱלִיעֶזֶר אוֹמֵר, אֵין מַפְטִירִין בְּהוֹדַע אֶת יְרוּשָׁלַיִם (יחזקאל ט״ז:ב׳):