Mishnah Sukkah
משנה סוכה
Torat Emet 357
תורת אמת - Torat Emet 357 - http://www.toratemetfreeware.com/index.html?downloads

משנה סוכה



Chapter 1

סֻכָּה שֶׁהִיא גְבוֹהָה לְמַעְלָה מֵעֶשְׂרִים אַמָּה, פְּסוּלָה. רַבִּי יְהוּדָה מַכְשִׁיר. וְשֶׁאֵינָהּ גְּבוֹהָה עֲשָׂרָה טְפָחִים, וְשֶׁאֵין לָהּ שְׁלֹשָׁה דְּפָנוֹת, וְשֶׁחַמָּתָהּ מְרֻבָּה מִצִּלָּתָהּ, פְּסוּלָה. סֻכָּה יְשָׁנָה, בֵּית שַׁמַּאי פּוֹסְלִין, וּבֵית הִלֵּל מַכְשִׁירִין. וְאֵיזוֹ הִיא סֻכָּה יְשָׁנָה, כָּל שֶׁעֲשָׂאָהּ קֹדֶם לֶחָג שְׁלשִׁים יוֹם. אֲבָל אִם עֲשָׂאָהּ לְשֵׁם חָג, אֲפִלּוּ מִתְּחִלַּת הַשָּׁנָה, כְּשֵׁרָה:
הָעוֹשֶׂה סֻכָּתוֹ תַחַת הָאִילָן, כְּאִלּוּ עֲשָׂאָהּ בְּתוֹךְ הַבָּיִת. סֻכָּה עַל גַּבֵּי סֻכָּה, הָעֶלְיוֹנָה כְשֵׁרָה, וְהַתַּחְתּוֹנָה פְּסוּלָה. רַבִּי יְהוּדָה אוֹמֵר, אִם אֵין דִּיּוּרִין בָּעֶלְיוֹנָה, הַתַּחְתּוֹנָה כְּשֵׁרָה:
פֵּרַס עָלֶיהָ סָדִין מִפְּנֵי הַחַמָּה, אוֹ תַּחְתֶּיהָ מִפְּנֵי הַנְּשָׁר, אוֹ שֶׁפֵּרַס עַל גַּבֵּי הַקִּינוֹף, פְּסוּלָה. אֲבָל פּוֹרֵס הוּא עַל גַּבֵּי נַקְלִיטֵי הַמִּטָּה:
הִדְלָה עָלֶיהָ אֶת הַגֶּפֶן וְאֶת הַדְּלַעַת וְאֶת הַקִּסּוֹם וְסִכֵּךְ עַל גַּבָּהּ, פְּסוּלָה. וְאִם הָיָה סִכּוּךְ הַרְבֵּה מֵהֶן, אוֹ שֶׁקְּצָצָן, כְּשֵׁרָה. זֶה הַכְּלָל, כֹּל שֶׁהוּא מְקַבֵּל טֻמְאָה וְאֵין גִּדּוּלוֹ מִן הָאָרֶץ, אֵין מְסַכְּכִין בּוֹ. וְכָל דָּבָר שֶׁאֵינוֹ מְקַבֵּל טֻמְאָה וְגִדּוּלוֹ מִן הָאָרֶץ, מְסַכְּכִין בּוֹ:
חֲבִילֵי קַשׁ וַחֲבִילֵי עֵצִים וַחֲבִילֵי זְרָדִין, אֵין מְסַכְּכִין בָּהֶן. וְכֻלָּן שֶׁהִתִּירָן, כְּשֵׁרוֹת. וְכֻלָּן כְּשֵׁרוֹת לַדְּפָנוֹת:
מְסַכְּכִין בִּנְסָרִים, דִּבְרֵי רַבִּי יְהוּדָה. וְרַבִּי מֵאִיר אוֹסֵר. נָתַן עָלֶיהָ נֶסֶר שֶׁהוּא רָחָב אַרְבָּעָה טְפָחִים, כְּשֵׁרָה, וּבִלְבַד שֶׁלֹא יִישַׁן תַּחְתָּיו:
תִּקְרָה שֶׁאֵין עָלֶיהָ מַעֲזִיבָה, רַבִּי יְהוּדָה אוֹמֵר, בֵּית שַׁמַּאי אוֹמְרִים, מְפַקְפֵּק וְנוֹטֵל אַחַת מִבֵּינְתַיִם, וּבֵית הִלֵּל אוֹמְרִים, מְפַקְפֵּק אוֹ נוֹטֵל אַחַת מִבֵּינְתַיִם. רַבִּי מֵאִיר אוֹמֵר, נוֹטֵל אַחַת מִבֵּינְתַיִם, וְאֵין מְפַקְפֵּק:
הַמְקָרֶה סֻכָּתוֹ בְשַׁפּוּדִין אוֹ בַאֲרֻכּוֹת הַמִּטָּה, אִם יֵשׁ רֶוַח בֵּינֵיהֶן כְּמוֹתָן, כְּשֵׁרָה. הַחוֹטֵט בְּגָדִישׁ לַעֲשׂוֹת בּוֹ סֻכָּה, אֵינָהּ סֻכָּה:
הַמְשַׁלְשֵׁל דְּפָנוֹת מִלְמַעְלָה לְמַטָּה, אִם גָּבוֹהַּ מִן הָאָרֶץ שְׁלֹשָׁה טְפָחִים, פְּסוּלָה. מִלְּמַטָּה לְמַעְלָה, אִם גָּבוֹהַּ מִן הָאָרֶץ עֲשָׂרָה טְפָחִים, כְּשֵׁרָה. רַבִּי יוֹסֵי אוֹמֵר, כְּשֵׁם שֶׁמִּלְּמַטָּה לְמַעְלָה עֲשָׂרָה טְפָחִים, כָּךְ מִלְמַעְלָה לְמַטָּה עֲשָׂרָה טְפָחִים. הִרְחִיק אֶת הַסִּכּוּךְ מִן הַדְּפָנוֹת שְׁלשָׁה טְפָחִים, פְּסוּלָה:
בַּיִת שֶׁנִּפְחַת וְסִכֵּךְ עַל גַּבָּיו, אִם יֵשׁ מִן הַכֹּתֶל לַסִּכּוּךְ אַרְבַּע אַמּוֹת, פְּסוּלָה. וְכֵן חָצֵר שֶׁהִיא מֻקֶּפֶת אַכְסַדְרָה. סֻכָּה גְדוֹלָה, שֶׁהִקִּיפוּהָ בְדָבָר שֶׁאֵין מְסַכְּכִים בּוֹ, אִם יֵשׁ תַּחְתָּיו אַרְבַּע אַמּוֹת, פְּסוּלָה:
הָעוֹשֶׂה סֻכָּתוֹ כְּמִין צְרִיף, אוֹ שֶׁסְּמָכָהּ לְכֹתֶל, רַבִּי אֱלִיעֶזֶר פּוֹסֵל, מִפְּנֵי שֶׁאֵין לָהּ גָּג, וַחֲכָמִים מַכְשִׁירִין. מַחְצֶלֶת קָנִים גְּדוֹלָה, עֲשָׂאָהּ לִשְׁכִיבָה, מְקַבֶּלֶת טֻמְאָה וְאֵין מְסַכְּכִין בָּהּ. לְסִכּוּךְ, מְסַכְּכִין בָּהּ וְאֵינָהּ מְקַבֶּלֶת טֻמְאָה. רַבִּי אֱלִיעֶזֶר אוֹמֵר, אַחַת קְטַנָּה וְאַחַת גְּדוֹלָה, עֲשָׂאָהּ לִשְׁכִיבָה, מְקַבֶּלֶת טֻמְאָה וְאֵין מְסַכְּכִין בָּהּ. לְסִכּוּךְ, מְסַכְּכִין בָּהּ וְאֵינָהּ מְקַבֶּלֶת טֻמְאָה:

Chapter 2

הַיָּשֵׁן תַּחַת הַמִּטָּה בַסֻּכָּה, לֹא יָצָא יְדֵי חוֹבָתוֹ. אָמַר רַבִּי יְהוּדָה, נוֹהֲגִין הָיִינוּ, שֶׁהָיִינוּ יְשֵׁנִים תַּחַת הַמִּטָּה בִּפְנֵי הַזְּקֵנִים, וְלֹא אָמְרוּ לָנוּ דָבָר. אָמַר רַבִּי שִׁמְעוֹן, מַעֲשֶׂה בְטָבִי עַבְדּוֹ שֶׁל רַבָּן גַּמְלִיאֵל שֶׁהָיָה יָשֵׁן תַּחַת הַמִּטָּה, וְאָמַר לָהֶן רַבָּן גַּמְלִיאֵל לַזְּקֵנִים, רְאִיתֶם טָבִי עַבְדִּי, שֶׁהוּא תַלְמִיד חָכָם וְיוֹדֵעַ שֶׁעֲבָדִים פְּטוּרִין מִן הַסֻּכָּה, לְפִיכָךְ יָשֵׁן הוּא תַּחַת הַמִּטָּה. וּלְפִי דַרְכֵּנוּ לָמַדְנוּ, שֶׁהַיָּשֵׁן תַּחַת הַמִּטָּה, לֹא יָצָא יְדֵי חוֹבָתוֹ:
הַסּוֹמֵךְ סֻכָּתוֹ בְּכַרְעֵי הַמִּטָּה, כְּשֵׁרָה. רַבִּי יְהוּדָה אוֹמֵר, אִם אֵינָהּ יְכוֹלָה לַעֲמֹד בִּפְנֵי עַצְמָהּ, פְּסוּלָה. סֻכָּה הַמְדֻבְלֶלֶת, וְשֶׁצִּלָּתָהּ מְרֻבָּה מֵחַמָּתָהּ, כְּשֵׁרָה. הַמְעֻבָּה כְמִין בַּיִת, אַף עַל פִּי שֶׁאֵין הַכּוֹכָבִים נִרְאִים מִתּוֹכָהּ, כְּשֵׁרָה:
הָעוֹשֶׂה סֻכָּתוֹ בְּרֹאשׁ הָעֲגָלָה אוֹ בְּרֹאשׁ הַסְּפִינָה, כְּשֵׁרָה, וְעוֹלִין לָהּ בְּיוֹם טוֹב. בְּרֹאשׁ הָאִילָן אוֹ עַל גַּבֵּי גָמָל, כְּשֵׁרָה, וְאֵין עוֹלִין לָהּ בְּיוֹם טוֹב. שְׁתַּיִם בָּאִילָן וְאַחַת בִּידֵי אָדָם, אוֹ שְׁתַּיִם בִּידֵי אָדָם וְאַחַת בָּאִילָן, כְּשֵׁרָה, וְאֵין עוֹלִין לָהּ בְּיוֹם טוֹב. שָׁלשׁ בִּידֵי אָדָם וְאַחַת בָּאִילָן, כְּשֵׁרָה, וְעוֹלִין לָהּ בְּיוֹם טוֹב. זֶה הַכְּלָל, כֹּל שֶׁנִּטַּל הָאִילָן וִיכוֹלָה לַעֲמוֹד בִּפְנֵי עַצְמָהּ, כְּשֵׁרָה, וְעוֹלִין לָהּ בְּיוֹם טוֹב:
הָעוֹשֶׂה סֻכָּתוֹ בֵּין הָאִילָנוֹת, וְהָאִילָנוֹת דְּפָנוֹת לָהּ, כְּשֵׁרָה. שְׁלוּחֵי מִצְוָה פְּטוּרִין מִן הַסֻּכָּה. חוֹלִין וּמְשַׁמְּשֵׁיהֶן פְּטוּרִין מִן הַסֻּכָּה. אוֹכְלִין וְשׁוֹתִין עֲרַאי חוּץ לַסֻּכָּה:
מַעֲשֶׂה וְהֵבִיאוּ לוֹ לְרַבָּן יוֹחָנָן בֶּן זַכַּאי לִטְעוֹם אֶת הַתַּבְשִׁיל, וּלְרַבָּן גַּמְלִיאֵל שְׁתֵּי כוֹתָבוֹת וּדְלִי שֶׁל מַיִם, וְאָמְרוּ, הַעֲלוּם לַסֻּכָּה. וּכְשֶׁנָּתְנוּ לוֹ לְרַבִּי צָדוֹק אֹכֶל פָּחוֹת מִכַּבֵּיצָה, נְטָלוֹ בַמַּפָּה וַאֲכָלוֹ חוּץ לַסֻּכָּה, וְלֹא בֵרַךְ אַחֲרָיו:
רַבִּי אֱלִיעֶזֶר אוֹמֵר, אַרְבַּע עֶשְׂרֵה סְעוּדוֹת חַיָּב אָדָם לֶאֱכֹל בַּסֻּכָּה, אַחַת בַּיּוֹם וְאַחַת בַּלָּיְלָה. וַחֲכָמִים אוֹמְרִים, אֵין לַדָּבָר קִצְבָה, חוּץ מִלֵּילֵי יוֹם טוֹב רִאשׁוֹן שֶׁל חָג בִּלְבָד. וְעוֹד אָמַר רַבִּי אֱלִיעֶזֶר, מִי שֶׁלֹּא אָכַל לֵילֵי יוֹם טוֹב הָרִאשׁוֹן, יַשְׁלִים בְּלֵילֵי יוֹם טוֹב הָאַחֲרוֹן. וַחֲכָמִים אוֹמְרִים, אֵין לַדָּבָר תַּשְׁלוּמִין, עַל זֶה נֶאֱמַר (קהלת א) מְעֻוָּת לֹא יוּכַל לִתְקֹן, וְחֶסְרוֹן לֹא יוּכַל לְהִמָּנוֹת:
מִי שֶׁהָיָה רֹאשׁוֹ וְרֻבּוֹ בַסֻּכָּה, וְשֻׁלְחָנוֹ בְתוֹךְ הַבַּיִת, בֵּית שַׁמַּאי פּוֹסְלִין, וּבֵית הִלֵּל מַכְשִׁירִין. אָמְרוּ לָהֶן בֵּית הִלֵּל לְבֵית שַׁמַּאי, לֹא כָךְ הָיָה מַעֲשֶׂה, שֶׁהָלְכוּ זִקְנֵי בֵית שַׁמַּאי וְזִקְנֵי בֵית הִלֵּל לְבַקֵּר אֶת רַבִּי יוֹחָנָן בֶּן הַחוֹרָנִי, וּמְצָאוּהוּ שֶׁהָיָה יוֹשֵׁב רֹאשׁוֹ וְרֻבּוֹ בַסֻּכָּה, וְשֻׁלְחָנוֹ בְתוֹךְ הַבַּיִת, וְלֹא אָמְרוּ לוֹ דָבָר. אָמְרוּ לָהֶן בֵּית שַׁמַּאי, מִשָּׁם רְאָיָה, אַף הֵם אָמְרוּ לוֹ, אִם כֵּן הָיִיתָ נוֹהֵג, לֹא קִיַּמְתָּ מִצְוַת סֻכָּה מִיָּמֶיךָ:
נָשִׁים וַעֲבָדִים וּקְטַנִּים, פְּטוּרִים מִן הַסֻּכָּה. קָטָן שֶׁאֵינוֹ צָרִיךְ לְאִמּוֹ, חַיָּב בַּסֻּכָּה. מַעֲשֶׂה וְיָלְדָה כַלָּתוֹ שֶׁל שַׁמַּאי הַזָּקֵן וּפִחֵת אֶת הַמַּעֲזִיבָה וְסִכֵּךְ עַל גַּבֵּי הַמִּטָּה בִּשְׁבִיל הַקָּטָן:
כָּל שִׁבְעַת הַיָּמִים אָדָם עוֹשֶׂה סֻכָּתוֹ קֶבַע וּבֵיתוֹ עֲרַאי. יָרְדוּ גְשָׁמִים, מֵאֵימָתַי מֻתָּר לְפַנּוֹת, מִשֶּׁתִּסְרַח הַמִּקְפָּה. מָשְׁלוּ מָשָׁל, לְמָה הַדָּבָר דּוֹמֶה, לְעֶבֶד שֶׁבָּא לִמְזוֹג כּוֹס לְרַבּוֹ, וְשָׁפַךְ לוֹ קִיתוֹן עַל פָּנָיו:

Chapter 3

לוּלָב הַגָּזוּל וְהַיָּבֵשׁ, פָּסוּל. שֶׁל אֲשֵׁרָה וְשֶׁל עִיר הַנִּדַּחַת, פָּסוּל. נִקְטַם רֹאשׁוֹ, נִפְרְצוּ עָלָיו, פָּסוּל. נִפְרְדוּ עָלָיו, כָּשֵׁר. רַבִּי יְהוּדָה אוֹמֵר, יֶאֶגְדֶנּוּ מִלְמָעְלָה. צִנֵּי הַר הַבַּרְזֶל, כְּשֵׁרוֹת. לוּלָב שֶׁיֶּשׁ בּוֹ שְׁלשָׁה טְפָחִים כְּדֵי לְנַעְנֵעַ בּוֹ, כָּשֵׁר:
הֲדַס הַגָּזוּל וְהַיָּבֵשׁ, פָּסוּל. שֶׁל אֲשֵׁרָה וְשֶׁל עִיר הַנִּדַּחַת, פָּסוּל. נִקְטַם רֹאשׁוֹ, נִפְרְצוּ עָלָיו אוֹ שֶׁהָיוּ עֲנָבָיו מְרֻבּוֹת מֵעָלָיו, פָּסוּל. וְאִם מִעֲטָן, כָּשֵׁר. וְאֵין מְמַעֲטִין בְּיוֹם טוֹב:
עֲרָבָה גְזוּלָה וִיבֵשָׁה, פְּסוּלָה. שֶׁל אֲשֵׁרָה וְשֶׁל עִיר הַנִּדַּחַת, פְּסוּלָה. נִקְטַם רֹאשָׁהּ, נִפְרְצוּ עָלֶיהָ, וְהַצַּפְצָפָה, פְּסוּלָה. כְּמוּשָׁה, וְשֶׁנָּשְׁרוּ מִקְצָת עָלֶיהָ, וְשֶׁל בַּעַל, כְּשֵׁרָה:
רַבִּי יִשְׁמָעֵאל אוֹמֵר, שְׁלשָׁה הֲדַסִּים וּשְׁתֵּי עֲרָבוֹת, לוּלָב אֶחָד וְאֶתְרוֹג אֶחָד, אֲפִלּוּ שְׁנַיִם קְטוּמִים וְאֶחָד אֵינוֹ קָטוּם. רַבִּי טַרְפוֹן אוֹמֵר, אֲפִלּוּ שְׁלָשְׁתָּן קְטוּמִים. רַבִּי עֲקִיבָא אוֹמֵר, כְּשֵׁם שֶׁלּוּלָב אֶחָד וְאֶתְרוֹג אֶחָד, כָּךְ הֲדַס אֶחָד וַעֲרָבָה אֶחָת:
אֶתְרוֹג הַגָּזוּל וְהַיָּבֵשׁ, פָּסוּל. שֶׁל אֲשֵׁרָה וְשֶׁל עִיר הַנִּדַּחַת, פָּסוּל. שֶׁל עָרְלָה, פָּסוּל. שֶׁל תְּרוּמָה טְמֵאָה, פָּסוּל. שֶׁל תְּרוּמָה טְהוֹרָה, לֹא יִטֹּל, וְאִם נָטַל, כָּשֵׁר. שֶׁל דְּמַאי, בֵּית שַׁמַּאי פּוֹסְלִין, וּבֵית הִלֵּל מַכְשִׁירִין. שֶׁל מַעֲשֵׂר שֵׁנִי בִּירוּשָׁלַיִם, לֹא יִטֹּל, וְאִם נָטַל, כָּשֵׁר:
עָלְתָה חֲזָזִית עַל רֻבּוֹ, נִטְּלָה פִטְמָתוֹ, נִקְלַף, נִסְדַּק, נִקַּב וְחָסַר כָּל שֶׁהוּא, פָּסוּל. עָלְתָה חֲזָזִית עַל מִעוּטוֹ, נִטַּל עֻקְצוֹ, נִקַּב וְלֹא חָסַר כָּל שֶׁהוּא, כָּשֵׁר. אֶתְרוֹג הַכּוּשִׁי, פָּסוּל. וְהַיָרוֹק כְּכַרְתִי, רַבִּי מֵאִיר מַכְשִׁיר, וְרַבִּי יְהוּדָה פּוֹסֵל:
שִׁעוּר אֶתְרוֹג הַקָּטָן, רַבִּי מֵאִיר אוֹמֵר, כָּאֱגוֹז. רַבִּי יְהוּדָה אוֹמֵר, כַּבֵּיצָה. וּבְגָדוֹל, כְּדֵי שֶׁיֹּאחַז שְׁנַיִם בְּיָדוֹ אַחַת, דִּבְרֵי רַבִּי יְהוּדָה. רַבִּי יוֹסֵי אוֹמֵר, אֲפִלּוּ אֶחָד בִּשְׁתֵּי יָדָיו:
אֵין אוֹגְדִין אֶת הַלּוּלָב אֶלָּא בְמִינוֹ, דִּבְרֵי רַבִּי יְהוּדָה. רַבִּי מֵאִיר אוֹמֵר, אֲפִלּוּ בִמְשִׁיחָה. אָמַר רַבִּי מֵאִיר, מַעֲשֶׂה בְאַנְשֵׁי יְרוּשָׁלַיִם, שֶׁהָיוּ אוֹגְדִין אֶת לוּלְבֵיהֶן בְּגִימוֹנִיּוֹת שֶׁל זָהָב. אָמְרוּ לוֹ, בְּמִינוֹ הָיוּ אוֹגְדִין אוֹתוֹ מִלְּמָטָּה:
וְהֵיכָן הָיוּ מְנַעְנְעִין, בְּהוֹדוּ לַה' תְּחִלָּה וָסוֹף, וּבְאָנָּא ה' הוֹשִׁיעָה נָּא, דִּבְרֵי בֵית הִלֵּל. וּבֵית שַׁמַּאי אוֹמְרִים, אַף בְּאָנָּא ה' הַצְלִיחָה נָא. אָמַר רַבִּי עֲקִיבָא, צוֹפֶה הָיִיתִי בְרַבָּן גַּמְלִיאֵל וּבְרַבִּי יְהוֹשֻׁעַ, שֶׁכָּל הָעָם הָיוּ מְנַעְנְעִים אֶת לוּלְבֵיהֶן, וְהֵן לֹא נִעְנְעוּ אֶלָּא בְאָנָּא ה' הוֹשִׁיעָה נָּא. מִי שֶׁבָּא בַדֶּרֶךְ וְלֹא הָיָה בְיָדוֹ לוּלָב לִטֹּל, לִכְשֶׁיִּכָּנֵס לְבֵיתוֹ יִטֹּל עַל שֻׁלְחָנוֹ. לֹא נָטַל שַׁחֲרִית, יִטֹּל בֵּין הָעַרְבַּיִם, שֶׁכָּל הַיּוֹם כָּשֵׁר לַלּוּלָב:
מִי שֶׁהָיָה עֶבֶד אוֹ אִשָּׁה אוֹ קָטָן מַקְרִין אוֹתוֹ, עוֹנֶה אַחֲרֵיהֶן מַה שֶּׁהֵן אוֹמְרִין, וּתְהִי לוֹ מְאֵרָה. אִם הָיָה גָדוֹל מַקְרֵא אוֹתוֹ, עוֹנֶה אַחֲרָיו הַלְלוּיָהּ:
מָקוֹם שֶׁנָּהֲגוּ לִכְפֹּל, יִכְפֹּל. לִפְשֹׁט, יִפְשֹׁט. לְבָרֵךְ אַחֲרָיו, יְבָרֵךְ אַחֲרָיו. הַכֹּל כְּמִנְהַג הַמְּדִינָה. הַלּוֹקֵחַ לוּלָב מֵחֲבֵרוֹ בַשְּׁבִיעִית, נוֹתֵן לוֹ אֶתְרוֹג בְּמַתָּנָה, לְפִי שֶׁאֵין רַשַּׁאי לְלָקְחוֹ בַשְּׁבִיעִית:
בָּרִאשׁוֹנָה הָיָה לוּלָב נִטָּל בַּמִּקְדָּשׁ שִׁבְעָה, וּבַמְּדִינָה יוֹם אֶחָד. מִשֶּׁחָרַב בֵּית הַמִּקְדָּשׁ, הִתְקִין רַבָּן יוֹחָנָן בֶּן זַכַּאי שֶׁיְּהֵא לוּלָב נִטָּל בַּמְּדִינָה שִׁבְעָה, זֵכֶר לַמִּקְדָשׁ. וְשֶׁיְּהֵא יוֹם הָנֵף כֻּלּוֹ אָסוּר:
יוֹם טוֹב הָרִאשׁוֹן שֶׁל חָג שֶׁחָל לִהְיוֹת בְּשַׁבָּת, כָּל הָעָם מוֹלִיכִין אֶת לוּלְבֵיהֶן לְבֵית הַכְּנֶסֶת. לַמָּחֳרָת מַשְׁכִּימִין וּבָאִין, כָּל אֶחָד וְאֶחָד מַכִּיר אֶת שֶׁלּוֹ, וְנוֹטְלוֹ. מִפְּנֵי שֶׁאָמְרוּ חֲכָמִים, אֵין אָדָם יוֹצֵא יְדֵי חוֹבָתוֹ בְּיוֹם טוֹב הָרִאשׁוֹן שֶׁל חָג בְּלוּלָבוֹ שֶׁל חֲבֵרוֹ. וּשְׁאָר יְמוֹת הֶחָג, אָדָם יוֹצֵא יְדֵי חוֹבָתוֹ בְּלוּלָבוֹ שֶׁל חֲבֵרוֹ:
רַבִּי יוֹסֵי אוֹמֵר, יוֹם טוֹב הָרִאשׁוֹן שֶׁל חָג שֶׁחָל לִהְיוֹת בְּשַׁבָּת, וְשָׁכַח וְהוֹצִיא אֶת הַלּוּלָב לִרְשׁוּת הָרַבִּים, פָּטוּר, מִפְּנֵי שֶׁהוֹצִיאוֹ בִרְשׁוּת:
מְקַבֶּלֶת אִשָּׁה מִיַּד בְּנָהּ וּמִיַּד בַּעְלָהּ וּמַחֲזִירָתוֹ לַמַּיִם בְּשַׁבָּת. רַבִּי יְהוּדָה אוֹמֵר, בְּשַׁבָּת מַחֲזִירִין, בְּיוֹם טוֹב מוֹסִיפִין, וּבַמּוֹעֵד מַחֲלִיפִין. קָטָן הַיּוֹדֵעַ לְנַעְנֵעַ, חַיָּב בַּלּוּלָב:

Chapter 4

לוּלָב וַעֲרָבָה, שִׁשָּׁה וְשִׁבְעָה. הַהַלֵּל וְהַשִּׂמְחָה, שְׁמֹנָה. סֻכָּה וְנִסּוּךְ הַמַּיִם, שִׁבְעָה. וְהֶחָלִיל, חֲמִשָּׁה וְשִׁשָּׁה:
לוּלָב שִׁבְעָה כֵּיצַד, יוֹם טוֹב הָרִאשׁוֹן שֶׁל חָג שֶׁחָל לִהְיוֹת בְּשַׁבָּת, לוּלָב שִׁבְעָה, וּשְׁאָר כָּל הַיָּמִים, שִׁשָּׁה:
עֲרָבָה שִׁבְעָה כֵּיצַד, יוֹם שְׁבִיעִי שֶׁל עֲרָבָה שֶׁחָל לִהְיוֹת בְּשַׁבָּת, עֲרָבָה שִׁבְעָה, וּשְׁאָר כָּל הַיָּמִים שִׁשָּׁה:
מִצְוַת לוּלָב כֵּיצַד. יוֹם טוֹב הָרִאשׁוֹן שֶׁל חָג שֶׁחָל לִהְיוֹת בְּשַׁבָּת, מוֹלִיכִין אֶת לוּלְבֵיהֶן לְהַר הַבַּיִת, וְהַחַזָּנִין מְקַבְּלִין מֵהֶן וְסוֹדְרִין אוֹתָן עַל גַּב הָאִצְטַבָּא, וְהַזְּקֵנִים מַנִּיחִין אֶת שֶׁלָּהֶן בַּלִּשְׁכָּה. וּמְלַמְּדִים אוֹתָם לוֹמַר, כָּל מִי שֶׁמַּגִּיעַ לוּלָבִי בְיָדוֹ, הֲרֵי הוּא לוֹ בְמַתָּנָה. לְמָחָר מַשְׁכִּימִין וּבָאִין, וְהַחַזָּנִין זוֹרְקִין אוֹתָם לִפְנֵיהֶם. וְהֵן מְחַטְּפִין וּמַכִּין אִישׁ אֶת חֲבֵרוֹ. וּכְשֶׁרָאוּ בֵית דִּין שֶׁבָּאוּ לִידֵי סַכָּנָה, הִתְקִינוּ שֶׁיְּהֵא כָל אֶחָד וְאֶחָד נוֹטֵל בְּבֵיתוֹ:
מִצְוַת עֲרָבָה כֵּיצַד, מָקוֹם הָיָה לְמַטָּה מִירוּשָׁלַיִם, וְנִקְרָא מוֹצָא. יוֹרְדִין לְשָׁם וּמְלַקְּטִין מִשָּׁם מֻרְבִּיּוֹת שֶׁל עֲרָבָה, וּבָאִין וְזוֹקְפִין אוֹתָן בְּצִדֵּי הַמִּזְבֵּחַ, וְרָאשֵׁיהֶן כְּפוּפִין עַל גַּבֵּי הַמִּזְבֵּחַ. תָּקְעוּ וְהֵרִיעוּ וְתָקָעוּ. בְּכָל יוֹם מַקִּיפִין אֶת הַמִּזְבֵּחַ פַּעַם אַחַת, וְאוֹמְרִים, אָנָּא ה' הוֹשִׁיעָה נָּא, אָנָּא ה' הַצְלִיחָה נָּא. רַבִּי יְהוּדָה אוֹמֵר, אֲנִי וָהוֹ הוֹשִׁיעָה נָּא. וְאוֹתוֹ הַיּוֹם מַקִּיפִין אֶת הַמִּזְבֵּחַ שֶׁבַע פְּעָמִים. בִּשְׁעַת פְּטִירָתָן, מָה הֵן אוֹמְרִים, יֹפִי לְךָ מִזְבֵּחַ, יֹפִי לְךָ מִזְבֵּחַ. רַבִּי אֱלִיעֶזֶר אוֹמֵר, לְיָהּ וּלְךָ, מִזְבֵּחַ. לְיָהּ וּלְךָ, מִזְבֵּחַ:
כְּמַעֲשֵׂהוּ בְחֹל כָּךְ מַעֲשֵׂהוּ בְשַׁבָּת, אֶלָּא שֶׁהָיוּ מְלַקְּטִין אוֹתָן מֵעֶרֶב שַׁבָּת וּמַנִּיחִים אוֹתָן בְּגִיגִיּוֹת שֶׁל זָהָב, כְּדֵי שֶׁלֹּא יִכְמֹשׁוּ. רַבִּי יוֹחָנָן בֶּן בְּרוֹקָה אוֹמֵר, חֲרִיּוֹת שֶׁל דֶּקֶל הָיוּ מְבִיאִין, וְחוֹבְטִין אוֹתָן בַּקַּרְקַע בְּצִדֵּי הַמִּזְבֵּחַ, וְאוֹתוֹ הַיּוֹם נִקְרָא יוֹם חִבּוּט חֲרִיּוֹת:
מִיַּד הַתִּינוֹקוֹת שׁוֹמְטִין אֶת לוּלְבֵיהֶן וְאוֹכְלִין אֶתְרוֹגֵיהֶן:
הַהַלֵּל וְהַשִּׂמְחָה שְׁמֹנָה כֵּיצַד. מְלַמֵּד שֶׁחַיָּב אָדָם בַּהַלֵּל וּבַשִּׂמְחָה וּבִכְבוֹד יוֹם טוֹב הָאַחֲרוֹן שֶׁל חָג, כִּשְׁאָר כָּל יְמוֹת הֶחָג. סֻכָּה שִׁבְעָה כֵּיצַד. גָּמַר מִלֶּאֱכֹל, לֹא יַתִּיר סֻכָּתוֹ, אֲבָל מוֹרִיד אֶת הַכֵּלִים מִן הַמִּנְחָה וּלְמַעְלָה, מִפְּנֵי כְבוֹד יוֹם טוֹב הָאַחֲרוֹן שֶׁל חָג:
נִסּוּךְ הַמַּיִם כֵּיצַד. צְלוֹחִית שֶׁל זָהָב מַחֲזֶקֶת שְׁלשֶׁת לֻגִּים הָיָה מְמַלֵּא מִן הַשִּׁלּוֹחַ. הִגִּיעוּ לְשַׁעַר הַמַּיִם, תָּקְעוּ וְהֵרִיעוּ וְתָקָעוּ. עָלָה בַכֶּבֶשׁ וּפָנָה לִשְׂמֹאלוֹ, שְׁנֵי סְפָלִים שֶׁל כֶּסֶף הָיוּ שָׁם. רַבִּי יְהוּדָה אוֹמֵר, שֶׁל סִיד הָיוּ, אֶלָּא שֶׁהָיוּ מֻשְׁחָרִין פְּנֵיהֶם מִפְּנֵי הַיָּיִן. וּמְנֻקָּבִין כְּמִין שְׁנֵי חֳטָמִין דַּקִּין, אֶחָד מְעֻבֶּה וְאֶחָד דַּק, כְּדֵי שֶׁיְּהוּ שְׁנֵיהֶם כָּלִין בְּבַת אַחַת. מַעֲרָבִי שֶׁל מַיִם, מִזְרָחִי שֶׁל יָיִן. עֵרָה שֶׁל מַיִם לְתוֹךְ שֶׁל יַיִן, וְשֶׁל יַיִן לְתוֹךְ שֶׁל מַיִם, יָצָא. רַבִּי יְהוּדָה אוֹמֵר, בְּלֹג הָיָה מְנַסֵּךְ כָּל שְׁמֹנָה. וְלַמְנַסֵּךְ אוֹמְרִים לוֹ, הַגְבַּהּ יָדֶךָ, שֶׁפַּעַם אַחַת נִסֵּךְ אֶחָד עַל גַּבֵּי רַגְלָיו, וּרְגָמוּהוּ כָל הָעָם בְּאֶתְרוֹגֵיהֶן:
כְּמַעֲשֵׂהוּ בְחֹל כָּךְ מַעֲשֵׂהוּ בְשַׁבָּת, אֶלָּא שֶׁהָיָה מְמַלֵּא מֵעֶרֶב שַׁבָּת חָבִית שֶׁל זָהָב שֶׁאֵינָהּ מְקֻדֶּשֶׁת, מִן הַשִּׁלּוֹחַ, וּמַנִּיחָהּ בַּלִּשְׁכָּה. נִשְׁפְּכָה אוֹ נִתְגַּלְּתָה, הָיָה מְמַלֵּא מִן הַכִּיּוֹר, שֶׁהַיַּיִן וְהַמַּיִם הַמְּגֻלִּין, פְּסוּלִים לְגַבֵּי הַמִּזְבֵּחַ:

Chapter 5

הֶחָלִיל חֲמִשָּׁה וְשִׁשָּׁה. זֶהוּ הֶחָלִיל שֶׁל בֵּית הַשּׁוֹאֵבָה, שֶׁאֵינָה דּוֹחָה לֹא אֶת הַשַּׁבָּת וְלֹא אֶת יוֹם טוֹב. אָמְרוּ, כָּל מִי שֶׁלֹּא רָאָה שִׂמְחַת בֵּית הַשּׁוֹאֵבָה, לֹא רָאָה שִׂמְחָה מִיָּמָיו:
בְּמוֹצָאֵי יוֹם טוֹב הָרִאשׁוֹן שֶׁל חָג, יָרְדוּ לְעֶזְרַת נָשִׁים, וּמְתַקְּנִין שָׁם תִּקּוּן גָּדוֹל. וּמְנוֹרוֹת שֶׁל זָהָב הָיוּ שָׁם, וְאַרְבָּעָה סְפָלִים שֶׁל זָהָב בְּרָאשֵׁיהֶן, וְאַרְבָּעָה סֻלָּמוֹת לְכָל אֶחָד וְאֶחָד, וְאַרְבָּעָה יְלָדִים מִפִּרְחֵי כְהֻנָּה וּבִידֵיהֶם כַּדִּים שֶׁל שֶׁמֶן שֶׁל מֵאָה וְעֶשְׂרִים לֹג, שֶׁהֵן מַטִּילִין לְכָל סֵפֶל וָסֵפֶל:
מִבְּלָאֵי מִכְנְסֵי כֹהֲנִים וּמֵהֶמְיָנֵיהֶן מֵהֶן הָיוּ מַפְקִיעִין, וּבָהֶן הָיוּ מַדְלִיקִין, וְלֹא הָיְתָה חָצֵר בִּירוּשָׁלַיִם שֶׁאֵינָהּ מְאִירָה מֵאוֹר בֵּית הַשּׁוֹאֵבָה:
חֲסִידִים וְאַנְשֵׁי מַעֲשֶׂה הָיוּ מְרַקְּדִים לִפְנֵיהֶם בַּאֲבוּקוֹת שֶׁל אוֹר שֶׁבִּידֵיהֶן, וְאוֹמְרִים לִפְנֵיהֶן דִּבְרֵי שִׁירוֹת וְתִשְׁבָּחוֹת. וְהַלְוִיִּם בְּכִנּוֹרוֹת וּבִנְבָלִים וּבִמְצִלְתַּיִם וּבַחֲצוֹצְרוֹת וּבִכְלֵי שִׁיר בְּלֹא מִסְפָּר, עַל חֲמֵשׁ עֶשְׂרֵה מַעֲלוֹת הַיּוֹרְדוֹת מֵעֶזְרַת יִשְׂרָאֵל לְעֶזְרַת נָשִׁים, כְּנֶגֶד חֲמִשָּׁה עָשָׂר שִׁיר הַמַּעֲלוֹת שֶׁבַּתְּהִלִּים, שֶׁעֲלֵיהֶן לְוִיִּים עוֹמְדִין בִּכְלֵי שִׁיר וְאוֹמְרִים שִׁירָה. וְעָמְדוּ שְׁנֵי כֹהֲנִים בַּשַּׁעַר הָעֶלְיוֹן שֶׁיּוֹרֵד מֵעֶזְרַת יִשְׂרָאֵל לְעֶזְרַת נָשִׁים, וּשְׁתֵּי חֲצוֹצְרוֹת בִּידֵיהֶן. קָרָא הַגֶּבֶר, תָּקְעוּ וְהֵרִיעוּ וְתָקָעוּ. הִגִּיעוּ לְמַעְלָה עֲשִׂירִית, תָּקְעוּ וְהֵרִיעוּ וְתָקָעוּ. הִגִּיעוּ לָעֲזָרָה, תָּקְעוּ וְהֵרִיעוּ וְתָקָעוּ. הָיוּ תוֹקְעִין וְהוֹלְכִין, עַד שֶׁמַּגִּיעִין לַשַּׁעַר הַיּוֹצֵא מִזְרָח. הִגִּיעוּ לַשַּׁעַר הַיּוֹצֵא מִמִּזְרָח, הָפְכוּ פְנֵיהֶן לַמַּעֲרָב, וְאָמְרוּ, אֲבוֹתֵינוּ שֶׁהָיוּ בַמָּקוֹם הַזֶּה אֲחוֹרֵיהֶם אֶל הֵיכַל ה' וּפְנֵיהֶם קֵדְמָה, וְהֵמָּה מִשְׁתַּחֲוִים קֵדְמָה לַשָּׁמֶשׁ, וְאָנוּ לְיָהּ עֵינֵינוּ. רַבִּי יְהוּדָה אוֹמֵר, הָיוּ שׁוֹנִין וְאוֹמְרִין, אָנוּ לְיָהּ, וּלְיָהּ עֵינֵינוּ:
אֵין פּוֹחֲתִין מֵעֶשְׂרִים וְאַחַת תְּקִיעוֹת בַּמִּקְדָּשׁ, וְאֵין מוֹסִיפִין עַל אַרְבָּעִים וּשְׁמֹנֶה. בְּכָל יוֹם הָיוּ שָׁם עֶשְׂרִים וְאַחַת תְּקִיעוֹת בַּמִּקְדָּשׁ, שָׁלשׁ לִפְתִיחַת שְׁעָרִים, וְתֵשַׁע לְתָמִיד שֶׁל שַׁחַר, וְתֵשַׁע לְתָמִיד שֶׁל בֵּין הָעַרְבָּיִם. וּבַמּוּסָפִין הָיוּ מוֹסִיפִין עוֹד תֵּשַׁע. וּבְעֶרֶב שַׁבָּת הָיוּ מוֹסִיפִין עוֹד שֵׁשׁ, שָׁלשׁ לְהַבְטִיל הָעָם מִמְּלָאכָה, וְשָׁלשׁ לְהַבְדִּיל בֵּין קֹדֶשׁ לְחֹל. עֶרֶב שַׁבָּת שֶׁבְּתוֹךְ הֶחָג הָיוּ שָׁם אַרְבָּעִים וּשְׁמֹנֶה, שָׁלשׁ לִפְתִיחַת שְׁעָרִים, שָׁלשׁ לַשַּׁעַר הָעֶלְיוֹן, וְשָׁלשׁ לַשַּׁעַר הַתַּחְתּוֹן, וְשָׁלשׁ לְמִלּוּי הַמַּיִם, וְשָׁלשׁ עַל גַּבֵּי מִזְבֵּחַ, תֵּשַׁע לְתָמִיד שֶׁל שַׁחַר, וְתֵשַׁע לְתָמִיד שֶׁל בֵּין הָעַרְבַּיִם, וְתֵשַׁע לַמּוּסָפִין, שָׁלשׁ לְהַבְטִיל אֶת הָעָם מִן הַמְּלָאכָה, וְשָׁלשׁ לְהַבְדִּיל בֵּין קֹדֶשׁ לְחֹל:
יוֹם טוֹב הָרִאשׁוֹן שֶׁל חָג הָיוּ שָׁם שְׁלשָׁה עָשָׂר פָּרִים, וְאֵילִים שְׁנַיִם, וְשָׂעִיר אֶחָד. נִשְׁתַּיְּרוּ שָׁם אַרְבָּעָה עָשָׂר כְּבָשִׂים לִשְׁמֹנֶה מִשְׁמָרוֹת. בַּיּוֹם הָרִאשׁוֹן, שִׁשָּׁה מַקְרִיבִין שְׁנַיִם שְׁנַיִם, וְהַשְּׁאָר אֶחָד אֶחָד. בַּשֵּׁנִי, חֲמִשָּׁה מַקְרִיבִין שְׁנַיִם שְׁנַיִם, וְהַשְׁאָר אֶחָד אֶחָד. בַּשְּׁלִישִׁי, אַרְבָּעָה מַקְרִיבִין שְׁנַיִם שְׁנַיִם, וְהַשְׁאָר אֶחָד אֶחָד. בָּרְבִיעִי, שְׁלשָׁה מַקְרִיבִין שְׁנַיִם שְׁנַיִם, וְהַשְּׁאָר אֶחָד אֶחָד. בַּחֲמִשִּׁי, שְׁנַיִם מַקְרִיבִין שְׁנַיִם שְׁנַיִם, וְהַשְּׁאָר אֶחָד אֶחָד. בַּשִּׁשִּׁי, אֶחָד מַקְרִיב שְׁנַיִם, וְהַשְּׁאָר אֶחָד אֶחָד. בַּשְּׁבִיעִי, כֻּלָּן שָׁוִין. בַּשְּׁמִינִי, חָזְרוּ לַפַּיִס כְּבָרְגָלִים. אָמְרוּ, מִי שֶׁהִקְרִיב פָּרִים הַיּוֹם, לֹא יַקְרִיב לְמָחָר, אֶלָּא חוֹזְרִין חֲלִילָה:
בִּשְׁלשָׁה פְרָקִים בַּשָּׁנָה הָיוּ כָּל מִשְׁמָרוֹת שָׁווֹת בְּאֵמוּרֵי הָרְגָלִים וּבְחִלּוּק לֶחֶם הַפָּנִים. בַּעֲצֶרֶת אוֹמְרִים לוֹ, הֵילָךְ מַצָּה הֵילָךְ חָמֵץ. מִשְׁמָר שֶׁזְּמַנּוֹ קָבוּעַ, הוּא מַקְרִיב תְּמִידִין, נְדָרִים וּנְדָבוֹת וּשְׁאָר קָרְבְּנוֹת צִבּוּר, וּמַקְרִיב אֶת הַכֹּל. יוֹם טוֹב הַסָּמוּךְ לְשַׁבָּת, בֵּין מִלְּפָנֶיהָ בֵּין מִלְּאַחֲרֶיהָ, הָיוּ כָל הַמִּשְׁמָרוֹת שָׁווֹת בְּחִלּוּק לֶחֶם הַפָּנִים:
חָל לִהְיוֹת יוֹם אֶחָד לְהַפְסִיק בֵּינְתַיִם, מִשְׁמָר שֶׁזְּמַנּוֹ קָבוּעַ, הָיָה נוֹטֵל עֶשֶׂר חַלּוֹת, וְהַמִּתְעַכֵּב נוֹטֵל שְׁתָּיִם. וּבִשְׁאָר יְמוֹת הַשָּׁנָה, הַנִּכְנָס נוֹטֵל שֵׁשׁ, וְהַיּוֹצֵא נוֹטֵל שֵׁשׁ. רַבִּי יְהוּדָה אוֹמֵר, הַנִּכְנָס נוֹטֵל שֶׁבַע, וְהַיּוֹצֵא נוֹטֵל חָמֵשׁ. הַנִּכְנָסִין חוֹלְקִין בַּצָּפוֹן, וְהַיּוֹצְאִין בַּדָּרוֹם. בִּלְגָּה לְעוֹלָם חוֹלֶקֶת בַּדָּרוֹם, וְטַבַּעְתָּהּ קְבוּעָה, וְחַלּוֹנָהּ סְתוּמָה: