(שמות ט״ז:ד׳) וַיֹּאמֶר יְיָ' אֶל מֹשֶׁה הִנְנִי מַמְטִיר לָכֶם לֶחֶם מִן הַשָּׁמָיִם. רִבִּי יְהוּדָה פָּתַח וְאָמַר, (תהילים מ״א:ב׳) אַשְׁרֵי מַשְׂכִּיל אֶל דָּל בְּיוֹם רָעָה יְמַלְּטֵהוּ יְיָ'. הַאי קְרָא אוֹקִימְנָא לֵיהּ, בְּשַׁעֲתָא דְּבַר נָשׁ שָׁכִיב בְּבֵי מַרְעֵיהּ, הָא אִתְּפַס בְּאַטְרוֹנְיָא דְּמַלְכָּא, רֵישֵׁיהּ בְּקוּלְרָא, רַגְלוֹי בְּכוּפְסִירִין, (ס''א בטפסרא) כַּמָּה חֵילִין נַטְרִין לֵיהּ, מֵהַאי גִּיסָא, וּמֵהַאי גִּיסָא. שַׁיְיפוֹי כֻּלְּהוּ בְּדוֹחֲקָא, מַגִּיחִין אִלֵּין בְּאִלֵּין. מֵיכְלָא אִתְעָדֵי מִנֵּיהּ.
בְּהַהוּא זִמְנָא, פַּקְדִין עָלֵיהּ אַפּוֹטְרוֹפָא, לְמֵילַף עָלֵיהּ זְכוּת קָמֵי מַלְכָּא, דִּכְתִּיב, (איוב ל״ג:כ״ג) אִם יֵשׁ עָלָיו מַלְאָךְ מֵלִיץ אֶחָד מִנִּי אָלֶף. בְּהַהִיא שַׁעֲתָא, זַכָּאָה חוּלָקֵיהּ דְּבַּר נָשׁ דְּעָאל עָלֵיהּ, וְאוֹלִיף לֵיהּ אָרְחָא, לְשֵׁיזָבוּתֵיהּ מִן דִּינָא. הֲדָא הוּא דִכְתִיב אַשְׁרֵי מַשְׂכִּיל אֶל דָּל.
וְהֵיךָ יָכִיל לְשֵׁזָבָא לֵיהּ, לְמֵילַף לֵיהּ אָרְחוֹי דְּחַיֵּי, לְאָתָבָא לְקָמֵי מָארֵיהּ, כְּדֵין אִתְעָבִיד אַפּוֹטְרוֹפוֹסָא עָלֵיהּ לְעֵילָּא. מַאי אַגְרֵיהּ. בְּיוֹם רָעָה יְמַלְּטֵהוּ יְיָ'. דָּבָר אַחֵר, אַשְׁרֵי מַשְׂכִּיל אֶל דָּל, כַּמָּה תַּקִּיפָא אַגְרָא דְּמִסְכְּנָא, קָמֵי קוּדְשָׁא בְּרִיךְ הוּא.
אָמַר רִבִּי חִיָּיא, תָּוַוהְנָא עַל הַאי קְרָא דִּכְתִּיב, (תהילים ס״ט:ל״ד) כִּי שׁוֹמֵעַ אֶל אֶבְיוֹנִים יְיָ', וְכִי אֶל אֶבְיוֹנִים שׁוֹמֵעַ וְלֹא לְאַחֲרָא. אָמַר רִבִּי שִׁמְעוֹן, בְּגִין דְּאִינּוּן קְרִיבִין יַתִּיר לְמַלְכָּא, דִּכְתִּיב, (תהילים נ״א:י״ט) לֵב נִשְׁבָּר וְנִדְכֶּה אֱלהִים לא תִבְזֶה. וְלֵית לָךְ בְּעָלְמָא, דְּאִיהוּ תָּבִיר לִבָּא כְּמִסְכְּנָא. תּוּ אָמַר רִבִּי שִׁמְעוֹן, תָּא חֲזֵי, כָּל אִינּוּן בְּנִי עָלְמָא, אִתְחַזְיָין קָמֵי קוּדְשָׁא בְּרִיךְ הוּא, בְּגוּפָא וְנַפְשָׁא, וּמִסְכְּנָא לָא אִתְחָזֵי אֶלָּא בְּנַפְשָׁא בִּלְחוֹדוֹי, וְקוּדְשָׁא בְּרִיךְ הוּא קָרִיב לְנַפְשָׁא יַתִּיר מִגּוּפָא.
מִסְכְּנָא חַד הֲוָה בִּשְׁבִבוּתֵיהּ דְּר' יֵיסָא, וְלָא הֲוָה מַאן דְּאַשְׁגַּח בֵּיהּ, וְהוּא הֲוָה אַכְסִיף, וְלָא תַּקִּיף בִּבְנֵי נָשָׁא, יוֹמָא חַד חָלַּשׁ, עָאל עָלֵיהּ רִבִּי יֵיסָא, שָׁמַע חַד קָלָא דְּאָמַר, טִילְקָא טִילְקָא, הָא נַפְשָׁא פַּרְחָא גַּבָּאי, וְלָא מָטוּ יוֹמוֹי. וַוי לִבְנִי מָתֵיהּ דְּלָא אִשְׁתְּכַח בְּהוּ דְּיָתִיב נַפְשֵׁיהּ לְגַבֵּיהּ. קָם רִבִּי יֵיסָא, שַׁדֵּי בְּפוּמֵיהּ, מַיָּא דְּגַרְגְּרִין, אַפוּתָא דְּקוּנְטָא (ס''א דקופתא) אִתְבְּזַע זִיִעָא בְּאַנְפּוֹי, וְתָב רוּחֵיהּ לְגַבֵּיהּ.
לְבָתַר אָתָא וְשָׁאִיל לֵיהּ, אָמַר חַיֶּיךָ רִבִּי, נַפְשָׁא נַפְקַת מִנַּאי, וּמָטוּ לָהּ קָמֵי כּוּרְסְיָיא דְּמַלְכָּא, וּבָעָת לְאִשְׁתַּאֲרָא תַּמָּן, אֶלָּא דְּבָעָא קוּדְשָׁא בְּרִיךְ הוּא לְזַכָּאָה לָךְ, וְאַכְרִיזוּ עָלָךְ, זַמִּין הוּא רִבִּי (ויקרא ע''ט ע''א וקמ''ד ע''א) יֵיסָא, לְסַלְּקָא רוּחֵיהּ, וּלְאִתְקְשְּׁרָא בְּחַד אִדְרָא קַדִּישָׁא דִּזְמִינִין חַבְרַיָּיא לְאִתְּעָרָא בְּאַרְעָא, וְהָא אַתְקִינוּ תְּלַת כֻּרְסְיָאן, דְּקַיְימִן לָךְ וּלְחַבְרָךְ. מֵהַהוּא יוֹמָא הֲווֹ מַשְׁגִּיחִין בֵּיהּ בְּנֵי מָתֵיהּ.
תּוּ, מִסְכְּנָא אַחֲרָא אַעְבָר קָמֵיהּ דְּר' יִצְחָק, וַהֲוָה בִּידֵיהּ פְּלַג מְעָה דְּכֶסֶף. אָמַר לֵיהּ לְרִבִּי יִצְחָק, אַשְׁלִים לִי וְלִבְנַי וְלִבְנָתַי נַפְשָׁאָן. אָמַר לֵיהּ וְהֵיךְ אַשְׁלִים נַפְשַׁיְיכוּ, דְּהָא לָא אִשְׁתְּכַח גַּבָּאי בַּר פְּלַג מְעָה. אָמַר לֵיהּ, בְּדָא אַשְׁלִימְנָא, בִּפְלַג אַחֲרָא דְּאִית גַּבָּאי, אַפְקֵיהּ וְיָהֲבֵיהּ לֵיהּ.
אַחְזִיאוּ לֵיהּ בְּחֶלְמֵיהּ, דְּהֲוָה אַעְבָר בִּשְׂפָתָא דְּיַמָּא רַבָּא, וּבָעָאן לְמִשְׁדְּיֵיהּ בְּגַוֵּויהּ, (ויחי רי''ח ע''א) חָמָא לְרִבִּי שִׁמְעוֹן, דְּהֲוָה אוֹשִׁיט יְדוֹי לָקֳבְלֵיהּ, וְאָתֵי הַהוּא מִסְכְּנָא וְאַפְקֵיהּ, וְיָהֲבֵיהּ בִּידוֹי דְּרִבִּי שִׁמְעוֹן, וְאִשְׁתֵּזִיב. כַּד אִתְּעַר, נָפַל בְּפוּמֵיהּ, הַאי קְרָא, (תהילים מ״א:ב׳) אַשְׁרֵי מַשְׂכִּיל אֶל דָּל בְּיוֹם רָעָה יְמַלְּטֵהוּ יְיָ'.
וְתָא חֲזֵי, כָּל יוֹמָא וְיוֹמָא, נָטִיף טַלָּא מֵעַתִּיקָא קַדִּישָׁא לִזְעֵיר אַפִּין, וּמִתְבָּרְכָאן כָּל חֲקַל תַּפּוּחִין קַדִּישִׁין. וּמֵהַהוּא טַלָּא אַנְגִּיד לְאִינוּן דִּלְתַתָּא, וּמַלְאָכִין קַדִּישִׁין אִתְּזָנוּ מִנֵּיהּ, כָּל חַד וְחַד כְּפוּם מֵיכָלֵיהּ, הֲדָא הוּא דִכְתִיב, (תהילים ע״ח:כ״ה) לֶחֶם אַבִּירִים אָכַל אִישׁ, וּמֵהַהוּא מְזוֹנָא אָכְלוּ יִשְׂרָאֵל בְּמַדְבְּרָא.
אָמַר רִבִּי שִׁמְעוֹן, כַּמָּה בְּנֵי נָשָׁא מִתְּזָנִין בְּהַאי זִמְנָא מִנֵּיהּ, וּמַאן אִינּוּן. אִלֵּין חַבְרַיָּיא דְּמִשְׁתַּדְּלֵי בְּאוֹרַיְיתָא, יוֹמֵי וְלֵילֵי. וְכִי סַלְּקָא דַּעְתָּךְ מֵהַהוּא מְזוֹנָא מַמָּשׁ. לָא. אֶלָּא כְּעֵין הַהוּא מְזוֹנָא מַמָּשׁ, דְּשָׁקִיל עַל חַד תְּרֵין.
תָּא חֲזֵי, יִשְׂרָאֵל כַּד עָאלוּ וְאִתְדְּבָקוּ בְּמַלְכָּא קַדִּישָׁא, בְּגִין גִּלּוּיָא דִּרְשִׁימָא קַדִּישָׁא, כְּדֵין זָכוּ לְמֵיכַל נַהֲמָא אַחֲרָא עִלָּאָה, יַתִּיר מִמַּה דְּהֲוָה בְּקַדְמִיתָא. בְּקַדְמִיתָא כַּד נָפְקוּ יִשְׂרָאֵל מִמִּצְרַיִם, עָאלוּ בְּנָהֲמָא, דְּאִקְרֵי מַצָּה, וְהַשְׁתָּא זָכוּ, וְעָאלוּ לְמֵיכַל נַהֲמָא אַחֲרָא עִלָּאָה יַתִּיר, מֵאֲתָר עִלָּאָה, דִּכְתִּיב הִנְנִי מַמְטִיר לָכֶם לֶחֶם מִן הַשָּׁמָיִם. מִן הַשָּׁמָיִם מַמָּשׁ. וּבְהַהוּא זִמְנָא אִשְׁתְּכַח לְהוּ לְיִשְׂרָאֵל. מֵאֲתָר דָּא. חַבְרַיָּיא דְּמִשְׁתַּדְּלֵי בְּאוֹרַיְיתָא, מֵאֲתָר אַחֲרָא עִלָּאָה יַתִּיר אִתְּזָנוּ. מַאי הוּא. כְּמָה דִּכְתִּיב, (קהלת ז) הַחָכְמָה תְּחַיֶּה בְעָלֶיהָ. אֲתָר עִלָּאָה יַתִּיר.
אֲמַר לֵיהּ ר' אֶלְעָזָר, אִי הָכִי, אֲמַאי חַלְשָׁא נַפְשַׁיְיהוּ יַתִּיר מִשְּׁאָר בְּנֵי עָלְמָא, דְּהָא שְׁאַר בְּנֵי נָשָׁא, בְּחֵילָא וְתּוּקְפָּא יַתִּיר אִתְחָזוּן לְאִשְׁתַּכְּחָא. (ס''א אינון יתיר) אָמַר לֵיהּ יֵאוֹת שָׁאִילְתָּא.
תָּא חֲזֵי, כָּל מְזוֹנִי דִּבְנֵי עָלְמָא מִלְּעֵילָּא קָא אַתְיָין. הַהוּא מְזוֹנָא דְּאָתֵי מִן שְׁמַיָּא וְאַרְעָא, דָּא מְזוֹנָא דְּכָל עָלְמָא, וְהוּא מְזוֹנָא דְּכוֹלָא, וְהוּא מְזוֹנָא גַּס וְעָב. וְהַהוּא מְזוֹנָא דְּאָתֵי יַתִּיר מֵעֵילָּא, הוּא מְזוֹנָא יַתִּיר דָּקִיק, קָאַתְיַא מֵאֲתָר דְּדִינָא אִשְׁתְּכַח, וְדָא הוּא מְזוֹנָא דְּאַכְלוּ יִשְׂרָאֵל כַּד נָפְקוּ מִמִּצְרַיִם. (יתיר דקיקא) מְזוֹנָא דְּאִשְׁתְּכַח לְהוּ לְיִשְׂרָאֵל, בְּהַהוּא זִמְנָא בְּמַדְבְּרָא, מֵאֲתָר עִלָּאָה דְּאִקְרֵי שָׁמַיִם, הוּא מְזוֹנָא יַתִּיר דְּקִיקָא, דְּעָיִיל יַתִּיר לְנַפְשָׁא מִכֹּלָּא, וּמִתְפְּרַשׁ יַתִּיר מִגּוּפָא, וְאִקְרֵי לֶחֶם אַבִּירִים.
מְזוֹנָא עִלָּאָה יַתִּיר מִכֹּלָּא, הוּא מְזוֹנָא דְּחַבְרַיָּיא, אִינּוּן דְּמִשְׁתַּדְּלֵי בְּאוֹרַיְיתָא, דְּאַכְלֵי מְזוֹנָא דְּרוּחָא וְנִשְׁמְתָא, וְלָא אַכְלֵי מְזוֹנָא דְּגוּפָא כְּלָל, וְהַיְינוּ מֵאֲתָר עִלָּאָה יַקִּירָא עַל כֹּלָּא, וְאִקְרֵי חָכְמָה. בְּגִינֵי כַּךְ חָלִישׁ גּוּפָא דְּחַבְרַיָּיא, יַתִּיר מִבְּנֵי עָלְמָא, דְּהָא לָא אַכְלֵי מְזוֹנָא דְּגוּפָא כְּלָל. וְאַכְלֵי מְזוֹנָא דְּרוּחָא וְנִשְׁמְתָא, מֵאֲתָר רְחִיקָא עִלָּאָה, יַקִּירָא מִכֹּלָּא. וּבְגִינֵי כַּךְ הַהוּא מְזוֹנָא דָּקִיק מִן דְּקִיקָא, יַתִּיר מִכֹּלָּא. זַכָּאָה חוּלָקֵיהוֹן, הֲדָא הוּא דִכְתִיב, (קהלת ז׳:י״ב) הַחָכְמָה תְּחַיֶּה בְעָלֶיהָ. זַכָּאָה חוּלָקָא דְּגוּפָא, דְּיָכִיל לְאִתְּזָנָא בִּמְזוֹנָא דְּנַפְשָׁא.
אֲמַר לֵיהּ ר' אֶלְעָזָר, וַדַּאי הָכִי הוּא. אֲבָל בְּהַאי זִמְנָא, אֵיךְ אִשְׁתַּכְּחֵי מְזוֹנֵי אִלֵּין. אֲמַר לֵיהּ וַדַּאי יֵאוֹת שָׁאִילְתָּא. תָּא חֲזֵי, וְדָא הוּא בְּרִירוּ דְּמִלָּה, מְזוֹנָא קַדְמָאָה, הוּא מְזוֹנָא דְּכָל עָלְמָא, הַהוּא דְּאַתְיָא מִן שְׁמַיָּא וְאַרְעָא, וְהוּא מְזוֹנָא דְּגוּפָא. (ס''א דכלא)
מְזוֹנָא דְּהוּא עִלָּאָה מִנֵּיהּ, הַהוּא דְּאִיהוּ דְּקִיקָא יַתִּיר, וְאָתָא מֵאֲתָר דְּדִינָא שַׁרְיָא, דְּאִקְרֵי צֶדֶק, וְדָא הוּא מְזוֹנָא דְּמִסְכְּנֵי. וְרָזָא דְּמִלָּה, מַאן דְּאַשְׁלִים לְמִסְכְּנָא, אַשְׁלִים לֵיהּ אָת חַד, וְאִתְעָבִיד צְדָקָה, וְרָזָא דָּא (משלי יא) גּוֹמֵל נַפְשׁוֹ אִישׁ חֶסֶד. גְּמִילוּת חֲסָדִים מַשְׁמַע, דְּהָא בְּדִינָא שַׁרְיָא, וְאַשְׁלִים לֵיהּ חֶסֶד, כְּדֵין הוּא רַחֲמֵי.
מְזוֹנָא עִלָּאָה יַתִּיר מֵאִלֵּין, הוּא מְזוֹנָא עִלָּאָה וְיַקִּירָא, מֵאֲתָר דְּאִקְרֵי שָׁמַיִם, וְהוּא דָּקִיק מִכֻּלְּהוּ, וְהוּא מְזוֹנָא דִּבְנֵי מַרְעֵי, הֲדָא הוּא דִכְתִיב, (תהילים מ״א:ד׳) יְיָ' יִסְעָדֶנּוּ עַל עֶרֶשׂ דְּוָי כָּל מִשְׁכָּבוֹ הָפַכְתָּ בְחָלְיוֹ. יְיָ', דַּיְיקָא, מַאי טַעְמָא. בְּגִין דְּהָנֵי בְּנֵי מַרְעֵי, לָא אִתְּזְנֵי אֶלָּא בְּהַהוּא דְּקוּדְשָׁא בְּרִיךְ הוּא מַמָּשׁ. (ומאי איהו, חלב ודם. הדא הוא דכתיב (יחזקאל מה) להקריב לי חלב ודם. ודא הוא מזונא מאתר דאקרי שמים, והוא יקירא ועילאה דקיק מכלא)
מְזוֹנָא עִלָּאָה קַדִּישָׁא וְיַקִּירָא דָּא הוּא מְזוֹנֵי דְּרוּחִין וְנִשְׁמָתִין, וְהוּא מְזוֹנָא דַּאֲתָר רְחִיקָא עִלָּאָה, (ס''א מההוא אתר דאקרי נועם יי'.) וְיַקִּירָא מִכֹּלָּא, הוּא מְזוֹנָא דְּחַבְרַיָּיא דְּמִשְׁתַּדְּלֵי בְּאוֹרַיְיתָא, וְהוּא מְזוֹנָא דְּאָתֵי מֵחָכְמָה עִלָּאָה. מַאי טַעְמָא מֵאֲתָר דָּא. בְּגִין דְּאוֹרַיְיתָא נַפְקָא (בראשית מ''ז ע''ב, ויקרא קפ''ו ע''ב וקצ''ב ע''ב) מֵחָכְמָה עִלָּאָה, וְאִינּוּן דְּמִשְׁתַּדְּלֵי בְּאוֹרַיְיתָא, עַיְילֵי בְּעִקָרָא דְּשָׁרְשָׁהָא, וְעַל דָּא, מְזוֹנָא דִּלְהוֹן, מֵהַהוּא אֲתָר עִלָּאָה קַדִּישָׁא קָא אַתְיָא.
אָתָא ר' אֶלְעָזָר, וְנָשִׁיק יְדוֹי. אָמַר, זַכָּאָה חוּלָקִי דְּקָאִימְנָא בְּמִלִּין אִלֵּין. זַכָּאָה חוּלָקֵיהוֹן דְּצַדִּיקַיָּיא, דְּמִשְׁתַּדְּלֵי בְּאוֹרַיְיתָא יְמָמָא וְלֵילֵי, דְּזָכֵי לוֹן בְּהַאי עָלְמָא, וּבְעָלְמָא דְּאָתֵי, דִּכְתִּיב, (דברים ל׳:כ׳) כִּי הוּא חַיֶּיךָ וְאוֹרֶךְ יָמֶיךָ. (שמותטז) הִנְנִי מַמְטִיר לָכֶם לֶחֶם מִן הַשָּׁמָיִם. רִבִּי יוֹסֵי פָּתַח, (תהילים קמ״ה:ט״ז) פּוֹתֵחַ אֶת יָדֶךָ וּמַשְׂבִּיעַ לְכָל חַי רָצוֹן. מַה כְּתִיב לְעֵילָּא, עֵינֵי כֹל אֵלֶיךָ יְשַׂבֵּרוּ. כָּל אִינּוּן בְּנִי עָלְמָא, מְצַפָּאן וְזַקְפָאן עַיְינִין לְקוּדְשָׁא בְּרִיךְ הוּא, בְּגִין כַּךְ, (ס''א אבל) כָּל אִינּוּן בְּנֵי מְהֵימָנוּתָא בָּעָאן (ס''א אצטריכן למבעי) בְּכָל יוֹמָא וְיוֹמָא, לְשָׁאָלָא מְזוֹנַיְיהוּ מִּקוּדְשָׁא בְּרִיךְ הוּא, וּלְצַלָּאָה צְלוֹתֵהוֹן עָלֵיהּ.
מַאי טַעְמָא. בְּגִין דְּכָל מַאן דִּמְצַלֵי צְלוֹתֵיהּ לְגַבֵּי קוּדְשָׁא בְּרִיךְ הוּא עַל מְזוֹנֵיהּ, גָּרִים דְּיִתְבָּרֵךְ כָּל יוֹמָא עַל יְדוֹי, הַהוּא אִילָנָא דְּמָזוֹן דְּכֹלָּא בֵּיהּ. (וטעמא דמלה (תהילים ס״ח:כ׳) ברוך ה' יום יום) וְאַף עַל גַּב דְּאִשְׁתְּכַח עִמֵּיהּ, בָּעֵי לְמִשְׁאַל קָמֵי קוּדְשָׁא בְּרִיךְ הוּא, וּלְצַלָּאָה צְלוֹתָא עַל מְזוֹנָא כָּל יוֹמָא, בְּגִין דְּיִשְׁתְּכָחוּ עַל יְדוֹי בִּרְכָּאן כָּל יוֹמָא וְיוֹמָא לְעֵילָּא, וְדָא הוּא בָּרוּךְ יְיָ' יוֹם יוֹם.
ועַל דָּא, לָא לִבָעֵי לֵיהּ לֶאֱינָשׁ לְבַשְּׁלָא מְזוֹנָא, מִן יוֹמָא לְיוֹמָא אַחֲרִינָא, דְּלָא לְעַכֵּב יוֹמָא לְיוֹמָא אַחֲרָא. הֲדָא הוּא דִכְתִיב וְיָצָא הָעָם וְלָקְטוּ דְּבַר יוֹם בְּיוֹמוֹ. יוֹם בְּיוֹמוֹ, דַּיְיקָא. בַּר מֵעֶרֶב שַׁבָּת לְשַׁבָּת, כְּמָה דְּאוֹקִימְנָא. וּכְדֵין אִשְׁתְּכַח קוּדְשָׁא בְּרִיךְ הוּא מָלֵא בִּרְכָּאן בְּכָל יוֹמָא. וּכְדֵין כְּתִיב פּוֹתֵחַ אֶת יָדֶךָ וְגוֹ'. מַאי רָצוֹן. הַהוּא רָצוֹן דְּאִשְׁתְּכַח מֵעַתִּיקָא קַדִּישָׁא, וְנָפִיק מִנֵּיהּ רָצוֹן, לְאִשְׁתַּכְּחָא מְזוֹנֵי לְכֹלָּא. וּמַאן דְּשָׁאִיל מְזוֹנֵי בְּכָל יוֹמָא וְיוֹמָא, הַהוּא אִקְרֵי בְּרָא מְהֵימָנָא, בְּרָזָא דִּבְגִינֵיהּ מִשְׁתַּכְחָן בִּרְכָּאן לְעֵילָּא.
ר' אַבָּא פָּתַח וְאָמַר, (תהילים קמ״ז:י״א) רוֹצֶה יְיָ' אֶת יְרֵאָיו אֶת הַמְיַחֲלִים לְחַסְדּוֹ, כַּמָּה אִית לְהוּ לִבְנֵי נָשָׁא לְמֵהַךְ בְּאָרְחוֹי דְּמַלְכָּא קַדִּישָׁא, וּלְמֵהַךְ בְּאָרְחוֹי דְּאוֹרַיְיתָא, בְּגִין דְּיִשְׁתַּכְּחוּן בִּרְכָּאן לְכֻלְּהוּ, לְעִלָּאֵי וּלְתַתָּאֵי.
דְּתַנְיָא, מַאידִּכְתִּיב, (ישעיהו מ״ט:ג׳) יִשְׂרָאֵל אֲשֶׁר בְּךָ אֶתְפָּאָר. אֶתְפָּאָר ודַּאי. מַאי מַשְׁמַע. דִּבְגִין יִשְׂרָאֵל לְתַתָּא, קוּדְשָׁא בְּרִיךְ הוּא מִתְפָּאַר לְעֵילָּא. וּמַאי פְּאֵרָא דִּילֵיהּ. דְּאִתְחַבָּשׁ בִּתְפִילִין, דְּמִתְחַבְּרָא גַּוְונִי לְאִתְפָּאַרָא.
תָּאנָא, רוֹצֶה יְיָ' אֶת יְרֵאָיו, רוֹצֶה יְיָ' בִּירֵאָיו מִבָּעֵי לֵיהּ. מַאי רוֹצֶה יְיָ' אֶת יְרֵאָיו, אֶלָּא רוֹצֶה יְיָ' אֶת יְרֵאָיו, כְּלוֹמַר, אַפִּיק הַאי רָצוֹן, וּמִתְרָעֵי (נ''א ואתידע) בְּהוּ קוּדְשָׁא בְּרִיךְ הוּא, לִירֵאָיו דְּדָחֲלִין לֵיהּ. וּמַאן אִינּוּן יְרֵאָיו דְּאַפִּיק לוֹן הַאי רָצוֹן. הָדַר וְאָמַר, אֶת הַמְיַחֲלִים לְחַסְדּוֹ, אִינּוּן דִּמְצָפָאן וּמְחַכָּאן בְּכָל יוֹמָא וְיוֹמָא, לְמִבָּעֵי מְזוֹנַיְיהוּ מִן קוּדְשָׁא בְּרִיךְ הוּא, מַשְׁמַע דִּכְתִּיב אֶת הַמְיַחֲלִים לְחַסְדּוֹ.
רִבִּי יֵיסָא סָבָא, לָא אַתְקִין סְעוּדָתָא בְּכָל יוֹמָא, עַד דְּבָעָא בָּעוּתֵיהּ קָמֵי קוּדְשָׁא בְּרִיךְ הוּא, עַל מְזוֹנֵי. אָמַר, לָא נַתְקִין סְעוּדָתָא, עַד דְּתִתְיְהִיב מִבֵּי מַלְכָּא. לְבָתַר דְּבָעֵי בָּעוּתֵיהּ קָמֵי קוּדְשָׁא בְּרִיךְ הוּא, הֲוָה מְחַכֶּה שַׁעֲתָא חֲדָא, אָמַר הָא עִידָן דְּתִתְיְהִיב מִבֵּי מַלְכָּא, מִכָּאן וּלְהָלְאָה אַתְקִינוּ סְעוּדָתָא. וְדָא הוּא אָרְחָא, דְּאִינּוּן דַּחֲלֵי קוּדְשָׁא בְּרִיךְ הוּא, דַּחֲלֵי חַטָּאָה.
אִינּוּן חַיָּיבַיָּא דְּאַזְלִין עֲקִימִין בְּאָרְחֵי אוֹרַיְיתָא, מַה כְּתִיב בְּהוּ. (ישעיהו ה׳:י״א) הוֹי מַשְׁכִּימֵי בַבֹּקֶר שֵׁכָר יִרְדֹּפוּ. וְעַל דָּא רוֹצֶה יְיָ' אֶת יְרֵאָיו אֶת הַמְיַחֲלִים לְחַסְדּוֹ. לְחַסְדּוֹ דַּיְיקָא. (ס''א ובהא) אִשְׁתְּמוֹדְעָן אִינּוּן בְּנֵי מְהֵימָנוּתָא בְּכָל יוֹמָא וְיוֹמָא, הֲדָא הוּא דִּכְתִּיב, וְיָצָא הָעָם וְלָקְטוּ דְּבַר יוֹם בְּיוֹמוֹ. יוֹם בְּיוֹמוֹ קָאָמַר, וְלֹא דְּבַר יוֹם לְיוֹם אַחֵר.
וְכָל כַּךְ לָמָּה. לְמַעַן אֲנַסֶּנּוּ הֲיֵלֶךְ בְּתוֹרָתִי אִם לא בְּכָאן אִשְׁתְּמוֹדְעָן אִינּוּן בְּנֵי מְהֵימָנוּתָא, דְּכָל יוֹמָא וְיוֹמָא אִינּוּן אַזְלֵי בְּאֹרַח מֵישָׁר בְּאוֹרַיְיתָא. רִבִּי יִצְחָק אָמַר מֵהָכָא, (משלי י״ג:כ״ה) צַדִּיק אוֹכֵל לְשׂוֹבַע נַפְשׁוֹ, בָּתַר דְּשָׂבַע נַפְשֵׁיהּ מִלְּצַלֵּי וּלְמִקְרֵי בְּאוֹרַיְיתָא.
רִבִּי שִׁמְעוֹן אָמַר, תָּא חֲזֵי, עַד לָא יָהַב קוּדְשָׁא בְּרִיךְ הוּא אוֹרַיְיתָא לְיִשְׂרָאֵל, אַבְחִין בֵּין אִינּוּן בְּנִי מְהֵימָנוּתָא, וּבֵין אִינּוּן חַיָּיבַיָּא דְּלָאו אִינּוּן בְּנִי מְהֵימָנוּתָא, וְלָא קַיְימִין בְּאוֹרַיְיתָא. וּבַמֶּה אַבְחִין לוֹן. בַּמָּן. כְּמָה דְּאִתְּמַר אֲנַסֶּנּוּ. וְכָל אִינּוּן דְּאִשְׁתְּכָחוּ דְּאִינּוּן בְּנֵי מְהֵימָנוּתָא, רָשִׁים לֵיהּ קוּדְשָׁא בְּרִיךְ הוּא, בִּרְשִׁימוּ דְּכִתְרָא דְּחֶסֶ''ד, כְּמָה דְאַתְּ אָמֵר הַמְיַחֲלִים לְחַסְדּוֹ, וְעַל דָּא לְמַעַן אֲנַסֶּנּוּ. וְכָל אִינּוּן דְּלָא מִשְׁתַּכְּחֵי בְּנִי מְהֵימָנוּתָא, אַעְדֵּי מִנַּיְיהוּ כִּתְרָא עִלָּאָה דָּא. וּמָנָא אַכְרִיז וְאָמַר, (משלי י״ג:כ״ה) וּבֶטֶן רְשָׁעִים תֶחְסַר. וְעִם כָּל דָּא לֹא הֶעְדִּיף הַמַּרְבֶּה וְהַמַּמְעִיט לא הֶחְסִיר.
תָּאנָא, בְּהַהוּא שַׁעֲתָא אִשְׁתְּלִימוּ יִשְׂרָאֵל לְתַתָּא, כְּגַוְונָא דִּלְעֵילָּא, כְּמָה דְּאוֹקִימְנָא, דִּכְתִּיב, (שמות ט״ו:כ״ז) וַיָּבוֹאוּ אֵלִימָה וְשָׁם שְׁתֵּים עֶשְׂרֵה עֵינוֹת מַיִם וְשִׁבְעִים תְּמָרִים וְגו'. וְאִתְתָּקַּף אִילָנָא קַדִּישָׁא, בִּתְרֵיסַר תְּחוּמִין, בְּאַרְבַּע סִטְרֵי עָלְמָא. וְאִתְתָּקַּף בְּשִׁבְעִין עַנְפִין, וְכֹלָּא כְּגַוְונָא דִּלְעֵילָּא.
בְּהַהִיא שַׁעֲתָא, נָטִיף טַלָּא קַדִּישָׁא, מֵעַתִּיקָא סְתִימָאָה, וּמַלְיָא לְרֵישֵׁיהּ דִּזְעֵיר אַנְפִּין, אֲתָר דְּאִקְרֵי שָׁמַיִם. וּמֵהַהוּא טַלָּא דִּנְהוֹרָא עִלָּאָה קַדִּישָׁא, הֲוָה נָגִיד וְנָחִית מָנָא לְתַתָּא. וְכַד הֲוָה נָחִית, הֲוָה מִתְפְּרַשׁ גְּלִידִין גְּלִידִין, וְאַקְרִישׁ לְתַתָּא. הֲדָא הוּא דִּכְתִּיב דַּק כַּכְּפוֹר עַל הָאָרֶץ.
כָּל אִינּוּן בְּנֵי מְהֵימָנוּתָא, נַפְקֵי וְלַקְטֵי, וּמְבָרְכָאן שְׁמָא קַדִּישָׁא עָלֵיהּ. וְהַהוּא מָנָא, הֲוָה סָלִיק רֵיחִין דְּכָל בּוּסְמִין דְּגִנְתָּא דְּעֵדֶן, דְּהָא בֵּיהּ אִתְמְשַׁךְ וְנָחִית לְתַתָּא. שַׁוְיֵהּ לְקַמֵיהּ, בְּכָל טַעֲמָא דְּאִיהוּ בָּעֵי, הָכִי טָעִים לֵיהּ, וּמְבָרֵךְ לְמַלְכָּא קַדִּישָׁא עִלָּאָה.
וּכְדֵין מִתְבָּרֵךְ בְּמֵעוֹי, וַהֲוָה מִסְתַּכֵּל וְיָדַע לְעֵילָּא, וְאִסְתָּכֵי בְּחָכְמָה עִלָּאָה, וְעַל דָּא אִקְרוּן דּוֹר דֵּעָה. וְאִלֵּין הֲווֹ בְּנֵי מְהֵימָנוּתָא, וּלְהוֹן אִתְיְהִיבַת אוֹרַיְיתָא לְאִסְתַּכְּלָא בָּהּ, וּלְמִנְדַּע אָרְחָהָא.
וְאִינּוּן דְּלָא אִשְׁתְּכָחוּ בְּנִי מְהֵימָנוּתָא, מַה כְּתִיב בְּהוּ, (במדבר י״א:ח׳) שָׁטוּ הָעָם וְלָקְטוּ. מַאי שָׁטוּ. שְׁטוּתָא הֲווֹ נַסְבֵּי לְגַרְמַיְיהוּ, בְּגִין דְּלָא הֲווֹ בְּנֵי מְהֵימָנוּתָא. מַה כְּתִיב בְּהוּ. וְטָחֲנוּ בָרֵחַיִם אוֹ דָכוּ בַּמְּדוֹכָה וְגוֹ'. מַאן אַטְרַח לוֹן כָּל הַאי. אֶלָּא דְּאִינּוּן לָא הֲווֹ בְּנֵי מְהֵימָנוּתָא.
כְּגַוְונָא דָּא, אִינּוּן דְּלָא מְהֵימְנֵי בֵּיהּ בְּקוּדְשָׁא בְּרִיךְ הוּא, לָא בָּעָאן לְאִסְתַּכְּלָא בְּאָרְחוֹי, וְאִינּוּן בָּעָאן לְאַטְרְחָא גַּרְמַיְיהוּ כָּל יוֹמָא בָּתַר מְזוֹנָא, יְמָמָא וְלֵילֵי, דִּלְמָא לָא סָלִיק בִּידַיְיהוּ פִּתָּא דְּנַהֲמָא. מַאן גָּרִים לוֹן הַאי. בְּגִין דְּלָאו אִינּוּן בְּנֵי מְהֵימָנוּתָא. אוּף הָכָא, שָׁטוּ הָעָם וְלָקְטוּ, שָׁטוּ בִּשְׁטּוּתָא דְּגַרְמַיְיהוּ, וּבָעָאן לְאַטְרְחָא עָלֵיהּ, הֲדָא הוּא דִּכְתִּיב, וְטָחֲנוּ בָרֵחַיִם. בָּתַר כָּל טִרְחָא דָּא, לָא סָלִיק בִּידַיְיהוּ, אֶלָּא דִּכְתִּיב וְהָיָה טַעְמוֹ כְּטַעַם לְשַׁד הַשָּׁמֶן. וְלָא יַתִּיר. מַאן גָּרִים לוֹן הַאי, בְּגִין דְּלָא הֲווֹ בְּנֵי מְהֵימָנוּתָא.
אָמַר רִבִּי יוֹסֵי, מַאי לְשַׁד הַשָּׁמֶן. אִיכָּא דְּאַמְרֵי, דְּלִישׁ בְּמִשְׁחָא, כְּתַרְגּוּמוֹ. וְאִיכָּא דְּאַמְרֵי, מַה הַשֵּׁד אִתְחֲזָר לְכַמָּה גַּוְונִין, אוּף מָנָא, אִתְחֲזָר לְכַמָּה גַּוְונִין. רִבִּי יְהוּדָה אָמַר, לְשַׁד הַשָּׁמֶן, יְנִיקָא דְּמִשְׁחָא.
רִבִּי יִצְחָק אָמַר, אִישׁ לְפִי אָכְלוֹ לָקָטוּ. וְכִי מַאן דְּאָכִיל קִמְעָא, לָקִיט קִמְעָא, וּמַאן דְּאָכִיל יַתִּיר, לָקִיט יַתִּיר, וְהָא כְּתִיב לֹא הֶעְדִּיף הַמַּרְבֶּה וְהַמַּמְעִיט לא הֶחְסִיר. אֶלָּא לְפוּם אִינּוּן דְּאַכְלִין לַקְטִין. מַשְׁמַע אָכְלוֹ, מַאן דְּהֲוָה אָכִיל לֵיהּ, וּבְגִינֵי כָּךְ לָא כְּתִיב אֲכִילָתוֹ.
מַאי קָא מַיְירֵי. אָחִיד בַּר נָשׁ בְּעַבְדָּא, אוֹ בְּאָמָתָא, וְאָמַר דְּהוּא דִּילֵיהּ. אָתָא חַבְרֵיהּ, וְאָמַר, הַאי עַבְדָּא דִּילִי הוּא. קְרִיבוּ לְקַמֵיהּ דְּמֹשֶׁה לְדִינָא, אָמַר לוֹן כַּמָּה נַפְשָׁאָן בְּבֵיתֶךָ, וְכַמָּה נַפְשָׁאָן בְּבֵיתֵיהּ דְּדֵין, אָמַר כַּךְ וְכָךְ. וְהַהוּא שַׁעֲתָא אָמַר לוֹן מֹשֶׁה, לָקָטוּ מָחָר, וְכָל חַד מִנַּיְיכוּ יֵיתֵי לְגַבָּאי. לְמָחָר, נָפְקוּ וְלָקְטוּ, וְאַתְיָין קָמֵי מֹשֶׁה, שַׁוְויָין קָמֵיהּ מָנָא, הֲוָה מָדִיד לֵיהּ. אִי הַהוּא עַבְדָּא דְּדֵין, אַשְׁכַּח הַהוּא עוֹמְרָא דְּעַבְדָּא, בְּהַאי מָנָא. דְּהָא חַד עוֹמְרָא לְכָל נֶפֶשׁ וְנֶפֶשׁ מִבֵּיתֵיהּ. מָדִיד לְדֵין, וְאִשְׁתְּכַח חַסְרָא, הַהוּא מֵיכְלָא דְּעַבְדָּא, בְּהַהוּא מָנָא דִּילֵיהּ, וְחַד עוֹמְרָא לְכָל נֶפֶשׁ וְנֶפֶשׁ מִבֵּיתֵיהּ. אָמַר עַבְדָּא דְּדֵין הוּא, הֲדָא הוּא דִכְתִיב אִישׁ לְפִי אָכְלוֹ לָקָטוּ וּכְתִיב עֹמֶר לַגֻּלְגֹּלֶת מִסְפַּר נַפְשֹׁתֵיכֶם.
אָמַר ר' (נ''א ייסא) חִיָּיא, כְּתִיב, (שמות ט״ז:ו׳-ז׳) עֶרֶב וִידַעְתֶּם כִּי יְיָ' הוֹצִיא אֶתְכֶם מֵאֶרֶץ מִצְרַיִם וּבֹקֶר וּרְאִיתֶם אֶת כְּבוֹד יְיָ'. עֶרֶב וִידַעְתֶּם, בְּמַאי יִנְדְּעוּן. אֶלָּא הָכִי תָּאנָא, בְּכָל יוֹמָא וְיוֹמָא אִשְׁתְּכָחוּ נִימוּסֵי קוּדְשָׁא בְּרִיךְ הוּא. בְּצַפְרָא, אִתְּעַר חֶסֶד בְּעָלְמָא. בְּהַהוּא זִמְנָא דְּאִקְרֵי עֶרֶב, תַּלְיָא דִּינָא בְּעָלְמָא, וְהָא אוּקְמוּהָ, דִּבְגִינֵי כַּךְ, יִצְחָק תִּקֵּן תְּפִלַּת הַמִּנְחָה. (מאי קא מיירי) וְעַל דָּא, עֶרֶב וִידַעְתֶּם, כַּד אִתְּעַר דִּינָא בְּעָלְמָא, תִּנְדְּעוּן, דִּבְהַהוּא דִּינָא אַפִּיק יְיָ' יַתְכוֹן מִמִּצְרַיִם. וּבֹקֶר וּרְאִיתֶם אֶת כְּבוֹד יְיָ' דְּהָא בְּהַהוּא זִמְנָא אִתְּעַר חֶסֶד בְּעָלְמָא וְיִתֵּן לְכוּ לְמֵיכַל.
ר' חִיָּיא אָמַר אִיפְּכָא, מַה כְּתִיב לְעֵילָּא, בְּשִׁבְתֵּנוּ עַל סִיר הַבָּשָׂר וְגוֹ'. בֵּיהּ שַׁעֲתָא, אִתְּעַר עֶרֶב, דְּהַהוּא זִמְנָא דְּאִתְּעַר דִּינָא, אִתְּעַר נָמֵי חֶסֶד בְּעָלְמָא. הֲדָא הוּא דִכְתִיב, וִידַעְתֶּם כִּי יְיָ' הוֹצִיא אֶתְכֶם מֵאֶרֶץ מִצְרָיִם. תִּנְדְּעוּן הַהוּא חֶסֶד דְּעָבַד עִמְּכוֹן, בְּזִמְנָא דְּדִינָא וְאַפִּיק יַתְכוֹן מֵאַרְעָא דְּמִצְרַיִם. וּבֹקֶר וּרְאִיתֶם אֶת כְּבוֹד יְיָ', כְּבוֹד יְיָ' הָא יְדִיעַ. וְכָּל כַּךְ לָמָּה. בִּשְׁמוֹעַ יְיָ' אֶת תְּלֻנּוֹתֵיכֶם וְגוֹ'.
אָמַר ר' יֵיסָא, לָא שָׁנֵי קוּדְשָׁא בְּרִיךְ הוּא נִימוּסוֹי, בַּר דְּאִינּוּן חַיָּיבֵי עָלְמָא שַׁנְיָין לוֹן, וּמְהַפְּכֵי רַחֲמֵי לְדִינָא, כְּמָה דְּאִתְּמַר.
תָּאנֵי ר' אֶלְעָזָר, מֵהַאי מָנָא זְמִינִין צַדִּיקַיָּיא לְמֵיכַל לְעָלְמָא דְּאָתֵי, וְאִי תֵּימָא בְּהַאי גַּוְונָא. לָא. אֶלָּא יַתִּיר, דְּלָא הֲוָה כֵּן לְעָלְמִין. מַאי אִיהוּ. כְּמָה דְּאוֹקִימְנָא דִּכְתִּיב, (תהילים כ״ז:ד׳) לַחֲזוֹת בְּנֹעַם יְיָ' וּלְבַקֵּר בְּהֵיכָלוֹ. וּכְתִיב (ישעיהו ס״ד:ג׳) עַיִן לא רָאָתָה אֱלהִים זוּלָתְךָ וְגוֹ'. (שמות ט״ז:כ״ט) רְאוּ כִּי יְיָ' נָתַן לָכֶם הַשַּׁבָּת. ר' חִזְקִיָּה פָּתַח (תהילים ק״ל:א׳) שִׁיר הַמַּעֲלוֹת מִמַּעֲמַקִּים קְרָאתִיךָ יְיָ'. שִׁיר הַמַּעֲלוֹת סָתַם, וְלָא פָּרִישׁ מַאן אָמָרוּ. אֶלָּא שִׁיר הַמַּעֲלוֹת, דִּזְמִינִין כָּל בְּנֵי עָלְמָא לְמֵימַר, דְּזַמִּין הַאי שִׁיר לְמֵימְרֵיהּ לְדָרֵי עָלְמָא.
וּמַאי הוּא מִמַּעֲמַקִּים קְרָאתִיךָ. הָכִי תָּאנָא, כָּל מַאן דִּמְצַלֵי צְלוֹתָא קָמֵי מַלְכָּא קַדִּישָׁא, בָּעֵי לְמִבָּעֵי בָּעוּתֵיהּ, וּלְצַלָּאָה (ויקרא ע''א) מֵעִמְקָא דְּלִבָּא, בְּגִין דְּיִשְׁתְּכַח לִבֵּיהּ שְׁלִים בְּקוּדְשָׁא בְּרִיךְ הוּא, וִיכַוֵּין לִבָּא וּרְעוּתָא. וּמִי אָמַר דָּוִד הָכִי, וְהָא כְּתִיב, (תהילים קי״ט:י׳) בְּכָל לִבִּי דְּרַשְׁתִּיךָ. וְדָא קְרָא סַגִּי, מַאי בָּעֵי מִמַּעֲמַקִּים.
אֶלָּא הָכִי תָּאנָא, כָּל בַּר נָשׁ דְּבָעֵי בָּעוּתֵיהּ קָמֵי מַלְכָּא, בָּעֵי לְכַוְּונָא דַּעְתָּא (נ''א לבא) וּרְעוּתָא, מֵעִיקָּרָא דְּכָל עִקָרִין, לְאַמְשָׁכָא בִּרְכָּאן מֵעִמְקָא דְּבֵירָא, (נ''א דכלא) בְּגִין דְּיַנְגִּיד בִּרְכָּאן מִמַּבּוּעָא דְּכֹלָּא. וּמַאי הוּא. הַהוּא אֲתָר דְּנָפִיק מִנֵּיהּ, וְאִשְׁתְּכַח מִנֵּיהּ, הַהוּא נָהָר, דִּכְתִּיב, (בראשית ב׳:י׳) וְנָהָר יוֹצֵא מֵעֵדֶן. וּכְתִיב (תהילים מ״ו:ה׳) נָהָר פְּלָגָיו יְשַׂמְחוּ עִיר אֱלהִים. וְדָא אִקְרֵי מִמַּעֲמַקִּים. (מ''ט ע''א) עִמְקָא דְּכֹלָּא, עִמְקָא דְּבֵירָא, דְּמַבּוּעִין נָפְקִין וְנַגְדִּין לְבָרְכָא כֹּלָּא. וְדָא הוּא שֵׁרוּתָא לְאַמְשָׁכָא בִּרְכָּאן מֵעֵילָּא לְתַתָּא.
אָמַר רִבִּי חִזְקִיָּה, (בראשית רל''ד ע''א, ויקרא רפ''ה א' ב', רצ''ז ע''ב) כַּד עַתִּיקָא סְתִימָאָה דְּכָל סְתִימִין, בָּעֵי לְזַמְנָא בִּרְכָּאן לְעָלְמִין, אַשְׁרֵי כֹּלָּא, וְאַכְלִיל כֹּלָּא, בְּהַאי עֲמִיקָא עִלָּאָה, וּמֵהָכָא שָׁאִיב וְאִתְנְגִיד בֵּירָא (נ''א נהרא) דְּנַחֲלִין וּמַבּוּעִין אִתְנְגִידוּ מִנֵּיהּ, וּמִתְשַׁקְיָין מִנֵּיהּ כֻּלְּהוּ. וּמַאן דִּמְצַלֵי צְלוֹתֵיהּ, בָּעֵי לְכַוְּונָא לִבָּא וּרְעוּתָא, לְאַמְשָׁכָא בִּרְכָּאן מֵהַהוּא עֲמִיקָא דְּכֹלָּא, בְּגִין דְּיִתְקַבַּל צְלוֹתֵיהּ, וְיִתְעֲבִיד רְעוּתֵיהּ.
וַיֹּאמֶר מֹשֶׁה אֲלֵיהֶם אִישׁ אַל יוֹתֵר מִמֶּנּוּ עַד בֹּקֶר. אָמַר רִבִּי יְהוּדָה, בְּכָל יוֹמָא וְיוֹמָא, מִתְבָּרֵךְ עָלְמָא מֵהַהוּא יוֹמָא עִלָּאָה, דְּהָא כָּל שִׁיתָא יוֹמִין מִתְבָּרְכָאן מִיּוֹמָא שְׁבִיעָאָה. וְכָל יוֹמָא יָהִיב מֵהַהוּא בְּרָכָה דְּקַבִּיל בְּהַהוּא יוֹמָא דִּילֵיהּ.
וְעַל דָּא מֹשֶׁה אָמַר, אִישׁ אַל יוֹתֵר מִמֶּנּוּ עַד בֹּקֶר. מַאי טַעְמָא. בְּגִין דְּלָא יָהִיב, וְלָא יוֹזִיף יוֹמָא דָּא לְחַבְרֵיהּ, אֶלָּא כָּל חַד וְחַד שָׁלִיט בִּלְחוֹדוֹי, בְּהַהוּא יוֹמָא דִּילֵיהּ. דְּהָא לָא שָׁלִיט יוֹמָא בְּיוֹמָא דְּחַבְרֵיהּ.
בְּגִינֵי כַּךְ, כָּל אִינּוּן (נ''א אמר רבי יהודה כל יומא ויומא מתברך מההוא יומא עילאה יומא שביעאה ומתברכן כל שיתא יומין כל חד וחד בלחודוי וכל יומא יהיב ביומא דיליה מההוא ברכה דקביל מההוא יומא עילאה ועל דא משה אמר איש אל יותר ממנו עד בקר דהא לא שליט יומא ביומא דלאו דיליה וכל אינון) חֲמִשָּׁא יוֹמִין שַׁלִּיטִין בְּיוֹמַיְיהוּ, וְאִשְׁתְּכַח בֵּיהּ, מַה דְּקַבִּילוּ, וְיוֹמָא שְׁתִיתָאָה אִשְׁתְּכַח בֵּיהּ יַתִּיר. וְאַזְלָא הָא, כְּהָא דְּאָמַר רִבִּי אֶלְעָזָר, מַאי דִּכְתִּיב יוֹם הַשִּׁשִּׁי, וְלָא אִתְּמַר הָכִי בְּכָל שְׁאַר יוֹמִין. אֶלָּא הָכִי אוּקְמוּהָ, הַשִּׁשִּׁי. דְּאִזְדַּוְּוגָא (דאזדמנא) בֵּיהּ מַטְרוֹנִיתָא. לְאַתְקְנָא פָּתוֹרָא לְמַלְכָּא, וּבְּגִין כָּךְ, אִשְׁתְּכָחוּ בֵּיהּ תְּרֵין חוּלָקִין, חַד לְיוֹמֵיהּ, וְחַד לְתִקּוּנָא, בְּחֶדְוָותָא דְּמַלְכָּא בְּמַטְרוֹנִיתָא.
וְהַהוּא לֵילְיָא, חֶדְוָותָא דְּמַטְרוֹנִיתָא בְּמַלְכָּא, וְזִוּוּגָא דִּלְהוֹן, וּמִתְבָּרְכָאן כָּל שִׁיתָא יוֹמִין, כָּל חַד וְחַד בִּלְחוֹדוֹי. בְּגִין כַּךְ, בָּעֵי בַּר נָשׁ לְסַדְּרָא פָּתוֹרֵיהּ בְּלֵילְיָא דְּשַׁבְּתָא, בְּגִין דְּשָׁארִי עָלֵיהּ בִּרְכָּאן מִלְּעֵילָּא, וּבִרְכָּתָא לָא אִשְׁתְּכַח עַל פָּתוֹרָא רֵיקַנְיָא, (וההוא ליליא חדותא דמטרוניתא במלכא וזווגא דלהון) בְּגִין כָּךְ, תַּלְמִידֵי חֲכָמִים דְּיַדְעִין רָזָא דָּא, זִוּוּגָא דִּלְהוֹן מְעֶרֶב שַׁבָּת לְעֶרֶב שַׁבָּת.
רְאוּ כִּי יְיָ' נָתַן לָכֶם הַשַּׁבָּת, מַאי שַׁבָּת. יוֹמָא דְּבֵיהּ נַיְיחִין שְׁאַר יוֹמִין, וְהוּא כְּלָלָא דְּכָל אִינּוּן שִׁיתָא אַחֲרָנִין, וּמִנֵּיהּ מִתְבָּרְכִין. רִבִּי יֵיסָא אָמַר, וְכֵן נָמֵי כְּנֶסֶת יִשְׂרָאֵל אִקְרֵי שַׁבָּת, בְּגִין דְּאִיהִי בַּת זוּגוֹ, וְדָא הִיא כַּלָּה. דִּכְתִּיב (שמות ל״א:י״ד) וּשְׁמַרְתֶּם אֶת הַשַּׁבָּת כִּי קֹדֶשׁ הִיא לָכֶם. לָכֶם וְלָא לִשְׁאַר עַמִּין, הֲדָא הוּא דִכְתִיב, (שמות ל״א:י״ז) בֵּינִי וּבֵין בְּנֵי יִשְׂרָאֵל. וְדָא הִיא אַחֲסָנַת יְרוּתַת עָלְמִין לְיִשְׂרָאֵל. וְעַל דָּא, כְּתִיב (ישעיהו נ״ח:י״ג) אִם תָּשִׁיב מִשַּׁבָּת רַגְלְךָ וְגוֹ' וּבְאַתְרִיהּ אוֹקִימְנָא מִלֵּי.
כְּתִיב אַל יֵצֵא אִישׁ מִמְּקוֹמוֹ בַּיּוֹם הַשְּׁבִיעִי. מִמְּקוֹמוֹ. תָּנֵינָן, מֵהַהוּא מָקוֹם דְּאִתְחָזֵי לְמֵהַךְ. וְרָזָא דְּמִלָּה דִּכְתִּיב, (יחזקאל ג׳:י״ב) בָּרוּךְ כְּבוֹד יְיָ' מִמְּקוֹמוֹ, וְדָא אִיהוּ מָקוֹם. וְדָא אִיהוּ רָזָא דִּכְתִּיב, (שמות ג׳:ה׳) כִּי הַמָּקוֹם אֲשֶׁר אַתָּה עוֹמֵד עָלָיו אַדְמַת קֹדֶשׁ הוּא. אֲתָר יְדִיעָא קָרֵינָן לֵיהּ מָקוֹם דְּאִשְׁתְּמוֹדְעָא יְקָרָא עִלָּאָה.
וּבְגִין כַּךְ, אַזְהָרוּתָא לְבַר נָשׁ, דְּקָא מִתְעַטְּרָא בְּעִטּוּרָא קַדִּישָׁא דִּלְעֵילָּא, דְּלָא יִפּוּק מִנֵּיהּ בְּפוּמֵיהּ מִלּוּלָא (ע''א ע''ב) דְּחוֹל, בְּגִין דְּאִי יִפּוּק מִנֵּיהּ, קָא מְחַלֵּל יוֹמָא דְּשַׁבְּתָא, בִּידוֹי בְּעוֹבַדְתָּא. בְּרַגְלוֹי, לְמֵהַךְ לְבַר מִתְּרֵין אַלְפִין אַמִּין. כָּל אִלֵּין חִלּוּלָא דְּשַׁבְּתָא אִינּוּן.
אַל יֵצֵא אִישׁ מִמְּקוֹמוֹ, דָּא אִיהוּ אֲתָר יַקִּירָא דִּקְדוּשָּׁה, דְּהָא לְבַר מִנֵּיהּ, אֱלהִים אֲחֵרִים נִינְהוּ. בָּרוּךְ כְּבוֹד יְיָ', דָּא כָּבוֹד דִּלְעֵילָּא. מִמְּקוֹמוֹ, דָּא כָּבוֹד דִּלְתַתָּא. דָּא אִיהוּ רָזָא דַּעֲטָּרָא דְּשַׁבָּת, בְּגִין כַּךְ אַל יֵצֵא אִישׁ מִמְּקוֹמוֹ. זַכָּאָה חוּלָקֵיהּ מַאן דְּזָכֵי לִיקָרָא דְּשַׁבְּתָא זַכָּאָה אִיהוּ בְּעָלְמָא דֵּין וּבְעָלְמָא דְּאָתֵי. (שמות י״ז:ה׳) וַיֹּאמֶר יְיָ' אֶל מֹשֶׁה עֲבוֹר לִפְנֵי הָעָם וְגוֹ'. רִבִּי חִיָיא פָּתַח, (תהלים לה) חוֹנֶה מַלְאַךְ יְיָ' סָבִיב לִירֵאָיו וַיְחַלְּצֵם. זַכָּאִין אִינּוּן צַדִּיקַיָּיא, דְּקוּדְשָׁא בְּרִיךְ הוּא אִתְרְעֵי בִּיקָרֵיהוֹן, יַתִּיר עַל דִּילֵיהּ. תָּא חֲזֵי, כַּמָּה אִינּוּן בְּנֵי עָלְמָא, דִּמְחָרְפֵי וּמְגַדְּפֵי לְעֵילָּא, כְּגוֹן סַנְחֵרִיב חֵרֵף וְגִדֵּף, וְאָמַר (מלכים ב י״ח:ל״ה) מִי בְּכָל אֱלהֵי הָאֲרָצוֹת וְגוֹ'. וְקוּדְשָׁא בְּרִיךְ הוּא מָחִיל, וְלָא תָּבַע מִנִּיהּ. כֵּיוָן דְּאוֹשִׁיט יְדֵיהּ עַל חִזְקִיָּה, מַה כְּתִיב (מלכים ב י״ט:ל״ה) וַיֵּצֵא מַלְאַךְ יְיָ' וַיַּךְ בְּמַחֲנִה אַשּׁוּר וְגוֹ'.
יָרָבְעָם בֶּן נְבָט הֲוָה פָּלַח לְעֲבוֹדָה זָרָה, וּמְקָטַר לָהּ, וּמְזָבַח לָהּ, וְקוּדְשָׁא בְּרִיךְ הוּא לָא תָּבַע מִנֵּיהּ. וְכַד אָתָא עִדוֹ נְבִיאָה, וְאִתְנַבֵּי עָלֵיהּ, וְאוֹשִׁיט יָרָבְעָם יְדָא לְקָבְלֵיהּ, מַה כְּתִיב (מלכים א י״ג:ד׳) וַתִּיבַשׁ יָדוֹ וְגוֹ', וְלֹא יָכֹל לַהֲשִׁיבָהּ אֵלָיו. (ועל דפלח לעבודה זרה לא תבע ליה קודשא בריך הוא)
פַּרְעֹה חֵרֵף וְגִדֵּף, וְאָמַר (שמות ה) מִי יְיָ' וְגוֹ'. וְקוּדְשָׁא בְּרִיךְ הוּא לָא תָּבַע מִנֵּיהּ, עַד דְּסָרִיב בְּהוּ בְּיִשְׂרָאֵל, דִּכְתִּיב, (שמות ט׳:י״ז) עוֹדְךָ מִסְתּוֹלֵל בְּעַמִּי. (שמות ט׳:י״ז) הִנֵּה יַד יְיָ' הוֹיָה בְּמִקְנְךְ וְגוֹ', וְכֵן בְּכָל אֲתָר, קוּדְשָׁא בְּרִיךְ הוּא תָּבַע עֶלְבּוֹנָא דְּצַדִּיקַיָּיא יַתִּיר עַל דִּילֵיהּ.
הָכָא מֹשֶׁה, אָמַר עוֹד מְעַט וּסְקָלוּנִי, אָמַר לֵיהּ קוּדְשָׁא בְּרִיךְ הוּא, מֹשֶׁה לָאו עִידָּן הוּא לְמִתְבַּע עֶלְבּוֹנָךְ, אֶלָּא עֲבוֹר לִפְנֵי הָעָם, וְאַחְמֵי מַאן יוֹשִׁיט יְדוֹי לָקֳבְלָךְ, וְכִי בִּרְשׁוּתַיְיהוּ אַתְּ קָאִים, אוֹ בִּרְשׁוּתִי.
וּמַטְּךָ אֲשֶׁר הִכִּיתָ בּוֹ אֶת הַיְאוֹר קַח בְּיָדְךָ וְהָלָכְתָּ.
השלמה מההשמטות (סימן ו)
תַּנְיָא אָמַר רַבִּי יוֹסִי גָּלִיף הֲוָה חוּטְרָא מִתְּרֵין סִטְרִין מִשְׁמָּא קַדִּישָׁא, חַד סִטְרָא דְּרַחֲמֵי וְדִינָא בְּאַתְוָון גְּלִיפָן, וְחַד סְטָר דִינָא בְּדִינָא נָחָשׁ עֲלֵי צוּר. תָּא חֲזֵי כְּתִיב (שמות י״ד:ט״ז) וְאַתָּה הַרֵם אֵת מָטֶךָ וּנְטֵה אֵת יָדְךָ עַל הַיָּם. מַאי וּנְטֵה, כְּלוֹמַר נְטֵה בְּחָד גִּיסָא דִּגְלִיפָא בְּרַחֲמֵי וְדִינָא, וּכְתִיב וַיֵּט מֹשֶׁה אֵת יָדוֹ וְלָא כְּתִיב וַיִשְׁלַּח מֹשֶׁה אֵת יָדוֹ. כְּלוֹמַר, אַסְטֵי מֵחָד גִּיסָא. וְאִי תֵּימָא דְּגָּלִיף הֲוָה מִקַּדְמָת דְּנָא נָחָשׁ עֲלֵי צוּר, אֶלָּא בְּאַסָנָא אִתְגְּלִיף דִּכְתִיב (שמות ד׳:ג׳) וַיָשְׁלִיכֵהוּ אַרְצָה וַיְהִי לְנָחָשׁ, בְּהַהִיא שַׁעְתֵּי אִתְגְּלִיף נָחָשׁ עֲלֵי צוּר.
וְתָּא חֲזֵי אָמַר רַבִּי יְהוּדָה בָּעָא קוּדְשָׁא בְּרִיךְ הוּא דִּשְׁמוֹי הֲווּ (דהוו) גְּלִיפָן בְּחוּטְרָא יַעֲבִידוּ אָתָאן, וְתַנְיָא תְרֵין אָתִין אִתְעֲבִידוּ בְּיַמָּא בְּהַהוּא סְטָר דְּסָטָא מֹשֶׁה בְּרַחֲמֵי וְדִינָא, בַּזָע יַמָּא לְיִשְׂרָאֵל בְּי''ב שְׁבִילִין וְאָתִיב בְּדִינָא עַל מִצְרָאֵי וְאַטְבָּע לְהוֹן בִּתְהוֹמָא. הֲדָא הוּא דִכְתִיב, (שמות י״ד:כ״א) וַיָּשֶׁב ה' עֲלֵיהֶם אֵת מֵי הַיָּם מְהַהִיא שַׁעֲתָא בָּעָא לְאַפָּקָא מַיָּא. אָמַר לֵיהּ קוּדְשָׁא בְּרִיךְ הוּא אַסְטֵי חוּטְרָא מִגִּיסָא אוֹחֲרָא וּתְרֵין אָתָאן אִתְעֲבִיד בֵּיהּ, כְּמָה דְּאִתְעֲבִיד מִסִטְרָא אוֹחֲרָא, חַד אַת הָכָא וְחַד אַת בִּמְרִיבָה. אֲבָל הַשְׁתָּא, (שמות י״ז:ו׳) וְהִכִּיתָ בַּצוּר, בְּאַן צוּר, בְּהַאי צוּר, וְסָלִיק נָחָשׁ דִּלְזִמְנָא אַחֲרָא. אָמַר רַבִּי אֶלְעָזָר מַאי דִּכְתִיב (במדבר כ׳:ח׳) קַח אֵת הַמָּטֶּה וְהַקְהֵל אֵת הָעֵדָה אַתָּה וְאַהֲרֹן אָחִיךָ וְדִבַּרְתֶּם. מָהוּ וְדִבַּרְתֶּם.
אָמַר רַבִּי אֶלְעָזָר מָנִי לֵיהּ עַל נָחָשׁ דְּהָא אִתְעֲבִיד בַּצוּר. הַשְׁתָּא בָּעֵי דְּאִתְעֲבִיד בְּנָחָשׁ לְאַשְׁלָמָא שֶׁמוֹי דְקוּדְשָׁא בְּרִיךְ הוּא בְּאִלֵּין אָתִין, מַשְׁמַע דִּכְתִיב וְדִבַּרְתֶּם וּכְתִיב (במדבר כ''א) וַיְדַבֵּר הַעֲם בְּאֱלֹהִים וּבְּמֹשֶׁה. מָה כְּתִיב בַּתְרֵיהּ, וַיְשַׁלַּח ה' בַּעָם אֵת הַנְחָשִׁים הַשְׂרָפִים וְגוֹ'. מָה נָחָשׁ חֵילֵיהּ בְּפוּמֵיהּ, אוּף הָכָא בְּפוּמָא וּמֹשֶׁה לָא עֲבָד הָכִי, אֶלָּא הִכָּה, מָחָא וְלָא אַשְׁלִים שְׁמָּא, אֶלָּא חָזַר בְּקַדְמִיתָא (כקדמיתא) בִּשְׁמָא דְּצוּר וְשָׁבַק שְׁמָּא דְנָחָשׁ. הֲדָא הוּא דִּכְתִיב וַיַּךְ, וְלָא כְּתִיב וַיְדַבֵּר, כְּמָה דְּאִתְפְּקַד, וְדִבַּרְתֶּם. דְּתָנֵינָן צוּר לְמֶעְבַּד, וְנָחָשׁ לְמַלְּלָא. (במדבר כ) וַיַּךְ אֵת הַסֶּלַע בְּמַטֵּהוּ פַּעֲמָיִם, חַד דְּעָבַר וְחַד הַשְׁתָּא.
תַּנְיָא אָמַר רַבִּי אֶלְעָזָר בֵּיהּ שַׁעֲתָא אִשְׁתָּאַר שְׁמָּא, כְּלּוֹמָר דְּלָא אִשְׁתְּלִים בְּהַהוּא אוֹת דְּשָׁבִיק מֹשֶׁה נָחָשׁ וְלָא אִשְׁתְּלִים כָּל שְׁמָּא, דְּהָא בְּחָד גִּיסָא אִשְׁתְּלִים. בְּיַמָּא מִגִּיסָא אוֹחֲרָא, שָׁרֵי בַּצוּר וְלָא אִשְׁתְּלִים בְּנָחָשׁ. אָמַר לֵיהּ קוּדְשָׁא בְּרִיךְ הוּא, עֲבַדְתְּ דְּשָׁרֵי שְׁמִי וְלָא אִשְׁתְּלִים לְמֶעְבַּד אַתְוָון, אוּף אַתְ שָׁרִית, וְלָא תִּשְׁתְלִים. (במדבר כ׳:י״ב) לַכֵן לא תַבִיאוּ, שָׁרִית לְאַפָּקָא לוֹן, וְלָא תִּשְׁתְלִים לְאָעָלָא לוֹן לְאַרְעָא. לַכֵן לֹא תַּבִיאוּ, אָמַר רַבִּי אֶלְעָזָר יָדַע לִבָּא דְּמֹשֶׁה בְּקַדְמִיתָא, דְּדָחִיל כַּד חָמָא נָחָשׁ. דִּכְתִיב (שמות ד׳:ג׳) וַיָּנָס מֹשֶׁה מִפְּנֵי לִבָּא, חָמָא וְלָא יָדַע.
אָמַר רַבִּי אֶלְעָזָר כְּתִיב (במדבר כ״א:ט׳) וַיַעֲשׂ מֹשֶׁה נָחָשׁ נְחשֶׁת וַיְשִׂימֵהוּ עַל הַנֵס, עַל נֵס לָא כְּתִיב אֶלָּא עַל הַנִס. בָּעָא לְאַתְקָנָא מָה דְּחַסֵר. אָמַר לֵיהּ קוּדְשָׁא בְּרִיךְ הוּא כְּתִיב (במדבר כ״ז:י״ד) לְהַקְדִּישֵׁנִי בְּמַיִם, בְּמַיִם וְלֹא בְּדָבַר אַחֵר. כְּשֵׁם שְׁהִתְחָלַתָּ בְּמַיִם, בָּעֵינָא דְּיִשְׁתְּלִים בִּשְׁמִי הַנֵס בְּמַיִם. אָמַר רִבִּי אֶלְעָזָר אַתְרָא דְּחַסֵר לָא שְׁלִים אֲבָל אַתְּ מַגִּיד נִסָא חֲדָא (נ''א הכא).
אָמַר רַבִּי יְהוֹשֻׁעַ כְּתִיב (במדבר כ''א) עֲשֵׂה לְךָ שָׂרָף, עֲשֵׂה לְךָ, לְתוֹעֲלְתְּךָ. עֲשֵׂה לְךָ, תַקִּין מָה דְּחַסָרְתְּ וְעִם כָּל זֶה, לָא תִּקֵּן אֶלָּא רְאִיָּיה, שֶׁהָיוּ רוֹאִים בַּנָחָשׁ וְחָיִין, אֲבָל לא נִקְדָשׁ שְׁמָּא בְּמַיִם וְאִשְׁתָּאַר חָסֵר מֵהַשְׁאָר. וְתִקַנְתָּ בִּרְאִיָה, (דברים ל''ב) עֲלֶה אֶל הַר הַעֲבָרִים וּרְאֵה, הִנְּךְ רוֹאֶה בְּעֵינֶיךָ וְשָׁמָה לא תַעֲבוֹר (במדבר כ''ז) וְרָאִיתָ אוֹתָהּ וְנֵאֶסָפְתָּ אֶל עַמְּךָ. תָּא חֲזֵי דְּאֲפִילּוּ רְאִיָּיה כֵּיוָן דְּעֲבָד רְאִיָּה, בְּהַאי אַשְׁלִים לֵיהּ רְאִיָּה, אֲבָל לָא אַשְׁלִים שְׁמָא בְּמַיָּא כְּמוֹ שְׁאָר כָּל שְׁמָּא.
אָמַר רַבִּי יִצְחָק בְּשָׁעָה דְּאָמַר קוּדְשָׁא בְּרִיךְ הוּא, (במדבר כ) לְכֵן לא תַּבִיאוּ. אָמַר מֹשֶׁה, הַאי חִוְיָא לְתַקָלָא עַלְמָא הוּא. אָמַר לֵיהּ מֹשֶׁה, לָאו הָכִי, דִּינָא לְחַיָּיבַיָּיא וְחָיִין לְמָארֵי קְשׁוֹט, בְּאוֹתָה שָׁעָה דִּכְתִיב (במדבר כ) וְרָאָה אוֹתוֹ וָחַי יָדַע מֹשֶׁה דְּרָכָיו וְהִצְדִּיק עַלָּיו אֵת הַדִּין. פָּתַח וְאָמַר, (דברים ל''ב) הַצוּר תַמִּים פָּעָלוֹ, דָא הוּא צוּר דְּקַאָמַרִינָן (דברים ל''ב) אֵל אֱמוּנָה וְאֵין עֲוֶל דִּכְתִיב, וְרָאָה אוֹתוֹ וָחַי. וּכְתִיב (שמואל ב' כ''ב) הָאֵל תַמִּים דַּרְכּוֹ.
אָמַר ר' חִיָּיא וְהָא תָּנֵינָן, אֵל, גְּזֵרָת רַחֲמֵי הוּא כְּמָה דְאַתְּ אָמֵר (דכתיב) (במדבר כ''ג) אֵל מוֹצִיאָם מִמִצְרַיִם, (שמות ל''ד) אֵל רַחוּם וְחַנּוּן. אָמַר לֵיהּ, לָאו הָכִי. דְּתָנֵינָן, שָׁלִיט רַחֲמֵי עַל דִּינָא, אֵל בִּלְחוֹדוֹי יְכוֹלֶת הֲוָה לֵיהּ וּרְשׁוּתֵּיהּ הֲוָה דִּילֵיהּ. מַאי יְכוֹלֶת, שׁוּלְטָנוּתָּא דְאֵל, אִתְגַבַּר גְּזֵירָה דִּילֵיהּ. כְּמָה דְאַתְּ אָמֵר, (בראשית ל''א) יֵשׁ לְאֵל יָדִי, וּרְשׁוּתָא דִּילֵיהּ יֵכוֹלֵת דְּעֵינָא בִּישָׁא. כְּמָה דְאַתְּ אָמֵר יֵשׁ לְאֵל יָדִי. אָמַר לֵיהּ, וְהָא כְּתִיב (דברים י') הָאֵל הַגָּדוֹל הַגִּבּוֹר, אֵל גָּדוֹל נָצְחַא, אֵל בִּלְחוֹדוֹי נָצְחַא. וּכְתִיב (דברים ל''ב) הַצוּר תַמִּים פָּעָלוֹ כִּי כָל דְּרָכָיו מִשְׁפָּט. הַא צוּר (דברים ל''ב) אֵל אֱמוּנָה וְאֵין עֲוֶל, הַא נָחָשׁ עֲלֵי צוּר.
נְהֶדָר לְמִילֵי קַדְמָאֵי, וּכְתִיב (איוב ח) הָאֵל יֵעֲוֵּת מִשְׁפָּט, חַס וְשָׁלוֹם. אָמַר רַבִּי אֶלְעָזָר הַיְינוּ דִּכְתִיב (תהלים פ''ה) אֶשְׁמֶעָה מָה יְדַבֵּר הָאֵל וְגוֹ'. (שמות ד) וַיִשְׁלַּח יָדוֹ וַיַחֲזֵק בּוֹ וַיְהִי לְמַטֶּה בְּכַפּוֹ, כְּמָה דְאַתְּ אָמֵר (דברים כ''ז) מַטֶּה מִשְׁפָּט, מַטֶּה כְּלַפֵּי חֶסֶד.
אָמַר רַבִּי יוֹסִי שְׁנֵי מָטוֹת הָיוּ, א' שֶׁל מֹשֶׁה וְא' שֶׁל הַקָּדוֹשׁ בָּרוּךְ הוּא. מַאי מַשְׁמַע, דִּכְתִיב (שמות ד) וּמַטֵה הַאֱלהִים. דְּתָנֵינָן, בְּשָׁעָה שֶׁהָיָה נוֹטֵל מֹשֶׁה הַמַטֵה בִּרְשׁוּתוֹ, הָיָה כְּאִילוּ שֶׁלּוֹ. הֲדָא הוּא דִכְתִיב (שמות ד) וַיִּקַּח מֹשֶׁה אֵת מַטֵה הָאֱלֹהִים בְּיָדוֹ, כֵּיוָן דְּאָמַר וַיִּקַּח מֹשֶׁה, אֵינִי יוֹדֵעַ שֶׁלְקַחוֹ בְּיָדוֹ. אֶלָּא מָהוּ בְּיָדוֹ, בִּרְשׁוּתוֹ בִּיְכֹלְתוֹ.
וְאָמַר רַבִּי יוֹסִי בִּרְשׁוּתוֹ שֶׁל מֹשֶׁה הָיָה, עַד שֶׁהוּקַם הַמִּשְׁכָּן. כֵּיוָן שֶׁהוּקַם הַמִּשְׁכָּן, חָזַר הַמַּטֶּה לִפְנִי הַעֵדוּת וְמֹשֶׁה הָיָה נוֹטְלוֹ לַעֲשׂוֹת בּוֹ נִסִים. הֲדָא הוּא דִכְתִיב (במדבר כ׳:ט׳) וַיִּקַּח מֹשֶׁה אֵת הַמַּטֵּה מִלִפְנִי ה', כֵּיוָן שֶׁלְקַחוֹ הֲרֵי הוּא בִּרְשׁוּתוֹ וּכְּשֶׁלוֹ הָיָה.
אָמַר ר' יְהוֹשֻׁעַ, אוֹתוֹ הַמַּטֵּה שֶׁל סְנָפִּירִינוֹן הָיָה, וּמִשֵׁשֶׁת יְמֵי בְּרֵאשִׁית נִבְרָא. כְּמָה דְּתָנֵינָן וְהַמִּכְתָּב וְהַמַטֵה. רַבִּי יְהוּדָה אָמַר, שֶׁל עֵץ הָיָה. מַאן דְּאָמַר שֶׁל סְנָפִּירִינוֹן הָיָה, דִּכְתִיב (יחזקאל א) כְּמַרְאֶה אֶבֶן סַפִּיר דְמוּת כִּסֵּא, וּכְתִיב (שמות ד) מַטֵה הָאֱלֹהִים. וּמָאן דְּאָמַר שֶׁל עֵץ הָיָה, כְּדִכְתִיב (שמות ט''ו) וַיּוֹרֵהוּ ה' עֵץ וְגוֹ' שָׁם שָׂם לוֹ חֹק וּמִשְׁפָּט וְשָׁם נִסָהוּ. אָמַר הַקָּדוֹשׁ בָּרוּךְ הוּא, מִכָּאן הֲרֵי חֹק וּמִשְׁפָּט לַעֲשׂוֹת נִסִים, חֹק וּמִשְׁפָּט. נָחָשׁ עֲלֵי צוּר דִּכְתִיב (משלי ל) נָחָשׁ עֲלֵי צוּר. וְשָׁם נִסָהוּ מִשׁוּם דִּכְתִיב (שמות ט''ו) וַיִּמְתְּקוּ הַמַּיִם.
דָּבָר אַחֵר, אָמַר הַקָּדוֹשׁ בָּרוּךְ הוּא מִכָּאן וּלְהָלְאָה חֹק וּמִשְׁפָּט שֶׁלּא יְהֵא נִקְדָשׁ אֶלָּא בְּמַיִם שֶׁנִמְתֶקוּ. אָמַר רַבִּי יְהוּדָה, כְּתִיב, כִּי מָרִים הֵם מִכָּאן שָׁנִינוּ, יֵשׁ מַּיִם עֲכוּרִים וְיֵשׁ מַּיִם צְלוּלִים, יֵשׁ מַּיִם מָרִים וְיֵשׁ מַּיִם מְתוּקִים. וַיִצְעַק אֶל ה', לָמָה צָעַק, מִכָּאן שֶׁהָיָה בְּצַּעַר בְּאוֹתָה שָׁעָה. אָמַר לוֹ, מֹשֶׁה הַנָּחָשׁ שֶׁנֶהְפַּךְ בַּסְּנֶה עַכְשָׁיו אֶצְטָרֵךְ לְחַקְקַא לֵיהּ בַּצוּר, וְתַרְוַויְיהוּ עָמְדוּ עַל הַמַּיִם הַמָרִים. וְאוֹתָה שָׁעָה אִתְחַקַק צוּר בְּנָחָשׁ שֶׁהָיָה בּוֹ קוֹדֶם. הֲדָא הוּא דִכְתִיב (שמות ט״ו:כ״ה) שָׁם שָׂם לוֹ חֹק וּמִשְׁפָּט.
כַּד אֲתָא ר' אַבָּא, אָתוּ שָׁאִילּוּ קָמֵיהּ. אָמַר לְהוּ שַׁפִּיר קַאָמַר רַבִּי יְהוּדָה, וְהָכִי הוּא, וַאֲנָא אִיצְטְרִיךְ לְגַלָּאָה רָזָא דְמִלָה, וְהָא חֲזֵינָא דְּרַבִּי יְהוּדָה גָלֵי לָהּ. אֶלָּא אָמַר הַקָּדוֹשׁ בָּרוּךְ הוּא לְמֹשֶׁה, מֹשֶׁה הַשְׁתָּא בְּמִצְרַיִם, הָיָה הַמַּטֵּה שֶׁל אַהֲרֹן לִדְחוֹת הַקַשׁ הַשׁוֹלֵט עַל יִשְׂרָאֵל בְּמִצְרַיִם. אֲבָל כְּשֶׁיָצְאוּ מִמִצְרַיִם, כַּמָה מֵקַטְרֶגֵי מְזָמְנִי עַל יִשְׂרָאֵל לִדְחוֹתָם בַּיָם, כַּמָה מַּיִם מָרִים נִזְדָמְנוּ וְקִטְרֵגוּ.
בָּאוּ לַיָּם, בָּא רָהַב שָׂרוֹ שֶׁל מִצְרַיִם וְשֶׁל יָם אָמַר הַקָּדוֹשׁ בָּרוּךְ הוּא לְמֹשֶׁה הַרֵם (את מטך) וְנְטֶה (את) יָדְךָ. כֵּיוָן דְּאָמַר הַרֵם אֵת מָטֶךָ מַהוּ וּנְטֶה אֵת יָדְךָ, אֶלָּא הַרֵם אֵת מָטֶךָ נֶגֶד רָהַב שָׂרוֹ שֶׁל מִצְרַיִם. בָּאוּ לְמָרָה, כַּמָה מַּיִם מָרִים נִזְדָמְנוּ אֶצְלָם וְנִצְטָעַר מֹשֶׁה וְצָעַק. הֲדָא הוּא דִכְתִיב (שמות ט״ו:כ״ה) וַיִצְעַק אֶל ה'. אָמַר לֵיהּ קוּדְשָׁא בְּרִיךְ הוּא. מֹשֶׁה, הֲרֵי לְךָ עֵצָה בָּזֶה. הַשְׁלֵךְ הַמַּטֵּה אֶצְלָם וְיִתְחַקֶק נָחָשׁ עֲלֵי צוּר, שְׁנֵיהֶם בְּיַחַד, וְיִצוֹלוּ. הֲדָא הוּא דִכְתִיב (שם) וַיּוֹרֵהוּ ה' עֵץ וַיַּשְׁלֵךְ אֶל הַמַּיִם. עֵץ, כְּמָה דְּאִתְּמַר (קהלת י״א:ג׳) מָקוֹם שֶׁיִפּוֹל הָעֵץ, שֶׁהוּא עֵצָה, וַיַּשְׁלֵךְ אֶל הַמַּיִם. וּכְתִיב (שמות ט''ו) שָׁם שָׂם לוֹ חֹק וּמִשְׁפָּט, נָחָשׁ עֲלֵי צוּר. וְשָׁם נִסָהוּ, עִטְרָהוּ בְּנִסִים אָמַר הַקָּדוֹשׁ בָּרוּךְ הוּא מִכָּאן וּלְהָלְאָה הֲרֵי לְךָ שֶׁיַעֲמוֹד אֵצֶל הַמַּיִם הֲרֵי לְךָ לְהִתְקַדֶשׁ שְׁמִי בְּמַיִם.
כְּשְׁבָּאוּ לְאֵלִים, בָּאוּ הַמַּיִם לְקַטְרֵג בָּהֶם. אָמַר הַקָּדוֹשׁ בָּרוּךְ הוּא, בַּמָקוֹם הַזֶּה אֵין צָרִיךְ מַטֵה. הֲרֵי יַעֲקֹב שֶׁהוּא אִילָן בְּשִׁבְעִים נֶפֶשׁ וְהוּא שִׁבְעִים תְּמָרִים וּשְׁתֵּים עֶשְׂרֵה עֵינוֹת מַּיִם, שְׁנֵים עֲשָׂר שְׁבָטִים בְּשִׁבְעִים עַמּוּדִים וְי''ב שְׁבָטִים. כְּמָה דְאַתְּ אָמֵר (ישעיהו א׳:כ״ט) כִּי יֵבוֹשׁוֹ מְאֵילִים אֲשֶׁר חַמָדְתֶּם. מִיָּד, וַיַחֲנוּ שָׁם עַל הַמַּיִם בַּמָּקוֹם הַזֶּה שֶׁנִקְרָא אִילָן, וְהוּא אֵלִים. מַשְׁמַע דִּכְתִיב עַל הַמַּיִם, וּמִשְׁמָע דִּכְתִיב שָׁם שָׂם לוֹ וְלֹא בְּמָקוֹם אַחֵר וְשָׁם שָׁלְטוּ בְּנֵי יִשְׂרָאֵל עַל הַמַּיִם וְלא הוּצְרָךְ הַמַּטֵּה. מִכָּאן וּלְהָלְאָה אִיצְטְרִיךְ הַמָּטֵּה, בְּנָחָשׁ עֲלֵי צוּר אֵצֶל הַמַּיִם.
בָּאוּ לְחוֹרֵב בָּאוּ הַמַּיִם לְקַטְרֵג, אָמַר לֵיהּ הַקָּדוֹשׁ בָּרוּךְ הוּא, (שמות ט״ז:כ׳) וְהִכִּיתָ בַּצוּר, הַמָּטֶּה אִיצְטְרִיךְ הָכָא וְהִכִּיתָ לַאֵלוּ בְּאוֹתוֹ צוּר וְלא בְּנָחָשׁ. אָמַר מֹשֶׁה יַתִּיר אִיצְטְרִיךְ הָכָא, אֲנָא חָמֵי מַּיִם דְּבָּעְיָּין לְשָׁטְפָה. אֲמַאי, (שמות ט''ז) הִנְנִי עוֹמֵד לְפָנֶיךָ שָׁם עַל הַצוּר בְּחוֹרֵב וְהִכִּיתָ בַּצוּר. אָמַר הַקָּדוֹשׁ בָּרוּךְ הוּא לְמֹשֶׁה, עֲדַיִן בִּמְרִיבָה עֲתִידִין הַמַּיִם לְקַטְרֵג יוֹתֵר, שֶׁהֵם מַּיִם עֲכוּרִים רָעִים וּזְדוֹנִים וְיִזְדָוְּוגוּ בָּהֶם יִשְׂרָאֵל בַּגָּלוּי לְעֵינֵיהוֹן. וְאוֹתָה שָׁעָה אִיצְטְרִיךְ הַמַּטֶּה וְהִתִּיר עֲלֵיהֶם הַנָּחָשׁ בַּגָּלוּי לְעֵינֵיהֶם, וְיִתְקַדֵשׁ שְׁמִי. הֲדָא הוּא דִכְתִיב, לְהַקְדִּישֵׁנִי בְּמַיִם לְעֵינֵיהֶם. מָהוּ לְעֵינֵיהֶם, דָבָר שֶׁנִזְדָוְּוגּוּ בָּהֶם בַּגָּלוּי.
תָּא חֲזֵי, הָכִי חָמָא דָּוִד. דִּכְתִיב, (תהילים קכ״ד:ב׳) לוּלֵי ה' שֶׁהָיָה לָנוּ בְּקוּם עָלֵינוּ אָדָם, זֶה פַּרְעֹה. (תהילים קכ״ד:ב׳) אֲזָי עֲבַר עַל נַפְשֵׁנוּ הַמַּיִם הַזֵּדוֹנִים כְּדְּאַמְרִינָן (תהילים קכ״ד:ז׳) נַפְשֵׁנוּ כְּצִפּוֹר נִמְלְטָה מִפַּח יוֹקְשִׁים.
אָמַר רַבִּי אַבָּא, מָה רָאָה מֹשֶׁה בְּאוֹתָה שָׁעָה שֶׁלֹּא עָשָׂה בַּנָחָשׁ, אֶלָּא יִשְׂרָאֵל הָיוּ דוֹחַקִים למֹשֶׁה, תְּנָה לָנוּ מַּיִם, נִתְיָּיעֵץ וְאָמַר. קוּדְשָׁא בְּרִיךְ הוּא אָמַר לִּי, עֲמוֹד בַּנָחָשׁ וַאֲנָא חָמֵי דְאֵין גְּזֵירָה לְנָחָשׁ בְּמַיִם אֶלָּא בְּעָפָר.
אָמַר רַבִּי יְהוּדָה מֵהָכָא, (בראשית ג׳:י״ד) וְעָפָר תֹאכַל כָּל יְמֵי חַיֶּיךָ מַשְׁמַע דְּעָפָר יֵיכוּל כָּל יוֹמוֹי, אֲבָל לא בְּמַיָּא. וְיִשְׂרָאֵל דַחֲקִין לִּי, וְאַף עַל גַּב דְּיִתְעֲבִיד נִיסָא, לָא יִתְעֲבִיד בְּאֲתָר דָא, אֶלָּא אִתְחַקַק בְּעַפְרָא וְלָא בְּמַיָּא. דִּכְתִיב (שמות ד׳:ג׳) וַיָשְׁלִיכֵהוּ אַרְצָה וַיְהִי לְנָחָשׁ. וְצוּר בְּדָא אִתְחַקַק בְּמַיָּא בְּמָרָה, וּכְּבָר עֲבָד נִיסָא בְּהַאי, דְּאִתְעֲבִיד זִמְנָא אַחֲרָא. דִּכְתִיב, (במדבר כ׳:י״א) וַיַּךְ אֵת הַסֶּלַע בְּמַטֵּהוּ פַּעֲמָיִם. אָמַר לֵיהּ קוּדְשָׁא בְּרִיךְ הוּא, מֹשֶׁה (במדבר כ׳:י״א) יַעַן לא הֶאֱמַנְתֶּם בִּי לְהַקְדִּישֵׁנִי, דְּחַשָׁבְתוּן דְּלָא יָכִיל נָחָשׁ בְּמַיִם. (במדבר כ׳:י״ב) לַכֵן לֹא תַבִיאוּ: (עד כאן מההשמטות)
מַאי טַעְמָא. מִשּׁוּם דִּמְחַקֵּק בַּנִּסִּין הֲוָה, וּשְׁמָא קַדִּישָׁא עִלָּאָה רְשִׁימָא בֵּיהּ. בְּקַדְמִיתָא נָחָשׁ, כְּמָה דְּאִתְּמַר, (משלי ל׳:י״ט) דֶּרֶךְ נָחָשׁ עֲלֵי צוּר. נָחָשׁ, הָא אִתְיְדַע דְּאִתְּעַר צוּר. (נ''א ואתמר צור) בְּאָן אֲתָר אִתְגְּלֵי, הָכָא אִתְגְּלֵי דִּכְתִּיב הִנְנִי עוֹמֵד לְפָנֶיךָ שָׁם עַל הַצּוּר. וּמַאן צוּר. כְּמָה דְאַתְּ אָמֵר (דברים לכ) הַצּוּר תָמִים פָּעֳלוֹ, וְתַמָּן יָדַע מֹשֶׁה הֵיךְ קָאִים נָחָשׁ עָלֵי צוּר. וְהָא אוֹקִימְנָא מִלֵּי.
אָמַר רִבִּי יְהוּדָה, אִי לִישְׁתִּיק קְרָא יֵאוֹת שָׁאִילְתָּא. אֶלָּא הָא כְּתִיב, וְהִכִּיתָ בַצּוּר וַיָּצְאוּ מִמֶּנּוּ מַיִם. אָמַר לֵיהּ, וַדַּאי הָכִי הוּא, דְּלֵית לָךְ כָּל שְׁמָא וּשְׁמָא, מֵאִינּוּן שְׁמָהָן קַדִּישִׁין דְּקוּדְשָׁא בְּרִיךְ הוּא, דְּלָא עָבֵד נִסִּין וּגְבוּרָאן, וְאַפִּיק כֹּלָּא דְּאִצְטְרִיךְ לְעָלְמָא, כָּל שֶׁכֵּן לְאַפָּקָא הָכָא מַיָּא.
אֲמַר לֵיהּ, אִי הָכִי, הָא כְּתִיב, (תהילים ע״ח:כ׳) הֵן הִכָּה צוּר וַיָּזוּבוּ מַיִם. מַאן מָחֵי לִשְׁמֵיהּ. אֲמַר לֵיהּ, פַּטִּישָׁא חֲרִיפָא, בְּקִטְרוֹי יְדִיעַ, וְאַתְּ שָׁאִיל דָּא. אֶלָּא תָּא חֲזֵי, בְּכָל אֲתָר צוּר גְּבוּרָה, וְכַד בָּעֵי קוּדְשָׁא בְּרִיךְ הוּא לְמַחֲאָה, אוֹ לְאַלְקָאָה, אִתְּעַר גְּבוּרָה דָּא וְהַהוּא גְּבוּרָה מָחֵי וְלָקֵי, וְדָא הוּא דִּכְתִּיב, הֵן הִכָּה צוּר וַיָּזוּבוּ מַיִם. וְאִי לָאו דְּאִתְּעַר צוּר, וְלָקֵי בְּאֲתָר דְּאִצְטְרִיךְ, לָא נַבִיעִין מַיָּא.
אֲמַר לֵיהּ, אִי הָכִי, הָא כְּתִיב, (דברים לב) צוּר יְלָדְךָ תֶּשִׁי. וְתָנֵינָן מַאי תֶּשִׁי, כְּלוֹמַר חַלָּשְׁת לֵיהּ. אֲמַר לֵיהּ וַדַּאי הָכִי הוּא, דְּאִלְמָלֵי יִנְדְּעוּן חַיָּיבַיָּא, דְּהַאי צוּר זְמִינָא לְאִתְּעָרָא לָקֳבְלַיְיהוּ, וּלְאַלְקָאָה לוֹן, יִמָּנְעוּן מִלְּמֵיחָב קָמֵיהּ, אֶלָּא חַלְשָׁא אִיהִי בְּעֵינַיְיהוּ, הוֹאִיל וְלָא מִסְתַּכְּלֵי בָּהּ, וְלָא מִסְתַּכְּלֵי בְּאֹרְחַיְּיהוּ (ס''א בכרסייהו) וְעַל דָּא צוּר יְלָדְךָ תֶּשִׁי.
ר' אַבָּא אָמַר, אִית צוּר, וְאִית צוּר, מִסִּטְרָא דְּצוּר עִלָּאָה, נָפַק צוּר אַחֲרָא. וּמַאי צוּר עִלָּאָה. צוּר דְּכָל צוּרִים. וּמַאי אִיהוּ, הַהוּא דְּאוֹלִידַת לְיִשְׂרָאֵל, דִּכְתִּיב צוּר יְלָדְךָ תֶּשִׁי. דְּהָא מִסִּטְרָא דְּצוּר עִלָּאָה דִּלְעֵילָּא, נָפְקָא צוּר אַחֲרָא. מִסִּטְרָא דְּאִימָא, נָפְקָא גְּבוּרָה.
וְאַזְלָא הָא כְּהָא דְּאָמַר רִבִּי אֶלְעָזָר, כְּתִיב (תהילים ק״ו:ב׳) מִי (פ''ג ע''א) יְמַלֵּל גְּבוּרוֹת יְיָ'. מַאי גְּבוּרוֹת יְיָ'. לְאַכְלְלָא אִימָא עִלָּאָה דְּכֹלָּא, דְּאַף עַל גַּב דְּלָאו אִיהִי דִּינָא, מִסִּטְרָהָא אִשְׁתְּכַח, דְּהָא מִסִּטְרָהָא גְּבוּרָה אִשְׁתְּכַח, וּבְגִינֵי כַּךְ צוּר עִלָּאָה אִקְרֵי. (דברים ל״ב:י״ח) וַתִּשְׁכַּח אֵל מְחוֹלְלֶךָ, דָּא נְהִירוּ דְּאַבָּא. מַאי נִיהוּ. חֶסֶד עִלָּאָה, דְּאִיהוּ נְהִירוּ דְּאַבָּא.
תּוּ אָמַר רִבִּי אַבָּא, מַיִם בְּכָל מָקוֹם, הָא יְדִיעָא, וְקוּדְשָׁא בְּרִיךְ הוּא בְּהַאי צוּר אִתְּעַר לְאַרְקָא מַיָּא, דְּהָא לָא אִתְחָזֵי, (אלא מגדולה) וְדָא הוּא אָת וְנִיסָא דְּקוּדְשָׁא בְּרִיךְ הוּא. וְעַל דָּא שָׁבַח דָּוִד וְאָמַר, (תהילים קי״ד:ח׳) הַהֹפְכִי הַצּוּר אֲגַם מָיִם וְגוֹ'. וּמַשְׁמַע הַהֹפְכִי, דְּהָא לָאו אָרְחוֹי דְּצוּר בְּכַךְ.
וְעַל דָּא, בְּצוּר עִלָּאָה, אַפִּיק מַיָּא מֵאֲתָר דִּלְתַתָּא. וּמַה שְׁמֵיהּ דְּהַהוּא דִּלְתַתָּא. סֶלַע. דִּכְתִּיב, (במדבר כ׳:ח׳) וְהוֹצֵאתָ לָהֶם מַיִם מִן הַסֶּלַע. וּבַמֶּה אַפִּיק הַאי סֶלַע מַיָּא. בְּחֵילָא דְּצוּר דִּלְעֵילָּא.
רַבִּי שִׁמְעוֹן אָמַר, (דברים ל״ב:ד׳) הַצּוּר תָמִים פָּעֳלוֹ מַאי מַשְׁמַע הַצּוּר תָמִים פָּעֳלוֹ. דְּאִתְהַפָּךְ צוּר, לְמֶעְבַּד פָּעֳלוֹ דְּתָמִים. וּמַאי אִיהוּ. אַבְרָהָם. דִּכְתִּיב בֵּיהּ (בראשית י״ז:א׳) הִתְהַלֵּךְ לְפָנַי וֶהְיֵה תָמִים. וְדָא הוּא הַהֹפְכִי הַצּוּר אֲגַם מָיִם, וּמַשְׁמַע תָמִים פָּעֳלוֹ, וְדָא אַבְרָהָם.
בְּשַׁעֲתָא דָּא, אִתְהַדַּר הַצּוּר, תָמִים. בְּשַׁעֲתָא אַחֲרָא תִּנְיָינָא, כַּד (אתענש) בָּעָא מֹשֶׁה לְאַפָּקָא מַיָּא בְּהַאי צוּר, בְּחוֹבַיְיהוּ דְּיִשְׂרָאֵל, לָא אִתְהַדַּר תָמִים, כְּקַדְמִיתָא. בֵּיהּ זִמְנָא, אִתְרָעַם מֹשֶׁה וְאָמַר, צוּר יְלָדְךָ תֶּשִׁי. כְּלוֹמַר, חַלָּשְׁת לֵיהּ מִמַּה דְּהֲוָה בְּקַדְמִיתָא, דִּבְגִינָךְ לָא אִשְׁתְּכַח תָּמִים הַשְׁתָּא, וְאִתְעָבִיד (ביה) דִּינָא, מַה דְּלָא הֲוָה בְּיוֹמֵי יְלָדְךָ, כְּלוֹמַר עוּלֵימָךְ.
אָמַר רִבִּי אַבָּא, מַאי דִּכְתִּיב הֲיֵשׁ יְיָ' בְּקִרְבֵּנוּ אִם אָיִן. וְכִי טִפְּשִׁין הֲווֹ יִשְׂרָאֵל דְּלָא יַדְעֵי מִלָּה דָּא, וְהָא חָמוּ שְׁכִינְתָּא קָמַיְיהוּ, וַעֲנֵנִי כָּבוֹד עָלַיְיהוּ דְּסַחְרוֹן לוֹן, וְאִינּוּן אָמְרוּ הֲיֵשׁ יְיָ' בְּקִרְבֵּנוּ אִם אָיִן, גּוּבְרִין דְּחָמוּ זִיו יְקָרָא דְּמַלְכֵּיהוֹן עַל יַמָּא, וְתָנֵינָן, רָאָתָה שִׁפְחָה עַל הַיָּם מַה שֶּׁלֹּא רָאָה יְחֶזְקֵאל, אִינּוּן אִשְׁתְּכָחוּ טִפְּשִׁין, וְאָמְרוּ הֲיֵשׁ יְיָ' בְּקִרְבֵּנוּ אִם אָיִן.
אֶלָּא (נשא קכ''ט ע''א) הָכִי קָאָמַר רַבִּי שִׁמְעוֹן, בָּעוּ לְמִנְדַּע, בֵּין עַתִּיקָא סְתִימָאָה דְּכָל סְתִימִין, דְּאִקְרֵי אַיִן. וּבֵין זְעֵיר אַפִּין דְּאִקְרֵי יְיָ'. וְעַל דָּא, לָא כְּתִיב הֲיֵשׁ יְיָ' בְּקִרְבֵּנוּ אִם לא, כְּמָה דִּכְתִּיב הֲיֵלֶךְ בְּתוֹרָתִי אִם לֹא. אֶלָּא הֲיֵשׁ יְיָ' בְּקִרְבֵּנוּ אִם אָיִן.
אִי הָכִי אֲמַאי אִתְעַנְשׁוּ. אֶלָּא עַל דַּעֲבִידוּ פִּרוּדָא, וַעֲבִידוּ בְּנִסְיוֹנָא, דִּכְתִּיב וְעַל נַסּוֹתָם אֶת יְיָ'. אָמְרוּ יִשְׂרָאֵל, אִי הַאי נִשְׁאַל בְּגַוְונָא חַד. וְאִי הַאי נִשְׁאַל בְּגַוְונָא אַחֲרָא. וְעַל דָּא מִיָּד וַיָּבֹא עֲמָלֵק. (שמות י״ז:ח׳) וַיָּבֹא עֲמָלֵק וַיִּלָּחֶם עִם יִשְׂרָאֵל בִּרְפִידִים. רִבִּי יוֹסֵי פָּתַח, (ישעיהו ל״ב:כ׳) (ו' ע''א) אַשְׁרֵיכֶם זוֹרְעֵי עַל כָּל מָיִם מְשַׁלְּחֵי רֶגֶל הַשּׁוֹר וְהַחֲמוֹר. אַשְׁרֵיכֶם זוֹרְעֵי עַל כָּל מָיִם, תַּמָּן תָּנִינָן, כַּמָּה מַיִם וְכַמָּה מַיִם מִשְׁתַּכְּחִין. זַכָּאִין אִינּוּן יִשְׂרָאֵל, דְּלֵית זַרְעָא לְהוּ, אֶלָּא עַל הַמַּיִם, דִּכְתִּיב וְיַּחֲנוּ שָׁם עַל הַמָּיִם, אִינּוּן דַּהֲווֹ תְּחוֹת עַנְפֵי אִילָנָא דְּקוּדְשָׁא בְּרִיךְ הוּא.
דְּתַנְיָא, אִילָנָא אִית לְקוּדְשָׁא בְּרִיךְ הוּא, וְהוּא אִילָנָא רַבְרְבָא וְתַקִּיפָא, וּבֵיהּ אִשְׁתְּכַח מְזוֹנָא לְכֹלָּא. וְהוּא אִתְּחַם בִּתְרֵיסַר תְּחוּמִין, בְּמַתְקְלָא, וְאִתְתַּקַּף בְּאַרְבַּע רוּחֵי עָלְמָא. וְע' עַנְפִּין אֲחִידָן בֵּיהּ וְיִשְׂרָאֵל מִשְׁתַּכְּחֵי בְּגוּפָא דְּהַהוּא אִילָנָא. וְאִינּוּן שִׁבְעִין עַנְפִּין סַחֲרָנָא דִּלְהוֹן.
וְהַיְינוּ דִּכְתִּיב, וַיָּבֹאוּ אֵלִימָה וְשָׁם שְׁתֵּים עֶשְׂרֵה עֵינוֹת מַיִם וְשִׁבְעִים תְּמָרִים, וְהָא אוּקְמוּהָ, וְאִתְּמַר בְּכַמָּה אֲתָר. מַאי וְיַּחֲנוּ שָׁם עַל הַמָּיִם. אֶלָּא בְּהַהוּא זִמְנָא, שָׁלִיטוּ עַל אִינּוּן מַיָּא, דְּאִינּוּן תְּחוֹת עַנְפִּין דְּאִילָנָא, דְּאִקְרוּן (תהילים קכ״ד:ה׳) הַמַּיִם הַזֵּידוֹנִים. וְעַל דָּא אַשְׁרֵיכֶם זוֹרְעֵי עַל כָּל מָיִם.
מְשַׁלְּחֵי רֶגֶל הַשּׁוֹר וְהַחֲמוֹר, אִינּוּן תְּרֵין כִּתְרֵי שְׂמָאלָא, דַּאֲחִידָן בְּהוּ עַמִּין עוֹבְדֵי כּוֹכָבִים וּמַזָּלוֹת, דְּאִקְרוּן שׁוֹר וַחֲמוֹר. וְהַיְינוּ דִּכְתִּיב, (בראשית לכ) וַיְהִי לִי שׁוֹר וַחֲמוֹר. בְּגִין דְּלָבָן חַכִּים הֲוָה בַּחֲרָשִׁין וּבְאִינּוּן כִּתְרִין תַּתָּאִין, וּבְאִינּוּן בָּעָא לְאוֹבָדָא לְיַעֲקֹב, כְּמָה דִּכְתִּיב, (דברים כ״ו:ה׳) אַרָמִי אוֹבֵד אָבִי, וְהָא אִתְּמַר. וּכְשֶׁיִּשְׂרָאֵל זַכָּאִין, מְשַׁלְּחֵי לְהוּ, וְלָא יַכְלֵי לְשַׁלְּטָאָה עָלַיְיהוּ, הֲדָא הוּא דִכְתִיב מְשַׁלְּחֵי רֶגֶל הַשּׁוֹר וְהַחֲמוֹר דְּלָא שַׁלְטֵי בְּהוּ.
אָמַר רִבִּי אַבָּא, כַּד מִזְדַּוְּוגֵי כַּחֲדָא, לָא יַכְלֵי בְּנֵי עָלְמָא לְמֵיקָם בְּהוּ, וְעַל דָּא כְּתִיב (דברים כ״ב:י׳) לא תַחֲרוֹשׁ בְּשׁוֹר וּבַחֲמוֹר יַחְדָּיו. יַחְדָּיו דַּיְיקָא. וְתָנֵינָן, לָא יָהִיב אִינִישׁ דּוּכְתָּא לְזִינִין בִּישִׁין, דְּהָא בְּעוֹבָדָא דְּבַּר נָשׁ (לתתא), אִתְּעַר מַה דְּלָא אִצְטְרִיךְ. וְכַד מִזְדַּוְּוגֵי כַּחֲדָא, (לא יכלין למיקם בהו. מבין סטרא דלהון נפיק) מִתְּקִיפוּתָא דִּלְהוֹן דְּאִקְרֵי כֶּלֶב, וְדָא חֲצִיפָא מִכֻּלְּהוּ, הֲדָא הוּא דִכְתִיב, (שמות י״א:ז׳) וּלְכָל בְּנֵי יִשְׂרָאֵל לא יֶחרַץ כֶּלֶב לְשׁוֹנוֹ. (נ''א מתקיפותא דלהון אפיק ההוא דאקרי כלב, ודא חציפא מכלהו) אָמַר קוּדְשָׁא בְּרִיךְ הוּא, אַתּוּן אֲמַרְתּוּן, הֲיֵשׁ יְיָ' בְּקִרְבֵּנוּ אִם אָיִן, הֲרֵי אֲנִי מוֹסֵר אֶתְכֶם לַכֶּלֶב. מִיָּד וַיָּבֹא עֲמָלֵק.
ר' יְהוּדָה אָמַר, (במדבר כ״ד:כ׳) רֵאשִׁית גּוֹיִם עֲמָלֵק וְאַחֲרִיתוֹ עֲדֵי אוֹבֵד. וְכִי רֵאשִׁית גּוֹיִם עֲמָלֵק, וַהֲלֹא כַּמָּה לִישָׁנִין וְעַמִּין וְאוּמִין הֲווֹ בְּעָלְמָא, עַד לָא אָתָא עֲמָלֵק.
אֶלָּא, כַּד נַפְקוּ יִשְׂרָאֵל מִמִּצְרַיִם, דְּחִילוּ וְאֵימָתָא נָפְלָה עַל כָּל עַמִּין דְּעָלְמָא מִיִּשְׂרָאֵל, הֲדָא הוּא דִכְתִיב, (שמות ט״ו:י״ד) שָׁמְעוּ עַמִּים יִרְגָּזוּן חִיל אָחַז יוֹשְבֵי פְּלָשֶׁת. וְלָא הֲווֹ עַמָּא דְּלָא הֲוָה דָּחִיל מִגְּבוּרָאן עִלָּאִין דְּקוּדְשָׁא בְּרִיךְ הוּא, וַעֲמָלֵק לָא הֲוָה דָּחִיל, הֲדָא הוּא דִכְתִיב, וְלֹא יָרֵא אֱלהִים. לָא דָּחִיל לְמִקְרַב לְגַבָּךְ. וְעַל דָּא רֵאשִׁית גּוֹיִם. (עמלק הוי קדמאה) דְּאָתוּ לְאַגָּחָא קְרָבָא בְּיִשְׂרָאֵל עֲמָלֵק הֲוָה. וּבְגִינֵי כַּךְ וְאַחֲרִיתוֹ עֲדֵי אוֹבֵד, דִּכְתִּיב כִּי מָחֹה אֶמְחֶה אֶת זֵכֶר עֲמָלֵק. וּכְתִיב, (דברים כ״ה:י״ט) תִּמְחֶה אֶת זֵכֶר עֲמָלֵק, הֲדָא הוּא דִכְתִיב וְאַחֲרִיתוֹ עֲדֵי אוֹבֵד. עֲדֵי אָבְדוֹ מִבָּעֵי לֵיהּ. אֶלָּא עַד דְּיֵיתֵי קוּדְשָׁא בְּרִיךְ הוּא וְיֹאבַד לֵיהּ, (כלומר עד דקודשא בריך הוא יהא אובד ליה) דִּכְתִּיב כִּי מָחֹה אֶמְחֶה וְגוֹ'. אָמַר ר' אֶלְעָזָר, תָּא חֲזֵי, אַף עַל גַּב דְּהַצּוּר תָמִים פָּעֳלוֹ, וְעָבִיד עִמְּהוֹן חֶסֶד לְאַפָּקָא לוֹן מַיָּא, לָא שָׁבַק דִּידֵיהּ, דְּהָא כְּתִיב וַיָּבֹא עֲמָלֵק.
ר' אַבָּא פָּתַח וְאָמַר, (קהלת ה׳:י״ב) יֵשׁ רָעָה חוֹלָה רָאִיתִי תַּחַת הַשָּׁמֶשׁ. כַּמָּה בְּנֵי נָשָׁא אֲטִימִין לִבָּא, בְּגִין דְּלָא מִשְׁתַּדְּלֵי בְּאוֹרַיְיתָא. יֵשׁ רָעָה חוֹלָה, וְכִי יֵשׁ רָעָה דְּהִיא חוֹלָה, וְיֵשׁ רָעָה דְּלָאו הִיא חוֹלָה. אֶלָּא וַדַּאי יֵשׁ רָעָה חוֹלָה, דְּתָנֵינָן, מִסִּטְרָא דִּשְׂמָאלָא, נַפְקֵי כַּמָּה גַּרְדִּינִי נִימּוּסִין, דְּבַקְעָן בַּאֲוִירָא.
וְכַד בַּעְיָין לְמֵיפַק, אַזְלִין וְאִשְׁתַּאֲבִין בְּנוּקְבָא דִּתְהוֹמָא רַבָּה, לְבָתַר נָפְקִין וּמִתְחַבְּרָן כַּחֲדָא, וּבְקָעִין אֲוִירִין, וְשָׁאטִין בְּעָלְמָא, וּמִתְקָרְבִין לְגַבַּיְיהוּ דִּבְנֵי נָשָׁא, וְכָל חַד אִקְרֵי רָעָה, כְּמָה דְאַתְּ אָמֵר (תהילים צ״א:י׳) לא תְאוּנֶּה אֵלֶיךָ רָעָה. מַאי לא תְאוּנֶּה. בְּגִין דְּאַתְיָא בְּתַסְקוּפָא עַל בְּנִי נָשָׁא.
חוֹלָה אֲמַאי הִיא חוֹלָה. כַּד שַׁרְיָא הַאי עַל בְּנֵי נָשָׁא, עָבִיד לוֹן קַמְצָנִין מִמָּמוֹנֵיהוֹן, אַתְיָין גַּבָּאי צְדָקָה גַּבֵּיהּ, הִיא מָחָאת בִּידֵיהּ. אֲמַר לֵיהּ לֹא תִּיפּוּק מִדִּידָךְ. אַתְיָין מִסְכְּנֵי, הִיא מָחָאת בִּידֵיהּ. אָתֵי הוּא לְמֵיכַל מִמָּמוֹנֵיהּ, מָחָאת בִּידֵיהּ, בְּגִין לְנַטְרָא לֵיהּ לְאָחֳרָא. וּמִן יוֹמָא דְּשַׁרְיָא עָלֵיהּ דְּבַר נָשׁ, הִיא חוֹלָה, כְּהַאי שָׁכִיב מֵרַע דְּלָא אָכִיל וְלָא שְׁתֵּי. וְעַל דָּא הִיא רָעָה חוֹלָה.
וּשְׁלמֹה מַלְכָּא צָוַוח בְּחָכְמְתָא וְאָמַר, (קהלת ו׳:ב׳) אִישׁ אֲשֶׁר יִתֵּן לוֹ הָאֱלֹהִים עֹשֶׁר וּנְכָסִים וְכָבוֹד וְגוֹ'. הַאי קְרָא, לָאו רֵישֵׁיהּ סֵיפֵיהּ, וְלָאו סֵיפֵיהּ רֵישֵׁיהּ, כְּתִיב אִישׁ אֲשֶׁר יִתֵּן לוֹ הָאֱלהִים עֹשֶׁר וּנְכָסִים וְכָבוֹד וְגוֹ', מַאי וְלֹא יַשְׁלִיטֶנּוּ הָאֱלֹהִים לֶאֱכוֹל מִמֶּנּוּ. אִי הָכִי, לָאו בִּרְשׁוּתֵיהּ הוּא דְּבַּר נָשׁ.
אֶלָּא, אִי כְּתִיב וְלֹא יַעַזְבֶנוּ הָאֱלהִים לֶאֱכוֹל מִמֶּנּוּ, הֲוֵינָא אָמַר הָכִי. אֶלָּא וְלא יַשְׁלִיטֶנּוּ, דִּבְגִין דְּהוּא הֵימְנֵיהּ לְהַהִיא רָעָה, וְאָחִיד בָּהּ. קוּדְשָׁא בְּרִיךְ הוּא לָא שַׁלְטֵיהּ עָלֵיהּ, לְאִתְבָּרָאָה תְּחוֹתֵיהּ, עַל דְּהוּא אִתְרְעֵי בָּהּ, וְאָחִיד בָּהּ.
וְכָל אָרְחוֹי כִּשְׁכִיב מֵרַע, דְּלָא אָכִיל וְלָא שְׁתֵי, וְלָא קָרִיב לְמָמוֹנֵיהּ, וְלָא אַפִּיק מִינֵּיהּ, וְנָטִיר לֵיהּ עַד דְּהוּא יִפּוּק מֵעָלְמָא, וְיֵיתֵי אַחֲרָא, וְיִטּוֹל לֵיהּ, דְּהוּא בְּעָלָיו.
וּשְׁלמֹה מַלְכָּא צָוַוח וְאָמַר, (קהלת ה׳:י״ב) עֹשֶׁר שָׁמוּר לִבְעָלָיו לְרָעָתוֹ. מַאן בְּעָלָיו. דָּא אַחֲרָא דְּיָרִית לֵיהּ. וְלָמָּה זָכָה הַאי אַחֲרָא לְמֶהֱוֵי בְּעָלָיו דְּהַהוּא עֻתְרָא. בְּגִין דְּהַאי הֵימִין לְהַהִיא רָעָה, וְאִתְּרָעֵי בָּה (הדא הוא דכתיב לרעתו בשביל ההוא רע) וְאִתְדָבַּק בָּה. בְּגִין כָּךְ, הַאי אַחֲרָא דְּלָא אִתְדַּבָּק בְּהַהִיא רָעָה, זָכָה (האי) לְמֶהֱוֵי בְּעָלָיו דְּהַהוּא עֻתְרָא הֲדָא הוּא דִכְתִיב לְרָעָתוֹ, כְּלוֹמַר בְּגִין רָעָתוֹ דְּהֲוָה מִתְדָּבַק בָּהּ, רָוַוח לֵיהּ הַאי.
דָּבָר אַחֵר יֵשׁ רָעָה חוֹלָה, הַאי מַאן דְּיָתִיב בְּחוּלָקָא טָבָא, בְּבֵית אֲבוֹי, וְהוּא אָזִיל לָקֳבֵל אֲבוֹי, בְּתַסְקוּפֵי מִלִּין, הָא אִתְדְּבַק בְּהַהוּא רָעָה חוֹלָה, כְּבַר נָשׁ שָׁכִיב מֵרַע דְּכָל אָרְחוֹי בְּתַסְקוּפָא, דָּא בְּעֵינָא, וְדָא לָא בְּעֵינָא, וּבְגִין הַאי עוּתְרָא אִתְדָּבַּק בַּר נָשׁ בְּרָעָה חוֹלָה, וְאִתְעֲנָשׁ בְּהַאי עָלְמָא, וּבְעָלְמָא דְּאָתֵי, וְדָא הוּא עוֹשֶׁר שָׁמוּר לִבְעָלָיו לְרָעָתוֹ.
כַּךָ יִשְׂרָאֵל, קוּדְשָׁא בְּרִיךְ הוּא נָטִיל לוֹן עַל גַּדְפֵּי נִשְׁרִין, אַסְחַר לוֹן בַּעֲנָנִי יְקָרָא, שְׁכִינְתֵּיהּ נָטִיל קָמַיְיהוּ, נָחַת לוֹן מָנָא לְמֵיכַל, אַפִּיק לוֹן מַיָּיא מְתוּקִין, וְאִינּוּן הֲווֹ אַזְלִין עִמֵּיהּ בְּתַסְקוּפִין. מִיַּד וַיָּבֹא עֲמָלֵק. (שמות י״ז:ח׳) וַיָּבֹא עֲמָלֵק, אָמַר רִבִּי שִׁמְעוֹן, רָזָא דְּחָכְמְתָא הָכָא, מִגִּזְרַת דִּינָא קַשְׁיָא, קָא אַתְיָא קְרָבָא דָּא. וּקְרָבָא דָּא אִשְׁתְּכַח לְעֵילָּא וְתַתָּא. וְלֵית לָךְ מִלָּה בְּאוֹרַיְיתָא, דְּלָא אִית בָּהּ רָזִין עִלָּאִין דְּחָכְמְתָא, דְּמִתְקַשְּׁרִין בִּשְׁמָא קַדִּישָׁא. כִּבְיָכוֹל, אָמַר קוּדְשָׁא בְּרִיךְ הוּא, כַּד יִשְׂרָאֵל אִינּוּן זַכָּאִין לְתַתָּא, אִתְגַּבָּר חֵילָא דִּילִי עַל כֹּלָּא. וְכַד לָא אִשְׁתְּכָחוּ זַכָּאִין, כִּבְיָכוֹל, מַתִּישִׁין חֵילָא דִּלְעֵילָּא, וְאִתְגַּבַּר חֵילָא דְּדִינָא קַשְׁיָא.
תָּא חֲזֵי, בְּשַׁעֲתָא דְּחָבוּ יִשְׂרָאֵל לְתַתָּא, מַה כְּתִיב, וַיָּבֹא עֲמָלֵק וַיִּלָּחֶם עִם יִשְׂרָאֵל, אָתָא לְקַטְרְגָא דִּינָא בְּרַחֲמֵי. דְּכֹלָּא אִשְׁתְּכַח לְעֵילָּא וְתַתָּא. בִּרְפִידִים: בְּרָפוּי יָדַיִם, דְּרָפוּ יְדֵיהוֹן מֵאוֹרַיְיתָא דְּקוּדְשָׁא בְּרִיךְ הוּא, כְּמָה דְּאוֹקִימְנָא. אָמַר ר' יְהוּדָה, תְּרֵי זִמְנֵי אַגָּח קְרָבָא עֲמָלֵק בְּיִשְׂרָאֵל, חַד הָכָא. וְחַד דִּכְתִּיב, (במדבר י״ד:מ״ה) וַיֵּרֶד הָעֲמָלֵקֵי וְהַכְּנַעֲנִי וְגוֹ'.
אָמַר ר' שִׁמְעוֹן, לְעֵילָּא וְתַתָּא. קִטְרוּגָא דְּקוּדְשָׁא בְּרִיךְ הוּא הֲוָה, לְעֵילָּא, כְּמָה דְּאִתְּמַר. לְתַתָּא בְּקוּדְשָׁא בְּרִיךְ הוּא הֲוָה, דַּהֲווֹ נַסְבֵּי לְגַבְרֵי, וְגַזְרֵי לוֹן עָרְלָתָא (ס''א אתא) דִּרְשִׁימָא קַדִּישָׁא, וְנַטְלֵי לְהוּ וְאַרְמוּ לוֹן לְעֵילָּא, וְאַמְרֵי טוֹל לָךְ מַה דְּאִתְרְעִית. וְעַל כָּל פָּנִים דְּקוּדְשָׁא בְּרִיךְ הוּא הֲוָה (כל קובלנא כלא) (ס''א קבלא) כֹּלָּא. (שמות י״ז:ט׳) וַיֹּאמֶר מֹשֶׁה אֶל יְהוֹשֻׁעַ בָּחַר לָנוּ אֲנָשִׁים וְצֵא הִלָּחֵם בַּעֲמָלֵק. וְכִי מַה חָמָא מֹשֶׁה, דְּסָלִיק גַּרְמֵיהּ, מֵהַאי קְרָבָא קַדְמָאָה דְּקוּדְשָׁא בְּרִיךְ הוּא פָּקִיד. אֶלָּא מֹשֶׁה זַכָּאָה חוּלָקֵיהּ, דְּאִסְתַּכַּל וְיָדַע עִקָרָא דְּמִלָּה. אָמַר מֹשֶׁה, אֲנָא אַזְמִין גַּרְמִי לְהַהוּא קְרָבָא דִּלְעֵילָּא, וְאַנְתְּ יְהוֹשֻׁעַ זַמִּין גַּרְמָךְ לְקָרְבָא דִּלְתַתָּא.
וְהַיְינוּ דִּכְתִּיב, וְהָיָה כַּאֲשֶׁר יָרִים מֹשֶׁה יָדוֹ וְגָבַר יִשְׂרָאֵל: יִשְׂרָאֵל דִּלְעֵילָּא. וּבְגִין כַּךְ סָלִיק מֹשֶׁה גַּרְמֵיהּ מִקְּרָבָא דִּלְתַתָּא, בְּגִין לְאִזְדָּרְזָא בִּקְרָבָא דִּלְעֵילָּא, וְיִתְנְצַח עַל יְדוֹי.
אָמַר ר' שִׁמְעוֹן, וְכִי קַלָהּ הִיא בְּעֵינֶיךָ, קְרָבָא דָּא דַּעֲמָלֵק. תָּא חֲזֵי, מִן יוֹמָא דְּאִתְבְּרֵי עָלְמָא, עַד הַהוּא זִמְנָא, וּמֵהַהוּא זִמְנָא, עַד דְּיֵיתֵי מַלְכָּא מְשִׁיחָא, וַאֲפִילּוּ בְּיוֹמוֹי דְּגוֹג וּמָגוֹג, לָא יִשְׁתְּכַּח כְּוָותֵיהּ. לָאו בְּגִין חַיָּילִין תַּקִּיפִין וְסַגִּיאִין, אֶלָּא בְּגִין דִּבְכָל סִטְרִין דְּקוּדְשָׁא בְּרִיךְ הוּא הֲוָה.
וַיֹּאמֶר מֹשֶׁה אַל יְהוֹשֻׁעַ, אֲמַאי לִיהוֹשֻׁעַ, וְלָא לְאָחֳרָא, וְהָא בְּהַהוּא זִמְנָא רַבְיָא הֲוָה, דִּכְתִּיב, (שמות ל״ג:י״א) וִיהוֹשֻׁעַ בִּן נוּן נַעַר, וְכַמָּה הֲווֹ בְּיִשְׂרָאֵל תַּקִּיפִין מִנֵּיהּ. אֶלָּא מֹשֶׁה בְּחָכְמְתָא אִסְתָּכַּל וְיָדַע. מַאי חָמָא. חָמָא לסמאל דְּהֲוָה נָחִית מִסִּטְרָא דִּלְעֵילָּא, לְסַיְּיעָא לַעֲמָלֵק לְתַתָּא. אָמַר מֹשֶׁה, וַדַּאי קְרָבָא הָכָא תַּקִּיפָא אִתְחָזִיִ.
יְהוֹשֻׁעַ בְּהַהוּא זִמְנָא בְּדַרְגָּא עִלָּאָה יַתִּיר אִשְׁתְּכַח. אִי תֵּימָא דִּבְשְׁכִינְתָּא אִשְׁתְּכַח בְּהַהוּא זִמְנָא לָאו הָכִי, דְּהָא בְּמֹשֶׁה אִתְנְסִיבַת וְאִתְאַחֲדַת, אִשְׁתְּכַח יְהוֹשֻׁעַ דְּאִתְאַחֲד לְתַתָּא מִינָּהּ. וּבַמֶּה. אָמַר ר' שִׁמְעוֹן, בְּהַהוּא אֲתָר, דְּאִתְקְרֵי נַעַ''ר.
וְהַיְינוּ דְּאָמַר רִבִּי יְהוּדָה, מַאי דִּכְתִּיב, (ישעיהו ל״ג:כ׳) עֵינֶיךָ תִּרְאֶינָה יְרוּשָׁלַ ם נָוְה שַׁאֲנָן אֹהֶל בַּל יִצְעָן בַּל יִסַּע יְתֵדוֹתָיו לָנֶצַח. יְרוּשָׁלַ ם: יְרוּשָׁלַ ם דִּלְעֵילָּא, דְּאִקְרֵי אֹהֶל בַּל יִצְעָן, דְּלָא יִשְׁתְּכַּח יַתִּיר לְמֵהַךְ בְּגָלוּתָא, וְדָא הוּא רָזָא דִּכְתִּיב, וִיהוֹשֻׁעַ בִּן נוּן נַעַר. נַעַר וַדַּאי. לא יָמִישׁ מִתּוֹךְ הָאֹהֶל, הַהוּא דְּאִקְרֵי אֹהֶל בַּל יִצְעָן. מְלַמֵּד דִּבְכָל יוֹמָא וְיוֹמָא, הֲוָה יָנִיק מִשְׁכִינְתָּא, כְּמָה דְּהַהוּא נַעַר דִּלְעֵילָּא, לֹא יָמִישׁ מִתּוֹךְ הָאֹהֶל, וְיָנִיק מִנֵּיהּ תָּדִירָא. כַּךְ הַאי נַעַר דִּלְתַתָּא לא יָמִישׁ מִתּוֹךְ הָאֹהֶל, וְיָנִיק מִנָּהּ תָּדִירָא.
בְּגִין כַּךְ, כַּד חָמָא מֹשֶׁה, לסמאל, נָחִית לְסַיְּיעָא לַעֲמָלֵק, אָמַר מֹשֶׁה, וַדַּאי הַאי נַעַר יְקוּם לָקֳבְלֵיהּ, וְיִשְּׁלוֹט עָלֵיהּ, לְנַצְּחָא לֵיהּ. מִיַּד וַיֹּאמֶר מֹשֶׁה אֶל יְהוֹשֻׁעַ בָּחַר לָנוּ אֲנָשִׁים וְצֵא הִלָּחֵם בַּעֲמָלֵק, דִּילָךְ הַאי קְרָבָא דִּלְתַתָּא, וַאֲנָא אִזְדָּרֵז לִקְרָבָא דִּלְעֵילָּא. בָּחַר לָנוּ אֲנָשִׁים, זַכָּאִין בְּנֵי זַכָּאִין, דְּיִתְחֲזוּן לְמֵהַךְ עִמָּךְ.
אָמַר רַבִּי שִׁמְעוֹן, בְּשַׁעֲתָא דְּנָפִיק יְהוֹשֻׁעַ נַעַר. אִתְּעַר נַעַר דִּלְעֵילָּא, וְאִתְתָּקַּן בְּכַמָּה תִּיקּוּנִין בְּכַמָּה זַיְינִין, דְּאַתְקִינַת לֵיהּ אִמֵיהּ, לִקְרָבָא דָּא, לְנַקְמָא נוּקְמָא דִּבְרִית. וְהַיְינוּ דִּכְתִּיב, (ויקרא כו) חֶרֶב נוֹקֶמֶת נְקַם בְּרִית, וְדָא הוּא רָזָא דִּכְתִּיב, וַיַּחֲלשׁ יְהוֹשֻׁעַ אֶת עֲמָלֵק וְאֶת עַמּוֹ לְפִי חָרֶב. לְפִי חֶרֶב וַדַּאי, וְלָא לְפוּם רוּמְחִין וְזַיְינִין, אֶלָּא בַּחֶרֶב וַדַּאי הִיא, הַאי דְּאִקְרֵי חֶרֶב נוֹקֶמֶת נְקַם בְּרִית.
וּמֹשֶׁה אִתְתָּקַּן לִקְרָבָא דִּלְעֵילָּא, וִידֵי מֹשֶׁה כְּבֵדִים: כְּבֵדִים מַמָּשׁ, יַקִּירִין, קַדִּישִׁין, לָא אִסְתַאְבָן לְעָלְמִין. יְקִרִין דְּאִתְחָזוּן לְאַגָּחָא בְּהוּ קְרָבָא דִּלְעֵילָּא. וַיִקְחוּ אֶבֶן וַיָּשִׂימוּ תַחְתָּיו וַיֵּשֶׁב עָלֶיהָ, בְּגִין דְּיִשְׂרָאֵל שַׁרְיָין בְּצַעֲרָא, וִיהֵא עִמְּהוֹן בְּצַעֲרֵיהוֹן.
וְאַהֲרֹן וְחוּר תָּמְכוּ בְיָדָיו מִזֶּה אֶחָד וּמִזֶּה אֶחָד וַיְהִי יָדָיו אֱמוּנָה וְגוֹ', מַאי תָּמְכוּ בְיָדָיו. אֱמוּנָה. (אמונה, מהימנותא ודא) וְכִי עַל דְּאַהֲרֹן וְחוּר תְּמִיכוּ לִידוֹי, הֲווֹ יְדוֹי אֱמוּנָה. אֶלָּא, מֹשֶׁה כֹּלָּא בְּחָכְמְתָא עָבִיד מַה דְּעָבִיד. אַהֲרֹן וְחוּר, דָּא מִסִּטְרָא דִּילֵיהּ, וְדָא מִסִּטְרָא דִּילֵיהּ, וְיָדוֹי בְּאֶמְצָעִיתָא, וְעַל דָּא וַיְהִי יָדָיו אֱמוּנָה, מְהֵימָנוּתָא. אַהֲרֹן בְּגִין דְּיִתְּעַר סִטְרָא דִּילֵיהּ, (חוקת קל''א ע''ב) וְחוּר בְּגִין דְּיִתְּעַר סִטְרָא דִּילֵיהּ, וַהֲווּ אֲחִידָן בִּידוֹי מִכָּאן וּמִכָּאן, דְּאִשְׁתַּכְחָא סִיוּעָא דִּלְעֵילָּא. (שמות יז) וְהָיָה כַּאֲשֶׁר יָרִים מֹשֶׁה יָדוֹ וְגָבַר יִשְׂרָאֵל. כַּאֲשֶׁר יָרִים: דְּזָקִיף יְמִינָא עַל שְׂמָאלָא, וְאִתְכָּוַּון בִּפְרִישׁוּ דְּיָדוֹי. וְגָבַר יִשְׂרָאֵל: יִשְׂרָאֵל דִּלְעֵילָּא. וְכַאֲשֶׁר יָנִיחַ יָדוֹ וְגָבַר עֲמָלֵק, בְּשַׁעֲתָא דְּיִשְׂרָאֵל לְתַתָּא, מִשְׁתַּכְּכִין מִצְּלוֹתָא, לָא יַכְלִין יְדֵי מֹשֶׁה לְמֵיקָם בִּזְקִיפוּ, וְגָבַר עֲמָלֵק. מִכָּאן אוֹלִיפְנָא, אַף עַל גַּב דְּכַהֲנָא פָּרִישׂ יְדוֹי, בְּקָרְבְּנָא, לְתַקְּנָא גַּרְמֵיהּ בְּכֹלָּא, יִשְׂרָאֵל בַּעְיָין לְאִשְׁתַּכְּחָא בִּצְלוֹתְהוֹן, עִמֵּיהּ.
תָּאנָא, בִּקְרָבָא דָּא דַּעֲמָלֵק, אִשְׁתְּכָחוּ עִלָּאִין וְתַתָּאִין, וְעַל דָּא, וַיְהִי יָדָיו אֱמוּנָה, בְּהֵימְנוּתָא כַּדְקָא חֲזֵי. וַיְהִי יָדָיו אֱמוּנָה. וַיִּהְיוּ יָדָיו מִבָּעֵי לֵיהּ. אֶלָּא, בְּגִין דְּתַלְיָא כֹּלָּא בִּימִינָא, כְּתִיב וַיְהִי. וּכְתִיב יָדָיו, בְּגִין דְּהוּא עִקָרָא דְּכֹלָּא. וּכְתִיב, (שמותטו) יְמִינְךָ יְיָ' נְאְדָּרִי בַּכֹּחַ יְמִינְךָ יְיָ' תִּרְעַץ אוֹיֵב. (שמות יז) וַיֹּאמֶר יְיָ' אֶל מֹשֶׁה כְּתֹב זֹאת זִכָּרוֹן בְּסֵפֶר וְגוֹ'. תָּא חֲזֵי, מַה כְּתִיב לְעֵילָּא, וַיַּחֲלוֹשׁ יְהוֹשֻׁעַ אֶת עֲמָלֵק וְאֶת עַמּוֹ לְפִי חָרֶב. וַיַּחֲלשׁ, וַיַּהֲרוֹג מִבָּעֵי לֵיהּ. אֶלָּא, וַיַּחֲלשׁ, כְּמָה דְּאִתְּמַר, (ישעיה יד) חוֹלֵשׁ עַל גּוֹיִם. יְהוֹשֻׁעַ הֲוָה חוֹלֵשׁ עָלַיְיהוּ, וְהַהוּא חֶרֶב נוֹקֶמֶת נְקַם בְּרִית קָטִיל לוֹן, דִּכְתִּיב לְפִי חָרֶב כְּמָה דְּאִתְּמַר.
כְּתֹב זֹאת זִכָּרוֹן, זֹאת דַּיְקָא. וְשִׂים בְּאָזְנֵי יְהוֹשֻׁעַ, דְּהָא הוּא זָמִין לְקָטְלָא מַלְכִין אַחֲרָנִין. כִּי מָחֹה אֶמְחֶה. מָחֹה: לְעֵילָּא. אֶמְחֶה: לְתַתָּא. זֵכֶר, דּוּכְרָנָא דִּלְעֵילָּא וְתַתָּא.
אָמַר רִבִּי יִצְחָק, כְּתִיב כִּי מָחֹה אֶמְחֶה, וּכְתִיב (דברים כה) תִּמְחֶה אֶת זֵכֶר עֲמָלֵק. אֶלָּא, אָמַר קוּדְשָׁא בְּרִיךְ הוּא, אַתּוּן מָחוּן דּוּכְרָנֵיהּ לְתַתָּא, וַאֲנָא אֶמְחֶה דּוּכְרָנֵיהּ לְעֵילָּא.
אָמַר רִבִּי יוֹסֵי, עֲמָלֵק עַמִּין אַחֲרָנִין אַייתִין עִמֵּיהּ, וְכֻלְּהוּ דְּחִילוּ לְקָרְבָא בְּהוּ בְּיִשְׂרָאֵל, בַּר אִיהוּ. וּבְגִין כַּךְ, יְהוֹשֻׁעַ הֲוָה חוֹלֵשׁ עָלַיְיהוּ. רִבִּי יֵיסָא אָמַר, וַיַּחֲלֹשׁ יְהוֹשֻׁעַ, דְּתָבַר חֵילָא דִּלְהוֹן מִלְּעֵילָּא. (שמות י״ז:ט״ו) וַיִּבֶן מֹשֶׁה מִזְבֵּחַ וַיִּקְרָא שְׁמוֹ יְיָ' נִסִּי. וַיִּבֶן מֹשֶׁה מִזְבֵּחַ, לָקֳבֵל הַהוּא דִּלְעֵילָּא. וַיִּקְרָא שְׁמוֹ הַהוּא מֹשֶׁה (נ''א דההוא מזבח) יְיָ' נִסִּי. מַאי יְיָ' נִסִּי. בְּגִין דְּאַנְקִים נִקְמָתָא דְּהַהוּא רְשִׁימָא קַדִּישָׁא דְּיִשְׂרָאֵל, וּמֵהַהוּא זִמְנָא אִתְקְרֵי, חֶרֶב נוֹקֶמֶת נְקַם בְּרִית.
רִבִּי יוֹסֵי אָמַר, וַיִּבֶן מֹשֶׁה מִזְבֵּחַ, מִזְבַּח לְכַפְּרָא עָלַיְיהוּ. וַיִּקְרָא שְׁמוֹ. שְׁמוֹ דְּמַאן. אָמַר רִבִּי חִיָּיא שְׁמֵיהּ דְּמַדְבְּחָא הַהוּא. יְיָ' נִסִּי: כְּמָה דְאַתְּ אָמֵר, וְשָׁם נִסָּהוּ. וְכֹלָּא מִלָּה חַד, עַל דְּאִתְפְּרָעוּ יִשְׂרָאֵל, וְאִתְגַּלְיָיא הַהוּא אָת קַיָּימָא, רְשִׁימָא קַדִּישָׁא. מִכָּאן אוֹלִיפְנָא, דְּכֵיוָן דְּאִתְגְּזַר בְּרֵיהּ דְּבַר נָשׁ, וְאִתְגַּלְיָיא בֵּיהּ אָת רְשִׁימָא קַדִּישָׁא קַיָּימָא. הַהוּא אִקְרֵי מִזְבֵּחַ לְכַפְּרָא עָלֵיהּ. וּמַה שְׁמֵיהּ. יְיָ' נִסִּי.
כְּגַוְונָא דָּא יַעֲקֹב, בְּנָהּ מַדְבְּחָא, דִּכְתִּיב, (בראשית ל״ג:כ׳) וַיַּצֶּב שָׁם מִזְבֵּחַ וַיִּקְרָא לוֹ אֵל אֱלהֵי יִשְׂרָאֵל. לְמַאן. לְהַהוּא אֲתָר דְּאִקְרֵי מִזְבֵּחַ. וּמַאן שְׁמֵיהּ. אֵל אֱלֹהֵי יִשְׂרָאֵל.
אָמַר רִבִּי יוֹסֵי, מַאי דִּכְתִּיב, (שמות כ״ד:י׳) וַיִּרְאוּ אֵת אֱלֹהֵי יִשְׂרָאֵל וְגוֹ'. וְכִי מַאן יָכִיל לְמֵחמֵי לֵיהּ לְקוּדְשָׁא בְּרִיךְ הוּא, וְהָא כְּתִיב (שמות ל״ג:כ׳) כִּי לא יִרְאַנִי הָאָדָם וָחָי. וְהָכָא אָמַר וַיִּרְאוּ אֶלָּא דְּאִתְגַּלְיָא קֶשֶׁת עָלַיְיהוּ בִּגְוָונִין נְהִירִין, וְהָכִי תָּנֵינָן, כָּל מַאן דְּאִסְתַּכַּל בַּקֶּשֶׁת, כְּמַאן דְּמִסְתַּכַּל בַּשְּׁכִינָה, וּלְאִסְתַּכְּלָא בִּשְׁכִינְתָּא אָסִיר.
וְעַל דָּא, אָסִיר לֵיהּ לְאִינִישׁ, לְאִסְתַּכְּלָא בְּאֶצְבְּעַיְיהוּ דְּכַהֲנֵי, בְּשַׁעֲתָא דְּפַרְסֵי יְדַיְיהוּ. אָסוּר לְאִסְתַּכְּלָא בַּקֶּשֶׁת. מַאן קֶשֶׁת. אָמַר רִבִּי אַבָּא, בַּקֶּשֶׁת סְתָם אָמַר לֵיהּ מַאי בַּקֶּשֶׁת סְתָם אֲמַר לֵיהּ בַּקֶּשֶׁת דִּלְעֵילָּא, וּבַקֶּשֶׁת דִּלְתַתָּא.
בַּקֶּשֶׁת דִּלְעֵילָּא, בִּגְוָונוֹי. דְּכָל מַאן דְּיִסְתַּכַּל בִּגְוָונוֹי, כְּאִילּוּ אִסְתַּכַּל בְּאֲתָר דִּלְעֵילָּא, וְאָסִיר לְאִסְתַּכְּלָא בֵּיהּ, דְּלָא יַעֲבִיד קְלָנָא בִּשְׁכִינְתָּא. קֶשֶׁת דִּלְתַתָּא מַאי הִיא. הַהוּא אָת קַיָּימָא, דְּאִתְרְשִׁים בֵּיהּ בְּבַר נָשׁ, דְּכָל מַאן דְּיִסְתַּכַּל בֵּיהּ, עָבִיד קְלָנָא לְעֵילָּא.
אָמַר רִבִּי יִצְחָק, אִי הָכִי וְהָכְתִיב (בראשית כ״ד:ב׳) שִׂים נָא יָדְךָ תַּחַת יְרֵכִי, דְּהֲוָה אוֹמֵי לֵיהּ בְּהַאי אָת. אֲמַר לֵיהּ, אֲנַח לְהוּ לַאֲבָהָן דְּעָלְמָא, דְּלֵית אִינּוּן כִּשְׁאַר בְּנֵי עָלְמָא. וְעוֹד, שִׂים נָא יָדְךָ תַּחַת יְרֵכִי כְּתִיב, וְלָא כְּתִיב רְאֵה תַּחַת יְרֵכִי, בְּגִין כָּךְ אָסִיר לְאִסְתַּכְּלָא בַּקֶּשֶׁת סְתָם, כְּמָה דְּתָנֵינָן.
תָּאנָא, וַיִּרְאוּ אֵת אֱלֹהֵי יִשְׂרָאֵל, דְּאִתְגַּלְיָא קֶשֶׁת עָלַיְיהוּ, בִּגְוָונִין שַׁפִּירִין נְהִירִין, מְלַהֲטָן לְכָל עִיבָר, מַשְׁמַע דִּכְתִּיב, אֵת אֱלֹהֵי יִשְׂרָאֵל וְלָא כְּתִיב וַיִּרְאוּ אֱלהֵי יִשְׂרָאֵל. אָמַר רִבִּי יוֹסֵי, נְהוֹרָא דְּבוּצִינָא דִּשְׁכִינְתָּא. וּמַאי נִיהוּ. הַהוּא דְּאִקְרֵי נַעַר, דִּמְשַׁמֵּשׁ לִשְׁכִינְתָּא, בְּמַקְדְּשָׁא. וּבְגִין כַּךְ, אֵת דַּיְיקָא.
וְתַחַת רַגְלָיו כְּמַעֲשֵׂה לִבְנַת הַסַּפִּיר, דְּאִתְרְשִׁים בֵּיהּ תְּחוֹת דּוּכְתֵּיהּ, חַד לְבֵינָתָא מֵאִינּוּן לְבֵנִין דַּהֲווֹ בָּנִין בְּמִצְרַיִם, דְּתָנֵינָן, אִתְּתָא חֲדָא אוֹלִידַת בְּמִצְרַיִם, וַהֲוָה אָתִין סַרְכֵי פַּרְעֹה, וְעָאלַת לֵיהּ בְּחַד לְבֵינָתָא, וְאָתָא פַּס יְדָא וְאָחִיד לֵיהּ, וְאִתְרְשִׁים תְּחוֹת רַגְלוֹי דִּשְׁכִינְתָּא, וְקַיְּימָא קָמֵיהּ, עַד דְּאִתּוֹקַד בֵּי מַקְדְּשָׁא דִּלְתַתָּא, דִּכְתִּיב, (איכה ב׳:א׳) וְלא זָכַר הֲדוֹם רַגְלָיו.
ר' חִיָּיא אָמַר, לִבְנַת הַסַּפִּיר: נְהִירוּתָא דְּסַפִּיר, קַלְדִיטֵי בְּקַנְדִיטֵי גְּלִיפִין עִלָּאִין דִּלְעֵילָּא, דְּמִתְלַהֲטָא לְשִׁבְעִין וּתְרֵין עִבְרִי, הֲדָא הוּא דִכְתִיב, (ישעיהו נ״ד:י״א) וִיסַדְתִּיךְ בַּסַּפִּירִים. (שמות כ״ד:י׳) וּכְעֶצֶם הַשָּׁמַיִם. מַאי עֶצֶם הַשָּׁמַיִם. אָמַר רִבִּי אַבָּא, מָה עֶצֶם הַשָּׁמַיִם, גְּלִיפָא בְּשִׁבְעִין וּתְרֵין עֲנָפִין, פַּרְחִין מְלַהֲטָן בְּכָל עִיבָר. אוּף הָכָא, חֵיזוּ דְּהַהוּא עֶצֶם הַשָּׁמַיִם כְּחֵיזוּ שְׁמַיָּא מַמָּשׁ. רִבִּי יְהוּדָה אָמַר, כֹּלָּא אִתְרְשִׁים בְּהַהוּא נְהִירוּ, דְּחֵיזוּ דְּמִתְגַּלְפָא מִסִּטְרָא דִּשְׁכִינְתָּא.
אָמַר רִבִּי חִזְקִיָּה, אִי הָכִי, וְהָא שִׁתִּין אִינּוּן, בְּסַחֲרָנִיהּ דִּשְׁכִינְתָּא, דִּכְתִּיב, (שיר השירים ג׳:ז׳) שִׁשִּׁים גִּבּוֹרִים סָבִיב לָהּ. אֲמַר לֵיהּ הָכִי הוּא וַדַּאי. אֶלָּא אִינּוּן שִׁתִּין, אִתְנְהִירוּ בִּתְרֵיסַר תְּחוּמִין, וְלָא אַעְדִּיאוּ מִסָּחֲרָנוּתָהָּא לְעָלְמִין. דְּתָנֵינָן, תְּרֵיסַר תְּחוּמִין, גְּלִיפִין עִלָּאִין, בְּמַתְקְלָא סְלִיקוּ, בְּאִילָנָא קַדִּישָׁא רַבָּא וְתַקִּיף. וְכֻלְּהוּ נְהִירִין בְּמַטְרוֹנִיתָא, כַּד אִתְחַבְּרַת בְּמַלְכָּא. וְדָא הוּא עֶצֶם הַשָּׁמַיִם, עֶצֶם הַשָּׁמַיִם מַמָּשׁ. וְכָל אִינּוּן נְהִירִין שְׁבִילִין, מְנָהֲרִין בֵּיהּ, בִּנְהִירוּ דְּמַטְרוֹנִיתָא.
וְתָאנָא, נְהִירוּ דְּאִלֵּין שִׁתִּין, דְּסָחֲרָנָהָא, רְשִׁימִין בֵּיהּ בְּהַהוּא נַעַ''ר, וְקָרֵינָן לְהוּ שִׁתִּין פּוּלְסֵי דְּנוּרָא, דְּאִתְלָבַּשׁ בְּהוּ מִסְּטָר דִּשְׁכִינְתָּא, מִתְלַהֲטָן בְּדִינָא, הֲדָא הוּא דִכְתִיב שִׁשִּׁים גִּבּוֹרִים סָבִיב לָהּ.
תָּאנָא, וַיִּבֶן מֹשֶׁה מִזְבֵּחַ כְּמָה דַּאֲמֵינָא. וַיִּקְרָא שְׁמוֹ ה' נִסִּי. ה' נִסִּי מַמָּשׁ. אֲמַאי. בְּגִין דַּעֲמָלֵק נָטַל כָּל אִינּוּן דַּהֲווֹ גְּזִירִין, וְלָא אִתְפְּרָעוּ, וְגָזַר לוֹן וְשָׁדֵי לְהוּ לְעֵילָּא, וְאָמַר טוֹל מַה דְּאִתְרְעִית בֵּיהּ. בֵּיהּ שַׁעֲתָא מַה כְּתִיב. וַיֹּאמֶר כִּי יַד עַל כֵּס יָהּ מִלְחָמָה לַה' בַּעֲמָלֵק מִדֹּר דֹּר. מִדֹּר דֹּר חֲסֵרִין, מִדִּיּוּרִין דִּלְעֵילָּא, וּמִדִּיּוּרִין דִּלְתַתָּא.
אָמַר רִבִּי יְהוּדָה, בְּכָל דָּרָא וְדָרָא, בְּכָל דָּרִין דְּאַתְיָין לְעָלְמָא, לֵית לָךְ דָּר דְּלֵית בְּהוּ מֵהַהוּא זַרְעָא בִּישָׁא, וקוּדְשָׁא בְּרִיךְ הוּא אֲגַח בְּהוּ קְרָבָא. (ר' יצחק אמר מדירותא דלתתא לדיורא דלעילא) וְעָלַיְיהוּ כְּתִיב (תהילים ק״ד:ל״ה) יִתַּמּוּ חַטָּאִים מִן הָאָרֶץ וְגוֹ'. מִן הָאָרֶץ: בְּעָלְמָא דֵּין, וּבְעָלְמָא דְּאָתֵי. בֵּיהּ זִמְנָא כְּתִיב, בָּרְכִי נַפְשִׁי אֶת ה' הַלְלוּיָהּ.