(ויקרא כ״ו:ג׳) אִם בְּחֻקּוֹתַי תֵּלֵכוּ וְגוֹ'. רִבִּי חִיָּיא פָּתַח, (מיכה ו׳:ה׳) עַמִּי זְכָר נָא מַה יָּעַץ בָּלָק מֶלֶךְ מוֹאָב וּמֶה עָנָה אוֹתוֹ בִּלְעָם בֶּן בְּעוֹר וְגוֹ'. עַמִּי זְכָר נָא, זַכָּאָה חוּלָקָא דְּעַמָּא דָּא, דְּמָארֵיהוֹן אוֹכַח לוֹן הָכִי. עַמִּי זְכָר נָא, אַף עַל גַּב דְּאַתּוּן סָטָאן מֵאוֹרְחָי, עַמִּי אַתּוּן, דְּלָא בָּעֵינָא לְמֶעְבַּד לְכוּ כְּעוֹבָדַיְיכוּ.
רִבִּי יִצְחָק אָמַר, זַכָּאָה חוּלָקָא דְּעַמָּא, דְּמָארַיְיהוּ אָמַר לוֹן, (מיכה ו׳:ג׳) עַמִּי מֶה עָשִׂיתִי לְךָ וּמָה הֶלְאֵיתִיךָ עֲנֵה בִּי. מַה יָּעַץ בָּלָק מֶלֶךְ מוֹאָב. בְּכַמָּה מִלִּין וְעוֹבָדִין אָמַר לְשֵׁיצָאָה לְכוּ מֵעָלְמָא, וְכַמָּה חַרְשִׁין אִתְּעַר לָקֳבְלַיְיכוּ.
אָמַר רִבִּי יוֹסֵי, אָמַר לוֹן קוּדְשָׁא בְּרִיךְ הוּא לְיִשְׂרָאֵל, זְכוֹר נָא. וַוי דַּאֲנָן צַוְוחִין בְּכָל יוֹמָא, וְגָעֵינָן וּבָכֵינָן, (איכה ה׳:א׳) זְכוֹר יְיָ' מֶה הָיָה לָנוּ. (תהילים קל״ז:ז׳) זְכוֹר יְיָ' לִבְנֵי אֱדוֹם, וְלָא בָּעֵי לְאַשְׁגְּחָא עֲלָנָא, הוּא אָמַר לָן בְּבָעוּ זְכוֹר נָא, אֵין נָא אֶלָּא לְשׁוֹן בָּעוּתָא, וַאֲנָן לָא אַשְׁגַּחְנָא בֵּיהּ, כְּגַוְונָא דָּא אֲנָן צַוְוחִין, זְכוֹר יְיָ' מֶה הָיָה לָנוּ, זְכוֹר יְיָ' לִבְנֵי אֱדוֹם, (תהילים ע״ד:ב׳) זְכוֹר עֲדָתְךָ קָנִיתָ קֶּדֶם, (תהילים ק״ו:ד׳) זָכְרֵנִי יְיָ' בִּרְצוֹן עַמֶּךָ, וְלָא בָּעֵי לְאַשְׁגְּחָא עֲלָן.
רִבִּי יְהוּדָה אָמַר, וַדַּאי קוּדְשָׁא בְּרִיךְ הוּא אַשְׁגַּח עֲלָן תָּדִיר, וְדָכִיר לָן, אִי לָאו דְּאִיהוּ אַשְׁגַּח בְּהוּ בְּיִשְׂרָאֵל, וְדָכִיר לוֹן, לָא יְקוּמוּן חַד יוֹמָא בְּגָלוּתָא, הֲדָא הוּא דִכְתִיב, (ויקרא כ״ו:מ״ד) וְאַף גַּם זֹאת בִּהְיוֹתָם בְּאֶרֶץ אוֹיְבֵיהֶם וְגוֹ'. קוּדְשָׁא בְּרִיךְ הוּא לָא עָבִיד לָן כְּעוֹבָדָנָא.
תָּא חֲזֵי, בָּלָק חַכִּים הֲוָה, וְרַב חַרְשִׁין בְּעוֹבָדֵי יְדוֹי, יַתִּיר מִן בִּלְעָם. וְהָכִי אוֹלִיפְנָא כָּל מַה דְּבָעֵי בַּר נָשׁ בְּהַאי עָלְמָא בְּפוּלְחָנָא דְּקוּדְשָׁא בְּרִיךְ הוּא, בָּעֵי לְאִתְּעָרָא בְּעוֹבָדָא לְתַתָּא. דִּבְעוֹבָדָא דִּלְתַּתָּא, אִתְּעַר עוֹבָדָא לְעֵילָּא, וְעוֹבָדָא דָּא בָּעֵי בִּקְדוּשָּׁה, וְהָא אוּקְמוּהָ. וּבַאֲתַר דְּלֵית עוֹבָדָא, אִית מִלָּה, וּבְמִלָּה דְּפוּמָא, תַּלְיָא עוֹבָדָא, לְאִתְּעָרָא לְעֵילָּא. כְּמָה דְּבָעֵינָן לְאִתְּעָרָא קְדוּשָּׁה עִלָּאָה, בְּעוֹבָדָא וּבְמִלָּה. הָכִי נָמֵי אִינּוּן דְּאַתְיָין מִסִּטְרָא דִּמְסָאֲבוּתָא, בַּעְיָין לְאִתְּעָרָא סִטְרָא דִּלְהוֹן, בְּעוֹבָדָא וּבְמִלָּה דְּפוּמָא.
וְאַף עַל גַּב דְּבִלְעָם חַרְשָׁא הֲוָה רַב מִכָּל חַרְשִׁין דְּעָלְמָא, חַרְשָׁא עִלָּאָה מִנֵּיהּ הֲוָה בָּלָק. בְּקֶסֶם הֲוָה בָּלָק רַב מִכָּל חַכִּימִין. וּבִלְעָם בְּנַחַשׁ (והא אוקמוה). קֶסֶם וְנַחַשׁ תְּרֵין דַּרְגִּין אִינּוּן, קֶסֶם תַּלְיָא בְּעוֹבָדָא. נַחַשׁ לָא תַּלְיָא בְּעוֹבָדָא אֶלָּא בְּאִסְתַּכְּלוּתָא, וּבְמִלָּה דְּפוּמָא. וּכְדֵין מִתְעָרִין עָלַיְיהוּ רוּחָא מִסְאֲבָא, לְאִתְלַבְּשָׁא בְּהוּ, וְעָבִיד מַה דְּעָבִיד.
וְיִשְׂרָאֵל קַדִּישִׁין לָאו הָכֵי, אֶלָּא כֻּלְּהוּ קַדִּישִׁין, וְכָל עוֹבָדַיְיהוּ לְאִתְּעָרָא עָלַיְיהוּ רוּחָא קַדִּישָׁא. כְּמָה דְאַתְּ אָמֵר, (ישעיה לב) עַד יֵעָרֶה עָלֵינוּ רוּחַ מִמָּרוֹם. וְעַל דָּא כְּתִיב, (במדבר כג) כִּי לֹא נַחַשׁ בְּיַעֲקֹב וְלֹא קֶסֶם בְּיִשְׂרָאֵל, דְּהָא אִינּוּן בְּסִטְרָא דִּקְדוּשָּׁה עִלָּאָה אֲחִידָן. וְעוֹבָדַיְיהוּ בִּקְדוּשָּׁה אָתוּ, וּקְדוּשָּׁה מִתְעָרֵי עָלַיְיהוּ וּמִתְלַבְּשָׁן בָּהּ.
וְתָּא חֲזֵי, בְּקֶסֶם הֲוָה בָּלָק רַב מִכָּל חַכִּימִין, וּבִלְעָם בְּנַחַשׁ. וְעַל דָּא בְּשַׁעֲתָא דְּבָעָא בָּלָק לְאִתְחַבְּרָא עִמֵּיהּ, מַה כְּתִּיב (במדבר כב) וַיֵּלְכוּ זִקְנֵי מוֹאָב וְזִקְנֵי מִדְיָן וּקְסָמִים בְּיָדָם. (ובלעם עובדוי בנחש) תָּא חֲזֵי, בְּמִלָּה דְּפוּמָא הֲוָה בִּלְעָם רַב מִכָּל חַרְשִׁין דְּעָלְמָא, וּבְאִסְתַּכְּלוּתָא דְּהַהוּא נַחַשׁ, הֲוָה יָדַע לְכַוְּונָא שַׁעֲתָא. וְעַל דָּא בָּעָא בָּלָק לְאַשְׁלְמָא מִלָּה (ס''א כלא) קֶסֶם וְנַחַשׁ.
אָמַר לֵיהּ קוּדְשָׁא בְּרִיךְ הוּא, רָשָׁע, הָא קְדָמוּךָ בָּנַי. עוֹבָדָא אִית בְּגַוַויְיהוּ, דְּכָל סִטְרִין בִּישִׁין וְּזִינִין בִּישִׁין וְחַרְשִׁין דְּעָלְמָא לָא יַכְלִין לְקָרְבָא בַּהֲדַיְיהוּ, דְּכֻלְּהוּ עַרְקִין מִקַּמֵּיהּ. וּמַאי אִיהוּ. אֹהֶל מוֹעֵד, וּמָאנֵי קוּדְשָׁא, וְשִׁמּוּשֵׁי מַקְדְּשָׁא, וּקְטֹרֶת בּוּסְמִין, דְּקָא מְבַטֵּל כָּל רִתְחָא וְרוּגְזָא דְּעָלְמָא, דִּלְעֵילָּא וְתַתָּא, וְעִלָּוָון וְקָרְבְּנִין בְּכָל יוֹמָא, וּתְרֵי מִזְבְּחוֹת, לְמֶעְבַּד עוֹבָדָא מִזְבְּחוֹת, וְשֻׁלְחָן וְלֶחֶם הַפָּנִים, וְאֶת הַכִּיּוֹר וְאֶת כַּנּוֹ, וְכַמָּה שִׁמּוּשִׁין לְעוֹבָדָא, לְמִלָּה דְּפוּמָא, הָאָרֹן וּתְרֵי לוּחַיָּיא דְּאוֹרַיְיתָא, וְאַהֲרֹן לְכַפְּרָא עַל עַמָּא בִּצְלוֹתָא בְּכָל יוֹמָא. כֵּיוָן דְּאַשְׁגַּח הַהוּא רָשָׁע בְּהַאי, אָמַר כִּי לֹא נַחַשׁ בְּיַעֲקֹב וְלֹא קֶסֶם בְּיִשְׂרָאֵל. מַאי טַעְמָא. יְיָ' אֱלֹהָיו עִמּוֹ וּתְרוּעַת מֶלֶךְ בּוֹ.
וְעַל דָּא עַמִּי זְכָר נָא, בְּבָעוּ מִנַּיְיכוּ, הֲווֹ דְּכִירִין הַהוּא זִמְנָא דְּאִתְחַבָּרוּ בָּלָק וּבִלְעָם לְשֵׁיצָאָה לְכוּ, וְלָא יָכִילוּ, דַּאֲנָא אֲחִידְנָא בְּכוּ, כְּאַבָּא דְּאָחִיד בִּבְרֵיהּ, וְלָא שָׁבִיק לֵיהּ בִּידָא דְּאָחֳרָא. מִן הַשִּׁטִּים וְעַד הַגִּלְגָל, מַאי דָּא לָקֳבֵיל דָּא. אֶלָּא אָמַר קוּדְשָׁא בְּרִיךְ הוּא לְיִשְׂרָאֵל, בְּבָעוּ מִנַּיְיכוּ, הֲווֹ דְּכִירִין כָּל זִמְנָא דַּהֲוִיתּוּן אֲחִידָן בִּי, וְלָא יָכִיל הַהוּא רָשָׁע בְּחַרְשׁוֹי וְקִסְמוֹי לְשַׁלְּטָאָה עָלַיְיכוּ. כֵּיוָן דִּשְׁבַקְתּוּן יְדַיְיכוּ לְאַחֲדָא בִּי, וַהֲוִיתוּן בְּשִׁטִּים, מַה כְּתִיב. (במדבר כ״ה:ב׳) וַיֹּאכַל הָעָם וַיִשְׁתַּחֲווּ לֵאלֹהֵיהֶן. בַּגִּלְגָּל, כְּמָה דְאַתְּ אָמֵר (הושע י״ב:י״ב) בַּגִּלְגָּל שְׁוָרִים זִבֵּחוּ, וּכְדֵין שְׁלִיטוּ בְּכוּ שַׂנְאֵיכוֹן.
וְכָל דָּא אֲמַאי. לְמַעַן דַּעַת צִדְקוֹת יְיָ' כָּל אִינּוּן צְדָקוֹת, דְּעָבֵדְנָא לְכוּ, בְּזִמְנָא דְּאַתּוּן אֲחִידָן בִּי, וְלָא שָׁבִיקְנָא מִלָּה דְּעָלְמָא לְשַׁלְּטָאָה בְּכוּ, וְרוּגְזָא דִּלְעֵילָּא וְתַתָּא, וְּזִינִין בִּישִׁין, לָא יַכְלִין לְקָרְבָא בְּכוּ.
וַיֹּאמֶר אֲלֵיהֶם לִינוּ פֹה הַלַּיְלָה וַהֲשִׁיבוֹתִי אֶתְכֶם דָּבָר כַּאֲשֶׁר יְדַבֵּר יְיָ' אֵלָי. תָּא חֲזֵי, בְּשַׁעֲתָא דְּעָאל שִׁמְשָׁא, וְתַרְעִין כֻּלְּהוּ אַסְתִּימוּ, וְעָאל לֵילְיָא וְאִתְחֲשָׁךְ, כַּמָה חֲבִילֵי שָׁרָאן מְשַּׁלְשְׁלֵיהוֹן, וְאָזְלִין וְשָׁטָאן בְּעָלְמָא, וְכַמָּה רַבְרְבֵי מְמָנָן עָלַיְיהוּ דִּמְדַבְּרֵי לְהוּ. וְאִית מְמָנָא רַבְרְבָא עַל כֹּלָּא מִסִּטְרָא דִּשְׂמָאלָא וְהַהוּא רָשָׁע הֲוָה שְׁכִיחַ לְגַבֵּי הַהוּא מְמָנָא עִלָּאָה מִכֹּלָּא בְּחַרְשׁוֹי. וְהוּא הֲוָה אָמַר בְּחַרְשׁוֹי בְּלֵילְיָא, בְּזִמְנָא דְּאִיהוּ שַׁלְטָא בְּכָל סִיעָתָא דִּילֵיהּ, וְהוּא הֲוָה אָתֵי לְאִשְׁתַּכְּחָא גַּבֵּיהּ, וְאוֹדַע לֵיהּ מַה דְּאִיהוּ בָּעֵי.
כְּגַוְונָא דָּא (בראשית ל״א:כ״ד) וַיָּבֹא אֱלֹהִים אֶל לָבָן הָאֲרַמִי, הַהוּא דִּשְׁכִיחַ גַּבֵּיהּ. (בראשית כ׳:ג׳) וַיָּבֹא אֱלֹהִים אֶל אֲבִימֶלֶךְ, כֻּלְּהוּ כְּגַוְונָא דָּא. בְּכָל אֲתַר אִקְרוּן לֵיהּ בְּאִינּוּן חַרְשִׁין, וְעַל דָּא הֲוָה שְׁכִיחַ בְּלֵילְיָא יַתִּיר מִבִּימָמָא. וְהָא אוֹקְמוּהָ. וְכָל הָנֵי חַרְשִׁין וְחַכִּימִין הֲווֹ לַאֲבִימֶלֶךְ, דִּכְתִּיב, (בראשית כ״ו:ח׳) וַיַּשְׁקֵף אֲבִימֶלֶךְ מֶלֶךְ פְּלִשְׁתִּים בְּעַד הַחַלּוֹן. כְּתִיב הָכָא בְּעַד הַחַלּוֹן, וּכְתִיב הָתָם (שופטים ה׳:כ״ח) בְּעַד הַחַלּוֹן נִשְׁקְפָה וַתְּיַבֵּב אֵם סִיסְרָא. לָבָן הָא אוּקְמוּהָ, בִּלְעָם כְּדֵין.
וְעַל דָּא בְּכֻלְּהוּ כְּתִיב אֱלֹהִים, וַיָּבֹא אֱלֹהִים אֶל בִּלְעָם, וַיָּבֹא אֱלֹהִים אֶל לָבָן, וַיָּבֹא אֱלֹהִים אֶל אֲבִימֶלֶךְ, הוּא אָתָא לְגַבַּיְיהוּ, וְלָאו אִינּוּן לְגַבֵּיהּ, דְּהָא לֵית לְהוּ אֲתַר זַמִּין. וְאִי תֵּימָא, הָא כְּתִיב אֱלֹהִים. אֶלָּא, שְׁמָא דָּא אִשְׁתְּתַּף בְּכֹלָּא, וַאֲפִילּוּ עֲבוֹדָה זָרָה נָמֵי אֱלֹהִים אִקְרֵי, אֱלֹהִים אֲחֵרִים, וּבִכְלָלָא דֶּאֱלֹהִים אֲחֵרִים אִלֵּין מְמָנָן, וּבִכְלָלָא דָּא הֲווֹ, וּבְגִין כַּךְ אִקְרֵי הָכֵי. וְהַהוּא רָשָׁע הֲוָה אָמַר בְּחַרְשׁוֹי וְקָרֵי לֵיהּ, וְאָתֵי לְגַבֵּיהּ. וּבְגִין כַּךְ כְּתִיב (במדבר כ״ב:ח׳) לִינוּ פֹה הַלַּיְלָה וַהֲשִׁיבוֹתִי אֶתְכֶם דָּבָר כַּאֲשֶׁר יְדַבֵּר יְיָ' אֵלָי. הַהוּא רָשָׁע קָא מְשַׁבַּח גַּרְמֵיהּ, דְּהָא לָא כְּתִיב בֵּיהּ, אֶלָּא וַיָּבֹא אֱלֹהִים.
דָּבָר אַחֵר כַּאֲשֶׁר יְדַבֵּר יְיָ' אֵלָי, עַל יְדֵי דְּהַהוּא שְׁלִיחָא דְּסִטְרָא אָחֳרָא. וְאִי תֵּימָא הָא בִּימָמָא אִשְׁתְּכַח לְגַבֵּיהּ. (ס''א כד הוה לגביה בלק אלא) אֶלָּא וַדַּאי בְּנַחַשׁ אִסְתַּכְּלוּתָא הֲוָה בֵּיהּ, וּבְהַהוּא זִמְנָא הֲוָה מִסְתַּכֵּל לְכַוְּונָא שַׁעֲתָא, הֲדָא הוּא דִכְתִיב וְלֹא הָלַךְ כְּפַעַם בְּפַעַם לִקְרַאת נְחָשִׁים. וַיַּרְא בִּלְעָם כִּי טוֹב בְּעֵינֵי יְיָ' לְבָרֵךְ אֶת יִשְׂרָאֵל. אֶלָּא דְּהַהוּא יוֹמָא אִסְתָּכַּל לְכַוְּונָא שַׁעֲתָא, וְלָא אִשְׁתְּכַּח כִּשְׁאָר יוֹמֵי, וּכְדֵין חָמָא דְּהָא רוּגְזָא רַבָּא לָא אִשְׁתְּכַּח בְּעָלְמָא, כְּדֵין יָדַע כִּי טוֹב בְּעֵינֵי יְיָ' לְבָרֵךְ אֶת יִשְׂרָאֵל. בְּהַהוּא זִמְנָא שָׁבִיק גַּרְמֵיהּ מִכָּל נְחָשִׁים דְּעָלְמָא, וְלָא אִסְתְּכַּל בְּהוּ, הֲדָא הוּא דִכְתִיב וְלֹא הָלַךְ כְּפַעַם בְּפַעַם לִקְרַאת נְחָשִׁים.
תָּא חֲזֵי, בְּהַהִיא שַׁעֲתָא דְּרִתְּחָא אִשְׁתְּכַח, כְּדֵין שְׂמָאלָא אִתְּעַר, וַהֲוָה יָדַע הַהוּא רָשָׁע אֲתַר, לְאַחֲדָא בְּסִטְרָא שְׂמָאלָא, לְמֵילַט. וְאִסְתָּכַּל בְּהַהוּא זִמְנָא, וְלָא אִשְׁתְּכַח. כְּדֵין מַה כְּתִיב, (במדבר כ״ג:ח׳) מַה אֶקּוֹב לֹא קַבֹּה אֵל וּמָה אֶזְעוֹם לֹא זָעַם יְיָ'. וּבְגִין כַּךְ, (מיכה ו׳:ה׳) עַמִּי זְכָר נָא מַה יָּעַץ בָּלָק וְגוֹ'. וּמֶה עָנָה אוֹתוֹ בִּלְעָם בֶּן בְּעוֹר (בגין כך) זַכָּאִין אִינּוּן יִשְׂרָאֵל, זַכָּאָה חוּלָקֵיהוֹן בְּעָלְמָא דֵּין וּבְעָלְמָא דְּאָתֵי. (דמאריהון אוכח לון הכי) (ויקרא כ״ו:ג׳) אִם בְּחֻקּוֹתַי תֵּלֵכוּ. אִם בְּחֻקּוֹתַי, דָּא אֲתַר דִּגְזִירִין דְּאוֹרַיְיתָא תַּלְיָין בְּהַהוּא אֲתַר, כְּמָה דְאַתְּ אָמֵר (ויקרא י״ח:ד׳) אֶת חֻקּוֹתַי תִּשְׁמוֹרוּ. חוֹק הוּא דְּאִקְרֵי הָכִי, וּגְזִירִין דְּאוֹרַיְיתָא בָּהּ אִתְכְּלִילָן. (ויקרא כ״ה:י״ח) וְאֶת מִשְׁפָּטַי תִּשְׁמְרוּ. מִשְׁפָּטַי, דָּא הוּא אֲתַר אָחֳרָא עִלָּאָה, דְּהַהִיא חֻקָּה אֲחִידַת בֵּיהּ, וּמִתְחַבְּרָן דָּא בְּדָא דְּעִילָּאֵי וְתַתָּאֵי. וְכָל פִּקּוּדֵי אוֹרַיְיתָא, וְכָל גִּזְרֵי אוֹרַיְיתָא, וְכָל קִדּוּשֵׁי אוֹרַיְיתָא, בְּהָנֵי אֲחִידָן. בְּגִין דְּהַאי תּוֹרָה שֶׁבִּכְתָּב, וְהַאי תּוֹרָה שֶׁבְּעַל פֶּה.
וְעַל דָּא אִם בְּחֻקּוֹתַי, כָּל אִינּוּן גְּזִירִין וְדִינִין וְעוֹנָשִׁין וּפִקּוּדִין, דְּאִינּוּן בְּהַהוּא אֲתַר דְּאִקְרֵי תּוֹרָה שֶׁבְּעַל פֶּה, חֻקָּה. וְאֶת מִשְׁפָּטַי תִּשְׁמוֹרוּ, בְּהַהוּא אֲתַר דְּאִקְרֵי תּוֹרָה שֶׁבִּכְתָּב, כְּמָה דְּאַתְּ אָמֵר (תהלים פא) מִשְׁפָּט לֵאלֹהֵי יַעֲקֹב. וְדָא אָחִיד בְּדָא וְדָא בְּדָא, וְכֹלָּא חַד. וְדָא הוּא כְּלָלָא דִּשְׁמָא קַדִּישָׁא וּמַאן דְּאַעְבַּר עַל פִּתְגָּמֵי אוֹרַיְיתָא, כְּאִלּוּ פָּגִים שְׁמָא קַדִּישָׁא, בְּגִין דְּחֹק וּמִשְׁפָּט שְׁמָא דְּקוּדְשָׁא בְּרִיךְ הוּא הֲוִי. וְעַל דָּא, אִם בְּחֻקּוֹתַי תֵּלֵכוּ: דָּא תּוֹרָה שֶׁבְּעַל פֶּה. וְאֶת מִשְׁפָּטַי תִּשְׁמְרוּ: דָּא תּוֹרָה שֶׁבִּכְתָּב. וְדָא הוּא כְּלָלָא דִּשְׁמָא קַדִּישָׁא.
וַעֲשִׂיתֶם אוֹתָם. מַאי וַעֲשִׂיתֶם אוֹתָם, כֵּיוָן דְּאָמַר תֵּלֵכוּ וְתִשְׁמְרוּ, אֲמַאי וַעֲשִׂיתֶם. אֶלָּא, מַאן דְּעָבִיד פִּקּוּדֵי אוֹרַיְיתָא וְאָזִיל בְּאוֹרְחוֹי, כִּבְיָכוֹל כְּאִלּוּ עֲבִיד לֵיהּ לְעֵילָּא. אָמַר קוּדְשָׁא בְּרִיךְ הוּא, כְּאִלּוּ עַשָׂאָנִי, וְאוֹקְמוּהָ. וְעַל דָּא וַעֲשִׂיתֶם אוֹתָם. וַעֲשִׂיתֶם אַתֶּם כְּתִיב וַדַּאי, וְהוֹאִיל וּמִתְעָרֵי עָלַיְיכוּ לְאִתְחַבְּרָא דָּא בְּדָא, לְאִשְׁתַּכְּחָא שְׁמָא קַדִּישָׁא כְּדְקָא יֵאוֹת, וַעֲשִׂיתֶם אַתֶּם וַדַּאי.
כְּגַוְונָא דָּא אָמַר רִבִּי שִׁמְעוֹן, (שמואל ב ח׳:י״ג) וַיַּעַשׂ דָּוִד שֵׁם, וְכִי דָּוִד עֲבַד לֵיהּ. אֶלָּא בְּגִין דְּאָזִיל בְּאָרְחֵי דְּאוֹרַיְיתָא, וְעָבִיד פִּקּוּדֵי אוֹרַיְיתָא, וְאַנְהִיג מַלְכוּתָא כְּדְקָא יֵאוֹת, כִּבְיָכוֹל, עָשָׂה שֵׁם לְעֵילָּא. וְלָא הֲוָה מַלְכָּא בְּעָלְמָא דְּזָכָה לְהַאי כְּדָוִד, דְּהֲוָה קָם בְּפַלְגוּת לֵילְיָא, וַהֲוָה מְשַׁבַּח לֵיהּ לְּקוּדְשָׁא בְּרִיךְ הוּא, עַד דְּסָלִיק שְׁמָא קַדִּישָׁא בְּכוּרְסְיָּיה, בְּשַׁעֲתָא דְּסָלִיק נְהוֹרָא דִּימָמָא. כִּבְיָכוֹל הוּא עָבַד שֵׁם מַמָּשׁ כְּמָה דְאַתְּ אָמֵר, (ויקרא כ״ד:י״א) וַיִּקּוֹב בֶּן הָאִשָּׁה הַיִּשְׂרְאֵלִית אֶת הַשֵּׁם וַיְקַלֵּל. וּבְגִין כָּךְ וַיַּעַשׂ דָּוִד שֵׁם. וְעַל דָּא וַעֲשִׂיתֶם אוֹתָם כְּתִיב, וְאִי אַתּוּן תִּשְׁתַּדְּלוּן לְמֶעְבַּד לוֹן, לְאִתְתַּקְנָא שְׁמָא קַדִּישָׁא כְּדְקָא יָאוּת, כָּל אִינּוּן בִּרְכָאן דִּלְעֵילָּא יִשְׁתַּכְּחוּן גַּבַּיְיכוּ בְּתִקּוּנֵיהוֹן כְּדְקָא יֵאוֹת. (ויקרא כ״ו:ד׳) וְנָתַתִּי גִשְׁמֵיכֶם בְּעִתָּם וְגוֹ'. כָּל חַד וְחַד, יִתֵּן חֵילָא דִּילֵיהּ עָלַיְיכוּ. מַאן אִינּוּן. הַהוּא תִּקּוּנָא דַּעֲבַדְתּוּן דְּהַהוּא שְׁמָא קַדִּישָׁא כְּגַוְונָא דָּא כְּתִיב, (בראשית י״ח:י״ט) וְשָׁמְרוּ דֶּרֶךְ יְיָ' לַעֲשׂוֹת צְדָקָה וּמִשְׁפָּט. וְכִי כֵּיוָן דִּכְתִּיב וְשָׁמְרוּ דֶּרֶךְ יְיָ', אֲמַאי לַעֲשׂוֹת צְדָקָה וּמִשְׁפָּט. אֶלָּא מַאן דְּנָטִיר אוֹרְחוֹי דְּאוֹרַיְיתָא, כִּבְיָכוֹל הוּא עוֹשֶׂה צְדָקָה וּמִשְׁפָּט. וּמַאי צְדָקָה וּמִשְׁפָּט. דָּא קוּדְשָׁא בְּרִיךְ הוּא. בָּכָה רַבִּי שִׁמְעוֹן וְאָמַר, וַוי לוֹן לִבְנֵי נָשָׁא, דְּלָא יַדְעִין וְלָא מַשְׁגִּיחִין בִּיקָרָא דְּמָארֵיהוֹן, מַאן עָבִיד שְׁמָא קַדִּישָׁא בְּכָל יוֹמָא, הֲוִי אֵימָא מַאן דְּיָהִיב צְדָקָה לְמִסְכְּנֵי.
תָּא חֲזֵי, הָא אוּקְמוּהָ הָכִי הוּא, דְּמִסְכְּנָא אָחִיד בֵּיהּ בְּדִינָא, וְכָל מֵיכְלַיְיהוּ בְּדִינָא הוּא, אֲתַר דְּאִקְרֵי צֶדֶק, כְּמָה דְאַתְּ אָמֵר (תהלים כב) תְּפִלָּה לְעָנִי כִי יַעֲטֹף. תְּפִלָּה, דָּא תְּפִלָּה שֶׁל יַד, וְאוֹקִימְנָא. וּמַאן דְּיָהִיב לֵיהּ צְדָקָה לְמִסְכְּנָא, הוּא עָבִיד לְעֵילָּא שְׁמָא קַדִּישָׁא שְׁלִים כְּדְקָא יָאוּת. בְּגִין דִּצְדָקָה דָּא אִילָנָא דְּחַיֵּי, וּצְדָקָה יָהִיב לְצֶדֶק. וְכַד יָהִיב לְצֶדֶק, כְּדֵין אִתְחַבָּר דָּא בְּדָא, וּשְׁמָא קַדִּישָׁא אִשְׁתְּכַח שְׁלִים.
מַאן עָבִיד דָּא אִתְּעָרוּתָא (ד''א דעביד אתערותא דא) דִּלְתַּתָּא, וַדַּאי כְּאִלּוּ עָבִיד שְׁמָא קַדִּישָׁא בִּשְׁלִימוּ. כְּגַוְונָא דְּאִיהוּ עָבִיד לְתַּתָּא, הָכִי אִתְּעַר לְעֵילָּא. וְעַל דָּא כְּתִיב, (תהילים ק״ו:ג׳) אַשְׁרֵי שׁוֹמְרֵי מִשְׁפָּט עוֹשֵׂה צְדָקָה בְּכָל עֵת. עוֹשֵׂה צְדָקָה, דָּא קוּדְשָׁא בְּרִיךְ הוּא, כִּבְיָכוֹל הוּא עָבִיד לֵיהּ.
תָּא חֲזֵי, מִסְכְּנָא הָא אִתְּמַר מַאן הוּא אַתְרֵיהּ. מַאי טַעְמָא. בְּגִין דְּמִסְכְּנָא לָא אִית לֵיהּ מִדִילֵיהּ כְּלוּם, אֶלָּא מַה דְּיָהֲבִין לֵיהּ וְסִיהֲרָא לָא אִית לָהּ נְהוֹרָא מִדִילָהּ, אֶלָּא מַה דְּיָהִיב לָהּ שִׁמְשָׁא.
תָּא חֲזֵי, אֲמַאי עָנִי חָשׁוּב כַּמֵּת, מַאי טַעְמָא. בְּגִין דְּהַהוּא אֲתַר גָּרִים לֵיהּ, דְּהָא בַּאֲתַר דְּמוֹתָא הוּא שְׁכִיחַ, וּבְגִין כָּךְ אִקְרֵי מֵת. הַהוּא דְּחָיִיס עָלֵיהּ, הוּא יָהִיב לֵיהּ צְדָקָה, אִילָנָא דְּחַיֵּי שַׁרְיָא עֲלוֹי. כְּמָה דְאַתְּ אָמֵר, (משלי י׳:ב׳) וּצְדָקָה תַּצִּיל מִמָּוְת. וּכְגַוְונָא דְּעָבִיד בַּר נָשׁ לְתַתָּא, הָכִי נָמֵי עָבִיד לְעֵילָּא מַמָּשׁ. זַכָּאָה חוּלָקֵיהּ דְּזָכֵי לְמֶעְבַּד שְׁמָא קַדִּישָׁא לְעֵילָּא, בְּגִין כָּךְ צְדָקָה סָלִיק עַל כֹּלָּא.
וְהָנֵי מִלֵי, צְדָקָה לִשְׁמָהּ. דְּהָא אִתְּעַר צְדָקָה לְצֶדֶק, לְחַבְּרָא לוֹן כַּחֲדָא, וּלְמֶהֱוִי כֹּלָּא שְׁמָא קַדִּישָׁא כְּדְקָא יָאוּת. דְּהָא צֶדֶק, לָא אִתְתָּקַּן, וְלָא אִשְׁתְּלִים, אֶלָּא בִּצְדָקָה. דִּכְתִּיב, (ישעיהו נ״ד:י״ד) בִּצְדָקָה תִּכּוֹנָנִי, וְלִכְנֶסֶת יִשְׂרָאֵל אִתְּמַר, וּבְגִין כָּךְ וַעֲשִׂיתֶם אוֹתָם וְגוֹ'. (ויקרא כ״ו:ו׳) וְנָתַתִּי שָׁלוֹם בָּאָרֶץ וּשְׁכַבְתֶּם וְאֵין מַחֲרִיד וְגוֹ'. רִבִּי יוֹסֵי פָּתַח, (תהילים ד׳:ה׳) רִגְזוּ וְאַל תֶּחֱטָאוּ וְגוֹ'. רִגְזוּ וְאַל תֶּחטָאוּ, הַאי קְרָא אוּקְמוּהָ, דְּבָעֵי בַּר נָשׁ לְאַרְגָּזָא יֵצֶר טוֹב עַל יֵצֶר הָרָע, וְשַׁפִּיר. אֲבָל בְּשַׁעֲתָא דְּרָמַשׁ לֵילְיָא, וּבַר נָשׁ שָׁכִיב עַל עַרְסֵיהּ, כַּמָה גַּרְדִּינֵי נִמוּסִין מִתְעָרִין בְּעָלְמָא, וְאָזְלִין וְשָׁאטִין, וּבְנֵי נָשָׁא בָּעָאן לְאִתְרַגְּזָא מִקָּמֵיה קוּדְשָׁא בְּרִיךְ הוּא, וּלְדַחֲלָא מִנֵּיהּ, בְּגִין דְּלָא יִשְׁתְּכַּח נַפְשֵׁיהּ בְּגַּוַּיְיהוּ, וְיִשְׁתֵּזִיב מִנַּיְיהוּ. וְיִבְעֵי לֵיהּ לְבַּר נָשׁ, דְּלָא יָפִּיק מִנַּיְיהוּ מִלָּה בְּפוּמֵיהּ. בְּגִין דְּלָא יִתְּעַר לְהוּ לְגַבֵּיהּ, וְלָא יִשְׁתַּכְּחוּן בַּהֲדֵּיהּ. הֲדָא הוּא דִכְתִיב אִמְרוּ בִלְבַבְכֶם עַל מִשְׁכַּבְכֶם וְדֹמּוּ סֶלָה. דְּלָא יָפִּיק מִנַּיְיהוּ מִלָּה מִפּוּמֵיהּ.
תָּא חֲזֵי, בְּשַׁעֲתָא דְּאִשְׁתְּכָחוּ יִשְׂרָאֵל זַכָּאִין קַמֵּי קוּדְשָׁא בְּרִיךְ הוּא, מַה כְּתִיב, וְנָתַתִּי שָׁלוֹם בָּאָרֶץ. הַאי לְעֵילָּא. דְּאָתֵי קוּדְשָׁא בְּרִיךְ הוּא לְאִתְחַבְּרָא בִּכְנֶסֶת יִשְׂרָאֵל. כְּדֵין וּשְׁכַבְתֶּם וְאֵין מַחֲרִיד. מַאי טַעְמָא. בְּגִין וְהִשְׁבַּתִּי חַיָּה רָעָה מִן הָאָרֶץ. דָּא חַיָּה דְּזִינָא בִּישָׁא לְתַתָּא. וּמַאי אִיהִי. אַגְרַת בַּת מַחֲלַת, הִיא, וְכָל סִיעָתָא דִּילָהּ. הַאי בְּלֵילְיָא. בִּימָמָא, בְּנֵי נָשָׁא דְּאָתוּ מִסִּטְרָהָא דָּא, הֲדָא הוּא דִכְתִיב, (ויקרא כ״ו:ו׳) וְחֶרֶב לֹא תַעֲבוֹר בְּאַרְצְכֶם.
רִבִּי אַבָּא אָמַר, הָא אוּקְמוּהָ דְּאֲפִילּוּ חֶרֶב שֶׁל שָׁלוֹם, כְּגוֹן פַּרְעֹה נְכֹה. אֲבָל וְחֶרֶב לֹא תַעֲבוֹר, דָּא סִיעָתָא דִּילָהּ. וְהִשְׁבַּתִּי חַיָּה רָעָה, דְּלָא תִּשְׁלוֹט בְּאַרְעָא, וַאֲפִילּוּ הַעֲבָרָה בְּעָלְמָא לֹא תַעֲבוֹר עָלַיְיכוּ, וַאֲפִילּוּ חֶרֶב דִּשְׁאָר עַמִּין, וַאֲפִילּוּ בַּר נָשׁ מִזְיָינָא, לָא יַעֲבוֹר עָלַיְיכוּ.
וְדָא דָּרִישׁ יֹאשִׁיָּהוּ מַלְכָּא, וְאוֹקְמוּהָ דְּהוּא אַתְפַּס בְּחוֹבַיְיהוּ דְּיִשְׂרָאֵל. כְּמָה דִּכְתִּיב, (איכה ד׳:כ׳) רוּחַ אַפֵּינוּ מְשִׁיחַ יְיָ' נִלְכַּד בִּשְׁחִיתוֹתָם וְגוֹ'. הָכָא אִית לְאִסְתַּכְּלָא, דְּהָא תָּנֵינָן אִי רֵישָׁא דְּעַמָּא הוּא טַב, כָּל עַמָּא מִשְׁתֶּזְבָן בְּגִינֵיהּ. וְאִי רֵישָׁא דְּעַמָּא לָא אִתְכֵּשָׁר, כָּל עַמָּא אִתָּפְסָן בְּחוֹבֵיהּ. וְהָא יֹאשִׁיָּהוּ רֵישָׁא דְּכַשְׁרָא הֲוָה, וְעוֹבָדוֹי מִתְכַּשְּׁרָן. אֲמַאי אִתְפַּס בְּחוֹבֵיהוֹן דְּיִשְׂרָאֵל.
אֶלָּא עַל דְּלָא הַיְּמִין בֵּיהּ בְּיִרְמִיָהוּ, וְלָא כָּפִית לְהוּ לְיִשְׂרָאֵל, דְּחָשִׁיב דְּכֻלְּהוּ זַכָּאִין כְּוָותֵיהּ. וַהֲוָה אָמַר לֵיהּ יִרְמִיָּה, וְלָא הַיְּמִין בֵּיהּ. וּבְגִין כָּךְ אִתְפַּס בְּחוֹבֵיהוֹן. וְעוֹד דְּסִיהֲרָא הֲוָה מָאִיךְ נְהוֹרָא, וּבַעְיָא לְאַסְתְּמָא. (ויקרא כ״ו:י״א) וְנָתַתִּי מִשְׁכָּנִי בְּתוֹכְכֶם וְגוֹ'. וְנָתַתִּי מִשְׁכָּנִי, דָּא שְׁכִינְתָּא. מִשְׁכָּנִי: מַשְׁכּוֹנָא דִּילִי. דְּהִיא אִתְמַשְׁכְּנָא בְּחוֹבַיְיהוּ דְּיִשְׂרָאֵל. וְנָתַתִּי מִשְׁכָּנִי, מַשְׁכּוֹנִי וַדַּאי. מְתַל לְבַּר נָשׁ דְּהֲוָה רְחִימָא לְאָחֳרָא, אָמַר לֵיהּ ודַּאי בִּרְחִימוּתָא עִלָּאָה דְּאִית לִי גַּבָּךְ, בָּעֵינָא לְדַיְּירָא עִמָּךְ. אָמַר הֵיךְ אֶנְדַּע דְּתֵידוּר גַּבַּאי, נָטַל כָּל כִּסּוּפָא דְּבֵיתֵיהּ, וְאַיְיתֵי לְגַבֵּיהּ, אָמַר הָא מַשְׁכּוֹנָא לְגַבָּךְ, דְּלָא אִתְפְּרַשׁ מִנָךְ לְעָלְמִין.
כַּךְ קוּדְשָׁא בְּרִיךְ הוּא, בָּעָא לְדַיְּירָא בְּהוּ בְּיִשְׂרָאֵל, מָה עֲבַד, נָטַל כִּסּוּפָא דִּילֵיהּ, וְנָחִית לְהוּ לְיִשְׂרָאֵל. אָמַר לוֹן, יִשְׂרָאֵל, הָא מַשְׁכּוֹנָא דִּילִי גַּבַּיְיכוּ, בְּגִין דְּלָא אִתְפְּרַשׁ מִנַּיְיכוּ לְעָלְמִין. וְאַף עַל גַּב דְּקוּדְשָׁא בְּרִיךְ הוּא אִתְרְחִיק מִינָן, מַשְׁכּוֹנָא שָׁבִיק בִּידָן, וַאֲנָן נַטְרִין הַהוּא כִּסּוּפָא דִּילֵיהּ, מַאן דְּיִבְעֵי מַשְׁכּוֹנֵיהּ יֵיתֵי לְדַיְּירָא גַּבָּן בְּגִין כָּךְ וְנָתַתִּי מִשְׁכָּנִי בְּתוֹכְכֶם, מַשְׁכּוֹנָא אֶתֵּן בִּידַיְיכוּ, בְּגִין דְּאֵדּוּר עִמְּכוֹן. וְאַף עַל גַּב דְּיִשְׂרָאֵל הַשְׁתָּא בְּגָלוּתָא, מַשְׁכּוֹנָא דְּקוּדְשָׁא בְּרִיךְ הוּא, הוּא גַּבַּיְיהוּ, וְלָא שָׁבְקוּ לֵיהּ לְעָלְמִין.
וְלֹא תִגְעַל נַפְשִׁי אֶתְכֶם, לְבַּר נָשׁ דְּרָחִים לְחַבְרֵיהּ, וּבָעָא לְדַיְּירָא עִמֵּיהּ, מַה עֲבַד, נָטַל עַרְסָא דִּילֵיהּ וְאַיְיתִי לְבֵיתֵיהּ. אָמַר דָּא עַרְסָא דִּילִי בְּבֵיתָיךְ, בְּגִין דְּלָא אַרְחִיק מִינָךְ, עַרְסָךְ, וּמָאנָךְ. כַּךְ קוּדְשָׁא בְּרִיךְ הוּא אָמַר, וְנָתַתִּי מִשְׁכָּנִי בְּתוֹכְכֶם וְלֹא תִגְעַל נַפְשִׁי אֶתְכֶם, הָא עַרְסָא דִּילִי בְּבֵיתַיְיכוּ, כֵּיוָן דְּעַרְסָא דִּילִי עִמְּכוֹן, תִּנְדְּעוּן דְּלָא אִתְפְּרַשׁ מִנַּיְיכוּ, וּבְגִין כָּךְ וְלֹא תִגְעַל נַפְשִׁי אֶתְכֶם. (ויקרא כ״ו:י״א-י״ב) וְהִתְהַלַּכְתִּי בְּתוֹכְכֶם וְהָיִיתִי לָכֶם לֵאלֹהִים, כֵּיוָן דְּמַשְׁכְּנָא דִּילִי גַּבַּיְיכוּ, בְּוַדַּאי תִּנְדְּעוּן דַּאֲנָא אָזִיל עִמְּכוֹן, כְּמָה דְאַתְּ אָמֵר (דברים כ״ג:ט״ו) כִּי יְיָ' אֱלֹהֶיךָ מִתְהַלֵּךְ בְּקֶרֶב מַחֲנֶיךָ לְהַצִּילְךָ וְלָתֵת אוֹיְבֶיךָ לְפָנֶיךָ וְהָיָה מַחֲנֶיךָ קָדוֹשׁ.
רִבִּי יִצְחָק וְרִבִּי יְהוּדָה, הֲווֹ שְׁכִיחֵי לֵילְיָא חַד בִּכְפַר קָרִיב לְיַמָּא דִּטְבֶרְיָא, קָמוּ בְּפַלְגוּת לֵילְיָא אָמַר רִבִּי יִצְחָק לְרִבִּי יְהוּדָה נֵימָא בְּמִלֵּי דְּאוֹרַיְיתָא דְּאַף עַל גַּב דַּאֲנָן בַּאֲתַר דָּא, לָא בָּעֵינָא לְאִתְפָּרְשָׁא מֵאִילָנָא דְּחַיֵּי.
פָּתַח רִבִּי יְהוּדָה וְאָמַר, (שמות ל״ג:ז׳) וּמֹשֶׁה יִקַּח אֶת הָאֹהֶל וְנָטָה לוֹ מִחוּץ לַמַּחֲנֶה וְגוֹ'. וּמֹשֶׁה יִקַּח אֶת הָאֹהֶל, אֲמַאי. אֶלָּא אָמַר מֹשֶׁה, הוֹאִיל וְיִשְׂרָאֵל קָא מְשַׁקְּרֵי בֵּיהּ בְּקוּדְשָׁא בְּרִיךְ הוּא, וְאַחְלִיפוּ יְקָרָא דִּילֵיהּ, הָא מַשְׁכּוֹנָא דִּילֵיהּ יְהֵא בִּידָא דִּמְהֵימָנָא, עַד דְּנֶחֱמֵי בְּמַאן יִשְׁתְּאַר.
אָמַר לֵיהּ לִיְהוֹשֻׁעַ, אַנְתְּ תְּהֵא מְהֵימְנָא בֵּין קוּדְשָׁא בְּרִיךְ הוּא, וּבֵין יִשְׂרָאֵל, וְיִשְׁתְּאַר מַשְׁכּוֹנָא בִּידָךְ בְּהֵימְנוּתָא, וְנֶחמֵי בְּמַאן יִשְׁתְּאַר. מַה כְּתִיב, וְשָׁב אֶל הַמַּחֲנֶה וּמְשָׁרַתוֹ יְהוֹשֻׁעַ בִּן נוּן נַעַר לֹא יָמִישׁ מִתּוֹךְ הָאֹהֶל. מַאי טַעֲמָא לִיְהוֹשֻׁעַ בְּגִין דְּאִיהוּ כְּסִיהֲרָא לְגַבֵּי שִׁמְשָׁא, וְאִיהוּ אִתְחֲזֵי לְנַטְרָא מַשְׁכּוֹנָא. וְעַל דָּא, לֹא יָמִישׁ מִתּוֹךְ הָאֹהֶל.
אָמַר לֵיהּ קוּדְשָׁא בְּרִיךְ הוּא לְמֹשֶׁה, מֹשֶׁה, לָא אִתְחֲזֵי הָכִי, דְּהָא מַשְׁכּוֹנָא דִּילִי יָהַבִית בִּידַיְיהוּ, אַף עַל גַּב דְּאִינּוּן חָאבוּ לְגַבָּאי, מַשְׁכּוֹנָא יְהֵא לְגַבַּיְיהוּ, דְּלָא יִתְפָּרְשׁוּן מִנֵּיהּ. (ס''א דלא אתפרש מנייהו) תִּבְעֵי דְּאִתְפְּרַשׁ מִנַּיְיהוּ דְּיִשְׂרָאֵל, וְלָא אֵיתוּב לְגַבַּיְיהוּ לְעָלְמִין, אֶלָּא אָתִיב מַשְׁכּוֹנָא דִּילִי לְגַבַּיְיהוּ, וּבְגִינֵיהּ לָא אֶשְׁבּוֹק לְהוֹן בְּכָל אֲתַר.
אַף עַל גַּב דְּיִשְׂרָאֵל חָבוּ לְגַבֵּיהּ דְּקוּדְשָׁא בְּרִיךְ הוּא, הַאי מַשְׁכּוֹנָא דִּילֵיהּ לָא שָׁבְקוּ, וְקוּדְשָׁא בְּרִיךְ הוּא לָא נָטִיל לֵיהּ מִבֵּינַיְיהוּ. וְעַל דָּא, בְּכָל אֲתַר דְּגַלֵּי יִשְׂרָאֵל, שְׁכִינָה עִמְּהוֹן. וְעַל דָּא כְּתִיב, וְנָתַתִּי מִשְׁכָּנִי בְּתוֹכְכֶם. וְהָא אוּקְמוּהָ.
פָּתַח רִבִּי יִצְחָק וְאָמַר (שיר השירים ב׳:ט׳) דּוֹמֶה דּוֹדִי לִצְבִי אוֹ לְעוֹפֶר הָאַיָּלִים הִנֵּה זֶה וְגוֹ'. זַכָּאִין אִינּוּן יִשְׂרָאֵל, דְּזָכוּ דְּמַשְׁכּוֹנָא דָּא לְמֶהֱוִי גַּבַּיְיהוּ, מִן מַלְכָּא עִלָּאָה. דְּאַף עַל גַּב דְּאִינּוּן בְּגָלוּתָא, קוּדְשָׁא בְּרִיךְ הוּא אָתֵי בְּכָל רֵישׁ יַרְחֵי וְשַׁבַּתֵּי וּזְמַנֵי, לְאַשְׁגְּחָא עָלַיְיהוּ, וּלְאִסְתַּכְּלָא בְּהַהוּא מַשְׁכּוֹנָא דְּאִית לֵיהּ גַּבַּיְיהוּ, דְּאִיהוּ כִּסּוּפָא דִּילֵיהּ.
לְמַלְכָּא דְּסַרְחָא מַטְרוֹנִיתָא, אַפְקָהּ מֵהֵיכָלֵיהּ. מָה עַבְדַת. נַטְלַת בְּרָהּ דִּילֵיהּ כִּסּוּפָא דְּמַלְכָּא, רְחִימָא דִּילֵיהּ. וּבְגִין דְּדַעְתָּא דְּמַלְכָּא עָלָהּ, שַׁבְקֵיהּ בִּידָהָא. בְּשַׁעֲתָא דְּסָלִיק רְעוּתָא דְּמַלְכָּא, עַל מַטְרוֹנִיתָא, וְעַל בְּרֵהּ, הֲוָה סָלִיק אַגְרִין, וְנָחִית דַּרְגִּין, וְסָלִיק כּוֹתָלִין, לְאִסְתַּכְּלָא וּלְאַשְׁגָּחָא בֵּין נוּקְבֵי כּוֹתָלָא עָלַיְיהוּ, כֵּיוָן דְּחָמֵי לוֹן, שָׁארֵי בָּכֵי מֵאֲחוֹרֵי קוּסְטֵי כּוֹתָלָא, וּלְבָתַר אָזִיל לֵיהּ.
כַּךְ יִשְׂרָאֵל, אַף עַל גַּב דְּאִינּוּן נַפְקוּ מֵהֵיכָלֵיהּ דְּמַלְכָּא, הַהוּא מַשְׁכּוֹנָא לָא שָׁבְקוּ, וּבְגִין דִּרְעוּתָא דְּמַלְכָּא עָלַיְיהוּ, שַׁבְקֵיהּ עִמְּהוֹן. בְּשַׁעֲתָא דְּסָלִיק רְעוּתָא דְּמַלְכָּא קַדִּישָׁא, עַל מַטְרוֹנִיתָא וְעַל יִשְׂרָאֵל. סָלִיק אַגְרִין (מקפץ על הגבעות), נָחִית דַּרְגִּין, וְסָלִיק כּוֹתָלִין, לְאִסְתַּכְּלָא וּלְאַשְׁגָּחָא בֵּין קוּסְטֵי כּוֹתָלָא עָלַיְיהוּ. כֵּיוָן דְּחָמֵי לוֹן, שָׁארֵי וּבָכֵי, הֲדָא הוּא דִכְתִיב דּוֹמֶה דּוֹדִי לִצְבִי אוֹ לְעוֹפֶר הָאַיָּלִים לְדַלְּגָא מִכּוֹתָלָא לְאִיגְרָא, וּמֵאִיגְרָא לְכוֹתָלָא.
הִנֵּה זֶה עוֹמֵד אַחַר כָּתְלֵנוּ, בְּבָתֵּי כְּנֵסִיּוֹת וּבְבָתֵּי מִדְרָשׁוֹת מַשְׁגִּיחַ מִן הַחַלּוֹנוֹת, (דודאי בי כנישתא בעייא חלונות). מֵצִיץ מִן הַחֲרַכִּים, לְאִסְתַּכְּלָא וּלְאַשְׁגָּחָא עָלַיְיהוּ. וּבְגִין כַּךְ, יִשְׂרָאֵל בָּעוּ לְמֶחְדֵּי בְּהַהוּא יוֹמָא, דְּאִינְהוּ יַדְעֵי דָּא, וְאַמְרֵי. (תהילים קי״ח:כ״ד) זֶה הַיּוֹם עָשָׂה יְיָ' נָגִילָה וְנִשְׂמְחָה בּוֹ. (ויקרא כ״ו:ט״ו) וְאִם בְּחֻקֹּתַי תִּמְאָסוּ וְגּוֹ'. רִבִּי יוֹסֵי פָּתַח, (משלי ג׳:י״א) מוּסַר יְיָ' בְּנִי אַל תִּמְאָס וְאַל תָּקוֹץ בְּתוֹכַחְתּוֹ. כַּמָה חֲבִיבִין יִשְׂרָאֵל קַמֵּי קוּדְשָׁא בְּרִיךְ הוּא, דְּקוּדְשָׁא בְּרִיךְ הוּא בָּעֵי לְאוֹכָחָא לְהוּ, וּלְדַבְּרָא לְהוּ בְּאֹרַח מֵישָׁר, כְּאַבָּא דְּרָחִים לִבְרֵיהּ, וּמִגּוֹ רְחִימוּ דִּילֵיהּ לְגַבֵּיהּ, שַׁרְבִיטָא בִּידֵיהּ תָּדִיר, לְדַבְּרָא לֵיהּ בְּאֹרַח מֵישָׁר, דְּלָא יִסְטֵי לִימִינָא וְלִשְׂמָאלָא. הֲדָא הוּא דִכְתִיב, (משלי ג׳:י״ב) כִּי אֶת אֲשֶׁר יֶאֱהַב יְיָ' יוֹכִיחַ וּכְאָב אֶת בֵּן יִרְצֶה. וּמַאן דְּלָא רָחִים לֵיהּ קוּדְשָׁא בְּרִיךְ הוּא, וְסָאנֵי לֵיהּ, סָלִיק מִנֵּיהּ תּוֹכָחָה, סָלִיק מִנֵּיהּ שַׁרְבִיטָא.
כְּתִיב. (מלאכי א׳:ב׳) אָהַבְתִּי אֶתְכֶם אָמַר יְיָ' וְגוֹ', מִגּוֹ רְחִימוּתָא דִּילֵיהּ, שַׁרְבִיטָא בִּידֵיהּ תָּדִיר, לְדַבְּרָא לֵיהּ. וְאֶת עֵשָׂו שָׂנֵאתִי, בְּגִין כָּךְ סְלִיקִית מִנֵּיהּ שַׁרְבִיטָא, סְלִיקַת מִנֵּיהּ תּוֹכַחְתָּא, בְּגִין דְּלָא אֶתֵּן לֵיהּ בִּי חוּלָקָא, רְחִיקָא דְּנַפְשָׁאי הוּא. אֲבָל אַתּוּן, אָהַבְתִּי אֶתְכֶם וַדַּאי. וּבְגִין כָּךְ, מוּסַר יְיָ' בְּנִי אַל תִּמְאָס וְאַל תָּקוֹץ בְּתוֹכַחְתּוֹ. מַאי וְאַל תָּקוֹץ. לָא תְּקוּצוּן בֵּיהּ, כְּמַאן דְּעָרַק מִגּוֹ גּוּבִין, דְּאִינּוּן מִילִּין כְּגוֹבִין לְגַבֵּיהּ בְּגַרְמֵיהּ.
תָּא חֲזֵי, בְּשַׁעֲתָא דְּאִתְּעַר צֶדֶק בְּדִינוֹי. כַּמָה סִטְרֵי טְהִירִין, מִתְעָרִין מִימִינָא וּמִשְּׂמָאלָא, כַּמָה שַׁרְבִיטִין נָפְקִין, מִנְּהוֹן שַׁרְבִיטֵי אֶשָּׁא, שַׁרְבִיטֵי גּוּמְרִין, שַׁרְבִיטֵי שַׁלְהוֹבָא, כֻּלְּהוּ נָפְקִין וּמִתְעָרִין בְּעָלְמָא, וְלָקָאן לִבְנֵי נָשָׁא. תְּחוֹתַיְיהוּ מְמָנָן אָחֳרָנִין, מָארֵי טַפְסִין, מְמָנָן דְּאַרְבְּעִין חָסֵר חַד. שָׁאטִין וְנַחְתִּין, לָקָאן וְסַלְּקִין, וְנַטְלִין רְשׁוּתָא, עַיְילִין בְּנוּקְבָּא דִּתְהוֹמָא רַבָּא, מְצַבְעִין טַפְסֵי, וְנוֹרָא דְּדָלִיק אִתְחַבָּר בְּהוּ, נַפְקֵי גּוּמְרִין וְשָׁאטִין וְנַחְתִּין, וְאִשְׁתְּכָחוּ לָקֳבְלֵיהוֹן דִּבְנֵי נָשָׁא. וְהַיְינוּ דִּכְתִּיב, וְיָסַפְתִּי לְיַסְּרָה אֶתְכֶם אֶתֵּן לְמָארֵיהוֹן דְּדִינָא, תּוֹסֶפֶת עַל דִּינָא דִּלְהוֹן.
כְּמָה דְאַתְּ אָמֵר, (בראשית ח׳:כ״א) לֹא אוֹסִיף לְקַלֵּל עוֹד אֶת הָאֲדָמָה בַּעֲבוּר הָאָדָם. מַאי לֹא אוֹסִיף. לֹא אֶתֵּן תּוֹסֶפֶת לְמָארֵי דִּינָא לְשֵׁיצָאָה עָלְמָא, אֶלָּא תּוֹסֶפֶת כְּגַוְונָא דְּיָכִיל עָלְמָא לְמִסְבַּל. וְעַל דָּא וְיָסַפְתִּי, אֶתֵּן תּוֹסֶפֶת וַדַּאי.
תּוֹסֶפֶת אֲמַאי. בְּגִין לְיַסְּרָה אֶתְכֶם שֶׁבַע עַל חַטֹּאתֵיכֶם. שֶׁבַע, וְהָא קוּדְשָׁא בְּרִיךְ הוּא אִי גָּבֵי הַהוּא דִּילָיהּ לָא יָכִיל עָלְמָא לְמִסְבַּל אֲפִילּוּ רִגְעָא חֲדָא, הֲדָא הוּא דִכְתִיב, (תהילים ק״ל:ג׳) אִם עֲוֹנוֹת תִּשְׁמוֹר יָהּ יְיָ' מִי יַעֲמוֹד, וְאַתְּ אַמָרְתְּ שֶׁבַע עַל חַטֹּאתֵיכֶם.
אֶלָּא מַה תַּלְמוּד לוֹמַר שֶׁבַע. אֶלָּא הָא שֶׁבַע לָקֳבְלַיְיכוּ. וּמַאי אִיהִי. דָּא שְׁמִיטָּה, דְּאִיהִי שֶׁבַע, דְּאִקְרֵי שֶׁבַע, כְּמָה דְאַתְּ אָמֵר, (דברים טו) מִקֵּץ שֶׁבַע שָׁנִים תַּעֲשֶׂה שְׁמִיטָּה. וְעַל דָּא שֶׁבַע עַל חַטֹּאתֵיכֶם, וְאִקְרֵי שֶׁבַע, וְאִקְרֵי בַּת שֶׁבַע. מַה בֵּין הַאי לְהַאי. אֶלָּא שֶׁבַע בִּלְחוֹדָהָא, לְמֶעְבַּד שְׁמִטָּה, וּלְמֶעְבַּד דִּינִין, לְאַפָּקָא חֵירוּ דְּכֹלָּא בָּה. בַּת שֶׁבַע אִקְרֵי, דְּאִתְחַבָּר בְּאַחְרָא כַּחֲדָא, לְאַנְהָרָא, לְמִשְׁלַט בְּמַלְכוּתָא, לְאוֹדָעָא מַלְכוּתָא בְּאַרְעָא וּבְכֹלָּא, בַּת שֶׁבַע אִקְרֵי. כְּתִיב, (בראשית כו) עַל כֵּן שֵׁם הָעִיר בְּאֵר שֶׁבַע עַד הַיּוֹם הַזֶּה. בְּאֵר שֶׁבַע, בְּאֵרָה דְּיִצְחָק הוּא, וְכֹלָּא חַד מִלָּה הוּא.
רִבִּי אַבָּא אָמַר, (ויקרא כ״ו:כ״ח) וְיִסַּרְתִּי אֶתְכֶם אַף אָנִי שֶׁבַע עַל חַטֹּאתֵיכֶם. וְיִסַּרְתִּי אֶתְכֶם, עַל יְדָא דִּמְמָנָן אָחֳרָנִין, כְּמָה דְּאוּקְמוּהָ. אַף אָנִי, הָא אֲנָא אִתְּעַר לָקֳבְלַיְיכוּ. הָא שֶׁבַע, לְאִתְּעָרָא עָלַיְיכוּ.
תָּא חֲזֵי, רְחִימוּתָא עִלָּאָה דְּקוּדְשָׁא בְּרִיךְ הוּא בְּיִשְׂרָאֵל, לְמַלְכָּא דְּהֲוָה לֵיהּ בַּר יְחִידָאי, וַהֲוָה חָטֵי קַמֵּי מַלְכָּא, יוֹמָא חַד סָרַח קַמֵּי מַלְכָּא, אָמַר מַלְכָּא, כָּל הָנֵי יוֹמִין אַלְקֵינָא לָךְ, וְלָא קַבִּלְתְּ. מִכָּאן וְאֵילָךְ חָמֵי מַאי אַעְבִּיד לָךְ, אִי אַתָּרִיךְ לָךְ מִן אַרְעָא, וְאַפִּיק לָךְ מִמַּלְכוּתָא, דִּילְמָא יְקוּמוּן עֲלָךְ דּוּבֵּי חַקְלָא, אוֹ זְאֵבֵי חַקְלָא, אוֹ לִסְטִין, וְיַעַבְרוּן לָךְ מֵעָלְמָא. מַה אַעְבִּיד. אֶלָּא אֲנָא וְאַנְתְּ נֵיפוּק מֵאַרְעָא.
כַּךְ אַף אָנִי, אֲנָא וְאַנְתְּ נִיפוּק מֵאַרְעָא (אף אנא ואנת נהך בגלותא וניפוק כחדא). כַּךְ אָמַר קוּדְשָׁא בְּרִיךְ הוּא, יִשְׂרָאֵל מַה אַעְבִּיד לְכוּ, הָא אַלְקֵינָא לְכוּ, וְלָא אַרְכִּיתוּ אוּדְנַיְיכוּ, הָא אַיְיתֵינָא עָלַיְיכוּ מָארֵי תְּרִיסִין, מָארֵי טַפְסִין, לְאַלְקָאָה לְכוֹן, וְלָא שְׁמַעְתּוּן. אִי אַפִּיק לְכוּ מֵאַרְעָא לְחוֹדְכוֹן, דָּחִילְנָא עָלַיְיכוּ מִכַּמָּה דּוּבִּין, מִכַּמָּה זְאֵבִין, דִּיקוּמוּן עָלַיְיכוּ, וְיַעַבְרוּן לְכוּ מֵעָלְמָא. אֲבָל מַה אַעְבִּיד לְכוּן, אֶלָּא אֲנָא וְאַתּוּן נֵפוּק מֵאַרְעָא, וּנְהַךְ בְּגָלוּתָא.
הֲדָא הוּא דִכְתִיב וְיִסַּרְתִּי אֶתְכֶם לְמֵהַךְ בְּגָלוּתָא. וְאִי תֵּימְרוּן דְּאֶשְׁבּוֹק לְכוֹן, אַף אָנִי עִמְּכוֹן. שֶׁבַע עַל חַטֹּאתֵיכֶם, דָּא שֶׁבַע דְּיִתְתָּרָךְ עִמְּכוֹן, וַאֲמַאי. עַל חַטֹּאתֵיכֶם. הֲדָא הוּא דִכְתִיב, (ישעיהו נ׳:א׳) וּבְפִשְׁעֵיכֶם שֻׁלְּחָה אִמְּכֶם. אָמַר קוּדְשָׁא בְּרִיךְ הוּא, אַתּוּן גְּרַמְתּוּן, דַּאֲנָא וְאַתּוּן לָא נֵידוּר (ס''א בארעא) בְּעָלְמָא (נ''א נטרוד (ס''א מארעא) מעלמא). הָא מַטְרוֹנִיתָא נַפְקַת מֵהֵיכָלָה עִמְּכוֹן, הָא אִתְחַרֵב כֹּלָּא, הֵיכָלָא דִּילִי וְדִלְכוֹן אִתְחָרַב. דְּהָא לְמַלְכָּא לָא אִתְחֲזֵי הֵיכָלָא, אֶלָּא כַּד אִיהוּ עָיֵיל עִם מַטְרוֹנִיתָא. וְחֶדְוָה דְּמַלְכָּא לָא אִשְׁתְּכַח.
אֶלָּא בְּשַׁעֲתָא דְּעָאל בְּהֵיכָלָא דְּמַטְרוֹנִיתָא, וְאִשְׁתְּכַח בְּרָהָא עִמָּהּ בְּהֵיכָלָא, חַדָּאן כֻּלְּהוּ כַּחֲדָא. הַשְׁתָּא דְּלָא אִשְׁתְּכָחוּ בְּרָא וּמַטְרוֹנִיתָא, הָא הֵיכָלָא חֲרֵיבָא מִכֹּלָּא. אֶלָּא אֲנָא מַה אַעְבִּיד. אַף אֲנָא עִמְּכוֹן. וְהַשְׁתָּא אַף עַל גַּב דְּיִשְׂרָאֵל אִינְהוּ בְּגָלוּתָא, קוּדְשָׁא בְּרִיךְ הוּא אִשְׁתְּכַח עִמְּהוֹן, וְלָא שָׁבִיק לוֹן, דְּכַד יִפְקוּן, יִשְׂרָאֵל מִן גָּלוּתָא, קוּדְשָׁא בְּרִיךְ הוּא, יְתוּב עִמְּהוֹן. דִּכְתִּיב, (דברים ל) וְשָׁב יְיָ' אֱלֹהֶיךָ, וְשָׁב יְיָ' אֱלֹהֶיךָ וַדַּאי. וְהָא אִתְּמַר.
רִבִּי חִיָּיא וְרִבִּי יוֹסֵי הֲווֹ אָזְלֵי בְּאָרְחָא, אַעְרָעוּ בְּהַהִיא מְעַרְתָּא בְּחַקְלָא. אָמַר רִבִּי חִיָּיא לְרִבִּי יוֹסֵי, הַאי דִּכְתִּיב, (דברים כ״ח:ס״ט) אֵלֶּה דִּבְרֵי הַבְּרִית וְגוֹ', מִלְּבַד הַבְּרִית. מַאי דִּבְרֵי הַבְּרִית. דִּבְרֵי גְּבוּרָה (ס''א האלה) מִבָּעֵי לֵיהּ. אָמַר לֵיהּ הָא אוּקְמוּהָ, הַלָּלוּ מִפִּי הַגְּבוּרָה, וְהַלָּלוּ מִפִּי עַצְמוֹ שֶׁל מֹשֶׁה, וְהָא אִתְּמַר.
תָּא חֲזֵי, אִלֵּין וְאִלֵּין דִּבְרֵי הַבְּרִית הֲווֹ, דְּאַף עַל גַּב דְּמִפִּי הַגְּבוּרָה הֲווֹ מִלִּין. מִלֵי בְּרִית הֲווֹ, דְּהָא טַב וּבִישׁ בֵּיהּ תַּלְיָין. טַב דְּאָתֵי מִצַדִּיק. בִּישׁ דְּאָתֵי מִן דִּינָא. דִּינָא, מֵאֲתַר דְּדִינָא, וְהַיְינוּ צֶדֶק. וְצַדִּיק וְצֶדֶק בְּרִית אִינּוּן, בְּרִית אִקְרוּן. וְעַל דָּא, מִלִּין אִלֵּין, מִלֵי בְּרִית אִינּוּן. וְקָשִׁיר בְּרִית כַּחֲדָא. וּבְגִּינֵי כַּךְ זָכוֹר וְשָׁמוֹר, קָשִׁיר כַּחֲדָא. זָכוֹר בְּיוֹם, שָׁמוֹר בַּלַּיְלָה. הָא בְּרִית כַּחֲדָא, וּבְגִין כַּךְ בְּרִית וַדַּאי, דִּבְרֵי הַבְּרִית נִינְהוּ. וּבְכָל אֲתַר בְּרִית בַּאֲתַר דָּא אִיהוּ.
אָמַר רִבִּי חִיָּיא, וַדַּאי הָכִי הוּא, וּבְגִין כָּךְ שַׁבָּת דְּאִיהוּ זָכוֹר וְשָׁמוֹר, אִקְרֵי בְּרִית. דִּכְתִּיב, (שמות ל״א:ט״ז) וְשָׁמְרוּ בְנֵי יִשְׂרָאֵל אֶת הַשַּׁבָּת לַעֲשׂוֹת אֶת הַשַּׁבָּת לְדֹרֹתָם בְּרִית עוֹלָם. וְכֹלָּא מִלָּה חַד, וַאֲתַר דָּא, אִקְרֵי בְּרִית בְּכָל אֲתַר.
תָּא חֲזֵי, כְּתִיב וְנָתַתִּי שָׁלוֹם בָּאָרֶץ, הוּא יְסוֹד, דְּאִיהוּ שְׁלָמָא דְּאַרְעָא, שְׁלָמָא דְּבֵיתָא, שְׁלָמָא דְּעָלְמָא. וְיִסַּרְתִּי אֶתְכֶם אַף אָנִי שֶׁבַע. מַאי ז'. דָּא צֶדֶק. הָא וַדַּאי בְּרִית, וּבְגִין כָּךְ דִּבְרֵי הַבְּרִית נִינְהוּ.
אָמַר רִבִּי יוֹסֵי כְּתִיב. (ויקרא כ״ו:מ״ד) וְאַף גַּם זֹאת בִּהְיוֹתָם בְּאֶרֶץ אוֹיְבֵיהֶם וְגוֹ'. וְאַף גַּם זֹאת, וְאַף, כְּמָה דְאַתְּ אָמֵר, אַף אָנִי. גַּם, לְרַבּוֹת כְּנֶסֶת יִשְׂרָאֵל, דְּאִקְרֵי זֹאת, דְּלָא שַׁבְקַת לוֹן לְעָלְמִין. בִּהְיוֹתָם בְּאֶרֶץ אוֹיְבֵיהֶם, בִּהְיוֹתָם כֹּלָּא כַּחֲדָא. לֹא מְאַסְתִּים וְלֹא גְעַלְתִּים בְּגִין דְּלָא אִתְחֲבָּר בְּהוּ. לְהָפֵר בְּרִיתִי אִתָּם, דְּאִי לָא אֶפְרוֹק לְהוּ, הָא בְּרִיתִי פָּלִיג, וּבְגִין כָּךְ לְהָפֵר בְּרִיתִי אִתָּם.
אָמַר רִבִּי חִיָּיא, אֲנָא שְׁמַעְנָא מִלָּה חַדְתָּא, דְּאָמַר רִבִּי אֶלְעָזָר לֹא מְאַסְתִּים וְלֹא גְעַלְתִּים לְכַלֹּתָם, לָא הִכִּיתִים וְלָא הֲרַגְתִּים לְכַלּוֹתָם מִבָּעֵי לֵיהּ. אֶלָּא לָא מְאַסְתִּים וְלָא גְעַלְתִּים, מַאן דְּסָאנֵי לְאָחֳרָא מָאִיס הוּא לָקֳבְלֵיהּ, וְגַעֲלָא הוּא בְּגִיעוּלָא קַמֵּיהּ. אֲבָל הָכָא, לָא מְאַסְתִּים וְלָא גְעַלְתִּים. מַאי טַעְמָא. בְּגִין דַּחֲבִיבוּתָא דְּנַפְשָׁאי בֵּינַיְיהוּ. וּבְגִינָהּ כֻּלְּהוּ חֲבִיבִין גַּבָּאי, הֲדָא הוּא דִכְתִיב לְכַלֹּתָם. לְכַלֹּתָם כְּתִיב, חָסֵר וָי''ו, בְּגִינָהּ לָא מְאַסְתִּים וְלָא גְעַלְתִּים, בְּגִין דְּאִיהִי רְחִימָתָא דְּנַפְשָׁאי, רְחִימוּתָא דִּילִי גַּבָּהָא.
לְבַּר נָשׁ דְּרָחִים אִתְּתָא, וַהֲוַות דַּיְירָא בְּשׁוּקָא דְּבוּרְסָקֵי, אִי לָא הֲוַות הִיא תַּמָּן, לָא עָיֵיל בָּהּ לְעָלְמִין. כֵּיוָן דְּהִיא תַּמָּן, דָּמֵי בְּעֵינוֹי כְּשׁוּקָא דְּרוֹכְלֵי, דְּכָל רֵיחִין דְּעָלְמִין טָבִין אִשְׁתְּכָחוּ תַּמָּן.
אוּף הָכָא, וְאַף גַּם זֹּאת בִּהְיוֹתָם בְּאֶרֶץ אוֹיְבֵיהֶם, דְּאִיהוּ שׁוּקָא דְּבוּרְסָקֵי, לֹא מְאַסְתִּים וְלֹא גְעַלְתִּים. וַאֲמַאי. לְכַלֹּתָם. בְּגִין כַּלָּתָם, דַּאֲנָא רְחִימְנָא לָהּ, דְּאִיהִי רְחִימָתָא דְּנַפְשָׁאי, דְּשַׁרְיָא תַּמָּן, וְדָמִי עָלַי כְּכָל רֵיחִין טָבָאן דְּעָלְמָא, בְּגִין הַהִיא כָּלָּה דִּבְגַוַויְיהוּ. אָמַר רִבִּי יוֹסֵי, אִלּוּ לָא אָתֵינָא הָכָא, אֶלָּא לְמִשְׁמַע מִלָּה דָּא דַּיי.
פָּתַח וְאָמַר, (מלאכי א׳:ו׳) בֵּן יְכַבֵּד אָב וְעֶבֶד אֲדֹנָיו. בֵּן יְכַבֵּד אָב, כְּמָה דְאַתְּ אָמֵר (שמות כ׳:י״ב) כַּבֵּד אֶת אָבִיךָ וְאֶת אִמֶּךָ, וְאוֹקְמוּהָ, בְּמֵיכְלָא וּמִשְׁתְּיָיא וּבְכֹלָּא. הַאי בְּחַיּיוֹי דְּאִתְחַיָּיב בֵּיהּ. בָּתַר דְּמִית, אִי תֵּימָא הָא פָּטוּר מִנֵּיהּ הוּא, לָאו הָכֵי. דְּאַף עַל גַּב דְּמִית, אִתְחַיָּיב בִּיקָרֵיהּ יַתִּיר, דִּכְתִּיב כַּבֵּד אֶת אָבִיךָ. דְּאִי הַהוּא בְּרָא אָזִיל בְּאֹרַח תְּקָלָא, וַדַּאי מְבַזֶּה לַאֲבוּי הוּא, וַדַּאי עָבִיד לֵיהּ קְלָנָא.
וְאִי הַהוּא בְּרָא אָזִיל בְּאֹרַח מֵישָׁר, וְתָקִין עוֹבָדוֹי, וַדַּאי דָּא אוֹקִיר לַאֲבוּי, אוֹקִיר לֵיהּ בְּהַאי עָלְמָא גַּבֵּי בְּנֵי נָשָׁא, אוֹקִיר לֵיהּ בְּהַהוּא עָלְמָא, גַּבֵּי קוּדְשָׁא בְּרִיךְ הוּא. וְקוּדְשָׁא בְּרִיךְ הוּא חָיִיס עָלֵיהּ, וְאוֹתִיב לֵיהּ בְּכוּרְסְיָיא דִּיקָרֵיהּ. וַדַּאי בֵּן יְכַבֵּד אָב.
כְּגוֹן רִבִּי אֶלְעָזָר, דְּאִיהוּ אוֹקִיר לֵיהּ לַאֲבוּי בְּהַאי עָלְמָא, וּבְהַהוּא עָלְמָא הַשְׁתָּא אַסְגֵּי שְׁבָחָא דְּרַבִּי שִׁמְעוֹן בִּתְרֵין עָלְמִין, בְּהַאי עָלְמָא, וּבְהַהוּא עָלְמָא יַתִּיר מְחַיּיוֹי. דְּזָכָה לִבְנִין קַדִּישִׁין, וּלְגִזְעִין קַדִּישִׁין. זַכָּאִין אִינּוּן צַדִּיקַיָּיא, דְּזַכָּאן לִבְנִין קַדִּישִׁין, לְגִזְעִין קַדִּישִׁין. עָלַיְיהוּ אִתְקְרֵי, (ישעיהו ס״א:ט׳) כָּל רֹאֵיהֶם יַכִּירוּם כִּי הֵם זֶרַע בֵּרַךְ יְיָ' אָמֵן.
בָּרוּךְ יְיָ' לְעוֹלָם אָמֵן וְאָמֵן. יִמְלוֹךְ יְיָ' לְעוֹלָם אָמֵן וְאָמֵן.