וישב יעקב וגו'. אַחַר שֶׁכָּתַב לְךָ יִשּׁוּבֵי עֵשָׂו וְתוֹלְדוֹתָיו בְּדֶרֶךְ קְצָרָה, שֶׁלֹּא הָיוּ סְפוּנִים וַחֲשׁוּבִים לְפָרֵשׁ הֵיאַךְ נִתְיַשְּׁבוּ וְסֵדֶר מִלְחֲמוֹתֵיהֶם אֵיךְ הוֹרִישׁוּ אֶת הַחֹרִי, פֵּרֵשׁ לָךְ יִשּׁוּבֵי יַעֲקֹב וְתוֹלְדוֹתָיו בְּדֶרֶךְ אֲרֻכָּה כָּל גִּלְגּוּלֵי סִבָּתָם, לְפִי שֶׁהֵם חֲשׁוּבִים לִפְנֵי הַמָּקוֹם לְהַאֲרִיךְ בָּהֶם, וְכֵן אַתָּה מוֹצֵא בְּי' דוֹרוֹת שֶׁמֵּאָדָם וְעַד נֹחַ פְּלוֹנִי הוֹלִיד פְּלוֹנִי, וּכְשֶׁבָּא לְנֹחַ הֶאֱרִיךְ בּוֹ, וְכֵן בְּי' דוֹרוֹת שֶׁמִּנֹּחַ וְעַד אַבְרָהָם קִצֵּר בָּהֶם, וּמִשֶּׁהִגִּיעַ אֵצֶל אַבְרָהָם הֶאֱרִיךְ בּוֹ. מָשָׁל לְמַרְגָּלִית שֶׁנָּפְלָה בֵּין הַחוֹל, אָדָם מְמַשְׁמֵּשׁ בַּחוֹל וְכוֹבְרוֹ בִּכְבָרָה עַד שֶׁמּוֹצֵא אֶת הַמַּרְגָּלִית, וּמִשֶּׁמְּצָאָהּ הוּא מַשְׁלִיךְ אֶת הַצְּרוֹרוֹת מִיָּדוֹ וְנוֹטֵל הַמַּרְגָּלִית. דָּ"אַ וישב יעקב, הַפִּשְׁתָּנִי הַזֶּה נִכְנְסוּ גְמַלָּיו טְעוּנִים פִּשְׁתָּן, הַפֶּחָמִי תָמַהּ אָנָה יִכָּנֵס כָּל הַפִּשְׁתָּן הַזֶּה? הָיָה פִּקֵּחַ אֶחָד מֵשִׁיב לוֹ נִצּוֹץ אֶחָד יוֹצֵא מִמַּפּוּחַ שֶׁלְּךָ שֶׁשּׂוֹרֵף אֶת כֻּלּוֹ, כָּךְ יַעֲקֹב רָאָה אֶת כָּל הָאַלּוּפִים הַכְּתוּבִים לְמַעְלָה, תָּמַהּ וְאָמַר מִי יָכוֹל לִכְבֹּשׁ אֶת כֻּלָּן? מַה כְּתִיב לְמַטָּה, אֵלֶּה תּוֹלְדוֹת יַעֲקֹב יוֹסֵף, דִּכְתִיב וְהָיָה בֵית יַעֲקֹב אֵשׁ וּבֵית יוֹסֵף לֶהָבָה וּבֵית עֵשָׂו לְקַשׁ (עובדיה א') – נִצּוֹץ יוֹצֵא מִיּוֹסֵף שֶׁמְּכַלֶּה וְשׂוֹרֵף אֶת כֻּלָּם:
אלה תולדות יעקב. וְאֵלֶּה שֶׁל תּוֹלְדוֹת יַעֲקֹב, אֵלּוּ יִשּׁוּבֵיהֶם וְגִלְגּוּלֵיהֶם עַד שֶׁבָּאוּ לִכְלַל יִשּׁוּב, סִבָּה רִאשׁוֹנָה יוֹסֵף בֶּן י"ז וְגוֹמֵר, עַל יְדֵי זֶה נִתְגַּלְגְּלוּ וְיָרְדוּ לְמִצְרַיִם, זֶהוּ אַחַר יִשּׁוּב פְּשׁוּטוֹ שֶׁל מִקְרָא לִהְיוֹת דָּבָר דָּבוּר עַל אָפְנָיו. וּמִ"אַ דּוֹרֵשׁ תָּלָה הַכָּתוּב תּוֹלְדוֹת יַעֲקֹב בְּיוֹסֵף מִפְּנֵי כַמָּה דְבָרִים, אַחַת, שֶׁכָּל עַצְמוֹ שֶׁל יַעֲקֹב לֹא עָבַד אֵצֶל לָבָן אֶלָּא בְרָחֵל, וְשֶׁהָיָה זִיו אִיקוֹנִין שֶׁל יוֹסֵף דּוֹמֶה לוֹ, וְכָל מַה שֶּׁאֵרַע לְיַעֲקֹב אֵרַע לְיוֹסֵף: זֶה נִשְׂטַם וְזֶה נִשְׂטַם, זֶה אָחִיו מְבַקֵּשׁ לְהָרְגוֹ וְזֶה אֶחָיו מְבַקְּשִׁים לְהָרְגוֹ, וְכֵן הַרְבֵּה בִּבְ"רַ. וְעוֹד נִדְרָשׁ בּוֹ וישב, בִּקֵּשׁ יַעֲקֹב לֵישֵׁב בְּשַׁלְוָה, קָפַץ עָלָיו רָגְזוֹ שֶׁל יוֹסֵף – צַדִּיקִים מְבַקְּשִׁים לֵישֵׁב בְּשַׁלְוָה, אָמַר הַקָּבָּ"ה לֹא דַיָּן לַצַּדִּיקִים מַה שֶּׁמְּתֻקָּן לָהֶם לָעוֹלָם הַבָּא, אֶלָּא שֶׁמְּבַקְּשִׁים לֵישֵׁב בְּשַׁלְוָה בָּעוֹלָם הַזֶּה: והוא נער. שֶׁהָיָה עוֹשֶׂה מַעֲשֵׂה נַעֲרוּת, מְתַקֵּן בִּשְׂעָרוֹ, מְמַשְׁמֵשׁ בְּעֵינָיו, כְּדֵי שֶׁיִּהְיֶה נִרְאֶה יָפֶה: את בני בלהה. כְּלוֹמַר וְרָגִיל אֵצֶל בְּנֵי בִלְהָה, לְפִי שֶׁהָיוּ אֶחָיו מְבַזִּין אוֹתָן וְהוּא מְקָרְבָן: את דבתם רעה. כָּל רָעָה שֶׁהָיָה רוֹאֶה בְאֶחָיו בְנֵי לֵאָה הָיָה מַגִּיד לְאָבִיו, שֶׁהָיוּ אוֹכְלִין אֵבֶר מִן הַחַי, וּמְזַלְזְלִין בִּבְנֵי הַשְּׁפָחוֹת לִקְרוֹתָן עֲבָדִים, וַחֲשׁוּדִים עַל הָעֲרָיוֹת, וּבִשְׁלָשְׁתָּן לָקָה: וַיִּשְׁחֲטוּ שְׂעִיר עִזִּים בִּמְכִירָתוֹ וְלֹא אֲכָלוּהוּ חַי, וְעַל דִּבָּה שֶׁסִּפֵּר עֲלֵיהֶם שֶׁקּוֹרִין לַאֲחֵיהֶם עֲבָדִים – "לְעֶבֶד נִמְכַּר יוֹסֵף", וְעַל עֲרָיוֹת שֶׁסִּפֵּר עֲלֵיהֶם, וַתִּשָּׂא אֵשֶׁת אֲדֹנָיו וְגוֹ: דבתם. כָּל לְשׁוֹן דִּבָּה פרלדי"ץ בְּלַעַז, כָּל מַה שֶּׁהָיָה יָכוֹל לְדַבֵּר בָּהֶם רָעָה, הָיָה מְסַפֵּר: דבה. לְשׁוֹן דּוֹבֵב שִׂפְתֵי יְשֵׁנִים (שיר ז'):
בן זקנים. שֶׁנּוֹלַד לוֹ לְעֵת זִקְנָתוֹ. וְאֻנְקְלוֹס תִּרְגֵּם בַּר חַכִּים הוּא לֵהּ – כָּל מַה שֶּׁלָּמַד מִשֵּׁם וָעֵבֶר מָסַר לוֹ. דָּ"אַ, שֶׁהָיָה זִיו אִיקוֹנִין שֶׁלוֹ דּוֹמֶה לוֹ: פסים. לְשׁוֹן כְּלִי מֵילָת, כְּמוֹ כַּרְפַּס וּתְכֵלֶת, וּכְמוֹ כְּתֹנֶת הַפַּסִּים דְּתָמָר וְאַמְנוֹן, וּמִ"אַ עַ"שֵׁ צָרוֹתָיו, שֶׁנִּמְכַּר לְפוֹטִיפַר וְלַסּוֹחֲרִים וְלַיִּשְׁמְעֵאלִים וְלַמִּדְיָנִים:
ולא יכלו דברו לשלום. מִתּוֹךְ גְּנוּתָם לָמַדְנוּ שִׁבְחָם, שֶׁלֹּא דִבְּרוּ אַחַת בַּפֶּה וְאַחַת בַּלֵּב: דברו. לְדַבֵּר עִמּוֹ:


מאלמים אלמים. כְּתַרְגּוּמוֹ מְאַסְּרִין אֱסָרִין – עֳמְרִין, וְכֵן נֹשֵׂא אֲלֻמֹּתָיו (תהלים קכ"ו), וְכָמוֹהוּ בִּלְשׁוֹן מִשְׁנָה וְהָאֲלֻמּוֹת נוֹטֵל וּמַכְרִיז: קמה אלמתי. נִזְקְפָה: וגם נצבה. לַעֲמֹד עַל עָמְדָהּ בִּזְקִיפָה:
ועל דבריו. עַל דִּבָּתָם רָעָה שֶׁהָיָה מֵבִיא לַאֲבִיהֶם:

ויספר אל אביו ואל אחיו. לְאַחַר שֶׁסִּפֵּר אוֹתוֹ לְאֶחָיו חָזַר וְסִפְּרוֹ לְאָבִיו בִּפְנֵיהֶם: ויגער בו. לְפִי שֶׁהָיָה מֵטִיל שִׂנְאָה עָלָיו: הבוא נבוא. וַהֲלֹא אִמְּךָ כְבָר מֵתָה, וְהוּא לֹא הָיָה יוֹדֵעַ שֶׁהַדְּבָרִים מַגִּיעִין לְבִלְהָה שֶׁגִּדְּלַתּוּ כְּאִמּוֹ. וְרַבּוֹתֵינוּ לָמְדוּ מִכָּאן שֶׁאֵין חֲלוֹם בְּלֹא דְּבָרִים בְּטֵלִים, וְיַעֲקֹב נִתְכַּוֵּן לְהוֹצִיא הַדָּבָר מִלֵּב בָּנָיו שֶׁלֹּא יַקְנִיאוּהוּ, לְכָךְ אָמַר לוֹ הֲבוֹא נָבוֹא וְגוֹ' – כְּשֵׁם שֶׁאִי אֶפְשָׁר בְּאִמְּךָ כָּךְ הַשְּׁאָר הוּא בָטֵל:
שמר את הדבר. הָיָה מַמְתִּין וּמְצַפֶּה מָתַי יָבֹא, וְכֵן שֹׁמֵר אֱמֻנִים (ישעיהו כ"ו), וְכֵן לֹא תִשְׁמֹר עַל חַטָּאתִי (איוב י"ד) – לֹא תַמְתִּין:
לרעות את צאן. נָקוּד עַל אֶת, שֶׁלֹּא הָלְכוּ אֶלָּא לִרְעוֹת אֶת עַצְמָן:
הנני. לְשׁוֹן עֲנָוָה וּזְרִיזוּת, נִזְדָּרֵז לְמִצְוַת אָבִיו, וְאַף עַל פִּי שֶׁהָיָה יוֹדֵעַ בְּאֶחָיו שֶׁשּׂוֹנְאִין אוֹתוֹ:
מעמק חברון. וַהֲלֹא חֶבְרוֹן בָּהָר, שֶׁנֶּאֱמַר וַיַּעֲלוּ בַנֶּגֶב וַיָּבֹא עַד חֶבְרוֹן (במדבר י"ג), אֶלָּא מֵעֵצָה עֲמֻקָּה שֶׁל אוֹתוֹ צַדִּיק הַקָּבוּר בְּחֶבְרוֹן, לְקַיֵּם מַה שֶּׁנֶּאֱמַר לְאַבְרָהָם בֵּין הַבְּתָרִים כִּי גֵר יִהְיֶה זַרְעֲךָ (בראשית ט״ו:י״ג): ויבא שכמה. מָקוֹם מוּכָן לְפֻרְעָנוּת, שָׁם קִלְקְלוּ הַשְּׁבָטִים, שָׁם עִנּוּ אֶת דִּינָה, שָׁם נֶחְלְקָה מַלְכוּת בֵּית דָּוִד, שֶׁנֶּאֱמַר וַיֵּלֶךְ רְחַבְעָם שְׁכֶמָה (מלכים א י"ב):
וימצאהו איש. זֶה גַּבְרִיאֵל, שֶׁנֶּאֱמַר וְהָאִישׁ גַּבְרִיאֵל (דניאל ב'):

נסעו מזה. הִסִּיעוּ עַצְמָן מִן הָאַחְוָה: נלכה דתינה. לְבַקֵּשׁ לְךָ נִכְלֵי דָתוֹת שֶׁיְּמִיתוּךָ בָהֶם. וּלְפִי פְשׁוּטוֹ שֵׁם מָקוֹם הוּא, וְאֵין מִקְרָא יוֹצֵא מִידֵי פְשׁוּטוֹ:
ויתנכלו. נִתְמַלְּאוּ נְכָלִים וְעַרְמוּמִית: אתו. כְּמוֹ אִתּוֹ, עִמּוֹ, כְּלוֹמַר, אֵלָיו:

ונראה מה יהיו חלמתיו. אָמַר רַבִּי יִצְחָק מִקְרָא זֶה אוֹמֵר דָּרְשֵׁנִי, רוּחַ הַקֹּדֶשׁ אוֹמֶרֶת כֵּן, הֵם אוֹמְרִים נַהַרְגֵהוּ וְהַכָּתוּב מְסַיֵּם וְנִרְאֶה מַה יִּהְיוּ חֲלֹמֹתָיו – נִרְאֶה דְּבַר מִי יָקוּם אִם שֶׁלָּכֶם אוֹ שֶׁלִּי. וְאִ"אֶ שֶׁיֹּאמְרוּ הֵם וְנִרְאֶה מַה יִּהְיוּ חֲלֹמֹתָיו, שֶׁמִּכֵּיוָן שֶׁיַּהַרְגוּהוּ בָּטְלוּ חֲלוֹמוֹתָיו:
לא נכנו נפש. מַכַּת נֶפֶשׁ, זוֹ הִיא מִיתָה:
למען הציל אתו. רוּחַ הַקֹּדֶשׁ מְעִידָה עַל רְאוּבֵן שֶׁלֹּא אָמַר זֹאת אֶלָּא לְהַצִּיל אוֹתוֹ שֶׁיָּבֹא הוּא וְיַעֲלֶנּוּ מִשָּׁם, אָמַר אֲנִי בְכוֹר וְגָדוֹל שֶׁבְּכֻלָּן, לֹא יִתָּלֶה הַסֵּרָחוֹן אֶלָּא בִי:
את כתנתו. זֶה חָלוּק: את כתנת הפסים. הוּא שֶׁהוֹסִיף לוֹ אָבִיו יוֹתֵר עַל אֶחָיו:
והבור רק אין בו מים. מִמַּשְׁמַע שֶׁנֶּאֱמַר וְהַבּוֹר רֵק, אֵינִי יוֹדֵעַ שֶׁאֵין בּוֹ מַיִם, מַה תַּלְמוּד לוֹמַר אֵין בּוֹ מָיִם? מַיִם אֵין בּוֹ, אֲבָל נְחָשִׁים וְעַקְרַבִּים יֵשׁ בּוֹ (בראשית רבה, שבת כ"ב):
ארחת. כְּתַרְגּוּמוֹ שְׁיָרַת, עַל שֵׁם הוֹלְכֵי אֹרַח: וגמליהם נשאים וגו'. לָמָּה פִרְסֵם הַכָּתוּב אֶת מַשָּׂאָם? לְהוֹדִיעַ מַתַּן שְׂכָרָן שֶׁל צַדִּיקִים, שֶׁאֵין דַּרְכָּן שֶׁל עַרְבִיִּים לָשֵׂאת אֶלָּא נֵפְטְ וְעִטְרָן, שֶׁרֵיחָן רַע, וְלָזֶה נִזְדַּמְּנוּ בְשָׂמִים, שֶׁלֹּא יִזּוֹק מֵרֵיחַ רַע: נכאת. כָּל כִּנּוּסֵי בְשָׂמִים הַרְבֵּה קָרוּי נְכֹאת, וְכֵן וַיַּרְאֵם אֶת כָּל בֵּית נְכֹתֹה (מלכים ב כ') – מִרְקַחַת בְּשָׂמָיו. וְאֻנְקְלוֹס תִּרְגֵּם לְשׁוֹן שַׁעֲוָה: צרי. שָׂרָף הַנּוֹטֵף מֵעֲצֵי הַקְּטָף, וְהוּא נָטָף הַנִּמְנֶה עִם סַמָּנֵי הַקְּטֹרֶת: ולט. לוֹטִיתָא שְׁמוֹ בִלְשׁוֹן מִשְׁנָה. וְרַבּוֹתֵינוּ פֵּרְשׁוּהוּ שֹׁרֶשׁ עֵשֶׂב, וּשְׁמוֹ אשטרולוזיאה בְּמַסֶּכֶת נִדָּה:
מה בצע. מַה מָּמוֹן, כְּתַרְגּוּמוֹ: וכסינו את דמו. וְנַעֲלִים אֶת מִיתָתוֹ:
וישמעו. וְקַבִּילוּ מִנֵּהּ, וְכָל שְׁמִיעָה שֶׁהִיא קַבָּלַת דְּבָרִים כְּגוֹן זֶה, וּכְגוֹן וַיִּשְׁמַע יַעֲקֹב אֶל אָבִיו, נַעֲשֶׂה וְנִשְׁמָע – מְתֻרְגָּם נְקַבֵּל; וְכָל שֶׁהִיא שְׁמִיעַת הָאֹזֶן, כְּגוֹן וַיִּשְׁמְעוּ אֶת קוֹל ה' אֱלֹהִים מִתְהַלֵּךְ בַּגָּן, וְרִבְקָה שֹׁמַעַת, וַיִּשְׁמַע יִשְׂרָאֵל, שָׁמַעְתִּי אֶת תְּלוּנֹּת – כֻּלָּן מְתֻרְגָּם וּשְׁמָעוּ, וּשְׁמָעַת, וּשְׁמַע, שְׁמִיעַ קֳדָמַי:
ויעברו אנשים מדינים. זוֹ הִיא שַׁיָּרָה אַחֶרֶת, וְהוֹדִיעֲךָ הַכָּתוּב שֶׁנִּמְכַּר פְּעָמִים הַרְבֵּה: וימשכו. בְנֵי יַעֲקֹב אֶת יוֹסֵף מִן הַבּוֹר וַיִּמְכְּרוּהוּ לַיִּשְׁמְעֵאלִים, וְיִשְׁמְעֵאלִים לַמִּדְיָנִים, וְהַמִּדְיָנִים לַמִּצְרִים:
וישב ראובן. בִּמְכִירָתוֹ לֹא הָיָה שָׁם, שֶׁהִגִּיעַ יוֹמוֹ לֵילֵךְ וּלְשַׁמֵּשׁ אֶת אָבִיו. דָּ"אַ עָסוּק הָיָה בְשַׂקּוֹ וּבְתַעֲנִיתוֹ עַל שֶׁבִּלְבֵּל יְצוּעֵי אָבִיו:
אנה אני בא. אָנָה אֶבְרַח מִצַּעְרוֹ שֶׁל אַבָּא?
שעיר עזים. דָּמוֹ דּוֹמֶה לְשֶׁל אָדָם: הכתנת. זֶה שְׁמָהּ, וּכְשֶׁהִיא דְבוּקָה לְתֵבָה אַחֶרֶת, כְּגוֹן כְּתֹנֶת יוֹסֵף, כְּתֹנֶת פַּסִּים, כְּתֹנֶת בַּד, נָקוּד כְּתֹנֶת:

ויאמר כתנת בני. הִיא זוֹ: חיה רעה אכלתהו. נִצְנְצָה בוֹ רוּחַ הַקֹּדֶשׁ, סוֹפוֹ שֶׁתִּתְגָּרֶה בוֹ אֵשֶׁת פּוֹטִיפַר. וְלָמָּה לֹא גִלָּה לוֹ הַקָּבָּ"ה? לְפִי שֶׁהֶחֱרִימוּ וְקִלְּלוּ אֶת כָּל מִי שֶׁיְּגַלֶּה, וְשִׁתְּפוּ לְהַקָּבָּ"ה עִמָּהֶם (תנחומא), אֲבָל יִצְחָק הָיָה יוֹדֵעַ שֶׁהוּא חַי, אָמַר הֵיאַךְ אֲגַלֶּה וְהַקָּבָּ"ה אֵינוֹ רוֹצֶה לְגַלּוֹת לוֹ:
ימים רבים. כ"ב שָׁנָה, מִשֶּׁפֵּרֵשׁ מִמֶּנּוּ עַד שֶׁיָּרַד יַעֲקֹב לְמִצְרַיִם, שֶׁנֶּאֱמַר יוֹסֵף בֶּן שְׁבַע עֶשְׂרֵה שָׁנָה וְגוֹ', וּבֶן שְׁלֹשִׁים שָׁנָה הָיָה בְּעָמְדוֹ לִפְנֵי פַרְעֹה, וְשֶׁבַע שְׁנֵי הַשָּׂבָע, וּשְׁנָתַיִם הָרָעָב כְּשֶׁבָּא יַעֲקֹב לְמִצְרַיִם, הֲרֵי כ"ב שָׁנָה, כְּנֶגֶד כ"ב שָׁנָה שֶׁלֹּא קִיֵּם יַעֲקֹב כִּבּוּד אָב וָאֵם (מגילה ט"ז) – כ' שָׁנָה שֶׁהָיָה בְּבֵית לָבָן, וּב' שָׁנָה בַדֶּרֶךְ בְּשׁוּבוֹ מִבֵּית לָבָן, שָׁנָה וָחֵצִי בְסֻכּוֹת וְשִׁשָּׁה חֳדָשִׁים בְּבֵית אֵל – וְזֶהוּ שֶׁאָמַר לְלָבָן זֶה לִּי עֶשְׂרִים שָׁנָה בְּבֵיתֶךָ, לִי הֵן, עָלַי, וְסוֹפִי לִלְקוֹת כְּנֶגְדָּן:
וכל בנתיו. רַבִּי יְהוּדָה אוֹמֵר אֲחָיוֹת תְּאוֹמוֹת נוֹלְדוּ עִם כָּל שֵׁבֶט וָשֵׁבֶט וּנְשָׂאוּם, רַבִּי נְחֶמְיָה אוֹמֵר כְּנַעֲנִיּוֹת הָיוּ, אֶלָּא מַהוּ וְכָל בְּנֹתָיו? – כַּלּוֹתָיו, שֶׁאֵין אָדָם נִמְנָע מִלִּקְרֹא לַחֲתָנוֹ בְּנוֹ וּלְכַלָּתוֹ בִתּוֹ: וימאן להתנחם. אֵין אָדָם מְקַבֵּל תַּנְחוּמִין עַל הַחַי וְסָבוּר שֶׁמֵּת, שֶׁעַל הַמֵּת נִגְזְרָה גְזֵרָה שֶׁיִּשְׁתַּכַּח מִן הַלֵּב וְלֹא עַל הַחַי (בראשית רבה): ארד אל בני. כְּמוֹ עַל בְּנִי, וְהַרְבֵּה אֶל מְשַׁמְּשִׁין בִּלְשׁוֹן עַל, אֶל שָׁאוּל וְאֶל בֵּית הַדָּמִים (שמואל ב כ"א), אֶל הִלָּקַח אֲרוֹן הָאֱלֹהִים וְאֶל מוֹת חָמִיהָ וְאִישָׁהּ (שמואל א ד'): אבל שאלה. כִּפְשׁוּטוֹ לְשׁוֹן קֶבֶר הוּא – בְּאֶבְלִי אֶקָּבֵר, וְלֹא אֶתְנַחֵם כָּל יָמַי. וּמִדְרָשׁוֹ, גֵּיהִנֹּם; סִימָן זֶה הָיָה מָסוּר בְּיָדִי מִפִּי הַגְּבוּרָה, אִם לֹא יָמוּת אֶחָד מִבָּנַי בְּחַיַּי, מֻבְטָח אֲנִי שֶׁאֵינִי רוֹאֶה גֵיהִנֹּם: ויבך אתו אביו. יִצְחָק, בּוֹכֶה הָיָה מִפְּנֵי צָרָתוֹ שֶׁל יַעֲקֹב אֲבָל לֹא הָיָה מִתְאַבֵּל, שֶׁהָיָה יוֹדֵעַ שֶׁהוּא חַי:
הטבחים. שׁוֹחֲטֵי בְּהֵמוֹת הַמֶּלֶךְ: