ויהיו חיי שרה מאה שנה ועשרים שנה ושבע שנים. לְכָךְ נִכְתַּב שָׁנָה בְּכָל כְּלָל וּכְלָל, לוֹמַר לְךָ שֶׁכָּל אֶחָד נִדְרָשׁ לְעַצְמוֹ, בַּת ק' כְּבַת כ' לְחֵטְא, מַה בַּת כ' לֹא חָטְאָה, שֶׁהֲרֵי אֵינָהּ בַּת עֳנָשִׁין, אַף בַּת ק' בְּלֹא חֵטְא, וּבַת כ' כְּבַת ז' לְיֹפִי: שני חיי שרה. כֻּלָּן שָׁוִין לְטוֹבָה:
בקרית ארבע. עַל שֵׁם אַרְבַּע עֲנָקִים שֶׁהָיוּ שָׁם, אֲחִימָן שֵׁשַׁי וְתַלְמַי וַאֲבִיהֶם. דָּ"אַ עַל שֵׁם אַרְבַּע זוּגוֹת שֶׁנִקְבְּרוּ שָׁם אִישׁ וְאִשְׁתּוֹ, אָדָם וְחַוָּה, אַבְרָהָם וְשָׂרָה, יִצְחָק וְרִבְקָה, יַעֲקֹב וְלֵאָה (בראשית רבה): ויבא אברהם. מִבְּאֵר שֶׁבַע: לספוד לשרה ולבכתה. וְנִסְמְכָה מִיתַת שָׂרָה לַעֲקֵדַת יִצְחָק לְפִי שֶׁעַל יְדֵי בְּשׂוֹרַת הָעֲקֵדָה, שֶׁנִּזְדַּמֵּן בְּנָהּ לִשְׁחִיטָה וְכִמְעַט שֶׁלֹּא נִשְׁחַט, פָּרְחָה נִשְׁמָתָהּ מִמֶּנָּה וּמֵתָה:

גר ותושב אנכי עמכם. גֵּר מֵאֶרֶץ אַחֶרֶת וְנִתְיַשַּׁבְתִּי עִמָּכֶם. וּמִדְרַשׁ אַגָּדָה אִם תִּרְצוּ הֲרֵינִי גֵּר, וְאִם לָאו אֶהְיֶה תּוֹשָׁב וְאֶטְּלֶנָּה מִן הַדִּין, שֶׁאָמַר לִי הַקָּבָּ"ה לְזַרְעֲךָ אֶתֵּן אֶת הָאָרֶץ הַזֹּאת: אחוזת קבר. אֲחֻזַּת קַרְקַע לְבֵית הַקְּבָרוֹת:

לא יכלה. לֹא יִמְנַע כְּמוֹ לֹא תִכְלָא רַחֲמֶיךָ (תהילים מ') וּכְמוֹ וַיִּכָּלֵא הַגֶּשֶׁם (בראשית ח'):

נפשכם. רְצוֹנְכֶם: ופגעו לי. לְשוֹן בַּקָּשָׁה כְּמוֹ: אַל תִּפְגְּעִי בִּי (רות א'):
המכפלה. בַּית וַעֲלִיָּה עַל גַּבָּיו. דָּ"אַ שֶׁכְּפוּלָה בְּזוּגוֹת (עירובין נ"ג): בכסף מלא. שָׁלֵם, כָּל שָׁוְיָהּ; וְכֵן דָּוִד אָמַר לַאֲרַוְנָה בְּכֶסֶף מָלֵא (דברי הימים א כ"א):
ועפרון ישב. כְּתִיב חָסֵר, אוֹתוֹ הַיּוֹם מִנּוּהוּ שׁוֹטֵר עֲלֵיהֶם; מִפְּנֵי חֲשִׁיבוּתוֹ שֶׁל אַבְרָהָם שֶׁהָיָה צָרִיךְ לוֹ, עָלָה לִגְדֻלָּה: לכל באי שער עירו. שֶׁכֻּלָּן בָּטְלוּ מִמְּלָאכְתָּן וּבָאוּ לִגְמֹל חֶסֶד לְשָׂרָה:
לא אדני. לֹא תִּקְנֶה אוֹתָהּ בְּדָמִים: נתתי לך. הֲרֵי הוּא כְּמוֹ שֶׁנְּתַתִּיהָ לְךָ:

אך אם אתה לו שמעני. אַתָּה אוֹמֵר לִי לִשְׁמֹעַ לְךָ וְלִקַּח בְּחִנָּם, אֲנִי אִי אֶפְשִׁי בְּכָךְ: אך אם אתה לו שמעני. הַלְוַאי וְתִשְׁמָעֵנִי: נתתי. דני"ש בלע"ז, מוּכָן הוּא אֶצְלִי, וְהַלְוַאי נָתַתִּי לְךָ כְּבָר:

ביני ובינך. בֵּין שְׁנֵי אוֹהֲבִים כָּמוֹנוּ מַה הִיא חֲשׁוּבָה לִכְלוּם, אֶלָּא הַנַּח אֶת הַמֶּכֶר וְאֶת מֵתְךָ קְבֹר (בראשית רבה):
וישקל אברהם לעפרן. חָסֵר וָי"ו; לְפִי שֶׁאָמַר הַרְבֵּה, וַאֲפִלּוּ מְעַט לֹא עָשָׂה (בבא מציעא פ"ז), שֶׁנָּטַל מִמֶּנוּ שְׁקָלִים גְּדוֹלִים שֶׁהֵן קַנְטָרִין, שֶׁנֶּאֱמַר עֹבֵר לַסֹּחֵר, שֶׁמִּתְקַבְּלִים בְּשֶׁקֶל בְּכָל מָקוֹם (שם ובכורות נ'), וְיֵשׁ מָקוֹם שֶׁשִּׁקְלֵיהֶן גְּדוֹלִים, שֶׁהֵן קַנְטָרִין צנטינא"רש בלע"ז:
ויקם שדה עפרון. תְּקוּמָה הָיְתָה לוֹ, שֶׁיָּצָא מִיַּד הֶדְיוֹט לְיַד מֶלֶךְ; וּפְשׁוּטוֹ שֶׁל מִקְרָא וַיָּקָם הַשָּׂדֶה וְהַמְּעָרָה אֲשֶׁר בּוֹ וְכָל הָעֵץ לְאַבְרָהָם לְמִקְנָה וגו':
בכל באי שער עירו. בְּקֶרֶב כֻּלָּם וּבְמַעֲמַד כֻּלָּם הִקְנָהוּ לוֹ:


