
ויכל אלהים ביום השביעי. רַבִּי שִׁמְעוֹן אוֹמֵר: בָּשָׂר וָדָם, שֶׁאֵינוֹ יוֹדֵעַ עִתָּיו וּרְגָעָיו צָרִיך לְהוֹסִיף מֵחֹל עַל הַקֹּדֶשׁ, הַקָּדוֹשׁ בָּרוּךְ הוּא שֶׁיּוֹדֵעַ עִתָּיו וּרְגָעָיו, נִכְנָס בֹּו כְּחוּט הַשַּׂעֲרָה, וְנִרְאֶה כְאִלּוּ כִלָּה בוֹ בַיֹּום. דָּבָר אַחֵר מֶה הָיָה הָעוֹלָם חָסֵר? מְנוּחָה, בָּאת שַׁבָּת בָּאת מְנוּחָה, כָּלְתָה וְנִגְמְרָה הַמְּלָאכָה (בראשית רבה י ט):
ויברך, ויקדש. בֵּרְכוֹ בַּמָּן, שֶׁכָּל יְמוֹת הַשָּׁבוּעַ יוֹרֵד לָהֶם עֹמֶר לַגֻּלְגֹּלֶת, וּבַשִּׁשִּׁי לֶחֶם מִשְׁנֶה, וְקִדְּשׁוֹ בַּמָּן, שֶׁלֹּא יָרַד כְּלָל בְּשַׁבָּת, וְהַמִּקְרָא כָּתוּב עַל הֶעָתִיד: אשר ברא אלהים לעשות. הַמְּלָאכָה שֶׁהָיְתָה רְאוּיָה לֵעָשׂוֹת בַּשַּׁבָּת, כָּפַל וַעֲשָׂאָהּ בַּשִּׁשִּׁי כְּמוֹ שֶׁמְּפֹרָשׁ בְּ'בְּרֵאשִׁית רַבָּה':
אלה. הָאֲמוּרִים לְמַעְלָה: תולדות השמים והארץ בהבראם ביום עשות ה׳. לִמֶּדְךָ שֶׁכֻּלָּם נִבְרְאוּ בָרִאשׁוֹן. דָּבָר אַחֵר בְּהִבָּרְאָם, בְּה׳ בְרָאָם, שֶׁנֶּאֱמַר "בְיָהּ יְהוָה צוּר עוֹלָמִים" (ישעיהו כו ד), בְּב׳ אוֹתִיוֹת הַלָּלוּ שֶׁל הַשֵּׁם יָצַר שְׁנֵי עוֹלָמִים, וְלִמֶּדְךָ כָאן שֶׁהָעוֹלָם הַזֶּה נִבְרָא בְהֵ״א, רֶמֶז שֶׁיָּרְדוּ לְמַטָּה לִרְאוֹת שַׁחַת כְּהֵ״א זֹאת שֶׁסְּתוּמָה מִכָּל צְדָדִים וּפְתוּחָה לְמַטָּה לָרֶדֶת דֶּרֶךְ שָׁם:
טרם יהיה בארץ. כָּל 'טֶרֶם' שֶׁבַּמִּקְרָא לְשׁוֹן 'עַד לֹא' הוּא, וְאֵינוֹ לְשׁוֹן 'קֹדֶם', וְאֵינוֹ נִפְעָל לוֹמַר 'הִטְרִים', כַּאֲשֶׁר יֹאמַר 'הִקְדִים', וְזֶה מוֹכִיחַ, וְעוֹד אַחֵר, "כִּי טֶרֶם תִּירְאוּן" (שמות ט ל) עֲדַיִן לֹא תִירְאוּן; וְאַף זֶה תְפָרֵשׁ, עֲדַיִן לֹא הָיָה בָאָרֶץ, כְּשֶׁנִּגְמְרָה בְרִיאַת הָעוֹלָם בַּשִּׁשִּׁי קֹדֶם שֶׁנִבְרָא אָדָם, וְכָל עֵשֶׂב הַשָּׂדֶה טֶרֶם יִצְמַח, עֲדַיִן לֹא צָמַח, וּבַשְּׁלִישִׁי שֶׁכָּתוּב "תּוֹצֵא הָאָרֶץ", לֹא יָצְאוּ, אֶלָּא עַל פֶּתַח קַרְקַע עָמְדוּ עַד יוֹם שִׁשִּׁי: כי לא המטיר. וּמַאי טַעְמָהּ לֹא הִמְטִיר? לְפִי שֶׁאָדָם אַיִן לַעֲבֹד אֶת הָאֲדָמָה, וְאֵין מַכִּיר בְּטוֹבָתָם שֶׁל גְּשָׁמִים, וּכְשֶׁבָּא אָדָם וְיָדַע שֶׁהֵם צֹרֶךְ לָעוֹלָם, הִתְפַּלֵּל עֲלֵיהֶם וְיָרְדוּ וְצָמְחוּ הָאִילָנוֹת וְהַדְּשָׁאִים: ה׳ אלהים. ה׳ הוּא שְׁמוֹ, אֱלֹהִים שֶׁהוּא שַׁלִּיט וְשׁוֹפֵט עַל כֹּל, וְכֵן פֵּרוּש זֶה בְּכָל מָקוֹם לְפִי פְּשׁוּטוֹ, ה׳ שֶׁהוּא אֱלֹהִים:
ואד יעלה. לְעִנְיַן בְּרִיאָתוֹ שֶׁל אָדָם, הֶעֱלָה הַתְּהוֹם וְהִשְׁקָה עֲנָנִים לִשְׁרוֹת הֶעָפָר וְנִבְרָא אָדָם, כְּגַבָּל זֶה, שֶׁנּוֹתֵן מַיִם וְאַחַר כָּךְ לָשׁ אֶת הָעִסָּה, אַף כָּאן, וְהִשְׁקָה, וְאַחַר כָּךְ וַיִּיצֶר:
וייצר. שְׁתֵּי יְצִירוֹת, יְצִירָה לָעוֹלָם הַזֶּה וִיצִירָה לִתְחִיַּת הַמֵּתִים, אֲבָל בַּבְּהֵמָה שֶׁאֵינָהּ עוֹמֶדֶת לַדִּין לֹא נִכְתַּב בִּיצִירָתָהּ שְׁנֵי יוֹ״דִין: עפר מן האדמה. צָבַר עֲפְרוֹ מִכָּל הָאֲדָמָה מֵאַרְבַּע רוּחוֹת, שֶׁכָּל מָקוֹם שֶׁיָּמוּת שָׁם תְּהֵא קוֹלַטְתּוֹ לִקְבוּרָה. דָּבָר אַחֵר, נָטַל עֲפָרוֹ מִמָּקוֹם שֶׁנֶּאֱמַר בּוֹ "מִזְבַּח אֲדָמָה תַּעֲשֶׂה לִּי" (שמות כ כא), אָמַר: הַלְוַאי תִּהְיֶה לוֹ כַפָּרָה וְיוּכַל לַעֲמֹד: ויפח באפיו. עֲשָׂאוֹ מִן הַתַּחְתּוֹנִים וּמִן הָעֶלְיוֹנִים, גוּף מִן הַתַּחְתּוֹנִים וּנְשָׁמָה מִן הָעֶלְיוֹנִים, לְפִי שֶׁבְּיוֹם רִאשׁוֹן נִבְרְאוּ שָׁמַיִם וָאָרֶץ, בַּשֵּׁנִי בָּרָא רָקִיעַ לָעֶלְיוֹנִים, בַּשְּׁלִישִׁי תֵּרָאֶה הַיַּבָּשָׁה לַתַּחְתּוֹנִים, בָּרְבִיעִי בָּרָא מְאוֹרוֹת לָעֶלְיוֹנִים, בַּחֲמִישִׁי יִשְׁרְצוּ הַמַּיִם לַתַּחְתּוֹנִים, הֻזְקַק בַּשִּׁשִּׁי לִבְראוֹת בּוֹ בָעֶלְיוֹנִים וּבַתַּחְתּוֹנִים, וְאִם לָאו, יֵשׁ קִנְאָה בְמַעֲשֵׂה בְרֵאשִׁית, שֶׁיִּהְיוּ אֵלּוּ רַבִּים עַל אֵלּוּ בִּבְרִיאַת יוֹם אֶחָד: לנפש חיה. אַף בְּהֵמָה וְחַיָּה נִקְרְאוּ 'נֶפֶשׁ חַיָּה', אַךְ זוֹ שֶׁל אָדָם חַיָּה שֶׁבְּכֻלָּן, שֶׁנִתּוֹסֵף בּוֹ דֵּעָה וְדִבּוּר:
מקדם. בְּמִזְרָחוֹ שֶׁל עֵדֶן נָטַע אֶת הַגָּן. וְאִם תֹּאמַר, הֲרֵי כְבָר כָּתַב "וַיִּבְרְָא אֶת הָאָדָם" וְגוֹ׳, רָאִיתִי בִּבְרַיְתָא שֶׁל רַבִּי אֱלִיעֶזֶר בְּנוֹ שֶׁל רַבִּי יוֹסֵי הַגְּלִילִי מִל״ב מִדּוֹת שֶׁהַתּוֹרָה נִדְרֶשֶׁת, וְזוֹ אַחַת מֵהֶן: כְּלָל שֶׁלְּאַחֲרָיו מַעֲשֶׂה הוּא פְרָטוֹ שֶׁל רִאשׁוֹן, "וַיִּבְרָא אֶת הָאָדָם" זֶהוּ כְּלָל, סָתַם בְּרִיאָתוֹ מֵהֵיכָן וְסָתַם מַעֲשָׂיו, חָזַר וּפֵרֵשׁ "וַיִּיצֶר יְהוָה אֱלֹהִים" וְגוֹ׳, וַיַּצְמַח לוֹ גַּן עֵדֶן "וַיַּנִּיחֵהוּ בְּגַן עֵדֶן" (בראשית ב טו), "וַיַּפֵּל עָלָיו תַּרְדֵּמָה" (בראשית ב כא), הַשּׁוֹמֵעַ סָבוּר שֶׁהוּא מַעֲשֶׂה אַחֵר, וְאֵינוֹ אֶלָּא פְרָטוֹ שֶׁל רִאשׁוֹן; וְכֵן אֵצֶל הַבְּהֵמָה חָזַר וְכָתַב "וַיִּצֶר יְהוָה" וגו׳ מִן הָאֲדָמָה כָּל חַיַּת הַשָּׂדֶה, כְּדֵי לְפָרֵשׁ וַיָּבֵא אֶל הָאָדָם לִקְרוֹת שֵׁם וּלְלַמֵּד עַל הָעוֹפוֹת שֶׁנִּבְרְאוּ מִן הָרְקָק:
ויצמח. לְעִנְיַן הַגַּן הַכָּתוּב מְדַבֵּר: בתוך הגן. בָּאֶמְצַע:

פישון. הוּא נִילוּס נְהַר מִצְרַיִם, וְעַל שֵׁם שֶׁמֵּימָיו מִתְבָּרְכִין וְעוֹלִין וּמַשְׁקִין אֶת הָאָרֶץ נִקְרָא 'פִישׁוֹן', כְּמוֹ "וּפָשׁוּ פָּרָשָׁיו" (חבקוק א ח). דָּבָר אַחֵר, 'פִּישׁוֹן' - שֶׁהוּא מְגַדֵּל פִּשְׁתָּן, שֶׁנֶּאֱמַר עַל מִצְרַיִם "וּבֹשׁוּ עֹבְדֵי פִשְׁתִּים" (ישעיהו יט ט):
 
גיחון. שֶׁהָיָה הוֹלֵךְ וְהוֹמֶה, וְהֶמְיָתוֹ גְדוֹלָה מְאֹד, כְּמוֹ "כִי יִגַּח" (שמות כא כח), שֶׁמְּנַגֵּחַ וְהוֹלֵךְ וְהוֹמֶה:
חדקל. שֶׁמֵּימָיו חַדִּין וְקַלִּין: פרת. שֶׁמֵּימָיו פָּרִין וְרָבִין וְמַבְרִין אֶת הָאָדָם: כוש ואשור. עֲדַיִן לֹא הָיוּ, וְכָתַב הַמִּקְרָא עַל שֵׁם הֶעָתִיד: קדמת אשור. לְמִזְרָחָהּ שֶׁל אַשּׁוּר: הוא פרת. הֶחָשׁוּב עַל כֻּלָּם, הַנִּזְכָּר עַל שֵׁם אֶרֶץ יִשְׂרָאֵל (בראשית רבה טז ג):
ויקח. לְקָחוֹ בִדְבָרִים נָאִים וּפִתָּהוּ לִכָּנֵס. (בראשית רבה טז ה)


לא טוב היות וגו׳. שֶׁלֹּא יֹאמְרוּ שְׁתֵּי רָשׁוּיוֹת הֵן, הַקָּדוֹשׁ בָּרוּךְ הוּא בָעֶליוֹנִים יָחִיד וְאֵין לוֹ זוּג, וְזֶה בַתַּחְתּוֹנִים וְאֵין לוֹ זוּג (בראשית רבה): עזר כנגדו. זָכָה – עֵזֶר; לֹא זָכָה – כְּנֶגְדּוֹ, לְהִלָּחֵם:
וייצר מן האדמה. הִיא יְצִירָה, הִיא עֲשִׂיָּה הָאֲמוּרָה לְמַעְלָה, "וַיַּעַשׂ אֱלֹהִים אֶת חַיַּת הָאָרֶץ" וְגוֹ׳, אֶלָּא בָא וּפֵרֵשׁ שֶׁהָעוֹפוֹת נִבְרְאוּ מִן הָרְקָק, לְפִי שֶׁאָמַר לְמַעְלָה מִן הַמַּיִּם נִבְרְאוּ, וְכָאן אָמַר מִן הָאָרֶץ נִבְרְאוּ (חולין כז), וְעוֹד לִמֶּדְךָ כָּאן, שֶׁבִּשְׁעַת יְצִירָתָן מִיָּד בּוֹ בַיּוֹם הֱבִיאָם אֶל הָאָדָם לִקְרוֹת לָהֶם שֵׁם. וּבְדִבְרֵי אַגָּדָה, 'יְצִירָה' זוֹ לְשׁוֹן רִדּוּי וְכִבּוּשׁ, כְּמוֹ "כִּי תָצוּר אֶל עִיר" (דברים כ יט), שֶׁכְּבָשָׁן תַּחַת יָדוֹ שֶׁל אָדָם (בראשית רבה): וכל אשר יקרא לו האדם נפש חיה וגו׳. סָרְסֵהוּ וּפָרְשֵׁהוּ, כֹּל נֶפֶשׁ חַיָּה אֲשֶׁר יִקְרָא לוֹ הָאָדָם שֵׁם, הוּא שְׁמוֹ לְעוֹלָם:
ולאדם לא מצא עזר. ויפל ה׳ אלהים תרדמה. כְּשֶׁהֱבִיאָן, הֱבִיאָן לְפָנָיו כָּל מִין וָמִין, זָכָר וּנְקֵבָה, אָמַר לְכֻלָּם יֵשׁ בֶּן זוּג וְלִי אֵין בֶּן זוּג, מִיָּד וַיַּפֵּל (בראשית רבה):
מצלעותיו. מִסְּטָרָיו, כְּמוֹ "וּלְצֶלַע הַמִּשְׁכָּן" (שמות כו כ), זֶהוּ שֶׁאָמְרוּ 'שְׁנֵי פַרְצוּפִים נִבְרְאוּ' (עירובין יז): ויסגור. מְקוֹם הַחֲתָךְ: ויישן ויקח. שֶׁלֹּא יִרְאֶה חֲתִיכַת הַבָּשָׂר שֶׁמִּמֶּנוּ נִבְרֵאת וְתִתְבַּזֶּה עָלָיו:
ויבן. כְּבִִנְיָן, רְחָבָה מִלְּמַטָּה וּקְצָרָה מִלְּמַעְלָה לְקַבֵּל הַוָּלָד, כְּאוֹצָר שֶׁל חִטִּים, שֶׁהוּא רָחָב מִלְּמַטָה וְקָצָר מִלְּמַעְלָה, שֶׁלֹּא יַכְבִּיד מַשָּׂאוֹ עַל קִירוֹתָיו: ויבן את הצלע לאשה. לִהְיוֹת אִשָּׁה, כְּמוֹ "וַיַּעַשׂ אוֹתוֹ גִדְעוֹן לְאֵפוֹד" (שופטים ח כז), לִהְיוֹת אֵפוֹד:
זאת הפעם. מְלַמֵּד שֶׁבָּא אָדָם עַל כָּל בְּהֵמָה וְחַיָּה, וְלֹא נִתְקָרְרָה דַעְתּוֹ בָּהֶם (יבמות סג א): לזאת יקרא אשה כי מאיש וגו׳. לָשׁוֹן נוֹפֵל עַל לָשׁוֹן, מִכָּאן שֶׁנִּבְרָא הָעוֹלָם בִּלְשׁוֹן הַקֹּדֶשׁ (בראשית רבה יח ד):
על כן יעזב איש. רוּחַ הַקֹּדֶשׁ אוֹמְרָה כֵן לֶאֱסֹר עַל בְּנֵי נֹחַ הָעֲרָיוֹת (סנהדרין נז ב): לבשר אחד. הַוָּלָד נוֹצָר עַל יְדֵי שְׁנֵיהֶם, וְשָׁם נַעֲשֶׁה בְשָׂרָם אֶחָד (סנהדרין נח א):
ולא יתבוששו. שֶׁלֹּא הָיוּ יוֹדְעִים דֶרֶךְ צְנִיעוּת לְהַבְחִין בֵּין טוֹב לָרָע, וְאַף עַל פִּי שֶׁנִּתְּנָה בוֹ דֵּעָה לִקְרוֹת לוֹ שֵׁמוֹת, לֹא נִתַּן בּוֹ יֵצֶר הָרָע עַד אָכְלוֹ מִן הָעֵץ וְנִכְנַס בּוֹ יֵצֶר הָרָע, וְיָדַע מַה בֵּין טוֹב לָרָע (בראשית רבה):
