
מה תנסון. לוֹמַר הֲיוּכַל לָתֵת מַיִם בְּאֶרֶץ צִיָּה?:

עוד מעט. אִם אַמְתִּין עוֹד מְעַט וסקלני :
עבור לפני העם. וּרְאֵה אִם יִסְקְלוּךָ, לָמָּה הוֹצֵאתָ לַעַז עַל בָּנַי? (שמות רבה): וקח אתך מזקני ישראל. לְעֵדוּת, שֶׁיִּרְאוּ שֶׁעַל יָדְךָ מַיִם יוֹצְאִים מִן הַצּוּר, וְלֹא יֹאמְרוּ מַעְיָנוֹת הָיוּ שָׁם מִימֵי קֶדֶם: ומטך אשר הכית בו את היאר. מַה תַּ"לֹ "אֲשֶׁר הִכִּיתָ בּוֹ אֶת הַיְאֹר"? אֶלָּא שֶׁהָיוּ יִשְׂרָאֵל אוֹמְרִים עַל הַמַּטֶּה שֶׁאֵינוֹ מוּכָן אֶלָּא לְפֻרְעָנוּת – בּוֹ לָקָה פַרְעֹה וּמִצְרַיִם כַּמָּה מַכּוֹת בְּמִצְרַיִם וְעַל הַיָּם – לְכָךְ נֶאֱמַר אֲשֶׁר הִכִּיתָ בּוֹ אֶת הַיְאֹר, יִרְאוּ עַתָּה שֶׁאַף לְטוֹבָה הוּא מוּכָן (מכילתא):
והכית בצור. עַל הַצּוּר לֹא נֶאֱמַר אֶלָּא בַצּוּר, מִכָּאן שֶׁהַמַּטֶּה הָיָה שֶׁל מִין דָּבָר חָזָק וּשְׁמוֹ סַנְפִּירִינוֹן, וְהַצּוּר נִבְקַע מִפָּנָיו (שם):

ויבא עמלק וגו'. סָמַךְ פָּרָשָׁה זוֹ לְמִקְרָא זֶה, לוֹמַר, תָּמִיד אֲנִי בֵינֵיכֶם וּמְזֻמָּן לְכָל צָרְכֵּיכֶם וְאַתֶּם אוֹמְרִים הֲיֵשׁ ה' בְּקִרְבֵּנוּ אִם אָיִן, חַיֵּיכֶם שֶׁהַכֶּלֶב בָּא וְנוֹשֵׁךְ אֶתְכֶם וְאַתֶּם צוֹעֲקִים לִי וְתֵדְעוּ הֵיכָן אֲנִי? מָשָׁל לְאָדָם שֶׁהִרְכִּיב בְּנוֹ עַל כְּתֵפוֹ וְיָצָא לַדֶּרֶךְ, הָיָה אוֹתוֹ הַבֵּן רוֹאֶה חֵפֶץ וְאוֹמֵר, אַבָּא טֹל חֵפֶץ זֶה וְתֵן לִי וְהוּא נוֹתֵן לוֹ, וְכֵן שְׁנִיָּה, וְכֵן שְׁלִישִׁית, פָּגְעוּ בְאָדָם אֶחָד אָמַר לוֹ אוֹתוֹ הַבֵּן, רָאִיתָ אֶת אַבָּא? אָמַר לוֹ אָבִיו, אֵינְךָ יוֹדֵעַ הֵיכָן אֲנִי? הִשְׁלִיכוֹ מֵעָלָיו וּבָא הַכֶּלֶב וּנְשָׁכוֹ (תנחומא יתרו):
בחר לנו. לִי וּלְךָ – הִשְׁוָהוּ לוֹ; מִכָּאן אָמְרוּ חֲכָמִים יְהִי כְבוֹד תַּלְמִידְךָ חָבִיב עָלֶיךָ כְּשֶׁלָּךְ; וּכְבוֹד חֲבֵרְךָ כְּמוֹרָא רַבָּךְ מִנַּיִן? שֶׁנֶּאֱמַר "וַיֹּאמֶר אַהֲרֹן אֶל מֹשֶׁה בִּי אֲדֹנִי", וַהֲלֹא אַהֲרֹן גָּדוֹל מֵאָחִיו הָיָה וְעוֹשֶׂה אֶת חֲבֵרוֹ כְּרַבּוֹ. וּמוֹרָא רַבָּךְ כְּמוֹרָא שָׁמַיִם מִנַּיִן? שֶׁנֶּאֱמַר "אֲדֹנִי מֹשֶׁה כְּלָאֵם" – כַּלֵּם מִן הָעוֹלָם, חַיָּבִין הֵם כְּלָיָה, הַמּוֹרְדִים בְּךָ כְּאִלּוּ מָרְדוּ בְּהַקָּבָּ"ה: וצא הלחם. צֵא מִן הֶעָנָן וְהִלָּחֵם בּוֹ: מחר. בְּעֵת הַמִּלְחָמָה, אָנֹכִי נִצָּב: בחר לנו אנשים. גִּבּוֹרִים וְיִרְאֵי חֵטְא שֶׁתְּהֵא זְכוּתָן מְסַיַּעְתָּן. דָּבָר אַחֵר – בְּחַר לָנוּ אֲנָשִׁים שֶׁיּוֹדְעִין לְבַטֵּל כְּשָׁפִים, לְפִי שֶׁבְּנֵי עֲמָלֵק מְכַשְּׁפִין הָיוּ:
ומשה אהרן וחור. מִכָּאן לְתַעֲנִית שֶׁצְּרִיכִים שְׁלֹשָׁה לַעֲבֹר לִפְנֵי הַתֵּבָה, שֶׁבְּתַעֲנִית הָיוּ שְׁרוּיִים (מכילתא): חור. בְּנָהּ שֶׁל מִרְיָם הָיָה וְכָלֵב בַּעְלָהּ (סוטה י"א):
כאשר ירים משה ידו. וְכִי יָדָיו שֶׁל מֹשֶׁה נוֹצְחוֹת הָיוּ הַמִּלְחָמָה וְכוּ' כִּדְאִיתָא בְּרֹ"הַ:
וידי משה כבדים. בִּשְׁבִיל שֶׁנִּתְעַצֵּל בַּמִּצְוָה וּמִנָּה אַחֵר תַּחְתָּיו, נִתְיַקְּרוּ יָדָיו: ויקחו. אַהֲרֹן וְחוּר: אבן וישימו תחתיו. וְלֹא יָשַׁב לוֹ עַל כַּר וָכֶסֶת. אָמַר: יִשְׂרָאֵל שְׁרוּיִין בְּצַעַר, אַף אֲנִי אֶהְיֶה עִמָּהֶם בְּצַעַר (תענית י"א): ויהי ידיו אמונה. וַיְהִי מֹשֶׁה יָדָיו בֶּאֱמוּנָה, פְּרוּשׂוֹת הַשָּׁמַיִם בִּתְפִלָּה נֶאֱמָנָה וּנְכוֹנָה: עד בא השמש. שֶׁהָיוּ עֲמָלֵקִים מְחַשְּׁבִין אֶת הַשָּׁעוֹת בָּאִיצְטְרוּלוֹגִיאָה, בְּאֵיזוֹ שָׁעָה הֵם נוֹצְחִים, וְהֶעֱמִיד לָהֶם מֹשֶׁה חַמָּה וְעִרְבֵּב אֶת הַשָּׁעוֹת (תנחומא):
ויחלש יהושע. חָתַךְ רָאשֵׁי גִבּוֹרָיו וְלֹא הִשְׁאִיר אֶלָּא חַלָּשִׁים שֶׁבָּהֶם, וְלֹא הֲרָגָם כֻּלָּם, מִכָּאן אָנוּ לְמֵדִים שֶׁעָשׂוּ עַ"פִּ הַדִּבּוּר שֶׁל שְׁכִינָה (שם):
כתב זאת זכרון. שֶׁבָּא עֲמָלֵק לְהִזְדַּוֵּג לְיִשְׂרָאֵל קֹדֶם לְכָל הָאֻמּוֹת: ושים באזני יהושע. הַמַּכְנִיס אֶת יִשְׂרָאֵל לָאָרֶץ, שֶׁיְּצַוֶּה אֶת יִשְׂרָאֵל לְשַׁלֵּם לוֹ אֶת גְּמוּלוֹ; כָּאן נִרְמַז לוֹ לְמֹשֶׁה שֶׁיְּהוֹשֻׁעַ מַכְנִיס אֶת יִשְׂרָאֵל לָאָרֶץ (שם): כי מחה אמחה. לְכָךְ אֲנִי מַזְהִירְךָ כֵּן, כִּי חָפֵץ אֲנִי לִמְחוֹתוֹ:
ויקרא שמו. שֶׁל מִזְבֵּחַ: ה' נסי. הַקָּבָּ"ה עָשָׂה לָנוּ כָּאן נֵס. לֹא שֶׁהַמִּזְבֵּחַ קָרוּי ה', אֶלָּא הַמַּזְכִּיר שְׁמוֹ שֶׁל מִזְבֵּחַ זוֹכֵר אֶת הַנֵּס שֶׁעָשָׂה הַמָּקוֹם – ה' הוּא נֵס שֶׁלָּנוּ:
ויאמר. מֹשֶׁה: כי יד על כס יה. יָדוֹ שֶׁל הַקָּבָּ"ה הוּרְמָה לִשָּׁבַע בְּכִסְאוֹ לִהְיוֹת לוֹ מִלְחָמָה וְאֵיבָה בַעֲמָלֵק עוֹלָמִית, וּמַהוּ כֵּס וְלֹא נֶאֱמַר כִּסֵּא? וְאַף הַשֵּׁם נֶחֱלַק לְחֶצְיוֹ? נִשְׁבַּע הַקָּבָּ"ה שֶׁאֵין שְׁמוֹ שָׁלֵם וְאֵין כִּסְאוֹ שָׁלֵם עַד שֶׁיִּמָּחֶה שְׁמוֹ שֶׁל עֲמָלֵק כֻּלּוֹ, וּכְשֶׁיִּמָּחֶה שְׁמוֹ יִהְיֶה הַשֵּׁם שָׁלֵם וְהַכִּסֵּא שָׁלֵם, שֶׁנֶּאֱמַר "הָאוֹיֵב תַּמּוּ חֳרָבוֹת לָנֶצַח" (תהלים ט'), זֶהוּ עֲמָלֵק שֶׁכָּתוּב בּוֹ "וְעֶבְרָתוֹ שְׁמָרָה נֶצַח" (עמוס א'), "וְעָרִים נָתַשְׁתָּ אָבַד זִכְרָם הֵמָּה" (תהלים שם), מַהוּ אוֹמֵר אַחֲרָיו? "וַה' לְעוֹלָם יֵשֵׁב" — הֲרֵי הַשֵּׁם שָׁלֵם, "כּוֹנֵן לַמִּשְׁפָּט כִּסְאוֹ" — הֲרֵי כִּסְּאוֹ שָׁלֵם: