בהר סיני. מָה עִנְיַן שְׁמִטָּה אֵצֶל הַר סִינַי? וַהֲלֹא כָל הַמִּצְוֹת נֶאֶמְרוּ מִסִּינַי? אֶלָּא מַה שְּׁמִטָּה נֶאֶמְרוּ כְלָלוֹתֶיהָ וּפְרָטוֹתֶיהָ וְדִקְדּוּקֶיהָ מִסִּינַי אַף כֻּלָּן נֶאֶמְרוּ כְלָלוֹתֵיהֶן וְדִקְדּוּקֵיהֶן מִסִּינַי, כָּךְ שְׁנוּיָה בְּתֹ"כֹּ; וְנִרְאֶה לִי שֶׁכָּךְ פֵּרוּשָׁהּ: לְפִי שֶׁלֹּא מָצִינוּ שְׁמִטַּת קַרְקָעוֹת שֶׁנִּשְׁנֵית בְּעַרְבוֹת מוֹאָב בְּמִשְׁנֵה תוֹרָה, לָמַדְנוּ שֶׁכְּלָלוֹתֶיהָ וּפְרָטוֹתֶיהָ כֻּלָּן נֶאֶמְרוּ מִסִּינַי, וּבָא הַכָּתוּב וְלִמֵּד כָּאן עַל כָּל דִּבּוּר שֶׁנִּדְבַּר לְמֹשֶׁה, שֶׁמִּסִּינַי הָיוּ כֻלָּם, כְּלָלוֹתֵיהֶן וְדִקְדּוּקֵיהֶן, וְחָזְרוּ וְנִשְׁנוּ בְּעַרְבוֹת מוֹאָב:
שבת לה'. לְשֵׁם ה', כְּשֵׁם שֶׁנֶּאֱמַר בְּשַׁבַּת בְּרֵאשִׁית (עי' ספרא):

יהיה לארץ. לַשָּׂדוֹת וְלַכְּרָמִים: לא תזמר. שֶׁקּוֹצְצִין זְמוֹרוֹתֶיהָ, וְתַרְגּוּמוֹ לָא תִכְסָח, וְדוֹמֶה לוֹ "קוֹצִים כְּסוּחִים" (ישעיהו ל"ג), "שְֹרֻפָה בָאֵשׁ כְּסוּחָה" (תהילים פ'):
את ספיח קצירך. אֲפִלּוּ לֹא זְרַעְתָּהּ וְהִיא צָמְחָה מִן הַזֶּרַע שֶׁנָּפַל בָּהּ בְּעֵת הַקָּצִיר וְהוּא קָרוּי סָפִיחַ: לא תקצור. לִהְיוֹת מַחֲזִיק בּוֹ כִּשְׁאָר קָצִיר, אֶלָּא הֶפְקֵר יִהְיֶה לַכֹּל: נזירך. שֶׁהִנְזַרְתָּ וְהִפְרַשְׁתָּ בְנֵי אָדָם מֵהֶם וְלֹא הִפְקַרְתָּם: לא תבצר. אוֹתָם אֵינְךָ בוֹצֵר, אֶלָּא מִן הַמֻּפְקָר:
והיתה שבת הארץ וגו'. אַעַ"פִּ שֶׁאֲסַרְתִּים עָלֶיךָ, לֹא בַאֲכִילָה וְלֹא בַּהֲנָאָה אֲסַרְתִּים, אֶלָּא שֶׁלֹּא תִנְהֹג בָהֶם כְּבַעַל הַבַּיִת, אֶלָּא הַכֹּל יִהְיוּ שָׁוִים בָּהּ, אַתָּה וּשְׂכִירְךָ וְתוֹשָׁבְךָ: שבת הארץ לכם לאכלה. מִן הַשָּׁבוּת אַתָּה אוֹכֵל, וְאִי אַתָּה אוֹכֵל מִן הַשָּׁמוּר (ספרא): לך ולעבדך ולאמתך. לְפִי שֶׁנֶאֱמַר וְאָכְלוּ אֶבְיֹנֵי עַמֶּךָ (שמות כ"ג), יָכוֹל יִהְיוּ אֲסוּרִים בַּאֲכִילָה לָעֲשִׁירִים, תַּ"לֹ לְךָ וּלְעַבְדְּךָ וְלַאֲמָתֶךָ, הֲרֵי בְעָלִים וַעֲבָדִים וּשְׁפָחוֹת אֲמוּרִים כָּאן (ספרא): ולשכירך ולתושבך. אַף הַגּוֹיִם (שם):
ולבהמתך ולחיה. אִם חַיָּה אוֹכֶלֶת, בְּהֵמָה לֹא כָּל שֶׁכֵּן, שֶׁמְּזוֹנוֹתֶיהָ עָלֶיךָ, מַה תַּ"לֹ וְלִבְהֶמְתְּךָ? מַקִּישׁ בְּהֵמָה לַחַיָּה, כָּל זְמַן שֶׁחַיָּה אוֹכֶלֶת מִן הַשָּׂדֶה, הַאֲכֵל לִבְהֶמְתְּךָ מִן הַבַּיִת, כָּלָה לַחַיָּה מִן הַשָּׂדֶה, כַּלֵּה לִבְהֶמְתְּךָ מִן הַבַּיִת (שם; תענית ו'):
שבתת שנים. שְׁמִטּוֹת שָׁנִים, יָכוֹל יַעֲשֶׂה שֶׁבַע שָׁנִים רְצוּפוֹת שְׁמִטָּה וְיַעֲשֶׂה יוֹבֵל אַחֲרֵיהֶם, תַּ"לֹ שֶׁבַע שָׁנִים שֶׁבַע פְּעָמִים, הֱוֵי אוֹמֵר כָּל שְׁמִטָּה וּשְׁמִטָּה בִּזְמַנָּהּ (ספרא): והיו לך ימי שבע וגו'. מַגִּיד לְךָ, שֶׁאַעַ"פִּ שֶׁלֹּא עָשִׂיתָ שְׁמִטּוֹת, עֲשֵׂה יוֹבֵל לְסוֹף מ"ט שָׁנָה; וּפְשׁוּטוֹ שֶׁל מִקְרָא: יַעֲלֶה לְךָ חֶשְׁבּוֹן שְׁנוֹת הַשְּׁמִטּוֹת לְמִסְפַּר מ"ט:
והעברת. לְשׁוֹן "וַיַּעֲבִירוּ קוֹל בַּמַּחֲנֶה" (שמות ל"ו), לְשׁוֹן הַכְרָזָה (ראש השנה ל"ד): ביום הכפרים. מִמַּשְׁמָע שֶׁנֶּאֱמַר בְּיוֹם הַכִּפּוּרִים, אֵינִי יוֹדֵעַ שֶׁהוּא בֶּעָשׂוֹר לַחֹדֶשׁ? אִם כֵּן לָמָּה נֶאֱמַר בעשור לחדש? אֶלָּא לוֹמַר לְךָ, תְּקִיעַה בֶּעָשׂוֹר לַחֹדֶשׁ דּוֹחָה שַׁבָּת בְּכָל אַרְצְכֶם, וְאֵין תְּקִיעַת רֹאשׁ הַשָּׁנָה דּוֹחָה שַׁבָּת בְּכָל אַרְצְכֶם אֶלָּא בְּבֵית דִּין בִּלְבָד (ספרא):
וקדשתם. בִּכְנִיסָתָהּ מְקַדְּשִׁין אוֹתָהּ בְּבֵית דִּין, וְאוֹמְרִים מְקֻדֶּשֶׁת הַשָּׁנָה (ראש השנה כ"ד): וקראתם דרור. לָעֲבָדִים, בֵּין נִרְצַע בֵּין שֶׁלֹּא כָלוּ לוֹ שֵׁשׁ שָׁנִים מִשֶּׁנִּמְכַּר: אָמַר רַבִּי יְהוּדָה מַהוּ לְשׁוֹן דְּרוֹר? כִּמְדַיַּר בֵּי דַיְרָא וְכוּ' — שֶׁדָּר בְּכָל מָקוֹם שֶׁהוּא רוֹצֶה וְאֵינוֹ בִרְשׁוּת אֲחֵרִים (ספרא; ראש השנה ט'): יובל הוא. שָׁנָה זֹאת מֻבְדֶּלֶת מִשְּׁאָר שָׁנִים בִּנְקִיבַת שֵׁם לָהּ לְבַדָּהּ, וּמַה שְּׁמָהּ? יוֹבֵל שְׁמָהּ, עַל שֵׁם תְּקִיעַת שׁוֹפָר: ושבתם איש אל אחזתו. שֶׁהַשָּׂדוֹת חוֹזְרוֹת לְבַעְלֵיהֶן: ואיש אל משפחתו תשבו. לְרַבּוֹת אֶת הַנִּרְצָע (קידושין ט"ו):
יובל הוא שנת החמשים שנה. מַה תַּ"לֹ? לְפִי שֶׁנֶּאֱמַר וְקִדַּשְׁתֶּם וְגוֹ' כִּדְאִיתָא בְּרֹאשׁ הַשָּׁנָה (דף ח') וּבְתֹ"כֹּ: את נזריה. אֶת הָעֲנָבִים הַמְשֻׁמָּרִים, אֲבָל בּוֹצֵר אַתָּה מִן הַמֻּפְקָרִים; כְּשֵׁם שֶׁנֶּאֱמַר בַּשְּׁבִיעִית כָּךְ נֶאֱמַר בַּיּוֹבֵל, נִמְצְאוּ שְׁתֵּי שָׁנִים קְדוֹשׁוֹת סְמוּכוֹת זוֹ לָזוֹ — שְׁנַת מ"ט שְׁמִטָּה, וּשְׁנַת הַחֲמִשִּׁים יוֹבֵל:
קדש תהיה לכם. תּוֹפֶסֶת דָּמֶיהָ כְּהֶקְדֵּשׁ, יָכוֹל תֵּצֵא הִיא לְחֻלִּין, תַּ"לֹ תהיה — בַּהֲוָיָתָהּ תְּהֵא (ספרא; סוכה מ'): מן השדה תאכלו. עַ"יְ הַשָּׂדֶה אַתָּה אוֹכֵל מִן הַבַּיִת, שֶׁאִם כָּלָה לַחַיָּה מִן הַשָּׂדֶה, אַתָּה צָרִיךְ לְבַעֵר מִן הַבַּיִת; כְּשֵׁם שֶׁנֶּאֱמַר בַּשְּׁבִיעִית כָּךְ נֶאֱמַר בַּיּוֹבֵל (ספרא):
תשבו איש אל אחזתו. וַהֲרֵי כְבָר נֶאֱמַר וְשַׁבְתֶּם אִישׁ אֶל אֲחֻזָּתוֹ? אֶלָּא לְרַבּוֹת הַמּוֹכֵר שָׂדֵהוּ וְעָמַד בְּנוֹ וּגְאָלָהּ שֶׁחוֹזֶרֶת לְאָבִיו בַּיּוֹבֵל (שם):
וכי תמכרו וגו'. לְפִי פְשׁוּטוֹ כְמַשְׁמָעוֹ; וְעוֹד יֵשׁ דְּרָשָׁה: מִנַּיִן כְּשֶׁאַתָּה מוֹכֵר, מְכֹר לְיִשְׂרָאֵל חֲבֵרְךָ? תַּ"לֹ וְכִי תִמְכְּרוּ מִמְכָּר — לַעֲמִיתְךָ מְכֹר, וּמִנַּיִן שֶׁאִם בָּאתָ לִקְנוֹת קְנֵה מִיִּשְׂרָאֵל חֲבֵרְךָ? תַּ"לֹ אוֹ קָנֹה — מִיַּד עֲמִיתֶךָ (ספרא): אל תונו. זוֹ אוֹנָאַת מָמוֹן (בבא מציעא נ"ח):
במספר שנים אחר היובל תקנה. זֶהוּ פְשׁוּטוֹ לְיַשֵּׁב הַמִּקְרָא עַל אָפְנָיו: עַל הָאוֹנָאָה בָּא לְהַזְהִיר, כְּשֶׁתִּמְכֹּר אוֹ תִקְנֶה קַרְקַע, דְּעוּ כַּמָּה שָׁנִים יֵשׁ עַד הַיּוֹבֵל, וּלְפִי הַשָּׁנִים וּתְבוּאוֹת הַשָּׂדֶה שֶׁהִיא רְאוּיָה לַעֲשׂוֹת יִמְכֹּר הַמּוֹכֵר וְיִקְנֶה הַקּוֹנֶה, שֶׁהֲרֵי סוֹפוֹ לְהַחֲזִירָהּ לוֹ בִּשְׁנַת הַיּוֹבֵל, אִם יֵשׁ שָׁנִים מֻעָטוֹת וְזֶה מוֹכְרָהּ בְּדָמִים יְקָרִים, הֲרֵי נִתְאַנָּה לוֹקֵחַ, וְאִם יֵשׁ שָׁנִים מְרֻבּוֹת וְאָכַל מִמֶּנָּה תְּבוּאוֹת הַרְבֵּה, הֲרֵי נִתְאַנָּה מוֹכֵר, לְפִיכָךְ צָרִיךְ לִקְנוֹתָהּ לְפִי הַזְּמַן, וְזֶהוּ שֶׁנֶּאֱמַר בְּמִסְפַּר שְׁנֵי תְבוּאֹת יִמְכָּר לָךְ — לְפִי מִנְיַן שְׁנֵי הַתְּבוּאוֹת שֶׁתְּהֵא עוֹמֶדֶת בְּיַד הַלּוֹקֵחַ תִּמְכֹּר לוֹ. וְרַבּוֹתֵינוּ דָרְשׁוּ מִכָּאן שֶׁהַמּוֹכֵר שָׂדֵהוּ אֵינוֹ רַשַּׁאי לִגְאֹל פָּחוֹת מִשְׁתֵּי שָׁנִים — שֶׁתַּעֲמֹד שְׁתֵּי שָׁנִים בְּיַד הַלּוֹקֵחַ מִיּוֹם לְיוֹם, וַאֲפִלּוּ יֵשׁ שָׁלוֹשׁ תְּבוּאוֹת בְּאוֹתָן שְׁתֵּי שָׁנִים, כְּגוֹן שֶׁמְּכָרָהּ לוֹ בְּקָמוֹתֶיהָ; וּשְׁנֵי אֵינוֹ יוֹצֵא מִפְּשׁוּטוֹ — כְּלוֹמַר מִסְפַּר שָׁנִים שֶׁל תְּבוּאוֹת וְלֹא שֶׁל שִׁדָּפוֹן, וּמִעוּט שָׁנִים שְׁנַיִם (ספרא; ערכין כ"ט):
תרבה מקנתו. תִּמְכְּרֶנָּה בְיֹקֶר: תמעיט מקנתו. תַּמְעִיט בְּדָמֶיהָ:
ולא תונו איש את עמיתו. כָּאן הִזְהִיר עַל אוֹנָאַת דְּבָרִים, שֶׁלֹּא יַקְנִיט אֶת חֲבֵרוֹ וְלֹא יַשִּׂיאֶנּוּ עֵצָה שֶׁאֵינָהּ הוֹגֶנֶת לוֹ, לְפִי דַּרְכּוֹ וַהֲנָאָתוֹ שֶׁל יוֹעֵץ, וְאִ"תֹּ מִי יוֹדֵעַ אִם נִתְכַּוַּנְתִּי לְרָעָה? לְכָךְ נֶאֱמַר וְיָרֵאתָ מֵּאֱלֹהֶיךָ — הַיּוֹדֵעַ מַחֲשָׁבוֹת הוּא יוֹדֵעַ. כָּל דָּבָר הַמָּסוּר לַלֵּב, שֶׁאֵין מַכִּיר אֶלָּא מִי שֶׁהַמַּחֲשָׁבָה בְלִבּוֹ, נֶאֱמַר בּוֹ וְיָרֵאתָ מֵּאֱלֹהֶיךָ (ספרא; בבא מציעא נ"ח):
וישבתם על הארץ לבטח. שֶׁבַּעֲוֹן שְׁמִטָּה יִשְׂרָאֵל גּוֹלִים, שֶׁנֶּאֱמַר "אָז תִּרְצֶה הָאָרֶץ אֶת שַׁבְּתֹתֶיהָ, וְהִרְצָת אֶת שַׁבְּתֹתֶיהָ" (ויקרא כ"ו), וְשִׁבְעִים שָׁנָה שֶׁל גָּלוּת בָּבֶל כְּנֶגֶד שִׁבְעִים שְׁמִטּוֹת שֶׁבִּטְּלוּ הָיוּ:
ונתנה הארץ וגו', וישבתם לבטח עליה. שֶׁלֹּא תִדְאֲגוּ מִשְּׁנַת בַּצֹּרֶת: ואכלתם לשבע. אַף בְּתוֹךְ הַמֵּעַיִם תְּהֵא בוֹ בְּרָכָה (עי' ספרא):
ולא נאסף. אֶל הַבַּיִת: את תבואתנו. כְּגוֹן יַיִן וּפֵרוֹת הָאִילָן וּסְפִיחִין הַבָּאִים מֵאֵלֵיהֶם:
לשלש השנים. לִקְצָת הַשִּׁשִּׁית — מִנִּיסָן וְעַד רֹ"הַ, וְלַשְּׁבִיעִית, וְלַשְּׁמִינִית, שֶׁיִּזְרְעוּ בַשְּׁמִינִית בְּמַרְחֶשְׁוָן וְיִקְצְרוּ בְנִיסָן:
עד השנה התשיעת. עַד חַג הַסֻּכּוֹת שֶׁל תְּשִׁיעִית, שֶׁהוּא עֵת בֹּא תְּבוּאָתָהּ שֶׁל שְׁמִינִית לְתוֹךְ הַבַּיִת, שֶׁכָּל יְמוֹת הַקַּיִץ הָיוּ בַשָּׂדֶה בַּגְּרָנוֹת, וּבְתִשְׁרֵי הוּא עֵת הָאָסִיף לַבַּיִת; וּפְעָמִים שֶׁהָיְתָה צְרִיכָה לַעֲשׂוֹת לְאַרְבַּע שָׁנִים — בַּשִּׁשִּׁית שֶׁלִּפְנֵי הַשְּׁמִטָּה הַשְּׁבִיעִית, שֶׁהֵן בְּטֵלִין מֵעֲבוֹדַת קַרְקַע שְׁתֵּי שָׁנִים רְצוּפוֹת — הַשְּׁבִיעִית וְהַיּוֹבֵל, וּמִקְרָא זֶה נֶאֱמַר בִּשְׁאָר הַשְּׁמִטּוֹת כֻּלָּן:
והארץ לא תמכר. לִתֵּן לָאו עַל חֲזָרַת שָׂדוֹת לַבְּעָלִים בַּיּוֹבֵל, שֶׁלֹּא יְהֵא הַלּוֹקֵחַ כּוֹבְשָׁהּ: לצמתת. לִפְסִיקָה, לִמְכִירָה פְסוּקָה עוֹלָמִית: כי לי הארץ. אַל תֵּרַע עֵינְךָ בָהּ שֶׁאֵינָהּ שֶׁלְּךָ (ספרא):
ובכל ארץ אחזתכם. לְרַבּוֹת בָּתִּים וְעֶבֶד עִבְרִי, וְדָבָר זֶה מְפֹרָשׁ בְּקִדּוּשִׁין בְּפֶרֶק רִאשׁוֹן (דף כ"א). וּלְפִי פְשׁוּטוֹ סָמוּךְ לְפָרָשָׁה שֶׁלְּאַחֲרָיו, שֶׁהַמּוֹכֵר אֲחֻזָּתוֹ רַשָּׁאִי לְגָאֳלָהּ לְאַחַר שְׁתֵּי שָׁנִים, אוֹ הוּא אוֹ קְרוֹבוֹ, וְאֵין הַלּוֹקֵחַ יָכוֹל לְעַכֵּב:
כי ימוך אחיך ומכר. מְלַמֵּד שֶׁאֵין אָדָם רַשַּׁאי לִמְכֹּר שָׂדֵהוּ אֶלָּא מֵחֲמַת דֹּחַק עֹנִי (עי' ספרא): מאחזתו. וְלֹא כֻּלָּהּ, לִמֵּד דֶּרֶךְ אֶרֶץ, שֶׁיְּשַׁיֵּר שָׂדֶה לְעַצְמוֹ: וגאל את ממכר אחיו. וְאֵין הַלּוֹקֵחַ יָכוֹל לְעַכֵּב:
ואיש כי לא יהיה לו גאל. וְכִי יֵשׁ לְךָ אָדָם בְּיִשְֹרָאֵל שֶׁאֵין לוֹ גּוֹאֲלִים? אֶלָּא גּוֹאֵל שֶׁיּוּכַל לִגְאֹל מִמְכָּרוֹ (קידושין כ"א):
וחשב את שני ממכרו. "כַּמָּה שָׁנִים הָיוּ עַד הַיּוֹבֵל? כָּךְ וְכָךְ, וּבְכַמָּה מְכַרְתִּיהָ לְךָ? בְּכָךְ וְכָךְ, עָתִיד הָיִיתָ לְהַחֲזִירָהּ בַּיּוֹבֵל, נִמְצֵאתָ קוֹנֶה מִסְפַּר הַתְּבוּאוֹת כְּפִי חֶשְׁבּוֹן שֶׁל כָּל שָׁנָה, אָכַלְתָּ אוֹתָהּ שָׁלוֹשׁ שָׁנִים אוֹ אַרְבַּע, הוֹצֵא אֶת דְּמֵיהֶן מִן הַחֶשְׁבוֹן וְטֹל אֶת הַשְּׁאָר"; וְזֶהוּ וְהֵשִׁיב אֶת הָעֹדֵף בִּדְמֵי הַמֶּקַח עַל הָאֲכִילָה שֶׁאֲכָלָהּ וְיִתְּנֵם לַלּוֹקֵחַ: לאיש אשר מכר לו. הַמּוֹכֵר הַזֶּה שֶׁבָּא לְגָאֳלָהּ:
די השיב לו. מִכָּאן שֶׁאֵינוֹ גוֹאֵל לַחֲצָאִין (ספרא; ערכין ל'): עד שנת היובל. שֶׁלֹּא יִכָּנֵס לְתוֹךְ אוֹתָהּ שָׁנָה כְּלוּם, שֶׁהַיּוֹבֵל מְשַׁמֵּט בִּתְחִלָּתוֹ (ספרא; ערכין כ"ח):
בית מושב עיר חומה. בַּיִת בְּתוֹךְ עִיר הַמֻּקֶּפֶת חוֹמָה מִימוֹת יְהוֹשֻׁעַ בִּן נוּן (ספרא): והיתה גאלתו. לְפִי שֶׁנֶּאֱמַר בְּשָׂדֶה שֶׁיָּכוֹל לְגָאֳלָהּ מִשְּׁתֵי שָׁנִים וָאֵילָךְ כָּל זְמַן שֶׁיִּרְצֶה, וּבְתוֹךְ שְׁתֵּי שָׁנִים הָרִאשׁוֹנִים אֵינוֹ יָכוֹל לְגָאֳלָהּ, הֻצְרַךְ לְפָרֵט בָּזֶה שֶׁהוּא חִלּוּף — שֶׁאִם רָצָה לִגְאֹל בְּשָׁנָה רִאשׁוֹנָה גּוֹאֲלָהּ, וּלְאַחַר מִכָּאן אֵינוֹ גוֹאֲלָהּ: והיתה גאלתו. שֶׁל בַּיִת: ימים. יְמֵי שָׁנָה שְׁלֵמָה קְרוּיִים יָמִים, וְכֵן "תֵּשֵׁב הַנַּעֲרָה אִתָּנוּ יָמִים" (בראשית כ"ד):
וקם הבית … צמיתת. יָצָא מִכֹּחוֹ שֶׁל מוֹכֵר וְעוֹמֵד בְּכֹחוֹ שֶׁל קוֹנֶה: אשר לא חמה. "לוֹ" קָרֵינָן, אָמְרוּ רַבּוֹתֵינוּ זִ"לִ אַעַ"פִּ שֶׁאֵין לוֹ עַכְשָׁיו הוֹאִיל וְהָיְתָה לוֹ קֹדֶם לָכֵן; וְעִיר נְקֵבָה הִיא, וְהֻצְרַךְ לִכְתֹּב "לָהּ", אֶלָּא מִתּוֹךְ שֶׁצָּרִיךְ לִכְתֹּב "לֹא" בִּפְנִים, תִּקְּנוּ "לוֹ" בַּמָּסֹרֶת — זֶה נוֹפֵל עַל זֶה: לא יצא ביבל. אָמַר רַב סַפְרָא אִם פָּגַע בּוֹ יוֹבֵל בְּתוֹךְ שְׁנָתוֹ לֹא יֵצֵא (עי' ערכין ל"א):
ובתי החצרים. כְּתַרְגּוּמוֹ "פַּצְחִין" — עֲיָרוֹת פְּתוּחוֹת מֵאֵין חוֹמָה, וְיֵשׁ הַרְבֵּה בְּסֵפֶר יְהוֹשֻׁעַ, "הֶעָרִים וְחַצְרֵיהֶם" (יהושע י"ג), "בְּחַצְרֵיהֶם וּבְטִירֹתָם" (בראשית כ"ה): על שדה הארץ יחשב. הֲרֵי הֵן כְּשָׂדוֹת, הַנִּגְאָלִים עַד הַיּוֹבֵל וְיוֹצְאִין בַּיּוֹבֵל לַבְּעָלִים אִם לֹא נִגְאֲלוּ: גאלה תהיה לו. מִיָּד, אִם יִרְצֶה, וּבָזֶה יָפֶה כֹחוֹ מִכֹּחַ שָׂדוֹת, שֶׁהַשָּׂדוֹת אֵין נִגְאֲלוֹת עַד שְׁתֵּי שָׁנִים (ערכין ל"ג): וביבל יצא. בְּחִנָּם:
וערי הלוים. אַרְבָּעִים וּשְׁמוֹנֶה עִיר שֶׁנִתְּנוּ לָהֶם: גאלת עולם. גּוֹאֵל מִיָּד, אֲפִלּוּ לִפְנֵי שְׁתֵּי שָׁנִים, אִם מָכְרוּ שָׂדֶה מִשְּׂדוֹתֵיהֶם הַנְּתוּנוֹת לָהֶם בְּאַלְפַּיִם אַמָּה סְבִיבוֹת הֶעָרִים, אוֹ אִם מָכְרוּ בַיִת בְּעִיר חוֹמָה, גּוֹאֲלִין לְעוֹלָם וְאֵינוֹ חָלוּט לְסוֹף שָׁנָה (שם):
ואשר יגאל מן הלוים. וְאִם יִקְנֶה בַיִת אוֹ עִיר מֵהֶם וְיֵצֵא בַיּוֹבֵל אוֹתוֹ מִמְכָּר שֶׁל בַּיִת אוֹ שֶׁל עִיר וְיָשׁוּב לַלֵּוִי שֶׁמְּכָרוֹ, וְלֹא יִהְיֶה חָלוּט כִּשְׁאָר בָּתֵּי עָרֵי חוֹמָה שֶׁל יִשְׂרָאֵל, וּגְאֻלָּה זוֹ לְשׁוֹן מְכִירָה; דָּ"אַ, לְפִי שֶׁנֶּאֱמַר גְּאֻלַּת עוֹלָם תִּהְיֶה לַלְוִיִּם, יָכוֹל לֹא דִּבֵּר הַכָּתוּב אֶלָּא בְּלוֹקֵחַ יִשְׂרָאֵל שֶׁקָּנָה בַיִת בְּעָרֵי הַלְוִיִּם, אֲבָל לֵוִי שֶׁקָּנָה מִלֵּוִי, יִהְיֶה חָלוּט, תַּ"לֹ וַאֲשֶׁר יִגְאַל מִן הַלְוִיִּם — אַף הַגּוֹאֵל מִיַּד לֵוִי גּוֹאֵל גְּאֻלַּת עוֹלָם: ויצא ממכר בית. הֲרֵי זוֹ מִצְוָה אַחֶרֶת, וְאִם לֹא גְאָלָהּ, יוֹצְאָה בַיּוֹבֵל וְאֵינוֹ נֶחְלָט לְסוֹף שָׁנָה כְּבַיִת שֶׁל יִשְֹרָאֵל: כי בתי ערי הלוים הוא אחזתם. לֹא הָיָה לָהֶם נַחֲלַת שָׂדוֹת וּכְרָמִים, אֶלָּא עָרִים לָשֶׁבֶת וּמִגְרְשֵׁיהֶם, לְפִיכָךְ הֵם לָהֶם בִּמְקוֹם שָׂדוֹת, וְיֵשׁ לָהֶם גְּאֻלָּה כְשָׂדוֹת, כְּדֵי שֶׁלֹּא תֻּפְקַע נַחֲלָתָם מֵהֶם:
ושדה מגרש עריהם לא ימכר. מֶכֶר גִּזְבָּר, שֶׁאִם הִקְדִּישׁ בֶּן לֵוִי אֶת שָׂדֵהוּ וְלֹא גְאָלָהּ וּמְכָרָהּ גִּזְבָּר, אֵינָהּ יוֹצְאָה לַכֹּהֲנִים בַּיּוֹבֵל כְּמוֹ שֶׁנֶּאֱמַר בְּיִשְׂרָאֵל וְאִם מָכַר אֶת הַשָּׂדֶה לְאִישׁ אַחֵר לֹא יִגָּאֵל עוֹד (ויקרא כ"ז), אֲבָל בֶּן לֵוִי גּוֹאֵל לְעוֹלָם:
והחזקת בו. אַל תַּנִּיחֵהוּ שֶׁיֵּרֵד וְיִפֹּל וְיִהְיֶה קָשֶׁה לַהֲקִימוֹ, אֶלָּא חַזְּקֵהוּ מִשְּׁעַת מוֹטַת הַיָּד; לְמָה זֶה דוֹמֶה? לְמַשּׂאוֹי שֶׁעַל הַחֲמוֹר, עוֹדֵהוּ עַל הַחֲמוֹר אֶחָד תּוֹפֵס בּוֹ וּמַעֲמִידוֹ, נָפַל לָאָרֶץ, חֲמִשָּׁה אֵין מַעֲמִידִין אוֹתוֹ: גר ותושב. אַף אִם הוּא גֵּר אוֹ תוֹשָׁב; וְאֵיזֶהוּ תוֹשָׁב? כָּל שֶׁקִּבֵּל עָלָיו שֶׁלֹּא לַעֲבֹד עֲ"זָ וְאוֹכֵל נְבֵלוֹת (עי' ספרא):
נשך ותרבית. חַד שַׁוִּינְהוּ רַבָּנָן, וְלַעֲבֹר עָלָיו בִּשְׁנֵי לָאוִין (בבא מציעא ס'): ויראת מאלהיך. לְפִי שֶׁדַּעְתּוֹ שֶׁל אָדָם נִמְשֶׁכֶת אַחַר הָרִבִּית, וְקָשֶׁה לִפְרֹשׁ הֵימֶנּוּ, וּמוֹרֶה לְעַצְמוֹ הֶתֵּר בִּשְׁבִיל מְעוֹתָיו שֶׁהָיוּ בְטֵלוֹת אֶצְלוֹ, הֻצְרַךְ לוֹמַר וְיָרֵאתָ מֵּאֱלֹהֶיךָ, אוֹ הַתּוֹלֶה מְעוֹתָיו בְּגוֹי כְּדֵי לְהַלְווֹתָם לְיִשְֹרָאֵל בְּרִבִּית, הֲרֵי זֶה דָבָר הַמָּסוּר לְלִבּוֹ שֶׁל אָדָם וּמַחֲשַׁבְתּוֹ, לְכָךְ הֻצְרַךְ לוֹמַר וְיָרֵאתָ מֵּאֱלֹהֶיךָ (שם ס"א):

אשר הוצאתי וגו'. וְהִבְחַנְתִּי בֵין בְּכוֹר לְשֶׁאֵינוֹ בְכוֹר, אַף אֲנִי יוֹדֵעַ וְנִפְרָע מִן הַמַּלְוֶה מָעוֹת לְיִשְׂרָאֵל בְּרִבִּית וְאוֹמֵר שֶׁל גּוֹי הֵם; דָּ"אַ: אֲשֶׁר הוֹצֵאתִי אֶתְכֶם מֵאֶרֶץ מִצְרַיִם עַל מְנָת שֶׁתְּקַבְּלוּ עֲלֵיכֶם מִצְוֹתַי, וַאֲפִלּוּ הֵן כְּבֵדוֹת עֲלֵיכֶם: לתת לכם את ארץ כנען. בִּשְׂכַר שֶׁתְּקַבְּלוּ מִצְוֹתַי: להיות לכם לאלהים. שֶׁכָּל הַדָּר בְּאֶרֶץ יִשְׂרָאֵל אֲנִי לוֹ לֵאלֹהִים וְכָל הַיּוֹצֵא מִמֶּנָּה כְּעוֹבֵד עַ"זָ (ספרא; כתובות ק"י):
עבדת עבד. עֲבוֹדָה שֶׁל גְּנַאי שֶׁיְּהֵא נִכָּר בָּהּ כְּעֶבֶד, שֶׁלֹּא יוֹלִיךְ כֵּלָיו אַחֲרָיו לְבֵית הַמֶּרְחָץ וְלֹא יַנְעִיל לוֹ מִנְעָלָיו (עי' ספרא):
כשכיר כתושב. עֲבוֹדַת קַרְקַע וּמְלֶאכֶת אֻמָּנוּת כִּשְׁאָר שְׂכִירִים הִתְנַהֵג בּוֹ: עד שנת היבל. אִם פָּגַע בּוֹ יוֹבֵל לִפְנֵי שֵׁשׁ שָׁנִים הַיּוֹבֵל מוֹצִיאוֹ:
הוא ובניו עמו. אָמַר רַ' שִׁמְעוֹן אִם הוּא נִמְכַּר, בָּנָיו מִי מְכָרָן? אֶלָּא מִכָּאן שֶׁרַבּוֹ חַיָּב בִּמְזוֹנוֹת בָּנָיו (קידושין כ"ב): ואל אחזת אבתיו. אֶל כְּבוֹד אֲבוֹתָיו, וְאֵין לְזַלְזְלוֹ בְּכָךְ (ספרא; מכילתא י"ג): אחזת. חֲזָקַת:
כי עבדי הם. שְׁטָרִי קוֹדֵם (ספרא): לא ימכרו ממכרת עבד. בְּהַכְרָזָה — "כָּאן יֵשׁ עֶבֶד לִמְכֹּר" וְלֹא יַעֲמִידֶנּוּ עַל אֶבֶן הַלֶּקַח (ספרא):
לא תרדה בו בפרך. מְלָאכָה שֶׁלֹּא לְצֹרֶךְ, כְּדֵי לְעַנּוֹתוֹ, אַל תֹּאמַר לוֹ, הָחֵם לִי אֶת הַכּוֹס הַזֶּה וְהוּא אֵינוֹ צָרִיךְ, עֲדֹר תַּחַת הַגֶּפֶן עַד שֶׁאָבֹא; שֶׁמָּא תֹאמַר אֵין מַכִּיר בַּדָּבָר אִם לְצֹרֶךְ אִם לָאו, וְאוֹמֵר אֲנִי לוֹ שֶׁהוּא לְצֹרֶךְ, הֲרֵי הַדָּבָר הַזֶּה מָסוּר לְלִבּוֹ, לְכָךְ נֶאֱמַר "וְיָרֵאתָ" (שם):
ועבדך ואמתך אשר יהיו לך. אִם תֹּאמַר אִם כֵּן בְּמָה אֶשְׁתַּמֵּשׁ? בַּעֲבָדַי אֵינִי מוֹשֵׁל, בָּאֻמּוֹת אֵינִי נוֹחֵל, שֶׁהֲרֵי הִזְהַרְתַּנִי לֹא תְחַיֶּה כָּל נְשָׁמָה, אֶלָּא מִי יְשַׁמְּשֵׁנִי? מאת הגוים. הֵם יִהְיוּ לְךָ לַעֲבָדִים (שם): אשר סביבתיכם. וְלֹא שֶׁבְּתוֹךְ גְּבוּל אַרְצְכֶם, שֶׁהֲרֵי בָהֶם אָמַרְתִּי לֹא תְחַיֶּה כָּל נְשָׁמָה:
וגם מבני התושבים. שֶׁבָּאוּ מִסְּבִיבוֹתֵיכֶם לִשָּׂא נָשִׁים בְּאַרְצְכֶם, וְיָלְדוּ לָהֶם, הַבֵּן הוֹלֵךְ אַחַר הָאָב, וְאֵינוֹ בִּכְלַל לֹא תְחַיֶּה, אֶלָּא אַתָּה מֻתָּר לִקְנוֹתוֹ כְּעֶבֶד (קידושין כ"ז): מהם תקנו. אוֹתָם תִּקְנוּ:
והתנחלתם אתם לבניכם. הַחֲזִיקוּ בָהֶם לְנַחֲלָה לְצֹרֶךְ בְּנֵיכֶם אַחֲרֵיכֶם; וְלֹא יִתָּכֵן לְפָרֵשׁ הַנְחִילוּם לִבְנֵיכֶם, שֶׁאִם כֵּן הָיָה לוֹ לִכְתֹּב "וְהִנְחַלְתֶּם" אוֹתָם לִבְנֵיכֶם, וְהִתְנַחַלְתֶּם כְּמוֹ וְהִתְחַזַּקְתֶּם: איש באחיו. לְהָבִיא נָשִׂיא בְעַמָּיו וּמֶלֶךְ בִּמְשָׁרְתָיו שֶׁלֹּא לִרְדּוֹת בְּפָרֶךְ:
יד גר ותושב. גֵּר וְהוּא תוֹשָׁב, כְּתַרְגּוּמוֹ עָרֵל תוֹתָב, וְסוֹפוֹ מוֹכִיח — וְנִמְכַּר "לְגֵר תּוֹשָׁב": וכי תשיג יד גר ותושב עמך. מִי גָּרַם לוֹ שֶׁיַּעֲשִׁיר? דִּבּוּקוֹ עִמְּךָ. ומך אחיך עמו. מִי גָּרַם לוֹ שֶׁיָּמוּךְ? דִּבּוּקוֹ עִמּוֹ, עַל יְדֵי שֶׁלָּמַד מִמַּעֲשָׂיו: משפחת גר. זֶה הַגּוֹי, כְּשֶׁהוּא אוֹמֵר לְעֵקֶר, זֶה הַנִּמְכָּר לְעֲ"זַ עַצְמָהּ, לִהְיוֹת לָהּ שַׁמָּשׁ, וְלֹא לֶאֱלֹהוּת אֶלָּא לַחֲטֹב עֵצִים וְלִשְׁאֹב מַיִם (ספרא; בבא קמא קי"ג):
גאלה תהיה לו. מִיָּד, אַל תַּנִּיחֵהוּ שֶׁיִּטָּמַע:

עד שנת היבל. שֶׁהֲרֵי כָל עַצְמוֹ לֹא קְנָאוֹ אֶלָּא לְעָבְדוֹ עַד הַיּוֹבֵל, שֶׁהֲרֵי בַיּוֹבֵל יֵצֵא, כְּמוֹ שֶׁנֶּאֱמַר לְמַטָּה וְיָצָא בִּשְׁנַת הַיֹּבֵל; וּבְגוֹי שֶׁתַּחַת יָדְךָ הַכָּתוּב מְדַבֵּר (ספרא; קידושין ט"ז), וְאַעַפִּ"כֵ לֹא תָבֹא עָלָיו בַּעֲקִיפִין מִפְּנֵי חִלּוּל הַשֵּׁם (בבא קמא קי"ג), אֶלָּא כְּשֶׁבָּא לִגָּאֵל, יְדַקְדֵּק בַּחֶשְׁבּוֹן, לְפִי הַמַּגִּיעַ בְּכָל שָׁנָה וְשָׁנָה יְנַכֶּה לוֹ הַגּוֹי מִן דָּמָיו, אִם הָיוּ עֶשְׂרִים שָׁנָה מִשֶּׁנִמְכַּר עַד הַיּוֹבֵל, וּקְנָאוֹ בְּעֶשְׂרִים מָנֶה, נִמְצָא שֶׁקָּנָה הַגּוֹי עֲבוֹדַת שָׁנָה בְּמָנֶה, וְאִם שָׁהָה זֶה אֶצְלוֹ חָמֵשׁ שָׁנִים, וּבָא לִגָּאֵל, יְנַכֶּה לוֹ חֲמִשָּׁה מָנִים, וְיִתֵּן לוֹ הָעֶבֶד ט"ו מָנִים, וְזֶהוּ והיה כסף ממכרו במספר שנים : כימי שכיר יהיה עמו — חֶשְׁבּוֹן הַמַּגִּיעַ לְכָל שָׁנָה וְשָׁנָה יַחֲשֹׁב, כְּאִלּוּ נִשְׂכַּר עִמּוֹ כָּל שָׁנָה בְּמָנֶה, וִינַכֶּה לוֹ:
אם עוד רבות בשנים. עַד הַיּוֹבֵל: לפיהן. הַכֹּל כְּמוֹ שֶׁפֵּרַשְׁתִּי:

לא ירדנו בפרך לעיניך. כְּלוֹמַר וְאַתָּה רוֹאֶה (ספרא):
ואם לא יגאל באלה. בְּאֵלֶּה הוּא נִגְאָל וְאֵינוֹ נִגְאָל בְּשֵׁשׁ (קידושין ט"ו): הוא ובניו עמו. הַגּוֹי חַיָּב בִּמְזוֹנוֹת בָּנָיו:
כי לי בני ישראל עבדים. שְׁטָרִי קוֹדֵם: אני ה' אלהיכם. כָּל הַמְשַׁעְבְּדָן מִלְּמַטָּה כְּאִלּוּ מְשַׁעְבְּדוֹ מִלְמַעְלָה (ספרא):