
דבר אל כל עדת בני ישראל. מְלַמֵּד שֶׁנֶּאֶמְרָה פָרָשָׁה זוֹ בְּהַקְהֵל מִפְּנֵי שֶׁרֹב גּוּפֵי תוֹרָה תְלוּיִּין בָּהּ (ספרא): קדשים תהיו. הֱווּ פְרוּשִׁים מִן הָעֲרָיוֹת וּמִן הָעֲבֵרָה, שֶׁכָּל מָקוֹם שֶׁאַתָּה מוֹצֵא גֶדֶר עֶרְוָה אַתָּה מוֹצֵא קְדֻשָּׁה, אִשָּׁה זֹנָה וַחֲלָלָה וְגוֹ' אֲנִי ה' מְקַדִּשְׁכֶם (ויקרא כ"א), וְלֹא יְחַלֵּל זַרְעוֹ, אֲנִי ה' מְקַדְּשׁוֹ (שם), קְדֹשִׁים יִהְיוּ, אִשָּׁה זֹנָה וַחֲלָלָה (שם):
איש אמו ואביו תיראו. כָּל אֶחָד מִכֶּם תִּירְאוּ אָבִיו וְאִמּוֹ, זֶהוּ פְשׁוּטוֹ; וּמִדְרָשׁוֹ: אֵין לִי אֶלָּא אִישׁ, אִשָּׁה מִנַּיִן? כְּשֶׁהוּא אוֹמֵר תִּירָאוּ הֲרֵי כָאן שְׁנַיִם, אִם כֵּן לָמָּה נֶאֱמַר אִישׁ? שֶׁהָאִישׁ סֵפֶק בְּיָדוֹ לַעֲשׂוֹת אֲבָל אִשָּׁה רְשׁוּת אֲחֵרִים עָלֶיהָ (ספרא; קידושין ל'): אמו ואביו תיראו. כָּאן הִקְדִּים אֵם לָאָב, לְפִי שֶׁגָּלוּי לְפָנָיו שֶׁהַבֵּן יָרֵא אֶת אָבִיו יוֹתֵר מֵאִמּוֹ, וּבַכָּבוֹד הִקְדִּים אָב לָאֵם, לְפִי שֶׁגָּלוּי לְפָנָיו שֶׁהַבֵּן מְכַבֵּד אֶת אִמּוֹ יוֹתֵר מֵאָבִיו, מִפְּנֵי שֶׁמְּשַׁדַּלְתּוֹ בִדְבָרִים (שם): ואת שבתתי תשמרו. סָמַךְ שַׁבָּת לְמוֹרָא אָב, לוֹמַר אַף עַל פִּי שֶׁהִזְהַרְתִּיךָ עַל מוֹרָא אָב, אִם יֹאמַר לְךָ חַלֵּל אֶת הַשַּׁבָּת, אַל תִּשְׁמַע לוֹ, וְכֵן בִּשְׁאָר כָּל הַמִּצְווֹת (בבא מציעא ל"ב): אני ה' אלהיכם. אַתָּה וְאָבִיךָ חַיָּבִים בִּכְבוֹדִי, לְפִיכָךְ לֹא תִשְׁמַע לוֹ לְבַטֵּל אֶת דְּבָרַי. אֵיזֶהוּ מוֹרָא? לֹא יֵשֵׁב בִּמְקוֹמוֹ וְלֹא יְדַבֵּר בִּמְקוֹמוֹ וְלֹא יִסְתֹּר אֶת דְּבָרָיו, וְאֵיזֶהוּ כָבוֹד? מַאֲכִיל וּמַשְׁקֶה, מַלְבִּישׁ וּמַנְעִיל, מַכְנִיס וּמוֹצִיא (קידושין ל"א):
אל תפנו אל האלילם. לְעָבְדָם; אֱלִילִים לְשׁוֹן אַל — כְּלֹא הוּא חָשׁוּב: ואלהי מסכה. תְּחִלָּתָן אֱלִילִים הֵם, וְאִם אַתָּה פוֹנֶה אַחֲרֵיהֶם סוֹפְךָ עוֹשֶׂה אוֹתָם אֱלוֹהוֹת (ספרא): לא תעשו לכם. לֹא תַעֲשׂוּ לַאֲחֵרִים וְלֹא אֲחֵרִים לָכֶם; וְאִם תֹּאמַר לֹא תַעֲשׂוּ לְעַצְמְכֶם אֲבָל אֲחֵרִים עוֹשִׂין לָכֶם, הֲרֵי כְבָר נֶאֱמַר לֹא יִהְיֶה לְךָ (שמות כ') — לֹא שֶׁלְּךָ וְלֹא שֶׁל אֲחֵרִים:
וכי תזבחו וגו'. לֹא נֶאֶמְרָה פָרָשָׁה זוֹ אֶלָּא לְלַמֵּד, שֶׁלֹּא תְהֵא זְבִיחָתָן אֶלָּא עַל מְנָת לֵאָכֵל בְּתוֹךְ הַזְּמַן הַזֶּה, שֶׁאִם לִקְבֹּעַ לָהֶם זְמַן אֲכִילָה, הֲרֵי כְבָר נֶאֱמַר (ויקרא ז') וְאִם נֶדֶר אוֹ נְדָבָה זֶבַח קָרְבָּנוֹ וְגוֹ' (ספרא): לרצנכם תזבחהו. תְּחִלַּת זְבִיחָתוֹ תְּהֵא עַל מְנָת נַחַת רוּחַ — שֶׁיְּהֵא לָכֶם לְרָצוֹן, שֶׁאִם תְּחַשְּׁבוּ עָלָיו מַחֲשֶׁבֶת פְּסוּל לֹא יֵרָצֶה עֲלֵיכֶם לְפָנַי: לרצנכם. אפיי"צימנטו, זֶהוּ לְפִי פְשׁוּטוֹ; וְרַבּוֹתֵינוּ לָמְדוּ מִכָּאן לַמִּתְעַסֵּק בַּקֳּדָשִׁים שֶׁפָּסוּל, שֶׁצָּרִיךְ שֶׁיִּתְכַּוֵּן לִשְׁחֹט (זבחים מ"ז; חולין י"ג):
ביום זבחכם יאכל. כְּשֶׁתִּזְבְּחוּהוּ תִּשְׁחֲטוּהוּ עַל מְנָת זְמַן זֶה שֶׁקָּבַעְתִּי לָכֶם כְּבָר:
ואם האכל יאכל וגו'. אִם אֵינוֹ עִנְיָן לְחוּץ לִזְמַנּוֹ, שֶׁהֲרֵי כְבָר נֶאֱמַר וְאִם הֵאָכֹל יֵאָכֵל מִבְּשַׂר זֶבַח שְׁלָמָיו וְגוֹ' (ויקרא ז'), תְּנֵהוּ עִנְיָן לְחוּץ לִמְקוֹמוֹ; יָכוֹל יִהְיוּ חַיָּבִין כָּרֵת עַל אֲכִילָתוֹ, תַּ"לֹ וְהַנֶּפֶשׁ הָאֹכֶלֶת מִמֶּנּוּ עֲוֹנָהּ תִּשָּׂא, "מִמֶּנּוּ" וְלֹא מֵחֲבֵרוֹ, יָצָא הַנִּשְׁחָט בְּמַחֲשֶׁבֶת חוּץ לִמְקוֹמוֹ (זבחים כ"ח): פגול. מְתֹעָב, כְּמוֹ וּמְרַק פִּגֻּלִים כְּלֵיהֶם (ישעיהו ס"ה):
ואכליו עונו ישא. בְּנוֹתָר גָּמוּר הַכָּתוּב מְדַבֵּר, וְאֵינוֹ עָנוּשׁ כָּרֵת עַל הַנִּשְׁחָט חוּץ לִמְקוֹמוֹ, שֶׁכְּבָר מִעֲטוֹ הַכָּתוּב, וְזֶה בְּנוֹתָר גָּמוּר מְדַבֵּר, וּבְמַסֶּכֶת כָּרֵתוֹת (דף ה'), לְמָדוּהוּ מִגְּזֵרָה שָׁוָה:
לא תכלה פאת שדך. שֶׁיַּנִּיחַ פֵּאָה בְסוֹף שָׂדֵהוּ (עי' ספרא): ולקט קצירך. שִׁבֳּלִים הַנּוֹשְׁרִים בִּשְׁעַת קְצִירָה, אַחַת אוֹ שְׁתַּיִם, אֲבָל שָׁלוֹשׁ אֵינָן לֶקֶט (פאה פ"ו):
לא תעולל. לֹא תִטֹּל עוֹלֵלוֹת שֶׁבָּהּ, וְהֵן נִכָּרוֹת; אֵיזֶהוּ עוֹלֵלוֹת? כֹּל שֶׁאֵין לוֹ לֹא כָתֵף וְלֹא נָטֵף (ספרא): ופרט כרמך. גַּרְגְּרֵי עֲנָבִים הַנּוֹשְׁרִים בִּשְׁעַת בְּצִירָה: אני ה' אלהיכם. דַּיָּן לִפָּרַע; וְאֵינִי גוֹבֶה מִכֶּם אֶלָּא נְפָשׁוֹת, שֶׁנֶּאֱמַר אַל תִּגְזָל דָּל וְגוֹ' כִּי ה' יָרִיב רִיבָם וְגוֹ' (משלי כ"ב):
לא תגנבו. אַזְהָרָה לְגוֹנֵב מָמוֹן, אֲבָל לֹא תִגְנֹב שֶׁבַּעֲשֶׂרֶת הַדִּבְּרוֹת אַזְהָרָה לְגוֹנֵב נְפָשׁוֹת, דָּבָר הַלָּמֵד מֵעִנְיָנוֹ — דָּבָר שֶׁחַיָּבִין עָלָיו מִיתַת בֵּית דִּין: ולא תכחשו. לְפִי שֶׁנֶּאֱמַר (ויקרא ה'), וְכִחֶשׁ בָּהּ מְשַׁלֵּם קֶרֶן וְחֹמֶשׁ, לָמַדְנוּ עֹנֶשׁ, אַזְהָרָה מִנַּיִן? תַּ"לֹ וְלֹא תְכַחֲשׁוּ: ולא תשקרו. לְפִי שֶׁנֶּאֱמַר (שם), וְנִשְׁבַּע עַל שָׁקֶר יְשַׁלֵּם קֶרֶן וְחֹמֶשׁ, לָמַדְנוּ עֹנֶשׁ, אַזְהָרָה מִנַּיִן? תַּ"ל וְלֹא תְשַׁקְּרוּ: לא תגנבו ולא תכחשו ולא תשקרו ולא תשבעו. אִם גָּנַבְתָּ סוֹפְךָ לְכַחֵשׁ, סוֹפְךָ לְשַׁקֵּר, סוֹפְךָ לִשָּׁבַע לַשֶּׁקֶר:
ולא תשבעו בשמי. לָמָּה נֶאֱמַר? לְפִי שֶׁנֶּאֱמַר לֹא תִשָּׂא אֶת שֵׁם ה' אֱלֹהֶיךָ לַשָּׁוְא (שמות כ'), יָכוֹל לֹא יְהֵא חַיָּב אֶלָּא עַל שֵׁם הַמְיֻחָד, מִנַּיִן לְרַבּוֹת כָּל הַכִּנּוּיִין? תַּ"ל וְלֹא תִשָּׁבְעוּ בִשְׁמִי לַשָּׁקֶר — כָּל שֵׁם שֶׁיֵּשׁ לִי (ספרא):
לא תעשק. זֶה הַכּוֹבֵשׁ שְׂכַר שָׂכִיר (בבא מציעא ס"א): לא תלין. לְשׁוֹן נְקֵבָה, מוּסָב עַל הַפְּעוּלָה: עד בקר. בִּשְׂכִיר יוֹם הַכָּתוּב מְדַבֵּר, שֶׁיְּצִיאָתוֹ מִשֶּׁשָּׁקְעָה חַמָּה, לְפִיכָךְ זְמַן גִּבּוּי שְׂכָרוֹ כָּל הַלָּיְלָה, וּבְמָקוֹם אַחֵר הוּא אוֹמֵר וְלֹא תָבוֹא עָלָיו הַשֶּׁמֶשׁ (דברים כ"ד), מְדַבֵּר בִּשְֹכִיר לַיְלָה, שֶׁהַשְׁלָמַת פְּעֻלָּתוֹ מִשֶּׁיַּעֲלֶה עַמּוּד הַשַּׁחַר, לְפִיכָךְ זְמַן גִּבּוּי שְׂכָרוֹ כָּל הַיּוֹם, לְפִי שֶׁנָּתְנָה תוֹרָה זְמַן לְבַעַל הַבַּיִת עוֹנָה לְבַקֵּשׁ מָעוֹת (בבא מציעא ק"י):
לא תקלל חרש. אֵין לִי אֶלָּא חֵרֵשׁ, מִנַּיִן לְרַבּוֹת כָּל אָדָם? תַּ"ל בְּעַמְּךָ לֹא תָאֹר (שמות כ"ב), אִם כֵּן לָמָּה נֶאֱמַר חֵרֵשׁ? מַה חֵרֵשׁ מְיֻחָד שֶׁהוּא בַחַיִּים, אַף כָּל שֶׁהוּא בַחַיִּים, יָצָא הַמֵּת שֶׁאֵינוֹ בַחַיִּים (ספרא): ולפני עור לא תתן מכשול. לִפְנֵי הַסּוּמָא בְדָבָר לֹא תִתֵּן עֵצָה שֶׁאֵינָהּ הוֹגֶנֶת לוֹ, אַל תֹּאמַר מְכֹר שָׂדְךָ וְקַח לְךָ חֲמוֹר, וְאַתָּה עוֹקֵף עָלָיו וְנוֹטְלָהּ הֵימֶנּוּ (שם): ויראת מאלהיך. לְפִי שֶׁהַדָּבָר הַזֶּה אֵינוֹ מָסוּר לַבְּרִיּוֹת לֵידַע אִם דַּעְתּוֹ שֶׁל זֶה לְטוֹבָה אוֹ לְרָעָה, וְיָכוֹל לְהִשָּׁמֵט וְלוֹמַר לְטוֹבָה נִתְכַּוַּנְתִּי, לְפִיכָךְ נֶאֱמַר בּוֹ וְיָרֵאתָ מֵּאֱלֹהֶיךָ הַמַּכִּיר מַחְשְׁבוֹתֶיךָ; וְכֵן כָּל דָּבָר הַמָּסוּר לְלִבּוֹ שֶׁל אָדָם הָעוֹשֵׂהוּ וְאֵין שְׁאָר הַבְּרִיּוֹת מַכִּירוֹת בּוֹ, נֶאֱמַר בּוֹ וְיָרֵאתָ מֵּאֱלֹהֶיךָ:
לא תעשו עול במשפט. מְלַמֵּד שֶׁהַדַּיָּן הַמְקַלְקֵּל אֶת הַדִּין קָרוּי עַוָּל, שָׂנוּי וּמְשֻׁקָּץ, חֵרֶם וְתוֹעֵבָה, שֶׁהָעָוֶל קָרוּי תּוֹעֵבָה, שֶׁנֶּאֱמַר כִּי תוֹעֲבַת ה' וְגוֹ' כֹּל עֹשֵׂה עָוֶל (דברים כ"ה), וְהַתּוֹעֵבָה קְרוּיָה חֵרֶם וְשֶׁקֶץ שֶׁנֶּאֱמַר וְלֹא תָבִיא תוֹעֵבָה אֶל בֵּיתֶךָ וְהָיִיתָ חֵרֶם כָּמֹהוּ שַׁקֵּץ תְּשַׁקְּצֶנּוּ וְגוֹ' (שם ז'): לא תשא פני דל. שֶׁלֹּא תֹאמַר עָנִי הוּא זֶה, וְהֶעָשִׁיר חַיָּב לְפַרְנְסוֹ, אֲזַכֶּנּוּ בַדִּין וְנִמְצָא מִתְפַּרְנֵס בִּנְקִיּוּת (ספרא): ולא תהדר פני גדול. שֶׁלֹּא תֹאמַר עָשִׁיר הוּא זֶה, בֶּן גְּדוֹלִים הוּא זֶה, הֵיאַךְ אֲבַיְּשֶׁנּוּ וְאֶרְאֶה בְּבָשְׁתּוֹ? עֹנֶשׁ יֵשׁ בַּדָּבָר לְכָךְ נֶאֱמַר וְלֹא תֶהְדַּר פְּנֵי גָדוֹל: בצדק תשפט עמיתך. כְּמַשְׁמָעוֹ; דָּ"אַ: הֱוֵי דָן אֶת חֲבֵרְךָ לְכַף זְכוּת (שבועות ל'):
לא תלך רכיל. אֲנִי אוֹמֵר עַל שֵׁם שֶׁכָּל מְשַׁלְּחֵי מְדָנִים וּמְסַפְּרֵי לָשׁוֹן הָרַע הוֹלְכִים בְּבָתֵּי רֵעֵיהֶם לְרַגֵּל מַה יִּרְאוּ רָע, אוֹ מַה יִּשְׁמְעוּ רָע, לְסַפֵּר בַּשּׁוּק, נִקְרָאִים הוֹלְכֵי רָכִיל — הוֹלְכֵי רְגִילָה, אשפיי"מנט בְּלַעַז. וּרְאָיָה לִדְבָרַי, שֶׁלֹּא מָצִינוּ רְכִילוּת שֶׁאֵין כָּתוּב בִּלְשׁוֹן הֲלִיכָה, לֹא תֵלֵךְ רָכִיל, הֹלְכֵי רָכִיל נְחֹשֶׁת וּבַרְזֶל (ירמיהו ו'), וּשְׁאָר לָשׁוֹן הָרַע אֵין כָּתוּב בּוֹ הֲלִיכָה, מְלָשְׁנִי בַסֵּתֶר רֵעֵהוּ (תהילים ק"א), לָשׁוֹן רְמִיָּה (שם ק"כ), לָשׁוֹן מְדַבֶּרֶת גְּדֹלוֹת (שם י"ב); לְכָךְ אֲנִי אוֹמֵר שֶׁהַלָּשׁוֹן הוֹלֵךְ וּמְרַגֵּל, שֶׁהַכַּ"ף נֶחֱלֶפֶת בְּגִימֶ"ל, שֶׁכָּל הָאוֹתִיּוֹת שֶׁמּוֹצָאֵיהֶם מִמָּקוֹם אֶחָד מִתְחַלְּפוֹת זוֹ בָזוֹ, בֵּי"ת בְּפֵ"א וְגִימֶ"ל בְּכַ"ף וְקוֹ"ף, וְנוּ"ן בְּלָמֶ"ד, וְזַיִ"ן בְּצָדִ"י, וְכֵן וַיְרַגֵּל בְּעַבְדְּךָ (שמואל ב י"ט) — רִגֵּל בְּמִרְמָה לֵאמֹר עָלַי רָעָה, וְכֵן לֹא רָגַל עַל לְשֹׁנוֹ (תהילים ט"ו), וְכֵן רוֹכֵל — הַסּוֹחֵר וּמְרַגֵּל אַחַר כָּל סְחוֹרָה, וְכֵן הַמּוֹכֵר בְּשָׂמִים לְהִתְקַשֵּׁט בָּהֶם הַנָּשִׁים, עַל שֵׁם שֶׁמְּחַזֵּר תָּמִיד בָּעֲיָרוֹת, נִקְרָא רוֹכֵל לְשׁוֹן רוֹגֵל; לָא תֵיכוּל קוּרְצִין כְּמוֹ וַאֲכַלוּ קַרְצֵיהוֹן דִּי יְהוּדָיֵא (דניאל ב׳:כ״ה), אָכַל בֵּיהּ קוּרְצָא בֵּי מַלְכָּא (ברבות נ"ח); נִרְאֶה בְעֵינַי שֶׁהָיָה מִשְׁפָּטָם לֶאֱכֹל בְּבֵית הַמְקַבֵּל דִּבְרֵיהֶם שׁוּם הַלְעָטָה, וְהוּא גְמַר חִזּוּק שֶׁדְּבָרָיו מְקֻיָּמִים וְיַעֲמִידֵם עַל הָאֱמֶת, וְאוֹתָהּ הַלְעָטָה נִקְרֵאת אֲכִילַת קוּרְצִין, לְשׁוֹן קוֹרֵץ בְּעֵינָיו (משלי ו'), שֶׁכֵּן דֶּרֶךְ כָּל הוֹלְכֵי רָכִיל לִקְרֹץ בְּעֵינֵיהֶם וְלִרְמֹז דִּבְרֵי רְכִילוּתָן, שֶׁלֹּא יָבִינוּ שְׁאָר הַשּׁוֹמְעִים: לא תעמד על דם רעך. לִרְאוֹת בְּמִיתָתוֹ וְאַתָּה יָכוֹל לְהַצִּילוֹ, כְּגוֹן טוֹבֵעַ בַּנָּהָר וְחַיָּה אוֹ לִיסְטִים בָּאִים עָלָיו (סנהדרין ע"ג): אני ה'. נֶאֱמָן לְשַׁלֵּם שָׂכָר, וְנֶאֱמָן לִפָּרַע:
ולא תשא עליו חטא. לֹא תַלְבִּין אֶת פָּנָיו בָּרַבִּים (עי' ספרא):
לא תקם. אָמַר לוֹ הַשְׁאִילֵנִי מַגָּלְךָ, אָמַר לוֹ לָאו, לְמָחָר אָמַר לוֹ הַשְׁאִילֵנִי קַרְדֻּמְּךָ, אָמַר לוֹ אֵינִי מַשְׁאִילְךָ כְּדֶרֶךְ שֶׁלֹּא הִשְׁאַלְתַּנִי, זוֹ הִיא נְקִימָה; וְאֵיזוֹ הִיא נְטִירָה? אָמַר לוֹ הַשְׁאִילֵנִי אֶת קַרְדֻּמְּךָ, אָמַר לוֹ לָאו, לְמָחָר אָמַר לוֹ הַשְׁאִילֵנִי מַגָּלְךָ, אָמַר לוֹ הֵא לְךָ, אֵינִי כְמוֹתְךָ שֶׁלֹּא הִשְׁאַלְתַּנִי, זוֹ הִיא נְטִירָה, שֶׁנּוֹטֵר הָאֵיבָה בְּלִבּוֹ, אַעַ"פִּי שֶׁאֵינוֹ נוֹקֵם (ספרא; יומא כ"ג): ואהבת לרעך כמוך. אָמַר רַבִּי עֲקִיבָא זֶה כְּלָל גָּדוֹל בַּתּוֹרָה (ספרא):
את חקתי תשמרו. וְאֵלּוּ הֵן: בְּהֶמְתְּךָ לֹא תַרְבִּיעַ כִּלְאַיִם וְגוֹ'; חֻקִּים — אֵלּוּ גְזֵרַת מֶלֶךְ שֶׁאֵין טַעַם לַדָּבָר: ובגד כלאים. לָמָּה נֶאֱמַר? לְפִי שֶׁנֶּאֱמַר "לֹא תִלְבַּשׁ שַׁעַטְנֵז צֶמֶר וּפִשְׁתִּים יַחְדָּו" (דברים כ"ב), יָכוֹל לֹא יִלְבַּשׁ גִּזֵּי צֶמֶר וַאֲנִיצֵי פִשְׁתָּן, תַּ"ל "בֶּגֶד", מִנַּיִן לְרַבּוֹת הַלְּבָדִים? תַּ"לֹ "שַׁעַטְנֵז" — דָּבָר שֶׁהוּא שׁוּעַ טָווּי וְנוּז. וְאוֹמֵר אֲנִי נוּז לְשׁוֹן דָּבָר הַנִּמְלָל וְשָׁזוּר זֶה עִם זֶה לְחַבְּרוֹ, טישט"יר בְּלַעַז, כְּמוֹ "חַזְיָין לִנְזָאֵי דְאִית בְּהוֹן" (מועד קטן י"ב), שֶׁאָנוּ מְפָרְשִׁין לְשׁוֹן כִּמּוּשׁ, פליש"טרא, וּלְשׁוֹן שַׁעַטְנֵז פֵּרֵשׁ מְנַחֵם מַחְבֶּרֶת צֶמֶר וּפִשְׁתִּים:
נחרפת לאיש. מְיֻעֶדֶת וּמְיֻחֶדֶת לְאִישׁ, וְאֵינִי יוֹדֵעַ לוֹ דִמְיוֹן בַּמִּקְרָא; וּבְשִׁפְחָה כְנַעֲנִית חֶצְיָהּ שִׁפְחָה וְחֶצְיָהּ בַּת חֹרִין הַמְאֹרֶסֶת לְעֶבֶד עִבְרִי שֶׁמֻּתָּר בְּשִׁפְחָה הַכָּתוּב מְדַבֵּר: והפדה לא נפדתה. פְּדוּיָה וְאֵינָהּ פְּדוּיָה, וּסְתָם פִּדְיוֹן בְּכֶסֶף: או חפשה. בִּשְׁטָר (ספרא): בקרת תהיה. הִיא לוֹקָה וְלֹא הוּא, יֵשׁ עַל בֵּית דִּין לְבַקֵּר אֶת הַדָּבָר שֶׁלֹּא לְחַיְּבָהּ מִיתָה כי לא חפשה וְאֵין קִדּוּשֶׁיהָ קִדּוּשִׁין גְּמוּרִין: וְרַבּוֹתֵינוּ לָמְדוּ מִכָּאן (מכות כ"ב), שֶׁמִּי שֶׁהוּא בְמַלְקוּת תְּהֵא בִקְרִיאָה — שֶׁהַדַּיָּנִים הַמַּלְקִין קוֹרִין עַל הַלּוֹקֶה "אִם לֹא תִשְׁמֹר לַעֲשׂוֹת וְגוֹ' וְהִפְלָא ה' אֶת מַכֹּתְךָ וְגוֹ'" (דברים כ"ח): כי לא חפשה. לְפִיכָךְ אֵין חַיָּב עָלֶיהָ מִיתָה, שֶׁאֵין קִדּוּשֶׁיהָ קִדּוּשִׁין, הָא אִם חֻפְּשָׁה קִדּוּשֶׁיהָ קִדּוּשִׁין וְחַיָּב מִיתָה (ספרא):

ונסלח לו מחטאתו אשר חטא. לְרַבּוֹת אֶת הַמֵּזִיד כַּשּׁוֹגֵג (ספרא):
וערלתם ערלתו. וַאֲטַמְתֶּם אֲטִימָתוֹ — יְהֵא אָטוּם וְנִסְתָּם מִלֵּהָנוֹת מִמֶּנּוּ: שלש שנים יהיה לכם ערלים. מֵאֵימָתַי מוֹנֶה לוֹ? מִשְּׁעַת נְטִיעָתוֹ; יָכוֹל אִם הִצְנִיעוֹ, לְאַחַר שָׁלוֹשׁ שָׁנִים יְהֵא מֻתָּר, תַּ"ל יִהְיֶה — בַּהֲוָיָתוֹ יְהֵא (ספרא):
יהיה כל פריו קדש. כְּמַעֲשֵׂר שֵׁנִי שֶׁכָּתוּב בּוֹ וְכָל מַעְשַׂר הָאָרֶץ וְגוֹ' קֹדֶשׁ לַה' (ויקרא כ"ז), מַה מַּעֲשֵׂר שֵׁנִי אֵינוֹ נֶאֱכָל חוּץ לְחוֹמוֹת יְרוּשָׁלַיִם אֶלָּא בְּפִדְיוֹן, אַף זֶה כֵּן, וְדָבָר זֶה הלולים לה' הוּא, שֶׁנּוֹשְׂאוֹ שָׁם לְשַׁבֵּחַ וּלְהַלֵּל לַשָּׁמַיִם (עי' בראשית ל"ה):
להוסיף לכם תבואתו. הַמִּצְוָה הַזֹּאת שֶׁתִּשְׁמְרוּ, תִּהְיֶה לְהוֹסִיף לָכֶם תְּבוּאָתוֹ, שֶׁבִּשְׂכָרָהּ אֲנִי מְבָרֵךְ לָכֶם פֵּרוֹת הַנְּטִיעָה; הָיָה רַבִּי עֲקִיבָא אוֹמֵר דִּבְּרָה תוֹרָה כְּנֶגֶד יֵצֶר הָרָע, שֶׁלֹּא יֹאמַר אָדָם הֲרֵי אַרְבַּע שָׁנִים אֲנִי מִצְטַעֵר בּוֹ חִנָּם לְפִיכָךְ נֶאֱמַר לְהוֹסִיף לָכֶם תְּבוּאָתוֹ (ספרא): אני ה'. אֲנִי ה' הַמַּבְטִיחַ עַל כָּךְ וְנֶאֱמָן לִשְׁמֹר הַבְטָחָתִי:
לא תאכלו על הדם. לְהַרְבֵּה פָנִים נִדְרָשׁ בְּסַנְהֶדְרִין (דף ס"ג): אַזְהָרָה שֶׁלֹּא יֹאכַל מִבְּשַֹר קָדָשִׁים לִפְנֵי זְרִיקַת דָּמִים, וְאַזְהָרָה לָאוֹכֵל מִבֶּהֱמַת חֻלִּין טֶרֶם שֶׁתֵּצֵא נַפְשָׁהּ, וְעוֹד הַרְבֵּה: לא תנחשו. כְּגוֹן אֵלּוּ הַמְנַחֲשִׁין בְּחֻלְדָּה וּבְעוֹפוֹת, פִּתּוֹ נָפְלָה מִפִּיו, צְבִי הִפְסִיקוֹ בַדֶּרֶךְ (ספרא): ולא תעוננו. לְשׁוֹן עוֹנוֹת וְשָׁעוֹת, שֶׁאוֹמֵר יוֹם פְּלוֹנִי יָפֶה לְהַתְחִיל מְלָאכָה, שָׁעָה פְלוֹנִית קָשָׁה לָצֵאת (סנהדרין ס"ה):
לא תקפו פאת ראשכם. זֶה הַמַּשְׁוֶה צְדָעָיו לַאֲחוֹרֵי אָזְנוֹ וּלְפַדַּחְתּוֹ, וְנִמְצָא הֶקֵּף רֹאשׁוֹ עָגֹל סָבִיב, שֶׁעַל אֲחוֹרֵי אָזְנָיו עִקְּרֵי שְׂעָרוֹ לְמַעְלָה מִצְּדָעָיו הַרְבֵּה: פאת זקנך. סוֹף הַזָּקָן וּגְבוּלָיו (מכות כ'), וְהֵן חָמֵשׁ — שְׁתַּיִם בְּכָל לֶחִי וָלֶחִי, לְמַעְלָה אֵצֶל הָרֹאשׁ שֶׁהוּא רָחָב, וְיֵשׁ בּוֹ שְׁתֵּי פֵאוֹת, וְאַחַת לְמַטָּה בְּסַנְטֵרוֹ — מְקוֹם חִבּוּר שְׁנֵי הַלְּחָיַיִם יַחַד (שבועות נ'):
ושרט לנפש. כֵּן דַּרְכָּן שֶׁל אֱמוֹרִיִּים לִהְיוֹת מְשָׂרְטִין בְּשָֹרָם כְּשֶׁמֵּת לָהֶם מֵת: וכתבת קעקע. כְּתָב מְחֻקֶּה וְשָׁקוּעַ שֶׁאֵינוֹ נִמְחָק לְעוֹלָם שֶׁמְּקַעְקְעוֹ בְּמַחַט וְהוּא מַשְׁחִיר לְעוֹלָם: קעקע. לְשׁוֹן וְהוֹקַע אוֹתָם (במדבר כ"ה), וְהוֹקַעְנוּם (שמואל ב כ"א), תּוֹחֲבִין עֵץ בָּאָרֶץ וְתוֹלִין אוֹתָם עֲלֵיהֶם, וְנִמְצְאוּ מְחֻקִּין וּתְחוּבִין בַּקַּרְקַע, פורפו"ינט בְּלַעַז:
אל תחלל את בתך להזנותה. בְּמוֹסֵר בִּתּוֹ פְנוּיָה לְבִיאָה שֶׁלֹּא לְשֵׁם קִדּוּשִׁין (סנהדרין ע"ו): ולא תזנה הארץ. אִם אַתָּה עוֹשֶׂה כֵּן, הָאָרֶץ מְזַנָּה אֶת פֵּרוֹתֶיהָ לַעֲשׂוֹתָן בְּמָקוֹם אַחֵר וְלֹא בְאַרְצְכֶם, וְכֵן הוּא אוֹמֵר (ירמיהו ג'), וַיִּמָּנְעוּ רְבִיבִים וְגוֹ' (תוספתא, קידושין א'):
ומקדשי תיראו. לֹא יִכָּנֵס בְּמַקְלוֹ וּבְמִנְעָלוֹ וּבַאֲפֻנְדָּתוֹ וּבְאָבָק שֶׁעַל רַגְלָיו (ברכות נ"ד); וְאַעַ"פִּי שֶׁאֲנִי מַזְהִירְכֶם עַל הַמִּקְדָּשׁ, אֶת שַׁבְּתֹתַי תִּשְׁמֹרוּ — אֵין בִּנְיַן הַמִּקְדָּשׁ דּוֹחֶה שַׁבָּת (ספרא):
אל תפנו. אַזְהָרָה לְבַעַל אוֹב וְיִדְּעוֹנִי; בַּעַל אוֹב זֶה פִּיתוֹם הַמְדַבֵּר מִשֶּׁחְיוֹ, וְיִדְּעוֹנִי הַמַּכְנִיס עֶצֶם חַיָּה שֶׁשְּׁמָה יַדּוּעַ לְתוֹךְ פִּיו וְהָעֶצֶם מְדַבֵּר (סנהדרין ס"ה): אל תבקשו. לִהְיוֹת עֲסוּקִים בָּם, שֶׁאִם תַּעַסְקוּ בָם, אַתֶּם מִטַּמְּאִין לְפָנַי וַאֲנִי מְתַעֵב אֶתְכֶם: אני ה' אלהיכם. דְּעוּ אֶת מִי אַתֶּם מַחֲלִיפִין בְּמִי (ספרא):
מפני שיבה תקום. יָכוֹל זָקֵן אַשְׁמַאי, תַּ"ל זָקֵן, אֵין זָקֵן אֶלָּא שֶׁקָּנָה חָכְמָה (קידושין ל"ב): והדרת פני זקן. אֵיזֶהוּ הִדּוּר? לֹא יֵשֵׁב בִּמְקוֹמוֹ וְלֹא יִסְתֹּר אֶת דְּבָרָיו: יָכוֹל יַעֲצִים עֵינָיו כְּמִי שֶׁלֹּא רָאָהוּ? לְכָךְ נֶאֱמַר ויראת מאלהיך, שֶׁהֲרֵי דָּבָר זֶה מָסוּר לְלִבּוֹ שֶׁל עוֹשֵׂהוּ, שֶׁאֵין מַכִּיר בּוֹ אֶלָּא הוּא, וְכָל דָּבָר הַמָּסוּר לַלֵּב נֶאֱמַר בוֹ וְיָרֵאתָ מֵּאֱלֹהֶיךָ (שם):
לא תונו. אוֹנָאַת דְּבָרִים; לֹא תֹאמַר לוֹ אֶמֶשׁ הָיִיתָ עוֹבֵד עֲ"זָ וְעַכְשָׁו אַתָּה בָא לִלְמֹד תּוֹרָה שֶׁנִּתְּנָה מִפִּי הַגְּבוּרָה (בבא מציעא נ"ח):
כי גרים הייתם. מוּם שֶׁבְּךָ אַל תֹּאמַר לַחֲבֵרְךָ (שם נ"ט): אני ה' אלהיכם. אֱלֹהֶיךָ וֵאלֹהָיו אֲנִי:
לא תעשו עול במשפט. אִם לְדִין, הֲרֵי כְּבָר נֶאֱמַר לֹא תַעֲשׂוּ עָוֶל בַּמִּשְׁפָּט (פסוק ט"ו), וּמַהוּ מִשְׁפָּט הַשָּׁנוּי כָּאן? הוּא הַמִּדָּה וְהַמִּשְׁקָל וְהַמְּשׂוּרָה, מְלַמֵּד שֶׁהַמּוֹדֵד נִקְרָא דַיָּן, שֶׁאִם שִׁקֵּר בַּמִּדָּה הֲרֵי הוּא כִמְקַלְקֵל אֶת הַדִּין, וְקָרוּי עַוָּל, שָׂנאוּי וּמְשֻׁקָּץ, חֵרֶם וְתוֹעֵבָה, וְגוֹרֵם לַחֲמִשָּׁה דְבָרִים הָאֲמוּרִים בַּדַּיָּן — מְטַמֵּא אֶת הָאָרֶץ, וּמְחַלֵּל אֶת הַשֵּׁם, וּמְסַלֵּק אֶת הַשְּׁכִינָה, וּמַפִּיל אֶת יִשְׂרָאֵל בַּחֶרֶב, וּמַגְלֶה אוֹתָם מֵאַרְצָם (ספרא): במדה. זוֹ מִדַּת הָאָרֶץ (שם): במשקל. כְּמַשְׁמָעוֹ: ובמשורה. הִיא מִדַּת הַלַּח וְהַיָּבֵשׁ (בבא מציעא ס"א):
אבני צדק. הֵם הַמִּשְׁקוֹלוֹת שֶׁשּׁוֹקְלִין כְּנֶגְדָּן: איפת. הִיא מִדַּת הַיָּבֵשׁ: והין. זוֹ הִיא מִדַּת הַלַּח: אשר הוצאתי אתכם. עַל מְנָת כֵּן; דָּ"אַ אֲנִי הִבְחַנְתִּי בְּמִצְרַיִם בֵּין טִפָּה שֶׁל בְּכוֹר לְטִפָּה שֶׁאֵינָהּ שֶׁל בְּכוֹר, וַאֲנִי הַנֶּאֱמָן לִפָּרַע מִמִּי שֶׁטּוֹמֵן מִשְׁקְלוֹתָיו בַּמֶּלַח לְהוֹנוֹת אֶת הַבְּרִיּוֹת שֶׁאֵין מַכִּירִין בָּהֶם (בבא מציעא ס"א):

