כי יהיה ריב. סוֹפָם לִהְיוֹת נִגָּשִׁים אֶל הַמִּשְׁפָּט. אֱמֹר מֵעַתָּה אֵין שָׁלוֹם יוֹצֵא מִתּוֹךְ מְרִיבָה, מִי גָּרַם לְלוֹט לִפְרֹשׁ מִן הַצַּדִּיק? הֱוֵי אוֹמֵר זוֹ מְרִיבָה: והרשיעו את הרשע. יָכוֹל כָּל הַמִּתְחַיְּבִין בַּדִּין לוֹקִין, תַּלְמוּד לוֹמַר — והיה אם בן הכות הרשע. פְּעָמִים לוֹקֶה וּפְעָמִים אֵינוֹ לוֹקֶה. וּמִי הוּא הַלּוֹקֶה? לְמֹד מִן הָעִנְיָן, "לֹא תַחְסֹם שׁוֹר בְּדִישׁוֹ" — לָאו שֶׁלֹּא נִתַּק לַעֲשֵׂה (עי' ספרי; מכות י"ג):
והפילו השפט. מְלַמֵּד שֶׁאֵין מַלְקִין אוֹתוֹ לֹא עוֹמֵד וְלֹא יוֹשֵׁב אֶלָּא מֻטֶּה (מכות כ"ב): לפניו כדי רשעתו. וּלְאַחֲרָיו כְּדֵי שְׁתַּיִם, מִכָּאן אָמְרוּ מַלְקִין אוֹתוֹ שְׁתֵּי יָדוֹת מִלְּאַחֲרָיו וּשְׁלִישׁ מִלְּפָנָיו (ספרי; מכות כ"ב): במספר. וְאֵינוֹ נָקוּד בַּמִּסְפָּר, לִמֵּד שֶׁהִיא דְבוּקָה, לוֹמַר בְּמִסְפַּר אַרְבָּעִים וְלֹא אַרְבָּעִים שְׁלֵמִים, אֶלָּא מִנְיָן שֶׁהוּא סוֹכֵם וּמַשְׁלִים לְאַרְבָּעִים וְהֵם אַרְבָּעִים חָסֵר אַחַת (שם):
לא יסיף. מִכָּאן אַזְהָרָה לַמַּכֶּה אֶת חֲבֵרוֹ (עי' כתובות ל"ג): ונקלה אחיך. כָּל הַיּוֹם קוֹרְאוֹ רָשָׁע, וּמִשֶּׁלָּקָה קְרָאוֹ אָחִיךָ:
לא תחסם שור. דִּבֵּר הַכָּתוּב בַּהֹוֶה, וְהוּא הַדִּין לְכָל בְּהֵמָה חַיָּה וְעוֹף הָעוֹשִׂים בִּמְלָאכָה שֶׁהִיא בִּדְבַר מַאֲכָל; אִם כֵּן לָמָּה נֶאֱמַר שׁוֹר? לְהוֹצִיא אֶת הָאָדָם (ספרי; בבא מציעא פ"ח): בדישו. יָכוֹל יַחְסְמֶנּוּ מִבַּחוּץ? תַּלְמוּד לוֹמַר "לֹא תַחְסֹם שׁוֹר" — מִכָּל מָקוֹם; וְלָמָּה נֶאֱמַר דַּיִשׁ? לוֹמַר לְךָ מַה דַּיִשׁ מְיֻחָד דָּבָר שֶׁלֹּא נִגְמְרָה מְלַאכְתּוֹ וְגִדּוּלוֹ מִן הָאָרֶץ, אַף כָּל כַּיּוֹצֵא בוֹ, יָצָא הַחוֹלֵב וְהַמְגַבֵּן וְהַמְחַבֵּץ שֶׁאֵין גִּדּוּלוֹ מִן הָאָרֶץ, יָצָא הַלָּשׁ וְהַמְקַטֵּף שֶׁנִּגְמְרָה מְלַאכְתּוֹ לְחַלָּה, יָצָא הַבּוֹדֵל בִּתְמָרִים וּבִגְרוֹגְרוֹת שֶׁנִּגְמְרָה מְלַאכְתָּן לַמַּעֲשֵׂר (ספרי; ב"מ פ"ט):
כי ישבו אחים יחדו. שֶׁהָיְתָה לָהֶם יְשִׁיבָה אַחַת בָּעוֹלָם, פְּרָט לְאֵשֶׁת אָחִיו שֶׁלֹּא הָיָה בְעוֹלָמוֹ (ספרי; יבמות י"ז): יחדו. הַמְיֻחָדִים בַּנַּחֲלָה, פְּרָט לְאָחִיו מִן הָאֵם (שם): ובן אין לו. עַיֵּן עָלָיו, בֵּן אוֹ בַת אוֹ בֵן הַבֵּן אוֹ בַת הַבֵּן אוֹ בֵן הַבַּת אוֹ בַת הַבַּת (עי' יבמות כ"ב):
והיה הבכור. גְּדוֹל הָאַחִים הוּא מְיַבֵּם אוֹתָהּ (ספרי; יבמות כ"ד): אשר תלד. פְּרָט לְאַיְלוֹנִית שֶׁאֵינָהּ יוֹלֶדֶת: יקום על שם אחיו. זֶה שֶׁיִּבֵּם אֶת אִשְׁתּוֹ יִטֹּל נַחֲלַת הַמֵּת בְּנִכְסֵי אָבִיו: ולא ימחה שמו. פְּרָט לְאֵשֶׁת סָרִיס שֶׁשְּׁמוֹ מָחוּי (יבמות כ"ד):
השערה. כְּתַרְגּוּמוֹ — לִתְרַע בֵּית דִּינָא:
ועמד. בַּעֲמִידָה (ספרי): ואמר. בִּלְשׁוֹן הַקֹּדֶשׁ, וְאַף הִיא דְּבָרֶיהָ בִּלְשׁוֹן הַקֹּדֶשׁ (יבמות ק"ו; ספרי):
וירקה בפניו. עַל גַּבֵּי קַרְקַע (שם): אשר לא יבנה. מִכָּאן לְמִי שֶׁחָלַץ שֶׁלֹּא יַחֲזֹר וִייַבֵּם, דְּלָא כְתִיב "אֲשֶׁר לֹא בָנָה", אֶלָּא "אֲשֶׁר לֹא יִבְנֶה", כֵּיוָן שֶׁלֹּא בָנָה — שׁוּב לֹא יִבְנֶה (יבמות י'; עי' ספרי):
ונקרא שמו וגו'. מִצְוָה עַל כָּל הָעוֹמְדִים שָׁם לוֹמַר "חֲלוּץ הַנַּעַל" (ספרי; יבמות ק"ו):
כי ינצו אנשים. סוֹפוֹ לָבֹא לִידֵי מַכּוֹת, כְּמוֹ שֶׁנֶּאֱמַר מיד מכהו, אֵין שָׁלוֹם יוֹצֵא מִתּוֹךְ יְדֵי מַצּוּת (ספרי):
וקצתה את כפה. מָמוֹן דְּמֵי בָשְׁתּוֹ, הַכֹּל לְפִי הַמְבַיֵּשׁ וְהַמִּתְבַּיֵּשׁ; אוֹ אֵינוֹ אֶלָּא יָדָהּ מַמָּשׁ? נֶאֱמַר כָּאן "לֹא תָחוֹס", וְנֶאֱמַר לְהַלָּן בְּעֵדִים זוֹמְמִים (דברים י"ט) "לֹא תָחוֹס", מַה לְּהַלָן מָמוֹן אַף כָּאן מָמוֹן (ספרי; עי' בבא קמא כ"ח):
אבן ואבן. מִשְׁקָלוֹת: גדולה וקטנה. גְּדוֹלָה שֶׁמַּכְחֶשֶׁת אֶת הַקְּטַנָּה, שֶׁלֹּא יְהֵי נוֹטֵל בַּגְּדוֹלָה וּמַחֲזִיר בַּקְּטַנָּה (ספרי):
לא יהיה לך. אִם עָשִׂיתָ כֵּן, לֹא יִהְיֶה לְךָ כְּלוּם (עי' שם):
אבן שלמה וצדק יהיה לך. אִם עָשִׂיתָ כֵּן, יִהְיֶה לְךָ הַרְבֵּה:

זכור את אשר עשה לך. אִם שִׁקַּרְתָּ בְמִדּוֹת וּבְמִשְׁקָלוֹת הֱוֵי דוֹאֵג מִגֵּרוּי הָאוֹיֵב, שֶׁנֶּאֱמַר (משלי י"א) "מֹאזְנֵי מִרְמָה תּוֹעֲבַת ה'", וּכְתִיב בַּתְרֵיהּ "בָּא זָדוֹן וַיָּבֹא קָלוֹן" (תנחומא):
אשר קרך בדרך. לְשׁוֹן מִקְרֶה; דָּבָר אַחֵר — לְשׁוֹן קֶרִי וְטֻמְאָה שֶׁהָיָה מְטַמְּאָן בְּמִשְׁכַּב זְכוּר; דָּ"אַ — לְשׁוֹן קֹר וְחֹם, צִנֶּנְךָ וְהִפְשִׁירְךָ מֵרְתִיחָתְךָ, שֶׁהָיוּ כָל הָאֻמּוֹת יְרֵאִים לְהִלָּחֵם בָּכֶם וּבָא זֶה וְהִתְחִיל וְהֶרְאָה מָקוֹם לַאֲחֵרִים; מָשָׁל לְאַמְבָּטִי רוֹתַחַת שֶׁאֵין כָּל בְּרִיָּה יְכוֹלָה לֵירֵד בְּתוֹכָהּ, בָּא בֶן בְּלִיַּעַל אֶחָד קָפַץ וְיָרַד לְתוֹכָהּ, אַעַ"פִּ שֶׁנִּכְוָה הֵקֵרָהּ אוֹתָהּ בִּפְנֵי אֲחֵרִים (תנחומא): ויזנב בך. מַכַּת זָנָב, חוֹתֵךְ מִילוֹת וְזוֹרֵק כְּלַפֵּי מַעְלָה (תנחומא): כל הנחשלים אחריך. חַסְרֵי כֹחַ מֵחֲמַת חֶטְאָם, שֶׁהָיָה הֶעָנָן פּוֹלְטָן (תנחומא): ואתה עיף ויגע. עָיֵף בַּצָּמָא, דִּכְתִיב "וַיִּצְמָא שָׁם הָעָם לַמַּיִם" (שמות י"ז) וּכְתִיב אַחֲרָיו "וַיָּבֹא עֲמָלֵק": ויגע. בַּדֶּרֶךְ: ולא ירא. עֲמָלֵק אלהים מִלְּהָרַע לְךָ:
תמחה את זכר עמלק. מֵאִישׁ עַד אִשָּׁה מֵעוֹלֵל וְעַד יוֹנֵק מִשּׁוֹר וְעַד שֶׂה (שמואל א ט"ו), שֶׁלֹּא יְהֵא שֵׁם עֲמָלֵק נִזְכָּר אֲפִלּוּ עַל הַבְּהֵמָה, לוֹמַר בְּהֵמָה זוֹ מִשֶּׁל עֲמָלֵק הָיְתָה (פסיק' זוטר'):