





וְגַם כִּי שִׁלְּחָם יְהוֹשֻׁעַ לַחֲצִי שֵׁבֶט הַמְנַשֶּׁה, כַּאֲשֶׁר שָׁלַח אֶת בְּנֵי רְאוּבֵן וְגָד.
עִם אֲחֵיכֶם בְּנֵי רְאוּבֵן וּבְנֵי גָּד, וְיֵשׁ פּוֹתְרִין: עִם אֲחֵיכֶם שֶׁנִּשְׁאֲרוּ לִשְׁמוֹר אֶת הֶעָרִים עִם הַנָּשִׁים וְהַטַּף, וְלֹא עָבְרוּ אֶת הַיַּרְדֵּן עִם הַחֲלוּצִים, גַּם הֵם נָטְלוּ חֵלֶק בַּבִּזָּה.



לַעֲלוֹת עֲלֵיהֶם לַצָּבָא לְפִי שֶׁנֶּאֶסְרוּ הַבָּמוֹת מִשֶּׁנִּקְבַּע הַמִּשְׁכָּן בְּשִׁילֹה.






אִם טְמֵאָה אֶרֶץ אֲחֻזַּתְכֶם שֶׁלֹּא בָּחַר הַקָּדוֹשׁ בָּרוּךְ הוּא לְהַשְׁרוֹת בָּהּ שְׁכִינָתוֹ. וְאֹתָנוּ אַל תִּמְרֹדוּ כְּמוֹ: וּבָנוּ אַל תִּמְרוֹדוּ.


אֵל אֱלֹהִים ה' אֵל כָּל הָאֱלֹהִים הוּא ה' הַיּוֹדֵעַ כִּי לֹא בְּמֶרֶד וְגוֹמֵר, וּכְשֶׁכָּפַל לוֹמַר שְׁתֵּי פְּעָמִים אֱלֹהִים, בָּעוֹלָם הַזֶּה וּבָעוֹלָם הַבָּא. אַל תּוֹשִיעֵנוּ כְּלַפֵּי שְׁכִינָה אָמְרוּ.
הוּא יְבַקֵּשׁ יִפָּרַע מִמֶּנּוּ.
מִדְּאָגָה מִדָּבָר מֵחֲמַת דַּאֲגַת יִרְאַת דְּבַר חֶרְפָּה עָשִׂינוּ, כְּמָה שֶׁמְּפֹרָשׁ פֶּן יֹאמְרוּ בְּנֵיכֶם מָחָר לְחָרֵף אֶת בָּנֵינוּ, כְּשֶׁיֵּלְכוּ לְהַקְרִיב בְּמִשְכַּן שִׁילֹה, שֶׁמָּא יֹאמְרוּ מַה לָּכֶם וְלַה', וַהֲלֹא גְּבוּל נָתַן בֵּינֵינוּ וּבֵינֵיכֶם אֶת הַיַּרְדֵּן, זוֹ דָּאַגְנוּ וְעָשִׂינוּ. כָּל 'דְּאָגָה' שֶׁבַּמִּקְרָא לְשׁוֹן יִרְאָה הוּא, כְּמוֹ (ירמיהו לח יט): אֲנִי דּוֹאֵג אֶת הַיְּהוּדִים, דְּצִדְקִיָּהוּ.


כִּי עֵד הוּא שֶׁלֹּא סִילַּקְנוּ עַצְמֵנוּ מִתּוֹרַת מִזְבֵּחַ.





וַיְבָרְכוּ אֱלֹהִים (תַּרְגּוּם:) וְאוֹדִיאוּ קֳדָם ה' בְּנֵי יִשְׂרָאֵל.
וַיִּקְרְאוּ בְּנֵי רְאוּבֵן וּבְנֵי גָד לַמִּזְבֵּחַ כִּי עֵד הוּא הֲרֵי זֶה מִן הַמִּקְרָאוֹת הַקְּצָרִים, וְצָרִיךְ לְהוֹסִיף בּוֹ תֵּיבָה אַחַת: וַיִּקְרְאוּ בְּנֵי רְאוּבֵן וּבְנֵי גָד לַמִּזְבֵּחַ עֵד.