====אָבִינוּ מַלְכֵּנוּ

אָבִֽינוּ, מַלְכֵּֽנוּ!
חָטָֽאנוּ לְפָנֶֽיךָ.

אָבִֽינוּ, מַלְכֵּֽנוּ!
אֵין לָֽנוּ מֶֽלֶךְ אֶלָּא אָֽתָּה.

אָבִֽינוּ, מַלְכֵּֽנוּ!
עֲשֵׂה עִמָּֽנוּ לְמַֽעַן שְׁמֶֽךָ!

<אס:{{(tendays: @בין ראש השנה ליום כיפור אומרים:@
אָבינוּ, מַלְכֵּֽנוּ!
חַדֵּשׁ עָלֵֽינוּ שָׁנָה טוֹבָה.}}

{{)nottendays: @בימים אחרים אומרים:@
אָבִֽינוּ, מַלְכֵּֽנוּ!
בָּרֵךְ עָלֵֽינוּ שָׁנָה טוֹבָה.}}|מת:חַדֵּשׁ עָלֵֽינוּ שָׁנָה טוֹבָה.>

אָבִֽינוּ, מַלְכֵּֽנוּ!
בַּטֵּל מֵעָלֵֽינוּ כָּל גְּזֵרוֹת קָשׁוֹת!

אָבִֽינוּ, מַלְכֵּֽנוּ!
בַּטֵּל מַחְשְׁבוֹת שׂוֹנְאֵֽינוּ!

אָבִֽינוּ, מַלְכֵּֽנוּ! הָפֵר עֲצַת אוֹיְבֵֽינוּ!

אָבִֽינוּ, מַלְכֵּֽנוּ!
כַּלֵּה כָּל צַר וּמַשְׂטִין מֵעָלֵֽינוּ!

אָבִֽינוּ, מַלְכֵּֽנוּ!
סְתוֹם פִּיּוֹת מַשְׂטִינֵֽנוּ וּמְקַטְרִיגֵֽנוּ!

אָבִֽינוּ, מַלְכֵּֽנוּ!
כַּלֵּה דֶּֽבֶר וְחֶֽרֶב וְרָעָב
וּשְׁבִי וּמַשְׁחִית וְעָוֹן וּשְׁמַד מִבְּנֵי בְרִיתֶֽךָ!

אָבִֽינוּ, מַלְכֵּֽנוּ!
מְנַע מַגֵּפָה מִנַּחֲלָתֶֽךָ!

אָבִֽינוּ, מַלְכֵּֽנוּ!
סְלַח וּמְחַל לְכָל עֲוֹנוֹתֵֽינוּ!

אָבִֽינוּ, מַלְכֵּֽנוּ!
מְחֵה וְהַעֲבֵר פְּשָׁעֵֽינוּ וְחַטֹּאתֵֽינוּ מִנֶּֽגֶד עֵינֶֽיךָ!

אָבִֽינוּ מַלְכֵּֽנוּ!
מְחֹק בְּרַחֲמֶיךָ הָרַבִּים כָּל שִׁטְרַי חוֹבוֹתֵינוּ!

<אס:{{(fast: @ביום צום מוסיפים:@
אָבִֽינוּ, מַלְכֵּֽנוּ!
זָכְרֵֽנוּ לְחַיִּים טוֹבִים.

אָבִֽינוּ, מַלְכֵּֽנוּ!
זָכְרֵֽנוּ לִגְאֻלָּה וִישׁוּעָה!

אָבִֽינוּ, מַלְכֵּֽנוּ!
זָכְרֵֽנוּ לְפַרְנָסָה וְכַלְכָּלָה.

אָבִֽינוּ, מַלְכֵּֽנוּ!
זָכְרֵֽנוּ לִזְכֻיּוֹת.

אָבִֽינוּ, מַלְכֵּֽנוּ!
זָכְרֵֽנוּ לִסְלִיחָה וּמְחִילָה.}}

{{)tendays: @בין ראש השנה ליום כיפור מוסיפים:@
אָבִֽינוּ, מַלְכֵּֽנוּ!
כָּתְבֵֽנוּ בְּסֵֽפֶר חַיִּים טוֹבִים.

אָבִֽינוּ, מַלְכֵּֽנוּ!
כָּתְבֵֽנוּ בְּסֵֽפֶר גְּאֻלָּה וִישׁוּעָה.

אָבִֽינוּ, מַלְכֵּֽנוּ!
כָּתְבֵֽנוּ בְּסֵֽפֶר פַּרְנָסָה וְכַלְכָּלָה.

אָבִֽינוּ, מַלְכֵּֽנוּ!
כָּתְבֵֽנוּ בְּסֵֽפֶר זְכֻיּוֹת.

אָבִֽינוּ, מַלְכֵּֽנוּ!
כָּתְבֵֽנוּ בְּסֵֽפֶר סְלִיחָה וּמְחִילָה.}}|מת:אָבִֽינוּ, מַלְכֵּֽנוּ!
זָכְרֵֽנוּ לְחַיִּים טוֹבִים.

אָבִֽינוּ, מַלְכֵּֽנוּ!
זָכְרֵֽנוּ לִגְאֻלָּה וִישׁוּעָה.

אָבִֽינוּ, מַלְכֵּֽנוּ!
זָכְרֵֽנוּ לְפַרְנָסָה וְכַלְכָּלָה.

אָבִֽינוּ, מַלְכֵּֽנוּ!
זָכְרֵֽנוּ לִזְכֻיּוֹת.>

אָבִֽינוּ, מַלְכֵּֽנוּ!
הַצְמַח לָֽנוּ יְשׁוּעָה בְּקָרוֹב.

אָבִֽינוּ, מַלְכֵּֽנוּ!
הָרֵם קֶֽרֶן יִשְׂרָאֵל עַמֶּֽךָ.

אָבִֽינוּ, מַלְכֵּֽנוּ!
הָרֵם קֶֽרֶן מְשִׁיחֶֽךָ.

אָבִֽינוּ, מַלְכֵּֽנוּ!
מַלֵּא יָדֵֽינוּ מִבִּרְכוֹתֶֽיךָ.

אָבִֽינוּ, מַלְכֵּֽנוּ!
מַלֵּא אֲסָמֵֽינוּ שָׂבָע.

אָבִֽינוּ, מַלְכֵּֽנוּ!
שְׁמַע קוֹלֵֽנוּ, חוּס וְרַחֵם עָלֵֽינוּ.

אָבִֽינוּ, מַלְכֵּֽנוּ!
קַבֵּל בְּרַחֲמִים וּבְרָצוֹן אֶת תְּפִלָּתֵֽנוּ.

אָבִֽינוּ, מַלְכֵּֽנוּ!
פְּתַח שַׁעֲרֵי שָׁמַֽיִם לִתְפִלָּתֵֽנוּ.

אָבִֽינוּ, מַלְכֵּֽנוּ!
זָכוֹר כִּי עָפָר אֲנָֽחְנוּ.

אָבִֽינוּ, מַלְכֵּֽנוּ!
נָא אַל תְּשִׁיבֵֽנוּ רֵיקָם מִלְּפָנֶֽיךָ.

אָבִֽינוּ, מַלְכֵּֽנוּ!
תְּהֵא הַשָּׁעָה הַזֹּאת שְׁעַת רַחֲמִים וְעֵת רָצוֹן מִלְּפָנֶֽיךָ.

אָבִֽינוּ, מַלְכֵּֽנוּ!
חֲמוֹל עָלֵֽינוּ וְעַל עוֹלָלֵֽינוּ וְטַפֵּֽנוּ.

אָבִֽינוּ, מַלְכֵּֽנוּ!
עֲשֵׂה לְמַֽעַן הֲרוּגִים עַל שֵׁם קָדְשֶֽׁךָ.

אָבִֽינוּ, מַלְכֵּֽנוּ!
עֲשֵׂה לְמַֽעַן טְבוּחִים עַל יִחוּדֶֽךָ.

אָבִֽינוּ, מַלְכֵּֽנוּ!
עֲשֵׂה לְמַֽעַן בָּאֵי בָאֵשׁ וּבַמַּֽיִם עַל קִדּוּשׁ שְׁמֶֽךָ.

אָבִֽינוּ, מַלְכֵּֽנוּ!
נְקוֹם לְעֵינֵֽינוּ נִקְמַת דַּם עֲבָדֶֽיךָ הַשָּׁפוּךְ.

אָבִֽינוּ, מַלְכֵּֽנוּ!
עֲשֵׂה לְמַעַנְךָ אִם לֺא לְמַעֲנֵֽנוּ.

אָבִֽינוּ, מַלְכֵּֽנוּ!
עֲשֵׂה לְמַעַנְךָ וְהוֹשִׁיעֵֽנוּ.

אָבִֽינוּ, מַלְכֵּֽנוּ!
עֲשֵׂה לְמַֽעַן רַחֲמֶֽיךָ הָרַבִּים.

אָבִֽינוּ, מַלְכֵּֽנוּ!
עֲשֵׂה לְמַֽעַן שִׁמְךָ הַגָּדוֹל הַגִּבּוֹר וְהַנּוֹרָא שֶׁנִּקְרָא עָלֵֽינוּ.

אָבִֽינוּ, מַלְכֵּֽנוּ!
חָנֵּֽנוּ וַעֲנֵֽנוּ כִּי אֵין בָּֽנוּ מַעֲשִׂים עֲשֵׂה עִמָּֽנוּ צְדָקָה וָחֶֽסֶד וְהוֹשִׁיעֵֽנוּ.