====19. ברכת "שים שלום"

שִׂים שָׁלוֹם טוֹבָה וּבְרָכָה,
<סמ:חַיִּּים> חֵן וָחֶֽסֶד <מ:+צְְדָקָה+> וְְרַחֲמִים,
עָלֵֽינוּ וְְעַל<אסת:־כָּל>־יִשְׂרָאֵל עַמֶּּֽךָ,
וּבָרְְכֵֽנוּ <אסמ:אָבִֽינוּ> כֻּלָּּֽנוּ כְְאֶחָד <סמ:+יַֽחַד+> <אסמ:בְְּאוֹר|ת:מִמְְּּאוֹר> פָּנֶֽיךָ! -
כִּי <אסמ:בְְאוֹר|ת:מִמְְּּאוֹר> פָּנֶֽיךָ נָתַֽתָּ לָּּֽנוּ יהוה אֱלֹהֵֽינוּ
<סא:תּוֹרַת חַיִּּים וְְאַהֲבַת חֶֽסֶד|מת:תּוֹרָה וְְחַיִּּים, אַהֲבָה וָחֶֽסֶד>,
<אס:וּ>צְדָקָה <אס:וּבְרָכָה> <אסמ:וְְרַחֲמִים> <אס:וְְחַיִּּים> <מ:בְְּרָכָה> וְְשָׁלוֹם.
וְְטוֹב <ס:יִהְיֶה> בְְּעֵינֶֽיךָ <סמ:לְְבָרְְכֵֽנוּ וּ>לְבָרֵךְ אֶת<סמ:־כָּל>־עַמְְּּךָ יִשְׂרָאֵל,
<מ:בְְּרֹב עֹז וְְשָׁלוֹם|ת:בְְּשָׁלוֹם><אסת:בְְּכָל־עֵת> <אס:וּבְכָל־שָׁעָה בִּשְׁלוֹמֶֽךָ><ס:+, בְְּרֹב עֹז וְְשָׁלוֹם+.>

{{tendays: @מראש השנה עד יום כיפור מוסיפים:@
בְּסֵפֶר חַיִּים, בְּרָכָה וְשָׁלוֹם, וּפַרְנָסָה טוֹבָה<סמת:,
וִישׁוּעָה וְנֶחָמָה, וּגְזֵרוֹת טוֹבוֹת>,
נִזָּכֵר וְנִכָּתֵב לְפָנֶיךָ, אֲנַחְנוּ וְכָל־עַמְּךָ בֵּית יִשְׂרָאֵל,
לְחַיִּים טוֹבִים וּלְשָׁלוֹם!}}

{+בָּרוּךְ אַתָּּה יהוה,
הַמְבָרֵךְ אֶת עַמּּוֹ יִשְׂרָאֵל בַּשָּּׁלוֹם!}