====7. ברכת הגאולה

רְְאֵה<א: +נָא+|סמ:־נָא> בְְעָנְיֵֽנוּ, וְְרִיבָה רִיבֵֽנוּ,
<אס:וּגְאָלֵֽנוּ|מת:וּמַהֵר לְְגָאֳלֵֽנוּ> <ס:גְְּאֻלָּּה שְְׁלֵמָה> <אס:מְְהֵרָה> <מ:גְְּאֻלָּּה שְְׁלֵמָה> <אסמ:לְְמַֽעַן שְְׁמֶֽךָ>! -
כִּי<סמת: אֵל> <ת: מֶֽלֶךְ> גּוֹאֵל חָזָק אָֽתָּּה.

{+בָּרוּךְ אַתָּּה יהוה,
גּוֹאֵל יִשְׂרָאֵל!}

{{fastday: @ביום צום, בחזרת התפילה החזן אומר:@
<anenu>}}