{(יִתְגַּדַּּל וְְיִתְקַדַּּשׁ שְְׁמֵהּ רַבָּּא,
בְְּעָלְמָא דִּי־בְְרָא <א:כִּרְעוּתֵהּ|סמת:כִרְעוּתֵהּ>,
<ת:וְְיִמְלוֹךְ|אסמ:וְְיַמְלִיךְ> מַלְכוּתֵהּ,
וְְיַצְמַח פּוּרְקָנֵהּ,
וִיקָרֵב<ס: +קֵץ+> מְְשִׁיחֵהּ.<ת:
וְְיִפְרוֹק עַמֵּּיהּ,>
בְְּחַיֵּּיכוֹן וּבְיוֹמֵיכוֹן
<ת:וּבְחַיֵּּיהוֹן|אסמ:וּבְחַיֵּּי> דְכׇל־בֵּית־יִשְׂרָאֵל,
בַּעֲגָלָא וּבִזְמַן קָרִיב,
וְְאִמְרוּ 'אָמֵן'!}

{T)יתגדל ויתקדש שמו הגדול,
בעולם אשר ברא כרצונו,
<ת:וְְיִמְלוֹךְ|אסמ:וְְיַמְלִיךְ> מלכותו,
וְְיַצְמַח גאולתו,
וִיקָרֵב<ס: +קֵץ+> משיחו.<ת:
וְְיִפְרוֹק עמו,>
בחייכם ובימיכם,
<ת:ובחייהם של|אסמ:וּבְחַיֵּּי> כׇל־בֵּית־יִשְׂרָאֵל,
בבמהרה וּבִזְמַן קרוב,
וְְאִמְרוּ 'אָמֵן'!}

{(יְְהֵא שְְׁמֵיהּ רַבָּּא מְְבָרַךְ
לְְעָלַם וּלְעָלְמֵי עָלְמַיָּּא,
יִתְבָּרַךְ, וְְיִשְׁתַּבַּּח, וְְיִתְפָּאַר, וְְיִתְרוֹמַם, 
<ת:וְיִתְעַלֶּּה, וְְיִתְהַדַּּר, וְְיִתְהַלַּּל, וְְיִתְנַשֵּּׂא|אסמ:וְְיִתְנַשֵּּׂא, וְְיִתְהַדָּּר, וְְיִתְעַלֶּּה, וְְיִתְהַלָּּל>,
שְְׁמֵהּ דְְּקוּדְשָׁא־בְְּרִיךְ־הוּא,}

{T)יהי שמו הגדול מבורך
לעולם ולעולמי עולמים,
יתברך, וישתבח, ויתפאר, ויתרומם,
<ת:וְיִתְעַלֶּּה, ויתהדר, ויתהלל, וְְיִתְנַשֵּּׂא|אסמ:וְְיִתְנַשֵּּׂא, ויתהדר, וְְיִתְעַלֶּּה, ויתהלל>,
שמו של הקדוש ברוך הוא,}

<אס:{{(nottendays: @בימים אחרים אומרים:@
לְְעֵֽילָא מִן־כׇּל}}
{{)tendays: @מראש השנה עד יום כיפור אומרים:@
לְְעֵֽילָא-+וּ+לְעֵֽילָא מִכׇּּל}}
|מת:לְְעֵֽילָא-לְעֵֽילָא מִכׇּּל>

{(בִּרְכָתָא<מ:, |ת: וְְ><מת:שִׁירָתָא,>
תִּשְׁבְְּחָתָא וְְנֶחָמָתָא,
דַאֲמִירָן בְְּעָלְמָא,
וְְאִמְרוּ 'אָמֵן'!}

{T)ברכה<מ:, |ת: וְְ><מת:שיר,>
שבח ונחמה,
שאומרים בעולם,
וְְאִמְרוּ 'אָמֵן'!}
