====סדר המערכה

^בבלי יומא לג א^
אַבַּּיֵּּי הֲוָה מְְסַדֵּּר סֵֽדֶר הַמַּּעֲרָכָה מִשְְּּׁמָא דִגְמָרָא, וְְאַלִּּבָּּא דְְאַבָּּא שָׁאוּל: מַעֲרָכָה גְְדוֹלָה קוֹדֶֽמֶת לְְמַעֲרָכָה שְְׁנִיָּּה שֶׁל קְטֹֽרֶת, וּמַעֲרָכָה שְְׁנִיָּּה שֶׁל קְְטֹֽרֶת קוֹדֶֽמֶת לְְסִדּּוּר שְְׁנֵי גִזְרֵי עֵצִים, וְְסִדּּוּר שְְׁנֵי גִזְרֵי עֵצִים קוֹדֶם לְְדִשּּׁוּן מִזְבֵּֽחַ הַפְְּּנִימִי, וְְדִשּּׁוּן מִזְבֵּֽחַ הַפְְּּנִימִי קוֹדֶם לְְהַטָּּבַת חָמֵשׁ נֵרוֹת, וְְהַטָּּבַת חָמֵשׁ נֵרוֹת קוֹדֶֽמֶת לְְדַם הַתָּּמִיד, וְְדַם הַתָּּמִיד קוֹדֶם לְְהַטָּּבַת שְְׁתֵּי נֵרוֹת, וְְהַטָּּבַת שְְׁתֵּי נֵרוֹת קוֹדֶֽמֶת לִקְטֹֽרֶת, וּקְטֹֽרֶת קוֹדֶֽמֶת לְְאֵבָרִים, וְְאֵבָרִים לְְמִנְחָה, וּמִנְחָה לַחֲבִתִּּין, וַחֲבִתִּּין לִנְסָכִין, וּנְסָכִין לְמוּסָפִין, וּמוּסָפִין לְבָזִיכִין, וּבָזִיכִין קוֹדְְמִין לְְתָמִיד שֶׁל בֵּין הָעַרְבָּֽיִם, שֶׁנֶּּאֱמַר:
^ויקרא ב ה^
"… וְְעָרַ֤ךְ עָלֶ֙יהָ֙ הָעֹלָ֔ה וְְהִקְטִ֥יר עָלֶ֖יהָ חֶלְבֵ֥י הַשְְּּׁלָמִֽים׃"<מ:
עָלֶֽיהָ הַשְׁלֵם כׇּל־הַקׇּּרְבָּנוֹת כֻּלָּּם.>