==פסוקי דזמרא

====מזמור 'הודו'

((דבריהימיםא טז ח-לו))

====לקט פסוקים

((תהלים צט ה))
((תהלים צט ט))
((תהלים עח לח))
((תהלים מ יב))
((תהלים כה ו))
((תהלים סח לה-לו))
((תהלים צד א-ב))
((תהלים ג ט))
((תהלים מו ח))
((תהלים פד יג))
((תהלים כ י))
((תהלים כח ט))
((תהלים לג כ-כב))
((תהלים פה ח))
((תהלים מד כז))
((תהלים פא יא))
((תהלים קמד טו))
((תהלים יג ו))

====מזמור "שיר חנוכת הבית"

((תהלים ל א-יג))

====לקט פסוקים
((תהלים י ט)),

^מבוסס על פסוק י״ח מספר שמות, פרק ט״ו^
יהוה מֶֽלֶךְ, יהוה מָלָךְ, "יהוָ֥ה׀ יִמְלֹ֖ךְ לְעֹלָ֥ם וָעֶֽד׃"!

((זכריה יד ט))
((תהלים קו מז))
((תהלים קו מח))
((תהלים קנ ו))
((תהלים סז א-ח))
 
<barukh-sheamar>

====מזמור לתודה

((תהלים ק א-ה))

<ashrei>

<yechi-cavod>

===פרקי הללויה

((תהלים קמו א-י))

((תהלים קמז א-כ))

((תהלים קמח א-יד))

((תהלים קמט א-ט))

((תהלים קנ א-ו))

====פסוקי הסיום של ספרי תהלים

((תהלים פט נג))
((תהלים קלה כא))
((תהלים עב יח-יט))

====קטעים מלוקטים

((דבריהימיםא כט י-יג))
((נחמיה ט ה-יא))
((שמות יד ל-לא))

====שירת הים

((שמות טו א-יז))
((שמות טו יח))
((שמות טו יח))
{אונקלוס שמות טו יח}
((שמות טו יט))
((תהלים כב כט))
((עובדיה א כא))
((זכריה יד ט))

==ברכה שלאחר פסוקי דזמרה

יִשְׁתַּבַּח שִׁמְךָ לָעַד מַלְכֵּֽנוּ,
הָאֵל, הַמֶּֽלֶךְ הַגָּדוֹל וְהַקָּדוֹשׁ,
בַּשָּׁמַֽיִם וּבָאָֽרֶץ! -
כִּי לְךָ נָאֶה יהוה אֱלֹהֵֽינוּ וֵאלֹהֵי אֲבוֹתֵֽינוּ, לְעוֹלָם וָעֶד:
(~א) שִׁיר (~ב) וּשְׁבָחָה,
(~ג) הַלֵּל (~ד) וְזִמְרָה,
(~ה) עֹז (~ו) וּמֶמְשָׁלָה,
(~ז) נֶֽצַח, (~ח) גְּדֻלָּה, (~ט) וּגְּבוּרָה,
(~י) תְּהִלָּה (~יא) וְתִפְאֶֽרֶת,
(~יב) קְדֻשָּׁה (~יג) וּמַלְכוּת.

בְּרָכוֹת וְהוֹדָאוֹת, לְשִׁמְךָ הַגָּדוֹל וְהַקָּדוֹשׁ!
^לפי תהלים צ ב^
"וּמֵעוֹלָם עַד־עוֹלָם אַתָּּה אֵל").

בָּרוּךְ אַתָּה יהוה, מֶֽלֶךְ גָּדוֹל וּמְהֻלָּל בַּתִּשְׁבָּחוֹת.
אֵל הַהוֹדָאוֹת, אֲדוֹן הַנִּפְלָאוֹת,
בּוֹרֵא כָּל־הַנְּשָׁמוֹת, רִבּוֹן כָּל־הַמַּעֲשִׂים,
הַבּוֹחֵר בְּשִׁירֵי זִמְרָה,
מֶֽלֶךְ אֵל חַי הָעולָמִים, אָמֵן.
{{עיט: @מראש השנה עד יום כיפור מוסיפים:@
((תהלים קל א-ח))}}