וּמַלִיל יְיָ עִם מֹשֶׁה לְמֵימָר:
“מַלֵל עִם בְּנֵי יִשְׂרָאֵל לְמֵימָר: ‘אִתְּתָא אֲרֵי תְעַדִי וּתְלִיד דְכָר, וּתְהֵי מְסָאָבָא שִׁבְעַת יוֹמִין כְּיוֹמֵי רִחוּק סוֹבְתַהּ תְּהֵי מְסָאָבָא
וּבְיוֹמָא תְּמִינָאָה יִגְזַר בִּסְרָא דְעָרְלְתֵהּ
וּתְלָתִין וּתְלָתָא יוֹמִין תֵּיתֵב בְּדַם דְכוּ בְּכָל קוּדְשָׁא לָא תִקְרַב וּלְמִקְדְשָׁא לָא תֵעוֹל עַד מִשְׁלַם יוֹמֵי דָכוּתַהּ
וְאִם נְקוּבְתָא תְלִיד וּתְהֵי מְסָאָבָא אַרְבְּעָה עֲסַר כְּרִחוּקַהּ וְשִׁתִּין וְשִׁתָּא יוֹמִין תֵּיתֵב עַל דַם דְכוּ
וּבְמִשְׁלַם יוֹמֵי דָכוּתַהּ לִבְרָא אוֹ לִבְרַתָּא תַּיְתִי אִמָר בַּר שַׁתֵּהּ לַעֲלָתָא וּבַר יוֹנָה אוֹ שַׁפְנִינָא לְחַטָאתָא לִתְרַע מַשְׁכַּן זִמְנָא לְוַת כַּהֲנָא
וִיקָרְבִנֵהּ קֳדָם יְיָ וִיכַפֵּר עֲלַהּ וְתִדְכֵּי מִסוֹאֲבַת דְמָהָא דָא אוֹרַיְתָא דְיַלֶדְתָּא לְדוּכְרָא אוֹ לִנְקֻבְתָא
וְאִם לָא תַשְׁכַּח יְדַהּ כְּמִסַת אִמְרָא וְתִסַב תַּרְתֵּין שַׁפְנִינִין אוֹ תְרֵין בְּנֵי יוֹנָה חַד לַעֲלָתָא וְחַד לְחַטָאתָא וִיכַפֵּר עֲלַהּ כַּהֲנָא וְתִדְכֵּי
