בְּרֵאשִׁית, רִבִּי שִׁמְעוֹן פָּתַח:
- "וָאָשִׂים דְּבָרַי בְּפִֽיךָ" (ישעיה נא טז). כַּמָּה אִית לֵיהּ לְבַר־נָשׁ לְאִשְׁתַּדְּלָא בְּאוֹרַיְיתָא? יְמָמָא וְלֵילְיָא! בְּגִין דְּקוּדְשָׁא בְּרִיךְ־הוּא צַיִּית לְקָלְהוֹן דְּאִנּוּן דְּמִתְּעַסְּקִי בְּאוֹרַיְיתָא, וּבְכָל מִלָּה דְאִתְּחַדַּשׁ בְּאוֹרַיְיתָא עַל יְדָא דְהַהוּא דְּאִשְׁתַּדַּל בְּאוֹרַיְיתָא, עָבֵיד רְקִיעָא חֲדָא.

תְּנַן, בְּהַהִיא שַׁעֲתָא דְּמִלָּה דְּאוֹרַיְיתָא אִתְּחַדְּשַׁת מִפּוּמֵּיהּ דְּבַר־נָשׁ, הַהִיא מִלָּה סָלְקָא, וְאִתְּעַתְּדַת קַמֵּיהּ דְּקוּדְשָׁא בְּרִיךְ־הוּא. וְקוּדְשָׁא בְּרִיךְ־הוּא נָטֵיל לְהַהִיא מִלָּה, וְנָשֵׁיק לַהּ, וְעֲטַּר לַהּ בְּשִׁבְעִין עִטְרִין גְּלִיפִין וּמְחַקְּקָן. וּמִלָּה דְּחָכְמְתָא דְּאִתְּחַדְּשָׁא, סָלְקָא וְיָתְבָא עַל רֵישָׁא דְּצַדִּיק חַי עָלְמִין. וְטָסָא מִתַּמָּן, וְשָׁטָא בְּשִׁבְעִין אֲלַף עָלְמִין, וּסְלִיקַת לְגַבֵּי עַתִּיק־יוֹמִין. וְכָל מִלִּין דְּעַתִּיק־יוֹמִין - מִלִּין דְּחָכְמְתָא אִנּוּן, בְּרָזִין סְתִימִין עִלָּאִין.

וְהַהִיא מִלָּה סְתִימָא דְחָכְמְתָא דְּאִתְּחַדְּשַׁת הָכָא, כַּד סַלְקָא, אִתְּחַבְּרַת בְּאִנּוּן מִלִּין דְּעַתִּיק־יוֹמִין, וְסַלְקָא וּנְחַתָא בַּהֲדַיְיהוּ, וְעָאלַת בְּתַמְנֵיסַר עָלְמִין גְּנִיזִין דְּ"עַיִן לא רָאֲתָה אֱלֹהִים זוּלָתֶֽךָ" (ישעיה סד ג). נָפְקִי מִתַּמָּן, וְשָׁטָאן וְאַתְיָין מְלֵיאָן וּשְׁלֵמִין, וְאִתְּעַתַּדוּ קַמֵּי עַתִּיק־יוֹמִין.

בְּהַהִיא שַׁעֲתָא אֲרַח עַתִּיק־יוֹמִין בְּהַאי מִלָּה, וְנִיחָא קַמֵּיהּ מִכֹּלָּא. נְטֵיל לְהַהִיא מִלָּה, וְאַעֲטַר לַהּ בִּתְלַת־מְאָה וְשִׁבְעִין אֲלַף עִטְרִין. הַהִיא מִלָּה טְסַת, וְסַלְקָא וְנַחְתָא, וְאִתְעֲבִידָא רְקִיעָא חֲדָא. וְכֵן, כָּל מִלָּה וּמִלָּה דְּחָכְמְתָא - אִתְעֲבִידִין רְקִיעִין, קָיְימִין בִּקְיָימָא שְׁלִים קַמֵּי עַתִּיק־יוֹמִין. וְהוּא קָרֵי לוֹן 'שָׁמַֽיִם חֲדָשִׁים', 'שָׁמַֽיִם מְחוּדָשִׁים', סְתִימִין דְּרָזִין דְּחָכְמְתָא עִלָּאָה.

וְכָל אִנּוּן שְׁאָר מִלִּין דְּאוֹרַיְיתָא דְּמִתְּחַדְּשִׁין קָיְימִין קַמֵּי {5a} קוּדְשָׁא בְּרִיךְ־הוּא, וְסָלְקִין וְאִתְעֲבִידוּ 'אַרְצוֹת הַחַיִּים', וְנָחְתִין וּמִתְּעַטְּרִין לְגַבֵּי 'אֶֽרֶץ' חַד, וְאִתְּחַדַּשׁ וְאִתְעֲבִיד כֹּלָּא 'אֶֽרֶץ חֲדָשָׁה', מֵהַהִיא מִלָּה דְּאִתְּחַדַּשׁ בְּאוֹרַיְיתָא.

וְעַל דָּא כְּתִיב: "כִּי כַּאֲשֶׁר הַשָּׁמַֽיִם הַחֲדָשִׁים וְהָאָֽרֶץ הַחֲדָשָׁה אֲשֶׁר אֲנִי עוֹשֶׂה עוֹמְדִים לְפָנַי" (ישעיה סו כב). 'עָשִֽׂיתִי' לָא כְּתִיב, אֶלָּא "עוֹשֶׂה"! דְּעֲבֵיד תָּדִיר מֵאִנּוּן חִדּוּשִׁין וְרָזִין דְּאוֹרַיְיתָא. וְעַל דָּא כְּתִיב: "וָאָשִׂים דְּבָרַי בְּפִֽיךָ וּבְצֵל יָדִי כִּסִּיתִֽיךָ לִנְטֹֽעַ שָׁמַֽיִם וְלִיסוֹד אָֽרֶץ" (ישעיה נא טז). 'הַשָּׁמַֽיִם' לָא כְּתִיב, אֶלָּא "שָׁמָֽיִם"!

אֲמַר רִבִּי אֶלְעָזָר:
- מַהוּ "וּבְצֵל יָדִי כִּסִּיתִֽיךָ"?

אֲמַר לֵיהּ:
- בְּשַׁעֲתָא דְאִתְמָסַר אוֹרַיְיתָא לְמשֶׁה, אָתוּ כַּמָּה רִבּוֹא דְּמַלְאֲכֵי עִלָּאִין לְאוֹקְדָא לֵיהּ בְּשַׁלְהוֹבָא דְפוּמְּהוֹן, עַד דְּחֲפָא עֲלֵיהּ קוּדְשָׁא בְּרִיךְ־הוּא. וְהַשְׁתָּא דְהַאי מִלָּה סָלְקָא וְאִתְּעַטְּרַת וְקָיְימָא קַמֵּי קוּדְשָׁא בְּרִיךְ־הוּא, אִיהוּ חָפֵי עַל הַהִיא מִלָּה, וְכָסֵּי עַל הַהוּא בַּר־נָשׁ, דְּלָא יִשְׁתְּמוֹדַע לְגַבַּיְיהוּ אֶלָּא קוּדְשָׁא בְּרִיךְ־הוּא, וְלָא יְקַנְּאוּן לְגַבֵּיהּ, עַד דְּאִתְעֲבִיד מֵהַהִיא מִלָּה 'שָׁמַֽיִם חֲדָשִׁים' וְ'אֶֽרֶץ חֲדָשָׁה', הֲדָא הוּא דִכְתִיב: "וּבְצֵל יָדִי כִּסִּיתִֽיךָ לִנְטֽוֹעַ שָׁמַֽיִם וְלִיסוֹד אָֽרֶץ".

מִכָּאן, דְּכָל מִלָּה דִסְתִים מֵעֵינָא, סָלְקָא לְתוֹעַלְתָּא עִלָּאָה, הֲדָא הוּא דִכְתִיב: "וּבְצֵל יָדִי כִּסִּיתִֽיךָ". וְאַמַּאי אִתְחֲפֵי וְאִתְכַּסֵּי מֵעֵינָא? בְּגִין לְתוֹעַלְתָּא עִלָּאָה, הֲדָא הוּא דִכְתִיב: "לִנְטֽוֹעַ שָׁמַֽיִם וְלִיסוֹד אָֽרֶץ", כְּמָה דְּאִתְּמַר.

וְלֵאמֹר לְצִיּוֹן: 'עַמִּי אָתָּה'. וְלֵאמֹר לְאִנּוּן תַּרְעִין וּמִלִּין דִּמְצוּיָינִין אִלֵּין עַל אִלֵּין: 'עַמִּי אָתָּה'. אַל תִּקְרֵי 'עַמִּי אָתָּה', אֶֽלָּא 'עִמִּי אָתָּה', לְמֶהוֵי שׁוּתָּפָא עִמִּי. מָה אֲנָא בְּמִלּוּלָא דִילִי עֲבָדִית 'שָׁמַֽיִם וָאָֽרֶץ', כְּמָא דְאַתְּ אָמֵר: "בִּדְבַר יְהֹוָה שָׁמַֽיִם נַעַשִׂוּ" (תהלים לג ו), אוּף הָֽכִי אַתְּ. זַכָּאִין אִנּוּן דְּמִשְׁתַּדְּלֵי בְּאוֹרַיְיתָא!

וְאִי תֵימָא דְּמִלָּה דְכָל בַּר־נָשׁ דְּלָא יָדַע עָבִיד דָּא, תָּא חֲזֵי! הַהוּא דְּלָאו אָרְחֵיהּ בְּרָזִין דְּאוֹרַיְיתָא, וְחִדֵּשׁ מִלִּין דְּלָא יְדַע עַל בּוּרְיֵיהוֹן כְּדְקָא יְאוּת - הַהִיא מִלָּה סַלְקָא, וְנָפִיק לְגַבֵּי הַהִיא מִלָה "אִישׁ תַּהְפּוּכוֹת לְשׁוֹן שָֽׁקֶר" (משלי טז כח), מִגּוֹ נוּקְבָא דִתְהוֹמָא רַבָּא, וְדָלִיג חֲמֵשׁ־מְאָה פַּרְסֵי לְקַבְּלָא לְהַהִיא מִלָּה, וְנָטִיל לָהּ, וְאָזִיל בְּהַהִיא מִלָּה לְגוֹ נוּקְבֵיהּ, וְעָבִיד בָּהּ רְקִיעָא דְשָׁוְא דְּאִקְרֵי 'תֹּֽהוּ'. וְטָס בְּהַהוּא רְקִיעָא הַהוּא "אִישׁ תַּהְפּוּכוֹת" שִׁיתָּא־אַלְפֵי פַּרְסֵי בְּזִמְנָא חָדָא. כֵּיוָן דְּהַאי רְקִיעָא דְשָׁוְא קָאִים, נָפְקַת מִיָּד "אֵשֶׁת זְנוּנִים", וְאַתְקִיפת בְּהַהוּא רְקִיעָא דְשָׁוְא היא ו"איש תהפוכות", וְאִשְׁתַּתְּפַת בֵּיהּ, וּמִתַּמָּן נָפְקַת וְקָטְלַת כַּמָּה אֲלָפִין וְרִבְוָון. בְּגִין דְּכַד קָיְימַת בְּהַהוּא רְקִיעָא, אִית לָהּ רְשׁוּ וִיכָלְתָּא לְמֶהֱוֵי טָס כָּל עָלְמָא בְּרִגְעָא חֲדָא.

וְעַל דָּא כְּתִיב: "הוֹי מוֹשְׁכֵי הֶעָוֹן בְּחַבְלֵי הַשְּׁוָא" (ישעיה ה יח). 'הֶעָוֹן' - דָּא דְכוּרָא. "וְכַעֲבוֹת הָעֲגָלָה חַטָּאָה" - מַאן 'חַטָּאָה'? דָּא נוּקְבָא דְאִקְרֵי 'חַטָּאָה'. אִֽיהוּ מָשִׁיךְ הַהוּא דְאִקְרֵי 'עָוֹן' בְּאִנּוּן 'חַבְלֵי הַשָּׁוְא'. וּלְבָתַר, 'כַּעֲבוֹת הָעֲגָלָה חַטָּאָה' - לְהַהִיא נוּקְבָא דְאִקְרֵי 'חַטָּאָה', דְּתַמָּן אִתְתַּקְפַת לְמֶהוֵי טָס לְקַטְלָא בְּנֵי־נָשָׁא. וְעַל דָּא, "כִּי־רַבִּים חֲלָלִים הִפִּֽילָה" (משלי ז כו). מַאן הִפִּֽילָה? דָּא הַהִיא חַטָּאָה דְּקָטְלִית בְּנֵי נְשָׁא. מָאן גָּרִים דָּא? תַּלְמִיד חָכָם דְּלָא מָטֵי לְהוֹרָאָה וּמוֹרֶה, רַחֲמָנָא לִשֵּׁזְבָן.

אָמַר רִבִּי שִׁמְעוֹן לְחַבְרַיָא:
- בְּמָטוּתָא מִנַּֽיְיכוֹ, דְּלָא תַפְקוּן מִפּוּמַיְיכוּ מִלָּה דְאוֹרַיְיתָא דְלָא יְדַעְתּוּן וְלָא שְׁמַעְתּוּן מֵאִילָנָא רַבְרְבָא כְּדְקָא יְאוּת, בְּגִין דְּלָא תֶהווֹן גָּרְמִין לְהַהוּא 'חַטָּאָה' לְקַטְלָא אֻכְלוֹסִין דְּבַּר־נָשׁ לְמַגָּנָא.
פָּתְחוּ כֻּלְהוֹן וְאָמְרוּ:
- רַחֲמָנָא לִשֵּׁזְבָן, רַחֲמָנָא לִשֵּׁזְבָן!

תָּא חֲזֵי! בְּאוֹרַיְיתָא בָּרָא קוּדְשָׁא בְּרִיךְ־הוּא עָלְמָא, וְהָא אוֹקְמֽוּהָ, דִּכְתִיב: "וָאֶהְיֶה אֶצְלוֹ אָמוֹן וָאֶהְיֶה שַׁעֲשׁוּעִים יוֹם יוֹם" (משלי ח ל). וְאִֽיהוּ אִסְתַּכַּל בָּהּ זִמְנָא, וּתְרֵין, וּתְלָתָא, וְאַרְבַּע זִמְנִין, וּלְבָתַר אָמַר לוֹן, וּלְבָתַר עָבִיד בָּהּ עֲבִידְתָּא, לְאוּלְפָא לִבְנֵי נָשָׁא דְּלָא יִיִתוֹן לְמִטְעֵי בָּהּ, כְּמָא דְאַתְּ אָמֵר: "אָז רָאָהּ, וַיְסַפְּרָהּ, הכִֽינָהּ, וְגַם־חֲקָרָהּ, וַיֹּֽאמֶר לָאָדָם" (איוב כח כז).

לָקֳבֵיל אַרְבַּע זִמְנִין אִנּוּן דִּכְתִיב: "אָז רָאָהּ, וַיְסַפְּרָהּ, הכִֽינָהּ, וְגַם חֲקָרָהּ" - בָּרָא קוּדְשָׁא בְּרִיךְ־הוּא מַה דְּבָרָא. וְעַד לָא אַפִּיק עֲבִידְתֵּיהּ, אָעִיל אַרְבַּע תֵּבִין בְּקַדְמִיתָא, דִּכְתִיב: "בְּרֵאשִׁית בָּרָא אֱלֹהִים אֶת", הָא אַרְבַּע. וּלְבָתַר "הַשָּׁמַֽיִם" - אִנּוּן לָקֳבֵיל אַרְבַּע זִמְנִין דְּאִסְתַּכַּל קוּדְשָׁא בְּרִיךְ־הוּא בְּאוֹרַיְיתָא עַד לָא יָפִּיק עֲבִידְתֵּיהּ לְאוּמְנוּתֵיהּ.