אָמַר לֵיהּ רִבִּי אֶלְעָזָר:
- הַאי קְרָא דִּכְתִיב: "מִי לא יִרָאֲךָ מֶֽלֶךְ הַגּוֹיִם כִּי לְךָ יָאָתָה" (ירמיה י ז) - מַאי שְׁבָחָא אִֽיהוּ?

אֲמַר לֵיהּ:
- אֶלְעָזָר בְּרִי, הַאי קְרָא בְּכַמָּה דוּכְתֵּי אִתְּמַר, אֲבָל וַדַּאי לָאו אִיהוּ הָכִי, דִּכְתִיב: "כִּי בְכָל־חַכְמֵי הַגּוֹיִם וּבְכָל־מַלְכוּתָם" (ירמיה י ז), דְּהָא אֲתָא לְמִפְתַּח פּוּמָּא דְחַיָּיבִין, דְּחָשְׁבִין, דְּקוּדְשָׁא בְּרִיךְ־הוּא לָא יְדַע הִרְהוּרִין וּמַחְשָׁבִין דִּילְהוֹן?! וּבְגִין כָּךְ אִית לְאוֹדָעָא שְׁטוּתָא דִלְהוֹן!

דְּזִמְנָא חֲדָא, אֲתָא פִּילוֹסוֹפָא חֲדָא דְּאוּמוֹת הָעוֹלָם לְגַבָּאי, אֲמַר לִי:
- אַתּוּן אָמְרִין דֶּאֱלָהֲכוֹן שַׁלִּיט בְּכָל רוּמֵי שְׁמַיָּא - כֻּלְּהוֹן חַיָּילִין וּמַשִּׁרְיָין, לָא אִדַּבְּקָן, וְלָא יָדְעֵי אֲתַר דִּילֵיהּ?! הַאי קְרָא לָא אַסְגֵּי יְקָרֵיהּ כָּל כָּךְ, דִּכְתִיב: "כִּי בְכָל־חַכְמֵי הַגּוֹיִם וּבְכָל־מַלְכוּתָם מֵאֵין כָּמֽוֹךָ". מַאי שִׁיקּוּלָא דָא לִבְנֵי־נָשָׁא דִּי לֵית {1a} לוֹן קִיּוּמָא?

וְתוּ, דְּאַתּוּן אָמְרִין "וְלא־קָם נָבִיא עוֹד בְּיִשְׂרָאֵל כְּמשֶׁה" (דברים לד י) - בְּיִשְׂרָאֵל, לֹא קָם, אֲבָל בְּאוּמוֹת הָעוֹלָם, קָם! אוּף הָכִי, אֲנָא אֵימָא: בְּכָל חַכְמֵי הַגּוֹיִם אֵין כָּמוֹהוּ, אֲבָל בְּחַכְמֵי יִשְׂרָאֵל - אִית. אִי הָכִי, אֱלָהָא דְאִית בְּחַכְמֵי יִשְׂרָאֵל כְּוָותֵיהּ, לָאו אִיהוּ עִלָּאָה שַׁלִּיטָא. אִסְתַּכַּל בַּקְּרָא, וְתִשְׁכַּח דְּדַיִּיקְנָא כְּדְקָא יְאוּת!

אָמֵינָא לֵיהּ:
- וַדַּאי שַׁפִּיר קָא אֲמַרְתְּ! מַאן מְחַיֶּה מֵתִים? אֶלָּא קוּדְשָׁא בְּרִיךְ־הוּא בִּלְחוֹדוֹי?! - אֲתָא אֵלִיָּהוּ וְאֱלִישָׁע, וְאַחֲיוּ מֵתַיָיא! מַאן מוֹרִיד גְּשָׁמִים? אֶלָּא קוּדְשָׁא בְּרִיךְ־הוּא בִּלְחוֹדוֹי?! - אֲתָא אֵלִיָּהוּ וּמְנַע לוֹן, וּנְחִית לוֹן בִּצְלוֹתֵיהּ!! מַאן עֲבַד שְׁמַיָּא וְאַרְעָא? אֶלָּא קוּדְשָׁא בְּרִיךְ־הוּא בִּלְחוֹדוֹי?! אֲתָא אַבְרָהָם, אִתְקַיָימוּ בְּקִיּוּמוֹהִי בְּגִינֵיהּ!! מַאן מַנְהִיג שִׁמְשָׁא? אֶלָּא קוּדְשָׁא בְּרִיךְ־הוּא?! - אֲתָא יְהוֹשֻׁעַ וְשָׁכִיךְ לֵיהּ וּפַקִּיד לֵיהּ דְּיֵקוּם עַל קִיּוּמֵיהּ וְאִשְׁתְּכַך, וּכְתִיב: "וַיִּדּוֹם הַשֶּֽׁמֶשׁ וְיָרֵֽחַ עָמָד" (יהושע י יג).



קוּדְשָׁא בְּרִיךְ־הוּא גּוֹזֵר גְּזַר דִּין - אוּף הָכִי משֶׁה גָּזִיר גְּזַר דִּין, וְאִתְקַיָּימוּ. וְתוּ, דְּקוּדְשָׁא בְּרִיךְ־הוּא גּוֹזֵר גִּזְרִין, וְצַדִּיקַיָּא דְּיִשְׂרָאֵל מְבַטְּלִין לוֹ, דִּכְתִיב: "צַדִּיק מוֹשֵׁל יִרְאַת אֱלֹהִים". וְתוּ, דְּאִיהוּ פַּקִּיד לוֹן לְמְהַךְ בְּאוֹרְחוֹי מַמָּשׁ, לְאִתְדְּמָא לֵיהּ בְּכֹלָּא.

אֲזַל הַהוּא פִּילוֹסוֹפָא, וְאִתְגָיָּיר בִּכְפַר שְׁחָלַיִם, וְקָרוּן לֵיהּ יוֹסֵי קְטִינָאָה. וְאוֹלִיף אוֹרַיְיתָא סַגְיָא, וְאִיהוּ בֵּין חַכִּימִין וְזַכָּאִין דְּהַהוּא אֲתַר.

הַשְׁתָּא, אִית לְאִסְתַּכְּלָא בַּקְּרָא, וְהָא כְּתִיב: "כָּל־הַגּוֹיִם כְּאַיִן נֶגְדוֹ" (ישעיה מ יז). מַאי רִבּוּיָא הָכָא? אֶלָּא, "מִי לא יִרָאֲךָ מֶֽלֶךְ הַגּוֹיִם" - וְכִי "מֶֽלֶךְ הַגּוֹיִם" אִיהוּ, וְלָאו "מֶֽלֶךְ יִשְׂרָאֵל". אֶלָּא בְּכָל אֲתַר, קוּדְשָׁא בְּרִיךְ־הוּא בָּעָא לְאִשְׁתַּבָּחָא בְּיִשְׂרָאֵל, וְלָא אִתְקְרֵי, אֶלָּא עַל יִשְׂרָאֵל בִּלְחוֹדוֹי, דִּכְתִיב: "אֱלֹהֵי יִשְׂרָאֵל" (שמות ה א), "אֱלֹהֵי הָעִבְרִים" (שמות ה ג), וּכְתִיב: "כֹּה־אָמַר יהוה מֶֽלֶךְ־יִשְׂרָאֵל" (ישעיה מד ו). "מֶֽלֶךְ יִשְׂרָאֵל" וַדַּאי.

אָמְרוּ אוּמוֹת הָעוֹלָם:
- פַּטְרוֹן אָחֳרָן אִית לַן בִּשְׁמַיָּא, דְּהָא מַלְכֵיכוֹן לָא שָׁלִיט, אֶלָא עֲלַיְיכוּ בִּלְחוֹדֵיכוֹן, וְעֲלָנָא לָא שָׁלִיט!

אֲתָא קְרָא וְאָמַר: "מִי לֹא יִרָאֲךָ מֶֽלֶךְ הַגּוֹיִם" - מלכא עילאה, לרדאה לון, ולאלקאה לון, ולמעבד בהון רעותיה. "כי לך יאתה" - לדחלא מנך לעילא ותתא. "כי בכל־חכמי הגוים" - אִלֵּין שַׁלִּיטִין רַבְרְבָן דִּי מְמַנָּן עֲליְיהוּ. "וּבְכָל־מַלְכוּתָם" - בְּהַהוּא מָלְכוּ דִּלְעֵילָּא, דְּהָא אַרְבַּע מַלְכְּוָון שַׁלִּיטִין אִית לְעֵילָּא, וְשָׁלְטִין בִּרְעוּתֵיהּ עַל כָּל שְׁאָר עַמִּין.

וְעִם כָּל דָּא, לֵית בְּהוּ דְּיַעֲבִיד אֲפִילּוּ מִלָּה זְעֵירָא, אֶלָּא כְּמָה דְּפָּקִּיד לוֹן, דִּכְתִיב: "וּכְמִצְבְּיֵה עָבִיד בְּחֵיל שְׁמַיָּא וְדָיְירֵי אַרְעָא" (דניאל ד לב). "חַכְמֵי הַגּוֹיִם" - אִנּוּן מְמַנָּן וְרַבְרְבָן דִּלְעֵילָּא, דְּחָכְמְתָא דִּלְהוֹן מִנַּיְיהוּ הֲוָה. "בְּכָל־מַלְכוּתָם" - מַלְכוּתָא דְּשָׁלִיט, כְּמָה דְאִתְּמַר. וְדָא הוּא קְרָא כִּפְשָׁטֵיהּ.

אֲבָל "בְּכָל־חַכְמֵי הַגּוֹיִם וּבְכָל־מַלְכוּתָם" - הַאי אַשְׁכַּחְנָא בְּסִפְרֵי קַדְמָאֵי, דְּאִנּוּן מַשִּׁרְיָין וְחַיָילִין, אַף עַל גַּב דְּאִתְפַּקְּדָן עַל מִלִּין דְּעָלְמָא, וּפַקִּיד לְכָל חַד לְמֶעֱבַד עֲבִידְתָּא.

מַאן הוּא, סְתִימָא קַדִּישָׁא וְלָא כרעותיה, דְּיַעֲבִיד שׁוּם חַד מִנַּיְיהוּ כָּמֽוֹךָ? בְּגִין דְּאַנְתְּ רְשִׁים בְּעִילוּיָא, וְאַתְּ רְשִׁים בְּעוֹבָדָךְ מִכֻּלְּהוּ. וְדָא הוּא "מֵאֵין כָּמֽוֹךָ יהוה".

מַאן הוּא סְתִימָאָה קַדִּישָׁא, דְּיַעֲבִיד וְלֶהֱוֵי כָּמֽוֹךָ עֵילָּא וְתַתָּא, וִיהֵא דָּמֵי לָךְ בכלא? עוֹבָדָא דְמַלְכָּא קַדִּישָׁא, שָׁמַֽיִם וָאָֽרֶץ.

אֲבָל אִנּוּן "תֹּֽהוּ וַחֲמוּדֵֽיהֶם בַּל־יוֹעִֽילוּ" (ישעיה מד ט). בְּקוּדְשָׁא בְּרִיךְ־הוּא כְּתִיב "בְּרֵאשִׁית בָּרָא אֱלֹהִים …", בְּמַלְכוּתָם כְּתִיב "וְהָאָֽרֶץ הָיְתָה תֹֽהוּ וָבֹֽהוּ".

אֲמַר רִבִּי שִׁמְעוֹן לְחַבְרַיָּיא:
- בְּנֵי הִלּוּלָא דָא! כָּל חַד מִנְּכוֹן יְקַשֵּׁט קִשּׁוּטָא חַד לְכַּלָּה.

אֲמַר לְרִבִּי אֶלְעָזָר בְּרֵיהּ:
- אֶלְעָזָר! הַב נְבַזְבְּזָא חַד לְכַּלָּה, דְּהָא לְמָחָר אִסְתַּכַּל קודשא בְּרִיך הוּא בַּהּ, כַּד יֵעוּל לַחוּפָּה בְּאִנּוּן שִׁירִין וּשְׁבָחִין, דְּיַהֲבוּ לָהּ בְּנֵי הֵיכָלָא לְקַיְּימָא קַמֵּיהּ.