שְׁבָחָא וְשִׁירָא דִי אֲמַר אָדָם קַדְמָאָה עַל יוֹמָא דְשַׁבַּתָּא:
טָב לְאוֹדָאָה קֳדָם יְיָ וּלְשַׁבָּחָא שְׁמָךְ עִלָאָה:
לְתַנָאָה בְּצַפְרָא טוּבָךְ וְקוּשְׁטָךְ בְּלֵילְוָן:
עַל פּוּם כִּנָרָא דַעֲשַׂרְתֵּי נִימִין וְעַל פּוּם נִבְלָא עֲלֵי רִנְנַת כִּנָרַיָא:
אֲרוּם אַחְדִיתַנִי יְיָ בְּעוֹבָדָךְ בְּעוֹבָדֵי אַיְדָךְ אֲבוּעַ:
כַּמָה רַבְרְבִין עוֹבָדָךְ יְיָ לַחֲדָא עֲמִיקִין מַחְשְׁבָתָיִךְ:
בַּר נַשׁ שַׁטְיָא לָא יְדָע וּכְסִילָא לָא יַתְבַּיֵן יַת דָא:
כַּד מִתְלַבְלְבִין רַשִׁיעַיָא הֵיךְ עִסְבָּא וְנָצְצִין כָּל עָבְדֵי שְׁקַר וַעֲתִיד דִישֵׁצִינוּן אֱלָהָא עַד עָלְמָא:
וְאַתְּ רְמָא וְעִלָאָה בְעַלְמָא הָדֵין יְיָ וְאַתְּ רְמָא וְעִלָאָה לְעַלְמָא דְאָתֵי:
אֲרוּם הָא בַעֲלֵי דְבָבָךְ יְיָ אֲרוּם הָא בַעֲלֵי דְבָבָךְ יְהוֹבְדוּן לְעַלְמָא דְאָתֵי מִתְפָּרְשִׁין מִן סִיעָתְהוֹן דְצַדִיקַיָא כָּל עָבְדֵי שְׁקָר:
וְזַקֵפְתָּא הֵיךְ רֵימְנָא תוּקְפִי רַבֵּיתָא יָתִי בִּמְשַׁח רְבוּתָא רַטִיבָא דְזַיִת עַבּוּף:
וְאִסְתַּכָּלַת עַיְנִי בְּאוּבְדָנָא דִמְעִיקֵי בְּקָיְמִין עֲלַי לְאַבְאָשָׁא שָׁמְעָן אוּדְנַי קָל תְּבִירְהוֹן:
צַדִיקָא הֵיךְ דִקְלָא יְלַבְלֵב פֵּרִין הֵיךְ אַרְזָא בְּלִבְנָן יִסְגֵא וְיַעְבֵּיד שָׁרָשִׁין:
בְּנוֹי יֶהֱווֹן שְׁתִילִין בְּבֵית מַקְדְשָׁא דַייָ בְּדָרַת בֵּית אֱלָהָנָא יְלַבְלְבוּן:
תּוּב כַּאֲבָהָתְהוֹן יַעְבְּדוּן בְּנִין בְּשֵׂיבוּ דְהֵנִין וְרַטִיבִין יְהוֹן:
מְטוּל דִיחַווּן דַיָרֵי אַרְעָא אֲרוּם תְרִיץ יְיָ תָּקְפִי וְלֵית עַוְלְתָה בֵּיהּ:
