לְשַׁבָּחָא שִׁירָא תּוּשְׁבַּחְתָּא יַבִּיבוּ קֳדָם יְיָ כָּל יָתְבֵי אַרְעָא:
שַׁבַּחוּ אַיְקַר שְׁמֵיהּ שַׁווּ אַיְקַר תּוּשְׁבַּחְתֵּיהּ:
אֱמַרוּ קֳדָם אֱלָהָא מַה דְחִילִין הִנוּן עוֹבָדָךְ בִּסְגִיעֵי עוּשְׁנָךְ יְכַדְבוּן לָךְ בַּעֲלֵי דְבָבָךְ:
כָּל יָתְבֵי אַרְעָא יִסְגְדוּן קָדָמָךְ וִישַׁבְּחוּן לָךְ יְשַׁבְּחוּן שְׁמָךְ לְעָלְמִין:
אֱזִילוּ וַחֲמוֹן עוֹבָדֵי אֱלָהָא דְחִיל מָרֵי תַּסְקוֹפִין עַל בְּנֵי נָשָׁא:
הֲפַךְ יַמָא דְסוֹף לְיַבֶּשְׁתָּא בִּנְהַר יוֹרְדְנָא עֲבַרוּ בְּנֵי יִשְׂרָאֵל בְּרִגְלֵיהוֹן אוֹבִיל יַתְהוֹן לְטוּר קוּדְשֵׁיהּ תַּמָן נֶחֱדֵי בְּמֵימְרֵיהּ:
דְשַׁלִיט בְּכֹחַ גְבוּרְתֵּיהּ עַל עַלְמָא עֵינוֹי בְּעַמְמַיָא מִסְתַּכְּלִין מְסַרְהֲבִין לָא יִתְרְמוֹן לְהוֹן לְעָלְמִין:
בְּרִיכוּ עַמְמַיָא אֱלֹהִים וְאַשְׁמִיעוּ קָל תּוּשְׁבַּחְתֵּיהּ:
דְמַנֵי נַפְשָׁנָא בְּחַיֵי דְעָלְמָא דְאָתֵי וְלָא מְסַר לְאִזְדַעֲזָעָא רִגְלָנָא:
אֲרוּם בְּחַנְתָּנָא אֱלָהָא אַתֵּכְתָּנָא הֵיךְ קֵנָאָה דְמַתֵּךְ סִימָא:
אֲעֵלְתָּנָא בַּמְצֻדְתָּא שַׁוִיתָא שׁוֹשִׁילְתָּא בְּחַרְצָנָא:
אַמְאֵכְתָּנָא אַרְכֵּבְתָּא מָרֵי מְזוֹפִיתָא עַל רֵישָׁנָא דַנְתָּא יָתָנָא כְּדִי בְנוּרָא וּבְמוֹי וְאַפֵּקְתָּנָא לִרְוַחְתָּא:
אֵעוּל לְבֵיתָךְ בְּעִלַוָן אֲשַׁלֶם לָךְ נִדְרָי:
וְדִי פְתַחוּ סִפְוָתִי וּמַלֵיל פּוּמִי בִּדְעָק לִי:
עַלְוָן שְׁמֵנִין אַסִיק קֳדָמָךְ עִם קְטוֹרַת בּוּסְמִין קָרְבַּן דִכְרִין אַעְבֵּד תּוֹרִין עִם בַּרְחַיָא לְעָלְמִין:
אֱזִילוּ שְׁמַעוּ וְאִשְׁתָּעֵי כָּל דַחֲלַיָא דֶאֱלָהָא מַה דַעֲבַד לְנַפְשִׁי:
לְוָתֵיהּ בְּפוּמִי קְרֵיתִי וְתוּשְׁבַּחְתֵּיהּ תְּחוֹת לִישָׁנִי:
שְׁקָר אִין חֲמִיתִי בְּלִבִּי הַאֶפְשַׁר דִי לָא יִשְׁמַע יְיָ:
בְּקוּשְׁטָא שְׁמַע אֱלָהָא אֲצֵית בְּקָל צְלוֹתִי:
בְּרִיךְ אֱלָהָא דְלָא אַעְדֵי צְלוֹתִי וְטוּבֵיהּ מִנִי:
