לְשַׁבָּחָא תֻּשְׁבַּחְתָּא לְדָוִד:
כַּד אֲתָא לְוָתֵיהּ נָתָן נְבִיָא כַּד שַׁמֵשׁ עִם בַּת שֶׁבַע:
חוּס עֲלָי יְיָ הֵיךְ טִיבוּתָךְ הֵיךְ סְגִיאוּת רַחֲמָךְ שְׁבוֹק מְרוֹדָי:
סוּגְעָא תְחַוְרִנַנִי מִן עַוְיָתִי וּמִן חוֹבִי תַדְכֵי יָתִי:
אֲרוּם מְרוֹדַי קֳדָמַי גַלְיָן וְחוֹבִי לְקִבְלִי תְדִירָא:
קֳדָמָךְ בִּלְחוֹדָךְ חָבֵית וּדְבִישׁ קֳדָמָךְ עֲבַדֵית מִן בִּגְלַל דִתְזַכֵּי יָתִי בְּמַלָלוּתָךְ תִּבְרוֹר יָתִי כַּד תְּדִין:
הָא בְּעַוְיָא אִתְיְלִידֵית וּבְחוֹבָא עִבְּרַת מִנִי אִמִי:
הָא קוּשְׁטָא רַעִיתָא בְכוּלִין וּבְטִמוּר לִבָּא חוּכְמְתָא תְהוֹדְעִנֵנִי:
תַּדֵי עֲלַי הֵיךְ כֲּהַנָא דְמַדֵי בְאֵזוֹבָא עַל מְסַאֲבָא מוֹי אֲדָיוּתָא מִן קְטַם תּוֹרָתָא וְאִדַכֵּי תַּסְחִנַנִי וּמִן תַּלְגָא אֶתְחַוָר:
תְּבַשְׂרִנַנִי חֶדְוָא וַאֲדִיצוּתָא תַּבִּיעָן תּוּשְׁבַּחְתָּא אֵיבְרַיָא רְשָׁפִיתָא:
סָלִיק אַפָּךְ מִן חוֹבַי וְכָל עַוְיָתַי מְחֵי:
לֵב בְּרִיר בָּרֵי לִי אֱלָהָא וְרוּחַ מְכַוֵן בִּדְחַלְתָּךְ חֲדֵית בְּגַוָי:
לָא תִטְלוֹק יָתִי מִן קֳדָמָךְ וְרוּחַ נְבוּאַת קוּדְשָׁךְ לָא תְסַלֵק מִנִי:
אֲתֵיב לִי אוֹרַיְתָךְ לְמֵדוּץ בְּפוּרְקָנָךְ וְרוּחַ נְבוּאָה תִסְמְכִנַנִי:
אַאֲלֵף לִמְרוֹדַיָא אָרְחָתָךְ וְחַיָבַיָא קֳדָמָךְ יְתוּבוּן:
פְּצֵי יָתִי מִדִין קְטוֹל יְיָ אֱלֹהַי פּוּרְקָנִי תַּבִּיעַ לִישָׁנִי צִדְקָתָךְ:
יְיָ סִפְוָתַי פְּתַח בְּאוֹרַיְתָא וּפוּמִי יַתְנֵי תּוּשְׁבַּחְתָּךְ:
אֲרוּם לָא תִצְבֵי נִכְסַת קוּדְשָׁא וְאֶתֵּן עָלְתָא לָא תִתְרְעֵי:
נִכְסַת קוּדְשָׁא דֶאֱלָהָא נַפְשָׁא מִתַּבְרָא לֵב תְּבִיר וְשָׁפִי אֱלָהָא לָא תִבְסוֹר:
אוֹטִיב בְּרַעֲוָתָךְ יַת צִיוֹן תְּשַׁכְלֵל שׁוּרֵי יְרוּשְׁלֵם:
בְּכֵן תִּצְבֵי דִבְחִין דְצִדְקְתָא עַלְתָא וּגְמִיר הַבְכֵן יַסְקוּן כַּהֲנַיָא עַל מַדְבְּחָא תּוֹרִין:
