הַלְלוּיָהּ שַׁבַּחוּ יַת שְׁמָא דַייָ שַׁבַּחוּ עַבְדַיָא דַיָי:
דְקָיְמִין בְּבֵית מַקְדְשָׁא דַייָ בְדָרַת בֵּית אֱלָהָנָא:
הַלְלוּיָהּ אֲרוּם טָב יְיָ זַמְרוּ לִשְׁמֵיהּ אֲרוּם בְּסִים:
אֲרוּם דְבֵית יַעֲקֹב בְּחַר לֵיהּ יְיָ יִשְׂרָאֵל לְחִבּוּבֵיהּ:
אֲרוּם אֲנָא יְדַעֵית אֲרוּם רַב יְיָ וְרִבּוֹנְנָא עַל כָּל אֱלֹהִים:
כָּל דִי יִתְרְעֵי יְיָ עֲבַד בִּשְׁמַיָא וּבְאַרְעָא בְּיַמְמַיָא וְכָל תְּהוֹמַיָא:
דְמַסִיק עֲנָנִין מִסְיָפֵי אַרְעָא בְּרָקִין לְמֵחַת מִטְרָא עֲבַד דְמַפֵּק זַעֲפָא מִן טוּסְבְּרַיָא דִילֵיהּ:
דִי קְטַל בּוּכְרַיָא דְמִצְרָאֵי מֵאֱנָשָׁא עַד בְּעִירָא:
שְׁדַר אָתִין וְתִמְהִין בִּמְצִיעַיִךְ מִצְרָיִם בְּפַרְעֹה וּבְכָל עַבְדוֹי:
דִי מְחָא עַמְמִין סַגִיעִין וּקְטַל מַלְכִין תַּקִיפִין:
לְסִיחוֹן מַלְכָּא אֱמוֹרָהָא וּלְעוֹג מַלְכָּא דְמַתְנָן וּלְכֹל מַלְכְּוָת כְּנָעַן:
וִיהַב אַרְעֲהוֹן אַחְסָנָא אַחְסָנָא לְיִשְׂרָאֵל עַמֵיהּ:
יְיָ שְׁמָךְ לַעֲלַם יְיָ דִכְרָנָךְ לְדָר וְדָר:
אֲרוּם יְדִין יְיָ בְּמֵימְרֵיהּ דִינָא דְעַמֵיהּ וְעַל עַבְדוֹי צַדִיקַיָא יְתוּב בְּרַחֲמוֹי:
טַעֲוָן דְעַמְמַיָא סִימָא וְדַהֲבָא עוֹבַד אַיְדֵי בַּר נָשׁ:
פּוּם לְהוֹן וְלָא מְמַלְלִין עַיְנִין לְהוֹן וְלָא חָמְיָן:
אוּדְנִין לְהוֹן וְלָא צָיְתִין נְחִירֵי וְלָא אִית רוּחָא דְחַיֵי בְּפוּמְהוֹן:
דִי כְמָתְהוֹן יְהוֹן עוֹבָדֵיהוֹן כָּל דְמִתְרַחֵץ עֲלֵיהוֹן:
דְבֵית יִשְׂרָאֵל בָּרִיכוּ יַת יְיָ דְבֵית אַהֲרֹן בָּרִיכוּ יַת יְיָ:
דְבֵית לֵוָאֵי בָּרִיכוּ יַת יְיָ דַחֲלַיָא דַייָ בָּרִיכוּ יַת יְיָ:
בְּרִיךְ יְיָ מִצִיוֹן דְאַשְׁרֵי שְׁכִנְתֵּיהּ בִּירוּשְׁלֵם הַלְלוּיָהּ:
