וַחֲמָא בִּלְעָם אֲרוּם שְׁפַר הֲוָה קֳדָם יְיָ לְבָרְכָא יַת יִשְרָאֵל וְלָא הֲלִיךְ זְמַן בָּתַר זְמַן לִקְדָמוּת קוּסְמַיָא וְשַׁוִי לְמַדְבְּרָא אַנְפּוֹי לְמַדְכַּר עֲלֵיהוֹן עוּבְדָא דְעֵיגְלָא דַעֲבָדוּ תַּמָן
וּזְקַף בִּלְעָם יַת עֵינוֹי וַחֲמָא יַת יִשְרָאֵל שַׁרְיַין לְשִׁבְטֵיהוֹן בְּבָתֵּי מֶדְרָשֵׁיהוֹן וְלָא הֲווֹן תַּרְעֵיהוֹן מְכַוְונִין כֻּלוֹ קֳבֵיל תַּרְעֵי חַבְרֵיהוֹן וּשְׁרַת עֲלוֹי רוּחַ נְבוּאָה מִן קֳדָם יְיָ
וּנְטַל מְתַל נְבוּתֵיהּ וַאֲמַר אֵימַר בִּלְעָם בַּר בְּעוֹר וְאֵימַר גַבְרָא דְיַקִיר מִן אָבוּי דְרַזְיָא סְתִימַיָא מַה דְאִתְכַּסֵי מִן נְבִיָיא הֲוָה מִתְגְלֵי לֵיהּ וְעַל דְלָא הֲוָה גָזִיר נָפִיל עַל אַנְפּוֹי עַד זְמַן דְשָׁרֵי מַלְאָכָא לְקִיבְּלֵיהּ
אֵימַר דִשְׁמַע מֵימַר מִן קֳדָם אֱלָהָא חַיָיא דְחֵיזִיוּ מִן קֳדָם אֵל שַׁדַי הֲוָה חָמֵי וְכַד בָּעֵי דְמִתְגְלֵי לֵיהּ הֲוָה מִשְׁתַּטַח עַל אַנְפּוֹי וְרַזְיָא סְתִימַיָא מָה דְאִתְכַּסֵי מִן נְבִיָא מִתְגְלֵי לֵיהּ
כַּמָה יָאוָון הִינוּן בָּתֵּי מֶדְרָשֵׁיכוֹן בְּמַשְׁכְּנָא דִי שַׁמֵשׁ בְּהוֹן יַעֲקב אֲבוּכוֹן וְכַמָה יָאֵי הוּא מַשְׁכַּן זִמְנָא דִמְיַיצַע בֵּינֵיכוֹן וּמַשְׁכְּנֵיכוֹן דַחֲזוֹר חֲזוֹר לֵיהּ בֵּית יִשְרָאֵל
כְּנַחְלִין דְמַיָין דְמִתְגַבְּרִין כֵּן הִינוּן בְּנֵי יִשְרָאֵל יַתְבִין עִדְרִין עִדְרִין מִתְגַבְּרִין בְּאוּלְפַן אוֹרַיְיתָא וְהֵי כְּגַנִין שְׁתִילִין עַל פְּרַקְטוֹנֵי נַהֲרִין כֵּן הִינוּן תַּלְמִידֵיהוֹן חֲבוּרַן חֲבוּרַן בְּבֵית מֶדְרָשֵׁיהוֹן זִיו אַפֵּיהוֹן יַנְהַר כְּזִיו רְקִיעִין דִי בְרָא יְיָ בְּיוֹם תִּנְיַין לִבְּרִיאַת עַלְמָא וּמַתְחִינוּן לִיקַר שְׁכִינְתָּא רַמְיַין וּמְנַטְלִין עַל כָּל אוּמַיָא כַּאֲרָזַיָא דְלִיבְנוֹם דִשְׁתִילִין עַל מַבּוּעֵי מַיָין
יְקוּם מִנְהוֹן מַלְכֵיהוֹן וּפְרוֹקְהוֹן מִנְהוֹן וּבְהוֹן יֶהֱוֵי וְזַרְעֲיַיתְהוֹן בְּנוֹי דְיַעֲקב יִשְׁלְטוּן בְּעַמְמִין סַגִיאִין קַמָאָה דְיִמְלוֹךְ עֲלֵיהוֹן יַגִיחַ קְרָבָא בִּדְבֵית עֲמָלֵק וְיִתְרוֹמָם עַל אֲגַג מַלְכֵיהוֹן וּבְגִין דְיֵיחוֹס עֲלוֹי יִתְנְטֵיל מִנֵיהּ מַלְכוּתֵיהּ
אֱלָהָא דְאַפֵּיקִינוּן פְּרִיקִין מִמִצְרַיִם תּוּקְפָא וְרוֹמָא תּוּשְׁבַּחְתָּא גְבוּרְתָּא דִילֵיהּ יְשֵׁיצֵי יַת אוּמַיָא בַּעֲלֵי דְבָבֵיהוֹן וְתוּקְפְהוֹן יִתְבַּר וְגִירֵי מְחַוַות פּוּרְעָנוּתֵיהּ יְגָרֵי בְהוֹן וִישֵׁיצוּנוּן
נַיְיחִין וְשַׁרְיַין כְּאַרְיָא וּכְלֵיתָא דְכַד דָמִיךְ מַאן יְקִימִינֵיהּ מְבָרְכְהוֹן יְהוֹן בְּרִיכִין כְּמשֶׁה נְבִייָא סַפְרֵיהוֹן דְיִשְרָאֵל וּמְלַטְטִינוּן יְהוֹן לִיטִין כְּבִלְעָם בַּר בְּעוֹר
וּתְקֵיף רוּגְזָא דְבָלָק בְּבִלְעָם וְטָפַח יַת יְדוֹי וַאֲמַר בָּלָק לְבִלְעָם לְמֵילַט סַנְאַי דְבַרְתִּיךְ וְהָא בְּרָכָא מְבָרְכַת לְהוֹן דְנַן תְּלַת זִמְנִין
וּכְדוֹן עֲרוֹק לָךְ לְאַתְרָךְ אֲמָרִית מְיַקְרָא אֲיַקְרִינָךְ וְהָא מְנַע יְיָ לְבִלְעָם מִן יְקָרָא
וַאֲמַר בִּלְעָם לְבָלָק הֲלָא עִם אִזְגַדִין דְשָׁדַרְתְּ לְוָתִי מַלֵלִית לְמֵימָר
אִם יִתֵּן לִי בָלָק מִן יְקָרָא מְלא קוּרְטוֹר דִילֵיהּ כְּסַף וּדְהַב לֵית לִי רְשׁוּ לְמֶעֱבַר עַל גְזֵירֵת מֵימַר דַיְיָ לְמֶעֱבַד טַבְתָא אוֹ בִישְׁתָא מִן רְעוּתִי מַה דִי מַלֵיל יְיָ יָתֵיהּ אֲמַלֵיל
וּכְדוֹן הָאֲנָא מִתְפְנֵי וְאָזִיל לְעַמִי אִיתָא אֵימְלְכִינָךְ אִיזַל זַמִין פּוּנְדְקִין וּמַנֵי בְּהוֹן נְשַׁיָיא מַטְעֲיָיתָא זַבִּין מֵיכְלָא וּמִשְׁתַּיָיא בְּבָצִיר מִן טִימְהוֹן וְיֵיתוּן עַמָא הָדֵין וְיֵיכְלוּן וְיִשְׁתּוּן וִירַווּן וִישַׁמְשׁוּן עִמְהוֹן וִיכַפְרוּן בֶּאֱלָהָהוֹן וְיִתְמַסְרוּן בִּידָךְ בְּשָׁעָה קְּלִילָא וְיִפְּלוּן מִנְהוֹן סַגִיאִין בְּרַם בָּתַר כְּדֵין עֲתִידִין הִינוּן דְיִשְׁלְטוּן בְּעַמָךְ בְּסוֹף עֲקַב יוֹמַיָא
וּנְטַל מְתַל נְבוּתֵיהּ וַאֲמַר אֵימַר בִּלְעָם בַּר בְּעוֹר וְאֵימַר גַבְרָא דְיַקִיר מִן אָבוֹי דְרַזְיָא סְתִימַיָא מַה דְאִתְכַּסֵי מִן נְבִיָיא הֲוָה מִתְגְלֵי לֵיהּ
אֵימַר דְשָׁמַע מֵימַר מִן קֳדָם אֱלָהָא וִידַע שַׁעְתָּא דְרָתַח בֵּיהּ אֱלָהָא עִלָאָה דְחֵיזוּ מִן קֳדָם שַׁדַי חָמֵי וְכַד הֲוָה בָּעֵי דְיִתְגְלֵי לֵיהּ הֲוָה מִשְׁתַּטַח וּנְפַל עַל אַפּוֹי וְרַזְיָא סְתִימַיָא מַה דְאִתְכַּסֵי מִן נְבִיָא הֲוָה מִתְגְלֵי לֵיהּ
חָמֵי אֲנָא לֵיהּ וְלֵיתֵיהּ כְדוֹן מִסְתַּכֵּל אֲנָא בֵּיהּ וְלֵיתֵי מַקְרִיב כַּד יִמְלוֹךְ מְלִיךְ תַּקִיף מִדְבֵית יַעֲקב וְיִתְרַבֵּי מְשִׁיחָא וְשֵׁיבַט תַּקִיף מִיִשְרָאֵל וְיִקְטוֹל רַבְרְבָנֵי מוֹאֲבָאֵי וִירוֹקֵן כָּל בְּנוֹי דְשֵׁת מַשִׁירְיָיתֵיהּ דְגוֹג דַעֲתִידִין לִמְסַדְרָא סִדְרֵי קְרָבָא בְּיִשְרָאֵל וְיִפְּלוּן פִּגְרֵיהוֹן כֻּלְהוֹן קֳדָמוֹי
וִיהַווֹן אֱדוֹמָאֵי תְּרִיכִין וִיהוֹן תְּרִיכִין בְּנֵי דְגַבְלָא מִן קֳדָם יִשְרָאֵל סַנְאֵיהוֹן וְיִשְרָאֵל יִתְקְפוּן בְּנִכְסִין וְיִרְתוּנוּן
וִיקוּם שַׁלִיט מִדְבֵית יַעֲקב וְיוֹבִיד וִישֵׁיצֵי שֵׁיזְבוּתָא דְמִשְׁתַּיֵיר מִן קוּסְטַנְטִינֵי קַרְתָּא חַיַיבְתָּא וְיִצְדֵי וְיֶחֱרוֹב כְּרַכָּא מְרוֹדָא דְקִסְרִין תַּקִיף קִרְוֵי עַמְמַיָא
וַחֲמָא יַת דְבֵית עֲמָלֵק וּנְטַל מְתַל נְבוּתֵיהּ וַאֲמַר שֵׁירוֹי אוּמַיָא דְאַגִיחוּ קְרָבָא בִּדְבֵית יִשְרָאֵל הִינוּן דְבֵית עֲמָלֵק וְסוֹפֵיהוֹן בְּיוֹמֵי מַלְכָּא מְשִׁיחָא לִמְסַדְרָא סִדְרֵי קְרָבָא עִם כָּל בְנֵי מַדִינְחָא עִם דְבֵית יִשְרָאֵל בְּרַם סוֹפֵיהוֹן דְאִלְיֵין וּדְאִילְיֵין עַד עַלְמָא יְהוֹן לְאוֹבְדָנָא
וַחֲמָא יַת יִתְרוֹ דְמִתְגַיֵיר וּנְטַל מְתַל נְבוּתֵיהּ וַאֲמַר מַה תַּקִיף הוּא מַשִׁרְוְיָךְ דִי שַׁוֵיתָא בְּנִקְרַיָא דְטִינְרַיָא מְדוֹרָךְ
אֲרוּם אִין יִתְגְזַר לְמֶהֱוֵי לְבִיזְתָא בְּנוֹי דְשַׁלְמַיָא עַד כְּדֵי יֵיתֵי סַנְחֵרִיב מַלְכָּא דְאָתּוּר וְיִשְׁבֵּי יָתָךְ
וּנְטַל מְתַל נְבוּתֵיהּ וַאֲמַר וַוי מַאן יִתְקְיַים בִּזְמַן דְיִתְגְלֵי מֵימְרָא דַיְיָ לְמִתַּן אֲגַר טַב לְצַדִיקַיָא וּלְמִתְפַּרְעָא מִן רַשִׁיעַיָא וּמְכַתֵּת אוּמַיָא וּמַלְכַיָא וּמְגָרֵי אִלְיֵין בְאִלְיֵין
וְצִיצִין יִצְטַרְחַן בְּמָנֵי זַיְינָא וְיִפְקוּן בְּאָכְלוּסִין סַגִיאִין מִן לַמְבַּרְנְיָא וּמֵאַרַע אִטַלְיָא וְיִצְטַרְפוּן בְּלִגְיוֹנִין דְיִפְקוּן מִן קוּסְטַנְטִינֵי וִיצַעֲרוּן לַאֲתוּרָאֵי וִישַׁעַבְּדוּן כָּל בְּנוֹי דְעֵבֶר בְּרַם סוֹפֵהוֹן דְאִלְיֵין וְאִלְיֵין לְמֵיפַּל בְּיַד מַלְכָּא מְשִׁיחָא וִיהַווֹן עַד עַלְמָא לְאוּבְדָנָא
וְקָם בִּלְעָם וְאָזַל וְתַב לְאַתְרֵיהּ וּלְחוֹד בָּלָק אָזַל לְאוֹרְחֵיהּ וְאָקִים יַת בְּנַתְהוֹן דְמִדְיָינָאֵי בְּקוֹלִין מִבֵּית יְשִׁימוֹת עַד טַוָור תַּלְגָא וְהַוָואן זַבְּנָן זִינֵי כוּסְנִין בְּבָצִיר מִן טִימְהוֹן בְּמֵילְכַת בִּלְעָם רַשִׁיעָא בִּפְרָשַׁת אוּרְחָתָא
