וַהֲווֹ רַשִׁיעֵי עַמָא כְּמִצְטַעֲרִין מְכַוְונִין וְהַגְיָאן בִּישׁ קֳדָם יְיָ וּשְׁמִיעַ קֳדָם יְיָ וּתְקֵיף רוּגְזֵיהּ וּדְלֵיקַת בְּהוֹן אֵישָׁא מְצַלְהֲבָא מִן קֳדָם יְיָ וְשֵׁצִיאַת מִן רַשִׁיעַיָא דְבִסְיָיפֵי מַשְׁרִיתָא דְבֵית דָן דְהַוָה פִּיסְלָא עִמְהוֹן
וְצָוַח עַמָא עַל משֶׁה דְיִבְעֵי עֲלֵיהוֹן וְצַלֵי משֶׁה קֳדָם יְיָ וְאִשְׁתְּקָעַת אֵישָׁתָא בְּאַתְרָא
וּקְרָא שְׁמֵיהּ דְאַתְרָא הַהוּא דְלֵיקְתָּא אֲרוּם דְלֵיקַת בְּהוֹן אֵישָׁתָא מְצַלְהֲבָא מִן קֳדָם יְיָ
וְגִיוֹרַיָא דְאִתְכְּנָשׁוּ בֵּינֵיהוֹן שְׁאִילוּ שְׁאֵילְתָּא וְתָבוּ וּבְכוּ בְּרַם בְּנֵי יִשְרָאֵל וְאָמְרוּ מַאן יֵיכְלִינָנָא בִּשְרָא
דְכִירִין אֲנַחְנָא יַת נוּנַיָא דַהֲוֵינָא אָכְלִין בְּמִצְרַיִם מַגָן בְּלָא תַפְקִידְתָּא יַת קַטְיָא וְיַת מְלַפְפוּנַיָא וְיַת קַפְלוּטַיָא וְיַת בָּצְלַיָא וְיַת תּוּמַיָא
וּכְדוֹן נַפְשָׁנָא מְנַגְבָא לֵית כָּל מִדַעַם אֱלָהֵן לְמַנָא אֲנַן מִסְתַּכְיָין כְּמִסְכַּן דְמוֹדִיק מְגִיסָא מִיָדַיָא
חֲבַל עַל עַמָא דְמֵיכְלֵיהוֹן לְחֵים שְׁמַיָא וּמִתְרַעֲמִין דְמַנָא דְמוּיֵהּ כִּזְרַע כּוּסְבַּר חֲזוֹר כַּד נָחִית מִן שְׁמַיָא וְכַד הֲוָה קַדִישׁ חֵיזְוֵיהּ הֵי כְּחֵיזוּ בִּידַלְחָא
חַפְסִין רַשִׁיעֵי עַמָא וּמְלַקְטִין וְטַחְנִין בְּרֵיחוּתָא וּמַן דַהֲוָה צָבֵי הֲוָה שָׁחֵיק בְּדִיכוּתָא וּמְבַשְׁלִין לֵיהּ בְּלָאפוּסְיָא וְעַבְדִין מִנֵיהּ חֲרָרָן וְהַוֵי טַעֲמֵיהּ כְטַעַם בִּיזָא דִמְסַרְבְּלָא בְּשׁוּמְנָא
וְכַד נָחִית טַלָא עַל מַשִׁרְיָיתָא בְּלֵילְיָא הֲוָה נָחִית מַנָא עֲלוֹי
וּשְׁמַע משֶׁה יַת עַמָא בָּכֵי עַל קְרֵיבְתָּא דְמִתְאַסְרָן לְהוֹן גְבַר לִתְרַע מַשְׁכְּנֵיהּ וּתְקֵיף רוּגְזָא דַיְיָ לַחֲדָא וּבְעֵינֵי משֶׁה בִּישׁ
וַאֲמַר משֶׁה קֳדָם יְיָ לְמָא אַבְאֶשְׁתָּא לְעַבְדָךְ וּלְמָא לָא אַשְׁכָּחִית רַחֲמִין קֳדָמָךְ לְשַׁוָאָה יַת טַרְחָא דְעַמָא הָדֵין עָלָי
הָאֲנָא עַבְרִית וְחַשְׁחָשִׁית בִּמְעַיַי יַת כָּל עַמָא הָדֵין אִין בָּנַיי הִינוּן דְאַמַרְתְּ לִי בְּמִצְרַיִם טָעוֹן טוּרְחַנְהוֹן בְּחֵילָךְ הֵיכְמָא דְטָעַן פַּדְגוֹגָא לִמְיַנִיקָא עַד זְמַן דְיִמְטוּן לְאַרְעָא דִקְיֵימְתָּא לְאַבְהַתְהוֹן
מִינָן לִי בִּשְרָא לְמִתַּן לְכָל עַמָא הָדֵין אֲרוּם בָּכַן עָלַי לְמֵימָר הַב לָנָא בִּשְרָא וְנֵיכוּל
לֵית אֲנָא יָכִיל בִּלְחוֹדִי לְמִיטְעַן לְכָל עַמָא הָדֵין אֲרוּם יַקִיר הוּא מִינִי
וְאִין כִּדְנַן אַנְתְּ עָבִיד לִי דְתִשְׁבּוֹק כָּל טַרְחֵיהוֹן עָלַי קְטוֹלְנִי כְּדוֹן בְּמִיתוּתָא דְנַיְיחִין בָּהּ צַדִיקַיָיא אִין אַשְׁכָּחִית רַחֲמִין קֳדָמָךְ וְלָא אֶחֱמֵי בְּבִישׁוּתִי
וַאֲמַר יְיָ לְמשֶׁה כְּנוֹשׁ לִשְׁמִי שׁוּבְעִין גוּבְרִין זַכָּאִין מִסָבֵי יִשְרָאֵל דִיְדַעְתְּ דְהִינוּן הֲווֹ סָבֵי עַמָא וְסַרְכוֹי בְּמִצְרַיִם וְתִדְבַּר יַתְהוֹן לְמַשְׁכַּן זִמְנָא וְיִתְעַתְּדוּן תַּמָן עִמָךְ
וְאִתְגְלִי בְּאִיקַר שְׁכִינְתִּי וַאֲמַלֵל עִמָךְ תַּמָן וַאֲרַבֵּי מִן רוּחַ נְבוּאָה דְעַלָךְ וְאֶשַׁוֵי עֲלֵיהוֹן וְיִטְעִינוּן עִמָךְ בְּטוּרְחָא דְעַמָא וְלָא תִטְעוֹן אַנְתְּ בִּלְחוֹדָךְ
וּלְוַת עַמָא תֵּימַר אִזְדַמְנוּ לִמְחַר וְתֵיכְלוּן בִּשְרָא אֲרוּם בְּכִיתוּן קֳדָם יְיָ לְמֵימַר מַן יַסְפִינָנָא בִּישְרָא אֲרוּם טַב לָנָא בְּמִצְרַיִם וְיִתֵּן יְיָ לְכוֹן בִּישְרָא וְתֵיכְלוּן
לָא יוֹמָא חָד תֵּיכְלוּן וְלָא תְּרֵין יוֹמִין וְלָא חַמְשָׁא יוֹמִין וְלָא עַשְרָא יוֹמִין וְלָא עַשְרִין יוֹמִין
עַד יֶרַח יוֹמִין עַד דְתִפּוֹק סַרְיוּתָא מִנְחִירֵיכוֹן וְתֶהֱוֵי לְכוֹן לְרִיחוּק חוֹלַף דְקַצְתּוּן בְּמֵימְרָא דַיְיָ דְאִיקַר שְׁכִינְתֵּיהּ שַׁרְיָא בֵּינֵיכוֹן וּבְכִיתוּן קֳדָמוֹי לְמֵימָר לְמָא דְנַן נַפְקָנָא מִמִצְרָיִם
וַאֲמַר משֶׁה שִׁית מְאָה אַלְפִין גַבְרִין רִגְלְיַין עַמָא דַאֲנָא שָׁרֵי בֵּינֵיהוֹן וְאַנְתְּ אַמְרַתְּ בִּישְרָא אֶתֵּן לְהוֹן וְיֵיכְלוּן יֶרַח יוֹמִין
הַעֲנָא דִבְעֲרָב וְתוֹרֵי דִבְנָבָט יִתְנַכְסוּן לְהוֹן וִיסַפְּקוּן לְהוֹן אִין יַת כָּל נוּנֵי דְיַמָא רַבָּא יִתְכַּנְשׁוּן לְהוֹן וִיסַפְּקוּן לְהוֹן
וַאֲמַר יְיָ לְמשֶׁה הַאֶפְשַׁר דְאִית קֳדָם יְיָ מַחְסוֹר כְּדוֹן תֶּחֱמֵי הַיְאַרְעִינָךְ פִּתְגָמִי אִין לָא
וּנְפַק משֶׁה מִמַשְׁכַּן בֵּית שְׁכִינְתָּא וּמַלֵיל עִם עַמָא יַת פִּתְגָמַיָא דַיְיָ וּכְנַשׁ שׁוּבְעִין גוּבְרִין מִסָבֵי יִשְרָאֵל וְאָקִים יַתְהוֹן חֲזוֹר חֲזוֹר לְמַשְׁכְּנָא
וְאִתְגְלֵי יְיָ בַּעֲנַן אִיקַר שְׁכִינְתָּא וּמַלֵיל עִמֵיהּ וְרַבֵּי מִן נְבוּאָה דַעֲלוֹי וּמשֶׁה לָא חָסַר מִדַעַם וִיהַב עַל שׁוּבְעִין גוּבְרִין סָבַיָא וַהֲוָה כַּד שְׁרַת עֲלֵיהוֹן רוּחַ נְבוּאָה וּמִתְנַבָּן וְלָא פָּסְקִין
וְאִשְׁתְּיָירוּ תְּרֵין גוּבְרִין בְּמַשְׁרִיתָא שְׁמֵיהּ דְחָד אֶלְדָד וּשְׁמֵיהּ דְתִנְיַין מֵידָד בְּנוֹי דְאֶלְצָפָן בַּר פַּרְנָךְ דִילֵידַת לֵיהּ יוֹכֶבֶד בְּרַת לֵוִי בִּזְמַן דְפַּטְרָהּ עַמְרָם גַבְרָהּ וְאִתְנְסִיבַת לֵיהּ עַד דְלָא יְלֵידַת יַת משֶׁה וּשְׁרַת עֲלֵיהוֹן רוּחַ נְבוּאָה אֶלְדָד הֲוָה מִתְנַבֵּי וַאֲמַר הָא משֶׁה מִתְכְּנִישׁ מִן עַלְמָא וִיהוֹשֻׁע בַּר נוּן מְשַׁמֵשׁ מַשְׁרִיתָא קָאִי מִן בַּתְרֵיהּ וּמְדַבֵּר עַמָא בֵּית יִשְרָאֵל וּמֵיעַל יַתְהוֹן לְאַרַע כְּנַעֲנָאֵי וּמַחֲסִין יָתָהּ לְהוֹן מֵידָד הֲוָה מִתְנַבֵּי וַאֲמַר הָא סִלְוֵי סַלְקִין מִן יַמָא וְחַפְיָין כָּל מַשְׁרִיתָא דְיִשְרָאֵל וְיֶהֱוֵי לְעַמָא לְתוּקְלָא בְּרַם תְּרֵיהוֹן כַּחֲדָא מִתְנַבִּין וְאָמְרִין הָא מַלְכָּא סְלִיק מִן אַרְעָא דְמָגוֹג בְּסוֹף יוֹמַיָא וּמַכְנַשׁ מַלְכִין קִטְרֵי תַגִין וְאַפַרְכִין לוֹבְשֵׁי שִרְיוֹנִין וְכָל עַמְמַיָא יִשְׁתַּמְעוּן לֵיהּ וּמְסַדְרִין קְרָבָא בְּאַרְעָא דְיִשְרָאֵל עַל בְּנֵי גַלְוָתָא בְּרַם קִירִיס אִיטִימוֹס לְהוֹן בְּשַׁעַת אֲנִיקִין וּמִקְטַל כֻּלְהוֹן בִּיקִידַת נִשְׁמָתָא בְּשַׁלְהוֹבִית אֵשָׁתָא דְנַפְקָא מִתְּחוֹת כּוּרְסֵי יְקָרָא וְנָפְלִין פִּגְרֵיהוֹן עַל טַוְורַיָא דְאַרְעָא דְיִשְרָאֵל וְיֵיתוּן כָּל חֵיוַת בָּרָא וְצִיפְרֵי שְׁמַיָא וְיֵיכְלוּן גוּשְׁמֵיהוֹן וּמִבָּתַר כְּדֵין יֵיחוֹן כָּל מֵתַיָא דְיִשְרָאֵל וְיִתְפַּנְקוּן מִן טַוְורָא דְאִצְטְנַע לְהוֹן מִן שֵׁירוּיָא וִיקַבְּלוּן אֲגַר עוֹבָדֵיהוֹן וְהִינוּן הֲווֹן מִן סָבַיָא דִסְלִיקוּ בִּפְטִיקַיָא כְּתוֹבַיָא וְלָא נַפְקָן לְמַשְׁכְּנָא דְאִיטַמָרוּ לְמֵעֲרוֹק מִן רַבָּנוּתָא וְאִתְנַבִּיאוּ בְּמַשְׁרִיתָא
וּרְהַט טַלְיָא חַד וּתְנֵי לְמשֶׁה וַאֲמַר אֶלְדָד וּמֵידָד מִתְנַבְּיָין הָכֵין בְּמַשְׁרִיתָא
וְאָתֵיב יְהוֹשֻׁעַ בַּר נוּן מְשׁוּמְשָׁנֵיהּ דְמשֶׁה וַאֲמַר רִבּוֹנִי משֶׁה בָּעֵי רַחֲמִין מִן קֳדָם יְיָ וּכְלִי מִנְהוֹן רוּחַ נְבוּאָתָא
וַאֲמַר לֵיהּ משֶׁה הֲמִן בִּגְלַל דְאִתְנַבּוּ עָלַי דַאֲנָא מִתְכְּנַשׁ מִן עַלְמָא וְאַנְתְּ מְשַׁמֵשׁ מִן בַּתְרַיי אַנְתְּ מְקַנֵי לִי רְעֵינָא פּוֹן דִיהוֹן כָּל עַמָא דַיְיָ נְבִייָן אֲרוּם יִתֵּן יְיָ יַת רוּחַ נְבִיאוּתֵיהּ עֲלֵיהוֹן
וְאִתְכְּנַשׁ משֶׁה לְמַשְׁרִיתָא הוּא וְכָל סָבֵי יִשְרָאֵל
וְרוּחָא דְעַלְעוּלָא נְפָקַת וּנְטָלַת בְּרוּגְזָא מִן קֳדָם יְיָ וּבְעָא לְמִשְׁטְפֵיהּ לְעַלְמָא אִילוּלֵי זְכוּתָא דְמשֶׁה וְאַהֲרן וּנְתֵיב בְּיַמָא רַבָּא וְאַפְרַח שַלְוֵי מִן יַמָא רַבָּא וּשְׁרָא עַל דֵין דִזְעֵיר בְּמַשְׁרִיָתָא כְּמַהֲלַךְ יוֹמָא לְצִיפּוּנָא וּכְמַהֲלַךְ יוֹמָא לְדָרוֹמָא וּכְרוּם תַּרְתֵּין אַמִין הֲוָה פָּרַח עַל אַנְפֵּי אַרְעָא וַהֲווֹ מְהַלְכִין בְּהוֹן עַד פְּרַתְהוֹן מְטוּל דְלָא יִלְעוּן בִּזְמַן מְכַנְשְׁהוֹן יַתְהוֹן
וְקָמוּ מְחַסְרֵי הֵימְנוּתָא דִי בְּעַמָא כָּל יוֹמָא הַהוּא וְכָל לֵילְיָא וְכָל יוֹמָא דְבַתְרוֹי וּכְנָשׁוּ יַת סַלְוֵי דִקְטִיעַ וּדְחַגִיר כְּנַשׁ עַשְרָא כִּרְוַויַן וּשְׁטָחוּ לְהוֹן מַשְׁטִיחִין חִזְרָנוּת מַשְׁרִיתָא
רַשִׁיעַיָא הֲווֹן אָכְלִין מִן בִּשְרָא וּלְמַאן דְיַהֲבִית לְהוֹן לָא הֲווֹן מְכָרְכִין בִּישְרָא עַד כְּדוֹן הֲוָה בֵּינֵי כַּכֵיהוֹן עַד לָא פָסַק וְרוּגְזָא דַיְיָ תַּקִיף בְּרִשְׁעֵי עַמָא וּקְטֵיל יְיָ בְּעַמָא קְטוֹל סַגִי לַחֲדָא
וּקְרָא יַת שׁוּם אַתְרָא הַהוּא קִבְרֵי דִמְשַׁיְילֵי בִּישְרָא אֲרוּם תַּמָן קְבָרוּ יַת עַמָא דְשַׁיְילוּ בִּישְרָא
וּמִן קִבְרֵי דִמְשַׁיְילֵי בִּישְרָא נְטָלוּ עַמָא לַחֲצֵרוֹת וַהֲווֹן בַּחֲצֵרוֹת
