לְשַׁבָּחָא עַל כְּנִשְׁתָּא דְיִשְׂרָאֵל דִמְתִילָא לְיוֹנָה שָׁתוֹקָא בְּעִדָן דִי מִתְרַחֲקִין מִן קִרְוֵיהוֹן וְחָזְרִין וּמְשַׁבְּחִין לְמָרֵי עַלְמָא הֵיךְ דָוִד מַכִּיר וּשְׁלִים כַּד אֲחַדוּ יָתֵיהּ פְּלִשְׁתָּאֵי בְגַת:
חוּס עֲלַי יְיָ אֱלָהָא אֲרוּם שַׁפְיַנִי תְּחוֹתוֹי יִשְׁבִּי גְבַר חַיָב כָּל יוֹמָא מַגִיחָא יִדְחֲקִנַנִי:
שָׁפְיָן גַרְמִי מְעִיקִי כָּל יוֹמָא אֲרוּם סְגִיאִין מְעִיקִין מַגִיחִין לִי אֱלָהָא עִלָאָהּ דִי כּוּרְסֵיהּ בִּמְרוֹמָא:
יוֹמָא דְאִדְחַל אֲנָא עֲלָךְ אֶתְרְחֵץ:
בְּמִדַת דִינָא דֶאֱלָהָא אֲשַׁבַּח בְּמֵימְרֵיהּ בֶּאֱלָהָא אֶתְרְחֵץ לָא אֶדְחַל מַה יַעְבֵיד בִּיסְרָא לִי:
כָּל יוֹמָא מְטוּלְתִּי טָרְחָן עֲלַי כָּל מַחְשְׁבָתְהוֹן לְבִישׁ:
יִכְנְשׁוּן וְיִטְשׁוּן בִּכְמָנָא הִנוּן אִסְתַּוָרַי יִטַמְרוּן הֵיכְמָא דִמְתִּינוּ עֲבַדוּ לְנַפְשִׁי:
עַל שִׁקְרָא דִי בִּידֵיהוֹן רוֹקֵן יַתְהוֹן בִּרְגֵיז עַמַיָא תְּמַסְכֵּן אֱלָהָא:
יוֹמֵי טִלְטוּלִי מְנִיתָא אַנְתְּ שַׁוֵי דִמְעֲתִי בְזִיקָךְ יְיָ הֲלָא בְּחוּשְׁבְּנָךְ:
הַבְּכֵן יְתוּבוּן בַּעֲלֵי דְבָבַי מְחַזְרֵי קְדַל יוֹמָא דַאֲצַלֵי דֵי יְדַעֵית אֲרוּם אֱלָהָא בְּסַעְדִי:
בְּמִדַת דִינָא דֶאֱלָהָא אֲשַׁבַּח בְּמֵימְרֵיהּ בְּמִדַת רַחֲמִין דַייָ אֲשַׁבַּח בְּמֵימְרֵיהּ:
בְּמֵימְרָא דֶאֱלָהָא סַבְרֵת לָא אֶדְחַל מַה יַעְבֵּיד בַּר נְשָׁא לִי:
עֲלַי קַבְּלֵית אֱלָהָא נְדָרַיִךְ אֲשַׁלֵם קוּרְבָּנֵי תּוֹדָן קֳדָמָךְ:
אֲרוּם פְּצֵיתָא נַפְשִׁי מִקְטוֹל הֲלָא רַגְלַי מִן נְקִיפָא לִמְהַלְכָא קֳדָם יְיָ בִּנְהוֹר חַיַיָא:
