טוּבֵיהּ דִגְבַר,Rדְלָא הַלִיךְ בְּמִלְכַּת רַשִׁיעִין,Rוּבְאוֹרְחַת חַיָבִין לָא קָם,Rוּבְסִיעַת מְמִקְנֵי לָא _אִסְתְּחַר_
אֱלָהֵן בְּנִימוּסָא דַייָ רְעוּתֵיהּ,Rוּבְאוֹרַיְתֵיהּ מְרַנֵן יֵמָם וְלֵילֵי:
וִיהֵי כְּאִילָן +חַיֵי דִ+נְצִיב עַל טְיָפֵי מוֹי,Rדִי אִנְבֵּיהּ מְבַשֵׁל בְּעִדָנֵיהּ,Rוְאַטְרְפוֹי לָא נָתְרִין,Rכָל לַבְלְבוֹי דִמְלַבְלֵב +מְגַרְגָר+ וּמַצְלָח
לָא מְטוּל הֵיכְנָא רַשִׁיעֵי,Rאֱלָהֵן כְּמוֹזָא דִי תַשְׁקְפִנֵיהּ עַלְעוֹלָא
מְטוּל הֵיכְנָא, לָא _יִזְכּוּן_ רַשִׁיעֵי בְּ_יוֹמָא רַבָּא_,Rוְחַיָבִין בְּסִיעַת צַדִיקַיָא
מְטוּל דִ_גְלֵי_ +קֳדָם+ יְיָ אוֹרַח צַדִיקַיָא, וְאוֹרְחַתְהוֹן דְרַשִׁיעֵי תְהוֹבֵד:
