תּוּשְׁבַּחְתָּא לְדָוִד יְיָ זָן יַת עַמֵי בְּמַדְבְּרָא לָא חֲסַרוּ כוֹלָא:
בַּאֲתַר צִיחְתָא בַּהַנְיַת דִתְאִין יַשְׁרִינַנִי עַל מֵי נִיחַיָא דַבְּרֵנִי:
נַפְשִׁי יְתִיב דַבְּרַנִי בְהִלְכַת צִדְקָא מְטוּל שְׁמֵיהּ:
בְּרַם כַּד אֵזֵל בְּגָלוּתָא בְּמֵישַׁר טוּלָא דְמוֹתָא לָא אֶדְחַל מִבִּישְׁתָּא מְטוּל דְמֵימְרָךְ בְּסַעֲדִי תִּנְדָךְ תְּרִיצָא וְאוֹרַיְיתָךְ הִנוּן יְנַחְמוּנַנִי:
סָדַרְתָּ קֳדָמַי פָּתוֹר קֳבֵיל מְעִיקַי דַהֵנְתָּא בִּמְשַׁח רְבוּתָא רֵישׁ כַּהֲנַי כַּלִידִי רְוִיחָא:
בְּרַם טָבְתָא וְחִסְדָא יִרְדְפוּנַנִי כָּל יוֹמֵי חַיַי כַּד אֵתֵב בְּבֵית מַקְדְשָׁא דַייָ לְנַגְדָא דְיוֹמָנָא:
