עַל נַהַרְוָתָא דְבָבֶל תַּמָן יְתִיבְנָא לְחוֹד בְּכִינָא כַּד הֲוֵינָא דָכְרִין יַת צִיוֹן:
עַל עֲרָבִין בִּמְצִיעֲתָא תָּלִינָן כִּנָרָנָא:
אֲרוּם תַּמָן שַׁיְלוּ יָתָנָא בַּבְלָאֵי דִשְׁבוֹי יָתָנָא לְמֵימַר מִלִין דְשִׁירַיָא וּבָזְזָנָא עַל עֲסַק חֶדְוָא אָמְרִין שְׁבַחוּ לָנָא מִן שִׁירָתָא דַהֲוֵיתוּן אָמְרִין בְּצִיוֹן:
מִן יַד לֵוָאֵי אָמְרִין הֵיכְדֵין נְשַׁבַּח יַת תּוּשְׁבָּחָא דַייָ עַל אַרְעָא חִילוֹנִיתָא:
מְתִיבָא קָל רוּחָא דְקוּדְשָׁא וְאָמְרָא דְאִין מַנְשְׁיֵנָא לִיךְ יְרוּשְׁלֶם אַנְשְׁיָה לִימִינִי:
תִּדְבַּק לִישָׁנִי לְמוֹרִיגִי אִין לָא אִדְכַּר יָתִיכִי אִין לָא אַסִיק דָכְרָן יְרוּשְׁלֶם עַל שֵׁרוּי חֶדְוַת בֵּית שַׁמְשָׁי:
אָמַר מִיכָאֵל רַבָּא דִירוּשְׁלֶם אִדְכַּר יְיָ לְעַלְמָא לֶאֱדוֹמָא דְאַחֲרִיבוּ יְרוּשְׁלֶם דְאָמְרִין צְדוּ צְדוּ עַד דְשִׁתְּאֲסָא בָּהּ:
אֲמַר גַבְרִיאֵל רַבָּא דְצִיוֹן לְאוּמָא בַּבְלֵיתָא בְּזוּזִיתָא טָב לֵיהּ דִישַׁלֵם לָךְ יַת גוּמְלֵיךְ בִּישׁ דִי גְמַלְתָּא לָנָא:
טָב לֵיהּ דְאָחֵד וּמְרַטֵשׁ יַת טַלְיַיִךְ עַל כֵּיפָא:
