וְהָ֣אָדָ֔ם יָדַ֖ע אֶת־חַוָּ֣ה אִשְׁתּ֑וֹ - וַתַּ֙הַר֙ וַתֵּ֣לֶד אֶת־קַ֔יִן, וַתֹּ֕אמֶר: 'קָנִ֥יתִי אִ֖ישׁ אֶת־יהוֽה'.׃
וַתֹּ֣סֶף לָלֶ֔דֶת אֶת־אָחִ֖יו, אֶת־הָ֑בֶל. וַֽיְהִי־הֶ֙בֶל֙ רֹ֣עֵה צֹ֔אן, וְקַ֕יִן הָיָ֖ה עֹבֵ֥ד אֲדָמָֽה.׃
 וַיְהִ֖י מִקֵּ֣ץ יָמִ֑ים; וַיָּבֵ֨א קַ֜יִן מִפְּרִ֧י הָאֲדָמָ֛ה, מִנְחָ֖ה לַיהוֽה.׃
וְהֶ֨בֶל הֵבִ֥יא גַם־ה֛וּא מִבְּכֹר֥וֹת צֹאנ֖וֹ וּמֵחֶלְבֵהֶ֑ן, וַיִּ֣שַׁע יהו֔ה אֶל־הֶ֖בֶל וְאֶל־מִנְחָתֽוֹ.׃
וְאֶל־קַ֥יִן וְאֶל־מִנְחָת֖וֹ לֹ֣א שָׁעָ֑ה - וַיִּ֤חַר לְקַ֙יִן֙ מְאֹ֔ד, וַֽיִּפְּל֖וּ פָּנָֽיו.׃
 וַיֹּ֥אמֶר יהו֖ה אֶל־קָ֑יִן: “לָ֚מָּה חָ֣רָה לָ֔ךְ, וְלָ֖מָּה נָפְל֥וּ פָנֶֽיךָ?׃
הֲל֤וֹא אִם־תֵּיטִיב֙ שְׂאֵ֔ת, וְאִם֙ לֹ֣א תֵיטִ֔יב - לַפֶּ֖תַח חַטָּ֣את רֹבֵ֑ץ, וְאֵלֶ֙יךָ֙ תְּשׁ֣וּקָת֔וֹ, וְאַתָּ֖ה תִּמְשָׁל־בּֽוֹ”.׃
 וַיֹּ֥אמֶר קַ֖יִן אֶל־הֶ֣בֶל אָחִ֑יו; וַֽיְהִי֙ בִּהְיוֹתָ֣ם בַּשָּׂדֶ֔ה, וַיָּ֥קָם קַ֛יִן אֶל־הֶ֥בֶל אָחִ֖יו, וַיַּהַרְגֵֽהוּ.׃
 וַיֹּ֤אמֶר יהוה֙ אֶל־קַ֔יִן: "אֵ֖י הֶ֣בֶל אָחִ֑יךָ?" וַיֹּ֙אמֶר֙: "לֹ֣א יָדַ֔עְתִּי, הֲשֹׁמֵ֥ר אָחִ֖י אָנֹֽכִי?!"׃
וַיֹּ֖אמֶר: “מֶ֣ה עָשִׂ֑יתָ?? ק֚וֹל דְּמֵ֣י אָחִ֔יךָ צֹעֲקִ֥ים אֵלַ֖י מִן־הָאֲדָמָֽה!׃
 וְעַתָּ֖ה אָר֣וּר אָ֑תָּה, מִן־הָֽאֲדָמָה֙ אֲשֶׁ֣ר פָּצְתָ֣ה אֶת־פִּ֔יהָ, לָקַ֛חַת אֶת־דְּמֵ֥י אָחִ֖יךָ מִיָּדֶֽךָ.׃
כִּ֤י תַֽעֲבֹד֙ אֶת־הָ֣אֲדָמָ֔ה, לֹא־תֹסֵ֥ף תֵּת־כֹּחָ֖הּ לָ֑ךְ. נָ֥ע וָנָ֖ד תִּהְיֶ֥ה בָאָֽרֶץ”.׃
 וַיֹּ֥אמֶר קַ֖יִן אֶל־יהו֑ה: "גָּד֥וֹל עֲוֺנִ֖י מִנְּשֹֽׂא,׃
הֵן֩ גֵּרַ֨שְׁתָּ אֹתִ֜י הַיּ֗וֹם מֵעַל֙ פְּנֵ֣י הָאֲדָמָ֔ה, וּמִפָּנֶ֖יךָ אֶסָּתֵ֑ר, וְהָיִ֜יתִי נָ֤ע וָנָד֙ בָּאָ֔רֶץ, וְהָיָ֥ה כָל־מֹצְאִ֖י - יַהַרְגֵֽנִי.׃
 וַיֹּ֧אמֶר ל֣וֹ יהו֗ה: "לָכֵן֙ כָּל־הֹרֵ֣ג קַ֔יִן - שִׁבְעָתַ֖יִם יֻקָּ֑ם!" וַיָּ֨שֶׂם יהו֤ה לְקַ֙יִן֙ א֔וֹת, לְבִלְתִּ֥י הַכּוֹת־אֹת֖וֹ כָּל־מֹצְאֽוֹ.׃
וַיֵּ֥צֵא קַ֖יִן מִלִּפְנֵ֣י יהו֑ה, וַיֵּ֥שֶׁב בְּאֶרֶץ־נ֖וֹד, קִדְמַת־עֵֽדֶן׃
 וַיֵּ֤דַע קַ֙יִן֙ אֶת־אִשְׁתּ֔וֹ, וַתַּ֖הַר, וַתֵּ֣לֶד אֶת־חֲנ֑וֹךְ; וַֽיְהִי֙ בֹּ֣נֶה עִ֔יר, וַיִּקְרָא֙ שֵׁ֣ם הָעִ֔יר, כְּשֵׁ֖ם בְּנ֥וֹ חֲנֽוֹךְ.׃
וַיִּוָּלֵ֤ד לַֽחֲנוֹךְ֙ אֶת־עִירָ֔ד, וְעִירָ֕ד יָלַ֖ד אֶת־מְחוּיָאֵ֑ל, וּמְחִיָּיאֵ֗ל יָלַד֙ אֶת־מְת֣וּשָׁאֵ֔ל, וּמְתוּשָׁאֵ֖ל יָלַ֥ד אֶת־לָֽמֶךְ.׃
 {חמישי} וַיִּֽקַּֽח־ל֥וֹ לֶ֖מֶךְ שְׁתֵּ֣י נָשִׁ֑ים: שֵׁ֤ם הָאַחַת֙ 'עָדָ֔ה', וְשֵׁ֥ם הַשֵּׁנִ֖ית 'צִלָּֽה'.׃
וַתֵּ֥לֶד עָדָ֖ה אֶת־יָבָ֑ל - ה֣וּא הָיָ֔ה אֲבִ֕י יֹשֵׁ֥ב אֹ֖הֶל וּמִקְנֶֽה.׃
וְשֵׁ֥ם אָחִ֖יו 'יוּבָ֑ל' - ה֣וּא הָיָ֔ה אֲבִ֕י כָּל־תֹּפֵ֥שׂ כִּנּ֖וֹר וְעוּגָֽב.׃
וְצִלָּ֣ה גַם־הִ֗וא, יָֽלְדָה֙ אֶת־תּ֣וּבַל קַ֔יִן - לֹטֵ֕שׁ כָּל־חֹרֵ֥שׁ נְחֹ֖שֶׁת וּבַרְזֶ֑ל; וַאֲח֥וֹת תּוּבַל־קַ֖יִן - נַעֲמָֽה.׃
 וַיֹּ֨אמֶר לֶ֜מֶךְ לְנָשָׁ֗יו, עָדָ֤ה וְצִלָּה֙: “שְׁמַ֣עַן קוֹלִ֔י, נְשֵׁ֣י לֶ֔מֶךְ, הַאְזֵ֖נָּה אִמְרָתִ֑י! כִּ֣י אִ֤ישׁ הָרַ֙גְתִּי֙ לְפִצְעִ֔י, וְיֶ֖לֶד לְחַבֻּרָתִֽי.׃
כִּ֥י שִׁבְעָתַ֖יִם יֻקַּם־קָ֑יִן, וְלֶ֖מֶךְ - שִׁבְעִ֥ים וְשִׁבְעָֽה!”׃
 וַיֵּ֨דַע אָדָ֥ם עוֹד֙ אֶת־אִשְׁתּ֔וֹ, וַתֵּ֣לֶד בֵּ֔ן, וַתִּקְרָ֥א אֶת־שְׁמ֖וֹ 'שֵׁ֑ת', כִּ֣י "שָֽׁת־לִ֤י אֱלֹהִים֙ זֶ֣רַע אַחֵ֔ר, תַּ֣חַת הֶ֔בֶל, כִּ֥י הֲרָג֖וֹ קָֽיִן".׃
וּלְשֵׁ֤ת גַּם־הוּא֙ יֻלַּד־בֵּ֔ן, וַיִּקְרָ֥א אֶת־שְׁמ֖וֹ 'אֱנ֑וֹשׁ', אָ֣ז הוּחַ֔ל, לִקְרֹ֖א בְּשֵׁ֥ם יהוֽה.׃{ס}
