לֹ֥א תִשָּׂ֖א שֵׁ֣מַע שָׁ֑וְא, אַל־תָּ֤שֶׁת יָֽדְךָ֙ עִם־רָשָׁ֔ע, לִהְיֹ֖ת עֵ֥ד חָמָֽס.׃
לֹא־תִהְיֶ֥ה אַחֲרֵֽי־רַבִּ֖ים לְרָעֹ֑ת, וְלֹא־תַעֲנֶ֣ה עַל־רִ֗ב לִנְטֹ֛ת אַחֲרֵ֥י רַבִּ֖ים לְהַטֹּֽת.׃
וְדָ֕ל לֹ֥א תֶהְדַּ֖ר בְּרִיבֽוֹ׃{ס} 
כִּ֣י תִפְגַּ֞ע שׁ֧וֹר אֹיִבְךָ֛ א֥וֹ חֲמֹר֖וֹ תֹּעֶ֑ה הָשֵׁ֥ב תְּשִׁיבֶ֖נּוּ לֽוֹ׃{ס} 
כִּֽי־תִרְאֶ֞ה חֲמ֣וֹר שֹׂנַאֲךָ֗ רֹבֵץ֙ תַּ֣חַת מַשָּׂא֔וֹ וְחָדַלְתָּ֖ מֵעֲזֹ֣ב ל֑וֹ עָזֹ֥ב תַּעֲזֹ֖ב עִמּֽוֹ׃{ס} 
{חמישי} לֹ֥א תַטֶּ֛ה מִשְׁפַּ֥ט אֶבְיֹנְךָ֖ בְּרִיבֽוֹ׃
מִדְּבַר־שֶׁ֖קֶר תִּרְחָ֑ק וְנָקִ֤י וְצַדִּיק֙ אַֽל־תַּהֲרֹ֔ג כִּ֥י לֹא־אַצְדִּ֖יק רָשָֽׁע׃
וְשֹׁ֖חַד לֹ֣א תִקָּ֑ח כִּ֤י הַשֹּׁ֙חַד֙ יְעַוֵּ֣ר פִּקְחִ֔ים וִיסַלֵּ֖ף דִּבְרֵ֥י צַדִּיקִֽים׃
וְגֵ֖ר לֹ֣א תִלְחָ֑ץ וְאַתֶּ֗ם יְדַעְתֶּם֙ אֶת־נֶ֣פֶשׁ הַגֵּ֔ר כִּֽי־גֵרִ֥ים הֱיִיתֶ֖ם בְּאֶ֥רֶץ מִצְרָֽיִם׃
וְשֵׁ֥שׁ שָׁנִ֖ים תִּזְרַ֣ע אֶת־אַרְצֶ֑ךָ וְאָסַפְתָּ֖ אֶת־תְּבוּאָתָֽהּ׃
וְהַשְּׁבִיעִ֞ת תִּשְׁמְטֶ֣נָּה וּנְטַשְׁתָּ֗הּ וְאָֽכְלוּ֙ אֶבְיֹנֵ֣י עַמֶּ֔ךָ וְיִתְרָ֕ם תֹּאכַ֖ל חַיַּ֣ת הַשָּׂדֶ֑ה כֵּֽן־תַּעֲשֶׂ֥ה לְכַרְמְךָ֖ לְזֵיתֶֽךָ׃
שֵׁ֤שֶׁת יָמִים֙ תַּעֲשֶׂ֣ה מַעֲשֶׂ֔יךָ וּבַיּ֥וֹם הַשְּׁבִיעִ֖י תִּשְׁבֹּ֑ת לְמַ֣עַן יָנ֗וּחַ שֽׁוֹרְךָ֙ וַחֲמֹרֶ֔ךָ וְיִנָּפֵ֥שׁ בֶּן־אֲמָתְךָ֖ וְהַגֵּֽר׃
וּבְכֹ֛ל אֲשֶׁר־אָמַ֥רְתִּי אֲלֵיכֶ֖ם תִּשָּׁמֵ֑רוּ וְשֵׁ֨ם אֱלֹהִ֤ים אֲחֵרִים֙ לֹ֣א תַזְכִּ֔ירוּ לֹ֥א יִשָּׁמַ֖ע עַל־פִּֽיךָ׃
שָׁלֹ֣שׁ רְגָלִ֔ים תָּחֹ֥ג לִ֖י בַּשָּׁנָֽה׃
אֶת־חַ֣ג הַמַּצּוֹת֘ תִּשְׁמֹר֒ שִׁבְעַ֣ת יָמִים֩ תֹּאכַ֨ל מַצּ֜וֹת כַּאֲשֶׁ֣ר צִוִּיתִ֗ךָ לְמוֹעֵד֙ חֹ֣דֶשׁ הָאָבִ֔יב כִּי־ב֖וֹ יָצָ֣אתָ מִמִּצְרָ֑יִם וְלֹא־יֵרָא֥וּ פָנַ֖י רֵיקָֽם׃
וְחַ֤ג הַקָּצִיר֙ בִּכּוּרֵ֣י מַעֲשֶׂ֔יךָ אֲשֶׁ֥ר תִּזְרַ֖ע בַּשָּׂדֶ֑ה וְחַ֤ג הָֽאָסִף֙ בְּצֵ֣את הַשָּׁנָ֔ה בְּאָסְפְּךָ֥ אֶֽת־מַעֲשֶׂ֖יךָ מִן־הַשָּׂדֶֽה׃
שָׁלֹ֥שׁ פְּעָמִ֖ים בַּשָּׁנָ֑ה יֵֽרָאֶה֙ כָּל־זְכ֣וּרְךָ֔ אֶל־פְּנֵ֖י הָאָדֹ֥ן׀ יהוֽה׃
לֹא־תִזְבַּ֥ח עַל־חָמֵ֖ץ דַּם־זִבְחִ֑י וְלֹא־יָלִ֥ין חֵֽלֶב־חַגִּ֖י עַד־בֹּֽקֶר׃
רֵאשִׁ֗ית בִּכּוּרֵי֙ אַדְמָ֣תְךָ֔ תָּבִ֕יא בֵּ֖ית יהו֣ה אֱלֹהֶ֑יךָ לֹא־תְבַשֵּׁ֥ל גְּדִ֖י בַּחֲלֵ֥ב אִמּֽוֹ׃{פ} 
{ששי} הִנֵּ֨ה אָנֹכִ֜י שֹׁלֵ֤חַ מַלְאָךְ֙ לְפָנֶ֔יךָ לִשְׁמָרְךָ֖ בַּדָּ֑רֶךְ וְלַהֲבִ֣יאֲךָ֔ אֶל־הַמָּק֖וֹם אֲשֶׁ֥ר הֲכִנֹֽתִי׃
הִשָּׁ֧מֶר מִפָּנָ֛יו וּשְׁמַ֥ע בְּקֹל֖וֹ אַל־תַּמֵּ֣ר בּ֑וֹ כִּ֣י לֹ֤א יִשָּׂא֙ לְפִשְׁעֲכֶ֔ם כִּ֥י שְׁמִ֖י בְּקִרְבּֽוֹ׃
כִּ֣י אִם־שָׁמ֤וֹעַ תִּשְׁמַע֙ בְּקֹל֔וֹ וְעָשִׂ֕יתָ כֹּ֖ל אֲשֶׁ֣ר אֲדַבֵּ֑ר וְאָֽיַבְתִּי֙ אֶת־אֹ֣יְבֶ֔יךָ וְצַרְתִּ֖י אֶת־צֹרֲרֶֽיךָ׃
כִּֽי־יֵלֵ֣ךְ מַלְאָכִי֘ לְפָנֶיךָ֒ וֶהֱבִיאֲךָ֗ אֶל־הָאֱמֹרִי֙ וְהַ֣חִתִּ֔י וְהַפְּרִזִּי֙ וְהַֽכְּנַעֲנִ֔י הַחִוִּ֖י וְהַיְבוּסִ֑י וְהִכְחַדְתִּֽיו׃
לֹֽא־תִשְׁתַּחֲוֶ֤ה לֵאלֹֽהֵיהֶם֙ וְלֹ֣א תָֽעָבְדֵ֔ם וְלֹ֥א תַעֲשֶׂ֖ה כְּמַעֲשֵׂיהֶ֑ם כִּ֤י הָרֵס֙ תְּהָ֣רְסֵ֔ם וְשַׁבֵּ֥ר תְּשַׁבֵּ֖ר מַצֵּבֹתֵיהֶֽם׃
וַעֲבַדְתֶּ֗ם אֵ֚ת יהו֣ה אֱלֹהֵיכֶ֔ם וּבֵרַ֥ךְ אֶֽת־לַחְמְךָ֖ וְאֶת־מֵימֶ֑יךָ וַהֲסִרֹתִ֥י מַחֲלָ֖ה מִקִּרְבֶּֽךָ׃{ס} 
{שביעי} לֹ֥א תִהְיֶ֛ה מְשַׁכֵּלָ֥ה וַעֲקָרָ֖ה בְּאַרְצֶ֑ךָ אֶת־מִסְפַּ֥ר יָמֶ֖יךָ אֲמַלֵּֽא׃
אֶת־אֵֽימָתִי֙ אֲשַׁלַּ֣ח לְפָנֶ֔יךָ וְהַמֹּתִי֙ אֶת־כָּל־הָעָ֔ם אֲשֶׁ֥ר תָּבֹ֖א בָּהֶ֑ם וְנָתַתִּ֧י אֶת־כָּל־אֹיְבֶ֛יךָ אֵלֶ֖יךָ עֹֽרֶף׃
וְשָׁלַחְתִּ֥י אֶת־הַצִּרְעָ֖ה לְפָנֶ֑יךָ וְגֵרְשָׁ֗ה אֶת־הַחִוִּ֧י אֶת־הַֽכְּנַעֲנִ֛י וְאֶת־הַחִתִּ֖י מִלְּפָנֶֽיךָ׃
לֹ֧א אֲגָרֲשֶׁ֛נּוּ מִפָּנֶ֖יךָ בְּשָׁנָ֣ה אֶחָ֑ת פֶּן־תִּהְיֶ֤ה הָאָ֙רֶץ֙ שְׁמָמָ֔ה וְרַבָּ֥ה עָלֶ֖יךָ חַיַּ֥ת הַשָּׂדֶֽה׃
מְעַ֥ט מְעַ֛ט אֲגָרֲשֶׁ֖נּוּ מִפָּנֶ֑יךָ עַ֚ד אֲשֶׁ֣ר תִּפְרֶ֔ה וְנָחַלְתָּ֖ אֶת־הָאָֽרֶץ׃
וְשַׁתִּ֣י אֶת־גְּבֻלְךָ֗ מִיַּם־סוּף֙ וְעַד־יָ֣ם פְּלִשְׁתִּ֔ים וּמִמִּדְבָּ֖ר עַד־הַנָּהָ֑ר כִּ֣י׀ אֶתֵּ֣ן בְּיֶדְכֶ֗ם אֵ֚ת יֹשְׁבֵ֣י הָאָ֔רֶץ וְגֵרַשְׁתָּ֖מוֹ מִפָּנֶֽיךָ׃
לֹא־תִכְרֹ֥ת לָהֶ֛ם וְלֵאלֹהֵיהֶ֖ם בְּרִֽית׃
לֹ֤א יֵֽשְׁבוּ֙ בְּאַרְצְךָ֔ פֶּן־יַחֲטִ֥יאוּ אֹתְךָ֖ לִ֑י כִּ֤י תַֽעֲבֹד֙ אֶת־אֱלֹ֣הֵיהֶ֔ם כִּֽי־יִהְיֶ֥ה לְךָ֖ לְמוֹקֵֽשׁ׃{פ}
