וְאַתָּ֡ה הַקְרֵ֣ב אֵלֶיךָ֩ אֶת־אַהֲרֹ֨ן אָחִ֜יךָ וְאֶת־בָּנָ֣יו אִתּ֗וֹ מִתּ֛וֹךְ בְּנֵ֥י יִשְׂרָאֵ֖ל לְכַהֲנוֹ־לִ֑י אַהֲרֹ֕ן נָדָ֧ב וַאֲבִיה֛וּא אֶלְעָזָ֥ר וְאִיתָמָ֖ר בְּנֵ֥י אַהֲרֹֽן׃
וְעָשִׂ֥יתָ בִגְדֵי־קֹ֖דֶשׁ לְאַהֲרֹ֣ן אָחִ֑יךָ לְכָב֖וֹד וּלְתִפְאָֽרֶת׃
וְאַתָּ֗ה תְּדַבֵּר֙ אֶל־כָּל־חַכְמֵי־לֵ֔ב אֲשֶׁ֥ר מִלֵּאתִ֖יו ר֣וּחַ חָכְמָ֑ה וְעָשׂ֞וּ אֶת־בִּגְדֵ֧י אַהֲרֹ֛ן לְקַדְּשׁ֖וֹ לְכַהֲנוֹ־לִֽי׃
וְאֵ֨לֶּה הַבְּגָדִ֜ים אֲשֶׁ֣ר יַעֲשׂ֗וּ חֹ֤שֶׁן וְאֵפוֹד֙ וּמְעִ֔יל וּכְתֹ֥נֶת תַּשְׁבֵּ֖ץ מִצְנֶ֣פֶת וְאַבְנֵ֑ט וְעָשׂ֨וּ בִגְדֵי־קֹ֜דֶשׁ לְאַהֲרֹ֥ן אָחִ֛יךָ וּלְבָנָ֖יו לְכַהֲנוֹ־לִֽי׃
וְהֵם֙ יִקְח֣וּ אֶת־הַזָּהָ֔ב וְאֶת־הַתְּכֵ֖לֶת וְאֶת־הָֽאַרְגָּמָ֑ן וְאֶת־תּוֹלַ֥עַת הַשָּׁנִ֖י וְאֶת־הַשֵּֽׁשׁ׃{פ} 
וְעָשׂ֖וּ אֶת־הָאֵפֹ֑ד זָ֠הָב תְּכֵ֨לֶת וְאַרְגָּמָ֜ן תּוֹלַ֧עַת שָׁנִ֛י וְשֵׁ֥שׁ מָשְׁזָ֖ר מַעֲשֵׂ֥ה חֹשֵֽׁב׃
שְׁתֵּ֧י כְתֵפֹ֣ת חֹבְרֹ֗ת יִֽהְיֶה־לּ֛וֹ אֶל־שְׁנֵ֥י קְצוֹתָ֖יו וְחֻבָּֽר׃
וְחֵ֤שֶׁב אֲפֻדָּתוֹ֙ אֲשֶׁ֣ר עָלָ֔יו כְּמַעֲשֵׂ֖הוּ מִמֶּ֣נּוּ יִֽהְיֶ֑ה זָהָ֗ב תְּכֵ֧לֶת וְאַרְגָּמָ֛ן וְתוֹלַ֥עַת שָׁנִ֖י וְשֵׁ֥שׁ מָשְׁזָֽר׃
וְלָ֣קַחְתָּ֔ אֶת־שְׁתֵּ֖י אַבְנֵי־שֹׁ֑הַם וּפִתַּחְתָּ֣ עֲלֵיהֶ֔ם שְׁמ֖וֹת בְּנֵ֥י יִשְׂרָאֵֽל׃
שִׁשָּׁה֙ מִשְּׁמֹתָ֔ם עַ֖ל הָאֶ֣בֶן הָאֶחָ֑ת וְאֶת־שְׁמ֞וֹת הַשִּׁשָּׁ֧ה הַנּוֹתָרִ֛ים עַל־הָאֶ֥בֶן הַשֵּׁנִ֖ית כְּתוֹלְדֹתָֽם׃
מַעֲשֵׂ֣ה חָרַשׁ֘ אֶבֶן֒ פִּתּוּחֵ֣י חֹתָ֗ם תְּפַתַּח֙ אֶת־שְׁתֵּ֣י הָאֲבָנִ֔ים עַל־שְׁמֹ֖ת בְּנֵ֣י יִשְׂרָאֵ֑ל מֻסַבֹּ֛ת מִשְׁבְּצ֥וֹת זָהָ֖ב תַּעֲשֶׂ֥ה אֹתָֽם׃
וְשַׂמְתָּ֞ אֶת־שְׁתֵּ֣י הָאֲבָנִ֗ים עַ֚ל כִּתְפֹ֣ת הָאֵפֹ֔ד אַבְנֵ֥י זִכָּרֹ֖ן לִבְנֵ֣י יִשְׂרָאֵ֑ל וְנָשָׂא֩ אַהֲרֹ֨ן אֶת־שְׁמוֹתָ֜ם לִפְנֵ֧י יְהוָ֛ה עַל־שְׁתֵּ֥י כְתֵפָ֖יו לְזִכָּרֹֽן׃{ס} 
{שני} וְעָשִׂ֥יתָ מִשְׁבְּצֹ֖ת זָהָֽב׃
וּשְׁתֵּ֤י שַׁרְשְׁרֹת֙ זָהָ֣ב טָה֔וֹר מִגְבָּלֹ֛ת תַּעֲשֶׂ֥ה אֹתָ֖ם מַעֲשֵׂ֣ה עֲבֹ֑ת וְנָתַתָּ֛ה אֶת־שַׁרְשְׁרֹ֥ת הָעֲבֹתֹ֖ת עַל־הַֽמִּשְׁבְּצֹֽת׃{ס} 
וְעָשִׂ֜יתָ חֹ֤שֶׁן מִשְׁפָּט֙ מַעֲשֵׂ֣ה חֹשֵׁ֔ב כְּמַעֲשֵׂ֥ה אֵפֹ֖ד תַּעֲשֶׂ֑נּוּ זָ֠הָב תְּכֵ֨לֶת וְאַרְגָּמָ֜ן וְתוֹלַ֧עַת שָׁנִ֛י וְשֵׁ֥שׁ מָשְׁזָ֖ר תַּעֲשֶׂ֥ה אֹתֽוֹ׃
רָב֥וּעַ יִֽהְיֶ֖ה כָּפ֑וּל זֶ֥רֶת אָרְכּ֖וֹ וְזֶ֥רֶת רָחְבּֽוֹ׃
וּמִלֵּאתָ֥ בוֹ֙ מִלֻּ֣אַת אֶ֔בֶן אַרְבָּעָ֖ה טוּרִ֣ים אָ֑בֶן ט֗וּר אֹ֤דֶם פִּטְדָה֙ וּבָרֶ֔קֶת הַטּ֖וּר הָאֶחָֽד׃
וְהַטּ֖וּר הַשֵּׁנִ֑י נֹ֥פֶךְ סַפִּ֖יר וְיָהֲלֹֽם׃
וְהַטּ֖וּר הַשְּׁלִישִׁ֑י לֶ֥שֶׁם שְׁב֖וֹ וְאַחְלָֽמָה׃
וְהַטּוּר֙ הָרְבִיעִ֔י תַּרְשִׁ֥ישׁ וְשֹׁ֖הַם וְיָשְׁפֵ֑ה מְשֻׁבָּצִ֥ים זָהָ֛ב יִהְי֖וּ בְּמִלּוּאֹתָֽם׃
וְ֠הָאֲבָנִים תִּהְיֶ֜יןָ עַל־שְׁמֹ֧ת בְּנֵֽי־יִשְׂרָאֵ֛ל שְׁתֵּ֥ים עֶשְׂרֵ֖ה עַל־שְׁמֹתָ֑ם פִּתּוּחֵ֤י חוֹתָם֙ אִ֣ישׁ עַל־שְׁמ֔וֹ תִּהְיֶ֕יןָ לִשְׁנֵ֥י עָשָׂ֖ר שָֽׁבֶט׃
וְעָשִׂ֧יתָ עַל־הַחֹ֛שֶׁן שַֽׁרְשֹׁ֥ת גַּבְלֻ֖ת מַעֲשֵׂ֣ה עֲבֹ֑ת זָהָ֖ב טָהֽוֹר׃
וְעָשִׂ֙יתָ֙ עַל־הַחֹ֔שֶׁן שְׁתֵּ֖י טַבְּע֣וֹת זָהָ֑ב וְנָתַתָּ֗ אֶת־שְׁתֵּי֙ הַטַּבָּע֔וֹת עַל־שְׁנֵ֖י קְצ֥וֹת הַחֹֽשֶׁן׃
וְנָתַתָּ֗ה אֶת־שְׁתֵּי֙ עֲבֹתֹ֣ת הַזָּהָ֔ב עַל־שְׁתֵּ֖י הַטַּבָּעֹ֑ת אֶל־קְצ֖וֹת הַחֹֽשֶׁן׃
וְאֵ֨ת שְׁתֵּ֤י קְצוֹת֙ שְׁתֵּ֣י הָעֲבֹתֹ֔ת תִּתֵּ֖ן עַל־שְׁתֵּ֣י הַֽמִּשְׁבְּצ֑וֹת וְנָתַתָּ֛ה עַל־כִּתְפ֥וֹת הָאֵפֹ֖ד אֶל־מ֥וּל פָּנָֽיו׃
וְעָשִׂ֗יתָ שְׁתֵּי֙ טַבְּע֣וֹת זָהָ֔ב וְשַׂמְתָּ֣ אֹתָ֔ם עַל־שְׁנֵ֖י קְצ֣וֹת הַחֹ֑שֶׁן עַל־שְׂפָת֕וֹ אֲשֶׁ֛ר אֶל־עֵ֥בֶר הָאֵפֹ֖ד בָּֽיְתָה׃
וְעָשִׂיתָ֘ שְׁתֵּ֣י טַבְּע֣וֹת זָהָב֒ וְנָתַתָּ֣ה אֹתָ֡ם עַל־שְׁתֵּי֩ כִתְפ֨וֹת הָאֵפ֤וֹד מִלְּמַ֙טָּה֙ מִמּ֣וּל פָּנָ֔יו לְעֻמַּ֖ת מַחְבַּרְתּ֑וֹ מִמַּ֕עַל לְחֵ֖שֶׁב הָאֵפֽוֹד׃
וְיִרְכְּס֣וּ אֶת־הַ֠חֹשֶׁן [מִֽטַּבְּעֹתָ֞ו] מִֽטַּבְּעֹתָ֞יו אֶל־טַבְּעֹ֤ת הָאֵפוֹד֙ בִּפְתִ֣יל תְּכֵ֔לֶת לִֽהְי֖וֹת עַל־חֵ֣שֶׁב הָאֵפ֑וֹד וְלֹא־יִזַּ֣ח הַחֹ֔שֶׁן מֵעַ֖ל הָאֵפֽוֹד׃
וְנָשָׂ֣א אַ֠הֲרֹן אֶת־שְׁמ֨וֹת בְּנֵֽי־יִשְׂרָאֵ֜ל בְּחֹ֧שֶׁן הַמִּשְׁפָּ֛ט עַל־לִבּ֖וֹ בְּבֹא֣וֹ אֶל־הַקֹּ֑דֶשׁ לְזִכָּרֹ֥ן לִפְנֵֽי־יְהוָ֖ה תָּמִֽיד׃
וְנָתַתָּ֞ אֶל־חֹ֣שֶׁן הַמִּשְׁפָּ֗ט אֶת־הָאוּרִים֙ וְאֶת־הַתֻּמִּ֔ים וְהָיוּ֙ עַל־לֵ֣ב אַהֲרֹ֔ן בְּבֹא֖וֹ לִפְנֵ֣י יְהוָ֑ה וְנָשָׂ֣א אַ֠הֲרֹן אֶת־מִשְׁפַּ֨ט בְּנֵי־יִשְׂרָאֵ֧ל עַל־לִבּ֛וֹ לִפְנֵ֥י יְהוָ֖ה תָּמִֽיד׃{ס} 
{שלישי} וְעָשִׂ֛יתָ אֶת־מְעִ֥יל הָאֵפ֖וֹד כְּלִ֥יל תְּכֵֽלֶת׃
וְהָיָ֥ה פִֽי־רֹאשׁ֖וֹ בְּתוֹכ֑וֹ שָׂפָ֡ה יִהְיֶה֩ לְפִ֨יו סָבִ֜יב מַעֲשֵׂ֣ה אֹרֵ֗ג כְּפִ֥י תַחְרָ֛א יִֽהְיֶה־לּ֖וֹ לֹ֥א יִקָּרֵֽעַ׃
וְעָשִׂ֣יתָ עַל־שׁוּלָ֗יו רִמֹּנֵי֙ תְּכֵ֤לֶת וְאַרְגָּמָן֙ וְתוֹלַ֣עַת שָׁנִ֔י עַל־שׁוּלָ֖יו סָבִ֑יב וּפַעֲמֹנֵ֥י זָהָ֛ב בְּתוֹכָ֖ם סָבִֽיב׃
פַּעֲמֹ֤ן זָהָב֙ וְרִמּ֔וֹן פַּעֲמֹ֥ן זָהָ֖ב וְרִמּ֑וֹן עַל־שׁוּלֵ֥י הַמְּעִ֖יל סָבִֽיב׃
וְהָיָ֥ה עַֽל־אַהֲרֹ֖ן לְשָׁרֵ֑ת וְנִשְׁמַ֣ע ק֠וֹלוֹ בְּבֹא֨וֹ אֶל־הַקֹּ֜דֶשׁ לִפְנֵ֧י יְהוָ֛ה וּבְצֵאת֖וֹ וְלֹ֥א יָמֽוּת׃{ס} 
וְעָשִׂ֥יתָ צִּ֖יץ זָהָ֣ב טָה֑וֹר וּפִתַּחְתָּ֤ עָלָיו֙ פִּתּוּחֵ֣י חֹתָ֔ם קֹ֖דֶשׁ לַיהוָֽה׃
וְשַׂמְתָּ֤ אֹתוֹ֙ עַל־פְּתִ֣יל תְּכֵ֔לֶת וְהָיָ֖ה עַל־הַמִּצְנָ֑פֶת אֶל־מ֥וּל פְּנֵֽי־הַמִּצְנֶ֖פֶת יִהְיֶֽה׃
וְהָיָה֘ עַל־מֵ֣צַח אַהֲרֹן֒ וְנָשָׂ֨א אַהֲרֹ֜ן אֶת־עֲוֺ֣ן הַקֳּדָשִׁ֗ים אֲשֶׁ֤ר יַקְדִּ֙ישׁוּ֙ בְּנֵ֣י יִשְׂרָאֵ֔ל לְכָֽל־מַתְּנֹ֖ת קָדְשֵׁיהֶ֑ם וְהָיָ֤ה עַל־מִצְחוֹ֙ תָּמִ֔יד לְרָצ֥וֹן לָהֶ֖ם לִפְנֵ֥י יְהוָֽה׃
וְשִׁבַּצְתָּ֙ הַכְּתֹ֣נֶת שֵׁ֔שׁ וְעָשִׂ֖יתָ מִצְנֶ֣פֶת שֵׁ֑שׁ וְאַבְנֵ֥ט תַּעֲשֶׂ֖ה מַעֲשֵׂ֥ה רֹקֵֽם׃
וְלִבְנֵ֤י אַֽהֲרֹן֙ תַּעֲשֶׂ֣ה כֻתֳּנֹ֔ת וְעָשִׂ֥יתָ לָהֶ֖ם אַבְנֵטִ֑ים וּמִגְבָּעוֹת֙ תַּעֲשֶׂ֣ה לָהֶ֔ם לְכָב֖וֹד וּלְתִפְאָֽרֶת׃
וְהִלְבַּשְׁתָּ֤ אֹתָם֙ אֶת־אַהֲרֹ֣ן אָחִ֔יךָ וְאֶת־בָּנָ֖יו אִתּ֑וֹ וּמָשַׁחְתָּ֨ אֹתָ֜ם וּמִלֵּאתָ֧ אֶת־יָדָ֛ם וְקִדַּשְׁתָּ֥ אֹתָ֖ם וְכִהֲנ֥וּ לִֽי׃
וַעֲשֵׂ֤ה לָהֶם֙ מִכְנְסֵי־בָ֔ד לְכַסּ֖וֹת בְּשַׂ֣ר עֶרְוָ֑ה מִמָּתְנַ֥יִם וְעַד־יְרֵכַ֖יִם יִהְיֽוּ׃
וְהָיוּ֩ עַל־אַהֲרֹ֨ן וְעַל־בָּנָ֜יו בְּבֹאָ֣ם׀ אֶל־אֹ֣הֶל מוֹעֵ֗ד א֣וֹ בְגִשְׁתָּ֤ם אֶל־הַמִּזְבֵּחַ֙ לְשָׁרֵ֣ת בַּקֹּ֔דֶשׁ וְלֹא־יִשְׂא֥וּ עָוֺ֖ן וָמֵ֑תוּ חֻקַּ֥ת עוֹלָ֛ם ל֖וֹ וּלְזַרְע֥וֹ אַחֲרָֽיו׃{ס}
