{שביעי} וְאַחַ֗ר בָּ֚אוּ מֹשֶׁ֣ה וְאַהֲרֹ֔ן וַיֹּאמְר֖וּ אֶל־פַּרְעֹ֑ה כֹּֽה־אָמַ֤ר יְהוָה֙ אֱלֹהֵ֣י יִשְׂרָאֵ֔ל שַׁלַּח֙ אֶת־עַמִּ֔י וְיָחֹ֥גּוּ לִ֖י בַּמִּדְבָּֽר׃
וַיֹּ֣אמֶר פַּרְעֹ֔ה מִ֤י יְהוָה֙ אֲשֶׁ֣ר אֶשְׁמַ֣ע בְּקֹל֔וֹ לְשַׁלַּ֖ח אֶת־יִשְׂרָאֵ֑ל לֹ֤א יָדַ֙עְתִּי֙ אֶת־יְהוָ֔ה וְגַ֥ם אֶת־יִשְׂרָאֵ֖ל לֹ֥א אֲשַׁלֵּֽחַ׃
וַיֹּ֣אמְר֔וּ אֱלֹהֵ֥י הָעִבְרִ֖ים נִקְרָ֣א עָלֵ֑ינוּ נֵ֣לֲכָה נָּ֡א דֶּרֶךְ֩ שְׁלֹ֨שֶׁת יָמִ֜ים בַּמִּדְבָּ֗ר וְנִזְבְּחָה֙ לַיהוָ֣ה אֱלֹהֵ֔ינוּ פֶּ֨ן־יִפְגָּעֵ֔נוּ בַּדֶּ֖בֶר א֥וֹ בֶחָֽרֶב׃
וַיֹּ֤אמֶר אֲלֵהֶם֙ מֶ֣לֶךְ מִצְרַ֔יִם לָ֚מָּה מֹשֶׁ֣ה וְאַהֲרֹ֔ן תַּפְרִ֥יעוּ אֶת־הָעָ֖ם מִֽמַּעֲשָׂ֑יו לְכ֖וּ לְסִבְלֹתֵיכֶֽם׃
וַיֹּ֣אמֶר פַּרְעֹ֔ה הֵן־רַבִּ֥ים עַתָּ֖ה עַ֣ם הָאָ֑רֶץ וְהִשְׁבַּתֶּ֥ם אֹתָ֖ם מִסִּבְלֹתָֽם׃
וַיְצַ֥ו פַּרְעֹ֖ה בַּיּ֣וֹם הַה֑וּא אֶת־הַנֹּגְשִׂ֣ים בָּעָ֔ם וְאֶת־שֹׁטְרָ֖יו לֵאמֹֽר׃
לֹ֣א תֹאסִפ֞וּן לָתֵ֨ת תֶּ֧בֶן לָעָ֛ם לִלְבֹּ֥ן הַלְּבֵנִ֖ים כִּתְמ֣וֹל שִׁלְשֹׁ֑ם הֵ֚ם יֵֽלְכ֔וּ וְקֹשֲׁשׁ֥וּ לָהֶ֖ם תֶּֽבֶן׃
וְאֶת־מַתְכֹּ֨נֶת הַלְּבֵנִ֜ים אֲשֶׁ֣ר הֵם֩ עֹשִׂ֨ים תְּמ֤וֹל שִׁלְשֹׁם֙ תָּשִׂ֣ימוּ עֲלֵיהֶ֔ם לֹ֥א תִגְרְע֖וּ מִמֶּ֑נּוּ כִּֽי־נִרְפִּ֣ים הֵ֔ם עַל־כֵּ֗ן הֵ֤ם צֹֽעֲקִים֙ לֵאמֹ֔ר נֵלְכָ֖ה נִזְבְּחָ֥ה לֵאלֹהֵֽינוּ׃
תִּכְבַּ֧ד הָעֲבֹדָ֛ה עַל־הָאֲנָשִׁ֖ים וְיַעֲשׂוּ־בָ֑הּ וְאַל־יִשְׁע֖וּ בְּדִבְרֵי־שָֽׁקֶר׃
וַיֵּ֨צְא֜וּ נֹגְשֵׂ֤י הָעָם֙ וְשֹׁ֣טְרָ֔יו וַיֹּאמְר֥וּ אֶל־הָעָ֖ם לֵאמֹ֑ר כֹּ֚ה אָמַ֣ר פַּרְעֹ֔ה אֵינֶ֛נִּי נֹתֵ֥ן לָכֶ֖ם תֶּֽבֶן׃
אַתֶּ֗ם לְכ֨וּ קְח֤וּ לָכֶם֙ תֶּ֔בֶן מֵאֲשֶׁ֖ר תִּמְצָ֑אוּ כִּ֣י אֵ֥ין נִגְרָ֛ע מֵעֲבֹדַתְכֶ֖ם דָּבָֽר׃
וַיָּ֥פֶץ הָעָ֖ם בְּכָל־אֶ֣רֶץ מִצְרָ֑יִם לְקֹשֵׁ֥שׁ קַ֖שׁ לַתֶּֽבֶן׃
וְהַנֹּגְשִׂ֖ים אָצִ֣ים לֵאמֹ֑ר כַּלּ֤וּ מַֽעֲשֵׂיכֶם֙ דְּבַר־י֣וֹם בְּיוֹמ֔וֹ כַּאֲשֶׁ֖ר בִּהְי֥וֹת הַתֶּֽבֶן׃
וַיֻּכּ֗וּ שֹֽׁטְרֵי֙ בְּנֵ֣י יִשְׂרָאֵ֔ל אֲשֶׁר־שָׂ֣מוּ עֲלֵהֶ֔ם נֹגְשֵׂ֥י פַרְעֹ֖ה לֵאמֹ֑ר מַדּ֡וּעַ לֹא֩ כִלִּיתֶ֨ם חָקְכֶ֤ם לִלְבֹּן֙ כִּתְמ֣וֹל שִׁלְשֹׁ֔ם גַּם־תְּמ֖וֹל גַּם־הַיּֽוֹם׃
וַיָּבֹ֗אוּ שֹֽׁטְרֵי֙ בְּנֵ֣י יִשְׂרָאֵ֔ל וַיִּצְעֲק֥וּ אֶל־פַּרְעֹ֖ה לֵאמֹ֑ר לָ֧מָּה תַעֲשֶׂ֦ה כֹ֖ה לַעֲבָדֶֽיךָ׃
תֶּ֗בֶן אֵ֤ין נִתָּן֙ לַעֲבָדֶ֔יךָ וּלְבֵנִ֛ים אֹמְרִ֥ים לָ֖נוּ עֲשׂ֑וּ וְהִנֵּ֧ה עֲבָדֶ֛יךָ מֻכִּ֖ים וְחָטָ֥את עַמֶּֽךָ׃
וַיֹּ֛אמֶר נִרְפִּ֥ים אַתֶּ֖ם נִרְפִּ֑ים עַל־כֵּן֙ אַתֶּ֣ם אֹֽמְרִ֔ים נֵלְכָ֖ה נִזְבְּחָ֥ה לַיהוָֽה׃
וְעַתָּה֙ לְכ֣וּ עִבְד֔וּ וְתֶ֖בֶן לֹא־יִנָּתֵ֣ן לָכֶ֑ם וְתֹ֥כֶן לְבֵנִ֖ים תִּתֵּֽנוּ׃
וַיִּרְא֞וּ שֹׁטְרֵ֧י בְנֵֽי־יִשְׂרָאֵ֛ל אֹתָ֖ם בְּרָ֣ע לֵאמֹ֑ר לֹא־תִגְרְע֥וּ מִלִּבְנֵיכֶ֖ם דְּבַר־י֥וֹם בְּיוֹמֽוֹ׃
וַֽיִּפְגְּעוּ֙ אֶת־מֹשֶׁ֣ה וְאֶֽת־אַהֲרֹ֔ן נִצָּבִ֖ים לִקְרָאתָ֑ם בְּצֵאתָ֖ם מֵאֵ֥ת פַּרְעֹֽה׃
וַיֹּאמְר֣וּ אֲלֵהֶ֔ם יֵ֧רֶא יְהוָ֛ה עֲלֵיכֶ֖ם וְיִשְׁפֹּ֑ט אֲשֶׁ֧ר הִבְאַשְׁתֶּ֣ם אֶת־רֵיחֵ֗נוּ בְּעֵינֵ֤י פַרְעֹה֙ וּבְעֵינֵ֣י עֲבָדָ֔יו לָתֶת־חֶ֥רֶב בְּיָדָ֖ם לְהָרְגֵֽנוּ׃
{מפטיר} וַיָּ֧שָׁב מֹשֶׁ֛ה אֶל־יְהוָ֖ה וַיֹּאמַ֑ר אֲדנָ֗י לָמָ֤ה הֲרֵעֹ֙תָה֙ לָעָ֣ם הַזֶּ֔ה לָ֥מָּה זֶּ֖ה שְׁלַחְתָּֽנִי׃
וּמֵאָ֞ז בָּ֤אתִי אֶל־פַּרְעֹה֙ לְדַבֵּ֣ר בִּשְׁמֶ֔ךָ הֵרַ֖ע לָעָ֣ם הַזֶּ֑ה וְהַצֵּ֥ל לֹא־הִצַּ֖לְתָּ אֶת־עַמֶּֽךָ׃
