וַיְדַבֵּ֣ר יְהוָ֔ה אֶל־מֹשֶׁ֥ה וְאֶֽל־אַהֲרֹ֖ן לֵאמֹֽר׃
דַּבְּרוּ֙ אֶל־בְּנֵ֣י יִשְׂרָאֵ֔ל וַאֲמַרְתֶּ֖ם אֲלֵהֶ֑ם אִ֣ישׁ אִ֗ישׁ כִּ֤י יִֽהְיֶה֙ זָ֣ב מִבְּשָׂר֔וֹ זוֹב֖וֹ טָמֵ֥א הֽוּא׃
וְזֹ֛את תִּהְיֶ֥ה טֻמְאָת֖וֹ בְּזוֹב֑וֹ רָ֣ר בְּשָׂר֞וֹ אֶת־זוֹב֗וֹ אֽוֹ־הֶחְתִּ֤ים בְּשָׂרוֹ֙ מִזּוֹב֔וֹ טֻמְאָת֖וֹ הִֽוא׃
כָּל־הַמִּשְׁכָּ֗ב אֲשֶׁ֨ר יִשְׁכַּ֥ב עָלָ֛יו הַזָּ֖ב יִטְמָ֑א וְכָֽל־הַכְּלִ֛י אֲשֶׁר־יֵשֵׁ֥ב עָלָ֖יו יִטְמָֽא׃
וְאִ֕ישׁ אֲשֶׁ֥ר יִגַּ֖ע בְּמִשְׁכָּב֑וֹ יְכַבֵּ֧ס בְּגָדָ֛יו וְרָחַ֥ץ בַּמַּ֖יִם וְטָמֵ֥א עַד־הָעָֽרֶב׃
וְהַיֹּשֵׁב֙ עַֽל־הַכְּלִ֔י אֲשֶׁר־יֵשֵׁ֥ב עָלָ֖יו הַזָּ֑ב יְכַבֵּ֧ס בְּגָדָ֛יו וְרָחַ֥ץ בַּמַּ֖יִם וְטָמֵ֥א עַד־הָעָֽרֶב׃
וְהַנֹּגֵ֖עַ בִּבְשַׂ֣ר הַזָּ֑ב יְכַבֵּ֧ס בְּגָדָ֛יו וְרָחַ֥ץ בַּמַּ֖יִם וְטָמֵ֥א עַד־הָעָֽרֶב׃
וְכִֽי־יָרֹ֥ק הַזָּ֖ב בַּטָּה֑וֹר וְכִבֶּ֧ס בְּגָדָ֛יו וְרָחַ֥ץ בַּמַּ֖יִם וְטָמֵ֥א עַד־הָעָֽרֶב׃
וְכָל־הַמֶּרְכָּ֗ב אֲשֶׁ֨ר יִרְכַּ֥ב עָלָ֛יו הַזָּ֖ב יִטְמָֽא׃
וְכָל־הַנֹּגֵ֗עַ בְּכֹל֙ אֲשֶׁ֣ר יִהְיֶ֣ה תַחְתָּ֔יו יִטְמָ֖א עַד־הָעָ֑רֶב וְהַנּוֹשֵׂ֣א אוֹתָ֔ם יְכַבֵּ֧ס בְּגָדָ֛יו וְרָחַ֥ץ בַּמַּ֖יִם וְטָמֵ֥א עַד־הָעָֽרֶב׃
וְכֹ֨ל אֲשֶׁ֤ר יִגַּע־בּוֹ֙ הַזָּ֔ב וְיָדָ֖יו לֹא־שָׁטַ֣ף בַּמָּ֑יִם וְכִבֶּ֧ס בְּגָדָ֛יו וְרָחַ֥ץ בַּמַּ֖יִם וְטָמֵ֥א עַד־הָעָֽרֶב׃
וּכְלִי־חֶ֛רֶשׂ אֲשֶׁר־יִגַּע־בּ֥וֹ הַזָּ֖ב יִשָּׁבֵ֑ר וְכָ֨ל־כְּלִי־עֵ֔ץ יִשָּׁטֵ֖ף בַּמָּֽיִם׃
וְכִֽי־יִטְהַ֤ר הַזָּב֙ מִזּוֹב֔וֹ וְסָ֨פַר ל֜וֹ שִׁבְעַ֥ת יָמִ֛ים לְטָהֳרָת֖וֹ וְכִבֶּ֣ס בְּגָדָ֑יו וְרָחַ֧ץ בְּשָׂר֛וֹ בְּמַ֥יִם חַיִּ֖ים וְטָהֵֽר׃
וּבַיּ֣וֹם הַשְּׁמִינִ֗י יִֽקַּֽח־לוֹ֙ שְׁתֵּ֣י תֹרִ֔ים א֥וֹ שְׁנֵ֖י בְּנֵ֣י יוֹנָ֑ה וּבָ֣א׀ לִפְנֵ֣י יְהוָ֗ה אֶל־פֶּ֙תַח֙ אֹ֣הֶל מוֹעֵ֔ד וּנְתָנָ֖ם אֶל־הַכֹּהֵֽן׃
וְעָשָׂ֤ה אֹתָם֙ הַכֹּהֵ֔ן אֶחָ֣ד חַטָּ֔את וְהָאֶחָ֖ד עֹלָ֑ה וְכִפֶּ֨ר עָלָ֧יו הַכֹּהֵ֛ן לִפְנֵ֥י יְהוָ֖ה מִזּוֹבֽוֹ׃{ס} 
{ששי} וְאִ֕ישׁ כִּֽי־תֵצֵ֥א מִמֶּ֖נּוּ שִׁכְבַת־זָ֑רַע וְרָחַ֥ץ בַּמַּ֛יִם אֶת־כָּל־בְּשָׂר֖וֹ וְטָמֵ֥א עַד־הָעָֽרֶב׃
וְכָל־בֶּ֣גֶד וְכָל־ע֔וֹר אֲשֶׁר־יִהְיֶ֥ה עָלָ֖יו שִׁכְבַת־זָ֑רַע וְכֻבַּ֥ס בַּמַּ֖יִם וְטָמֵ֥א עַד־הָעָֽרֶב׃
וְאִשָּׁ֕ה אֲשֶׁ֨ר יִשְׁכַּ֥ב אִ֛ישׁ אֹתָ֖הּ שִׁכְבַת־זָ֑רַע וְרָחֲצ֣וּ בַמַּ֔יִם וְטָמְא֖וּ עַד־הָעָֽרֶב׃{פ} 
וְאִשָּׁה֙ כִּֽי־תִהְיֶ֣ה זָבָ֔ה דָּ֛ם יִהְיֶ֥ה זֹבָ֖הּ בִּבְשָׂרָ֑הּ שִׁבְעַ֤ת יָמִים֙ תִּהְיֶ֣ה בְנִדָּתָ֔הּ וְכָל־הַנֹּגֵ֥עַ בָּ֖הּ יִטְמָ֥א עַד־הָעָֽרֶב׃
וְכֹל֩ אֲשֶׁ֨ר תִּשְׁכַּ֥ב עָלָ֛יו בְּנִדָּתָ֖הּ יִטְמָ֑א וְכֹ֛ל אֲשֶׁר־תֵּשֵׁ֥ב עָלָ֖יו יִטְמָֽא׃
וְכָל־הַנֹּגֵ֖עַ בְּמִשְׁכָּבָ֑הּ יְכַבֵּ֧ס בְּגָדָ֛יו וְרָחַ֥ץ בַּמַּ֖יִם וְטָמֵ֥א עַד־הָעָֽרֶב׃
וְכָ֨ל־הַנֹּגֵ֔עַ בְּכָל־כְּלִ֖י אֲשֶׁר־תֵּשֵׁ֣ב עָלָ֑יו יְכַבֵּ֧ס בְּגָדָ֛יו וְרָחַ֥ץ בַּמַּ֖יִם וְטָמֵ֥א עַד־הָעָֽרֶב׃
וְאִ֨ם עַֽל־הַמִּשְׁכָּ֜ב ה֗וּא א֧וֹ עַֽל־הַכְּלִ֛י אֲשֶׁר־הִ֥וא יֹשֶֽׁבֶת־עָלָ֖יו בְּנָגְעוֹ־ב֑וֹ יִטְמָ֖א עַד־הָעָֽרֶב׃
וְאִ֡ם שָׁכֹב֩ יִשְׁכַּ֨ב אִ֜ישׁ אֹתָ֗הּ וּתְהִ֤י נִדָּתָהּ֙ עָלָ֔יו וְטָמֵ֖א שִׁבְעַ֣ת יָמִ֑ים וְכָל־הַמִּשְׁכָּ֛ב אֲשֶׁר־יִשְׁכַּ֥ב עָלָ֖יו יִטְמָֽא׃{ס} 
וְאִשָּׁ֡ה כִּֽי־יָזוּב֩ ז֨וֹב דָּמָ֜הּ יָמִ֣ים רַבִּ֗ים בְּלֹא֙ עֶת־נִדָּתָ֔הּ א֥וֹ כִֽי־תָז֖וּב עַל־נִדָּתָ֑הּ כָּל־יְמֵ֞י ז֣וֹב טֻמְאָתָ֗הּ כִּימֵ֧י נִדָּתָ֛הּ תִּהְיֶ֖ה טְמֵאָ֥ה הִֽוא׃
כָּל־הַמִּשְׁכָּ֞ב אֲשֶׁר־תִּשְׁכַּ֤ב עָלָיו֙ כָּל־יְמֵ֣י זוֹבָ֔הּ כְּמִשְׁכַּ֥ב נִדָּתָ֖הּ יִֽהְיֶה־לָּ֑הּ וְכָֽל־הַכְּלִי֙ אֲשֶׁ֣ר תֵּשֵׁ֣ב עָלָ֔יו טָמֵ֣א יִֽהְיֶ֔ה כְּטֻמְאַ֖ת נִדָּתָֽהּ׃
וְכָל־הַנּוֹגֵ֥עַ בָּ֖ם יִטְמָ֑א וְכִבֶּ֧ס בְּגָדָ֛יו וְרָחַ֥ץ בַּמַּ֖יִם וְטָמֵ֥א עַד־הָעָֽרֶב׃
וְאִֽם־טָהֲרָ֖ה מִזּוֹבָ֑הּ וְסָ֥פְרָה לָּ֛הּ שִׁבְעַ֥ת יָמִ֖ים וְאַחַ֥ר תִּטְהָֽר׃
{שביעי} וּבַיּ֣וֹם הַשְּׁמִינִ֗י תִּֽקַּֽח־לָהּ֙ שְׁתֵּ֣י תֹרִ֔ים א֥וֹ שְׁנֵ֖י בְּנֵ֣י יוֹנָ֑ה וְהֵבִיאָ֤ה אוֹתָם֙ אֶל־הַכֹּהֵ֔ן אֶל־פֶּ֖תַח אֹ֥הֶל מוֹעֵֽד׃
וְעָשָׂ֤ה הַכֹּהֵן֙ אֶת־הָאֶחָ֣ד חַטָּ֔את וְאֶת־הָאֶחָ֖ד עֹלָ֑ה וְכִפֶּ֨ר עָלֶ֤יהָ הַכֹּהֵן֙ לִפְנֵ֣י יְהוָ֔ה מִזּ֖וֹב טֻמְאָתָֽהּ׃
{מפטיר} וְהִזַּרְתֶּ֥ם אֶת־בְּנֵי־יִשְׂרָאֵ֖ל מִטֻּמְאָתָ֑ם וְלֹ֤א יָמֻ֙תוּ֙ בְּטֻמְאָתָ֔ם בְּטַמְּאָ֥ם אֶת־מִשְׁכָּנִ֖י אֲשֶׁ֥ר בְּתוֹכָֽם׃
זֹ֥את תּוֹרַ֖ת הַזָּ֑ב וַאֲשֶׁ֨ר תֵּצֵ֥א מִמֶּ֛נּוּ שִׁכְבַת־זֶ֖רַע לְטָמְאָה־בָֽהּ׃
וְהַדָּוָה֙ בְּנִדָּתָ֔הּ וְהַזָּב֙ אֶת־זוֹב֔וֹ לַזָּכָ֖ר וְלַנְּקֵבָ֑ה וּלְאִ֕ישׁ אֲשֶׁ֥ר יִשְׁכַּ֖ב עִם־טְמֵאָֽה׃{פ}
