וַתִּקְרַ֜בְנָה בְּנ֣וֹת צְלָפְחָ֗ד בֶּן־חֵ֤פֶר בֶּן־גִּלְעָד֙ בֶּן־מָכִ֣יר בֶּן־מְנַשֶּׁ֔ה לְמִשְׁפְּחֹ֖ת מְנַשֶּׁ֣ה בֶן־יוֹסֵ֑ף וְאֵ֙לֶּה֙ שְׁמ֣וֹת בְּנֹתָ֔יו מַחְלָ֣ה נֹעָ֔ה וְחָגְלָ֥ה וּמִלְכָּ֖ה וְתִרְצָֽה׃
וַֽתַּעֲמֹ֜דְנָה לִפְנֵ֣י מֹשֶׁ֗ה וְלִפְנֵי֙ אֶלְעָזָ֣ר הַכֹּהֵ֔ן וְלִפְנֵ֥י הַנְּשִׂיאִ֖ם וְכָל־הָעֵדָ֑ה פֶּ֥תַח אֹֽהֶל־מוֹעֵ֖ד לֵאמֹֽר׃
אָבִינוּ֘ מֵ֣ת בַּמִּדְבָּר֒ וְה֨וּא לֹא־הָיָ֜ה בְּת֣וֹךְ הָעֵדָ֗ה הַנּוֹעָדִ֛ים עַל־יְהוָ֖ה בַּעֲדַת־קֹ֑רַח כִּֽי־בְחֶטְא֣וֹ מֵ֔ת וּבָנִ֖ים לֹא־הָ֥יוּ לֽוֹ׃
לָ֣מָּה יִגָּרַ֤ע שֵׁם־אָבִ֙ינוּ֙ מִתּ֣וֹךְ מִשְׁפַּחְתּ֔וֹ כִּ֛י אֵ֥ין ל֖וֹ בֵּ֑ן תְּנָה־לָּ֣נוּ אֲחֻזָּ֔ה בְּת֖וֹךְ אֲחֵ֥י אָבִֽינוּ׃
וַיַּקְרֵ֥ב מֹשֶׁ֛ה אֶת־מִשְׁפָּטָ֖ן לִפְנֵ֥י יְהוָֽה׃{פ} 
{רביעי} וַיֹּ֥אמֶר יְהוָ֖ה אֶל־מֹשֶׁ֥ה לֵּאמֹֽר׃
כֵּ֗ן בְּנ֣וֹת צְלָפְחָד֘ דֹּבְרֹת֒ נָתֹ֨ן תִּתֵּ֤ן לָהֶם֙ אֲחֻזַּ֣ת נַחֲלָ֔ה בְּת֖וֹךְ אֲחֵ֣י אֲבִיהֶ֑ם וְהַעֲבַרְתָּ֛ אֶת־נַחֲלַ֥ת אֲבִיהֶ֖ן לָהֶֽן׃
וְאֶל־בְּנֵ֥י יִשְׂרָאֵ֖ל תְּדַבֵּ֣ר לֵאמֹ֑ר אִ֣ישׁ כִּֽי־יָמ֗וּת וּבֵן֙ אֵ֣ין ל֔וֹ וְהַעֲבַרְתֶּ֥ם אֶת־נַחֲלָת֖וֹ לְבִתּֽוֹ׃
וְאִם־אֵ֥ין ל֖וֹ בַּ֑ת וּנְתַתֶּ֥ם אֶת־נַחֲלָת֖וֹ לְאֶחָֽיו׃
וְאִם־אֵ֥ין ל֖וֹ אַחִ֑ים וּנְתַתֶּ֥ם אֶת־נַחֲלָת֖וֹ לַאֲחֵ֥י אָבִֽיו׃
וְאִם־אֵ֣ין אַחִים֘ לְאָבִיו֒ וּנְתַתֶּ֣ם אֶת־נַחֲלָת֗וֹ לִשְׁאֵר֞וֹ הַקָּרֹ֥ב אֵלָ֛יו מִמִּשְׁפַּחְתּ֖וֹ וְיָרַ֣שׁ אֹתָ֑הּ וְהָ֨יְתָ֜ה לִבְנֵ֤י יִשְׂרָאֵל֙ לְחֻקַּ֣ת מִשְׁפָּ֔ט כַּאֲשֶׁ֛ר צִוָּ֥ה יְהוָ֖ה אֶת־מֹשֶֽׁה׃{פ} 
וַיֹּ֤אמֶר יְהוָה֙ אֶל־מֹשֶׁ֔ה עֲלֵ֛ה אֶל־הַ֥ר הָעֲבָרִ֖ים הַזֶּ֑ה וּרְאֵה֙ אֶת־הָאָ֔רֶץ אֲשֶׁ֥ר נָתַ֖תִּי לִבְנֵ֥י יִשְׂרָאֵֽל׃
וְרָאִ֣יתָה אֹתָ֔הּ וְנֶאֱסַפְתָּ֥ אֶל־עַמֶּ֖יךָ גַּם־אָ֑תָּה כַּאֲשֶׁ֥ר נֶאֱסַ֖ף אַהֲרֹ֥ן אָחִֽיךָ׃
כַּאֲשֶׁר֩ מְרִיתֶ֨ם פִּ֜י בְּמִדְבַּר־צִ֗ן בִּמְרִיבַת֙ הָעֵדָ֔ה לְהַקְדִּישֵׁ֥נִי בַמַּ֖יִם לְעֵינֵיהֶ֑ם הֵ֛ם מֵֽי־מְרִיבַ֥ת קָדֵ֖שׁ מִדְבַּר־צִֽן׃{ס} 
וַיְדַבֵּ֣ר מֹשֶׁ֔ה אֶל־יְהוָ֖ה לֵאמֹֽר׃
יִפְקֹ֣ד יְהוָ֔ה אֱלֹהֵ֥י הָרוּחֹ֖ת לְכָל־בָּשָׂ֑ר אִ֖ישׁ עַל־הָעֵדָֽה׃
אֲשֶׁר־יֵצֵ֣א לִפְנֵיהֶ֗ם וַאֲשֶׁ֤ר יָבֹא֙ לִפְנֵיהֶ֔ם וַאֲשֶׁ֥ר יוֹצִיאֵ֖ם וַאֲשֶׁ֣ר יְבִיאֵ֑ם וְלֹ֤א תִֽהְיֶה֙ עֲדַ֣ת יְהוָ֔ה כַּצֹּ֕אן אֲשֶׁ֥ר אֵין־לָהֶ֖ם רֹעֶֽה׃
וַיֹּ֨אמֶר יְהוָ֜ה אֶל־מֹשֶׁ֗ה קַח־לְךָ֙ אֶת־יְהוֹשֻׁ֣עַ בִּן־נ֔וּן אִ֖ישׁ אֲשֶׁר־ר֣וּחַ בּ֑וֹ וְסָמַכְתָּ֥ אֶת־יָדְךָ֖ עָלָֽיו׃
וְהַעֲמַדְתָּ֣ אֹת֗וֹ לִפְנֵי֙ אֶלְעָזָ֣ר הַכֹּהֵ֔ן וְלִפְנֵ֖י כָּל־הָעֵדָ֑ה וְצִוִּיתָ֥ה אֹת֖וֹ לְעֵינֵיהֶֽם׃
וְנָתַתָּ֥ה מֵהוֹדְךָ֖ עָלָ֑יו לְמַ֣עַן יִשְׁמְע֔וּ כָּל־עֲדַ֖ת בְּנֵ֥י יִשְׂרָאֵֽל׃
וְלִפְנֵ֨י אֶלְעָזָ֤ר הַכֹּהֵן֙ יַעֲמֹ֔ד וְשָׁ֥אַל ל֛וֹ בְּמִשְׁפַּ֥ט הָאוּרִ֖ים לִפְנֵ֣י יְהוָ֑ה עַל־פִּ֨יו יֵצְא֜וּ וְעַל־פִּ֣יו יָבֹ֗אוּ ה֛וּא וְכָל־בְּנֵי־יִשְׂרָאֵ֥ל אִתּ֖וֹ וְכָל־הָעֵדָֽה׃
וַיַּ֣עַשׂ מֹשֶׁ֔ה כַּאֲשֶׁ֛ר צִוָּ֥ה יְהוָ֖ה אֹת֑וֹ וַיִּקַּ֣ח אֶת־יְהוֹשֻׁ֗עַ וַיַּעֲמִדֵ֙הוּ֙ לִפְנֵי֙ אֶלְעָזָ֣ר הַכֹּהֵ֔ן וְלִפְנֵ֖י כָּל־הָעֵדָֽה׃
וַיִּסְמֹ֧ךְ אֶת־יָדָ֛יו עָלָ֖יו וַיְצַוֵּ֑הוּ כַּאֲשֶׁ֛ר דִּבֶּ֥ר יְהוָ֖ה בְּיַד־מֹשֶֽׁה׃{פ}
