וַיְדַבֵּ֥ר יְהוָ֖ה אֶל־מֹשֶׁ֥ה לֵּאמֹֽר׃
עֲשֵׂ֣ה לְךָ֗ שְׁתֵּי֙ חֲצוֹצְרֹ֣ת כֶּ֔סֶף מִקְשָׁ֖ה תַּעֲשֶׂ֣ה אֹתָ֑ם וְהָי֤וּ לְךָ֙ לְמִקְרָ֣א הָֽעֵדָ֔ה וּלְמַסַּ֖ע אֶת־הַֽמַּחֲנֽוֹת׃
וְתָקְע֖וּ בָּהֵ֑ן וְנֽוֹעֲד֤וּ אֵלֶ֙יךָ֙ כָּל־הָ֣עֵדָ֔ה אֶל־פֶּ֖תַח אֹ֥הֶל מוֹעֵֽד׃
וְאִם־בְּאַחַ֖ת יִתְקָ֑עוּ וְנוֹעֲד֤וּ אֵלֶ֙יךָ֙ הַנְּשִׂיאִ֔ים רָאשֵׁ֖י אַלְפֵ֥י יִשְׂרָאֵֽל׃
וּתְקַעְתֶּ֖ם תְּרוּעָ֑ה וְנָֽסְעוּ֙ הַֽמַּחֲנ֔וֹת הַחֹנִ֖ים קֵֽדְמָה׃
וּתְקַעְתֶּ֤ם תְּרוּעָה֙ שֵׁנִ֔ית וְנָֽסְעוּ֙ הַֽמַּחֲנ֔וֹת הַחֹנִ֖ים תֵּימָ֑נָה תְּרוּעָ֥ה יִתְקְע֖וּ לְמַסְעֵיהֶֽם׃
וּבְהַקְהִ֖יל אֶת־הַקָּהָ֑ל תִּתְקְע֖וּ וְלֹ֥א תָרִֽיעוּ׃
וּבְנֵ֤י אַֽהֲרֹן֙ הַכֹּ֣הֲנִ֔ים יִתְקְע֖וּ בַּחֲצֹצְר֑וֹת וְהָי֥וּ לָכֶ֛ם לְחֻקַּ֥ת עוֹלָ֖ם לְדֹרֹתֵיכֶֽם׃
וְכִֽי־תָבֹ֨אוּ מִלְחָמָ֜ה בְּאַרְצְכֶ֗ם עַל־הַצַּר֙ הַצֹּרֵ֣ר אֶתְכֶ֔ם וַהֲרֵעֹתֶ֖ם בַּחֲצֹצְרֹ֑ת וְנִזְכַּרְתֶּ֗ם לִפְנֵי֙ יְהוָ֣ה אֱלֹהֵיכֶ֔ם וְנוֹשַׁעְתֶּ֖ם מֵאֹיְבֵיכֶֽם׃
וּבְי֨וֹם שִׂמְחַתְכֶ֥ם וּֽבְמוֹעֲדֵיכֶם֘ וּבְרָאשֵׁ֣י חָדְשֵׁיכֶם֒ וּתְקַעְתֶּ֣ם בַּחֲצֹצְרֹ֗ת עַ֚ל עֹלֹ֣תֵיכֶ֔ם וְעַ֖ל זִבְחֵ֣י שַׁלְמֵיכֶ֑ם וְהָי֨וּ לָכֶ֤ם לְזִכָּרוֹן֙ לִפְנֵ֣י אֱלֹהֵיכֶ֔ם אֲנִ֖י יְהוָ֥ה אֱלֹהֵיכֶֽם׃{פ} 
{חמישי} וַיְהִ֞י בַּשָּׁנָ֧ה הַשֵּׁנִ֛ית בַּחֹ֥דֶשׁ הַשֵּׁנִ֖י בְּעֶשְׂרִ֣ים בַּחֹ֑דֶשׁ נַֽעֲלָה֙ הֶעָנָ֔ן מֵעַ֖ל מִשְׁכַּ֥ן הָעֵדֻֽת׃
וַיִּסְע֧וּ בְנֵֽי־יִשְׂרָאֵ֛ל לְמַסְעֵיהֶ֖ם מִמִּדְבַּ֣ר סִינָ֑י וַיִּשְׁכֹּ֥ן הֶעָנָ֖ן בְּמִדְבַּ֥ר פָּארָֽן׃
וַיִּסְע֖וּ בָּרִאשֹׁנָ֑ה עַל־פִּ֥י יְהוָ֖ה בְּיַד־מֹשֶֽׁה׃
וַיִּסַּ֞ע דֶּ֣גֶל מַחֲנֵ֧ה בְנֵֽי־יְהוּדָ֛ה בָּרִאשֹׁנָ֖ה לְצִבְאֹתָ֑ם וְעַ֨ל־צְבָא֔וֹ נַחְשׁ֖וֹן בֶּן־עַמִּינָדָֽב׃
וְעַ֨ל־צְבָ֔א מַטֵּ֖ה בְּנֵ֣י יִשָּׂשכָ֑ר נְתַנְאֵ֖ל בֶּן־צוּעָֽר׃
וְעַ֨ל־צְבָ֔א מַטֵּ֖ה בְּנֵ֣י זְבוּלֻ֑ן אֱלִיאָ֖ב בֶּן־חֵלֹֽן׃
וְהוּרַ֖ד הַמִּשְׁכָּ֑ן וְנָסְע֤וּ בְנֵֽי־גֵרְשׁוֹן֙ וּבְנֵ֣י מְרָרִ֔י נֹשְׂאֵ֖י הַמִּשְׁכָּֽן׃
וְנָסַ֗ע דֶּ֛גֶל מַחֲנֵ֥ה רְאוּבֵ֖ן לְצִבְאֹתָ֑ם וְעַ֨ל־צְבָא֔וֹ אֱלִיצ֖וּר בֶּן־שְׁדֵיאֽוּר׃
וְעַ֨ל־צְבָ֔א מַטֵּ֖ה בְּנֵ֣י שִׁמְע֑וֹן שְׁלֻמִיאֵ֖ל בֶּן־צוּרִֽישַׁדָּֽי׃
וְעַל־צְבָ֖א מַטֵּ֣ה בְנֵי־גָ֑ד אֶלְיָסָ֖ף בֶּן־דְּעוּאֵֽל׃
וְנָֽסְעוּ֙ הַקֳּהָתִ֔ים נֹשְׂאֵ֖י הַמִּקְדָּ֑שׁ וְהֵקִ֥ימוּ אֶת־הַמִּשְׁכָּ֖ן עַד־בֹּאָֽם׃
וְנָסַ֗ע דֶּ֛גֶל מַחֲנֵ֥ה בְנֵֽי־אֶפְרַ֖יִם לְצִבְאֹתָ֑ם וְעַ֨ל־צְבָא֔וֹ אֱלִישָׁמָ֖ע בֶּן־עַמִּיהֽוּד׃
וְעַ֨ל־צְבָ֔א מַטֵּ֖ה בְּנֵ֣י מְנַשֶּׁ֑ה גַּמְלִיאֵ֖ל בֶּן־פְּדָהצֽוּר׃
וְעַ֨ל־צְבָ֔א מַטֵּ֖ה בְּנֵ֣י בִנְיָמִ֑ן אֲבִידָ֖ן בֶּן־גִּדְעוֹנִֽי׃
וְנָסַ֗ע דֶּ֚גֶל מַחֲנֵ֣ה בְנֵי־דָ֔ן מְאַסֵּ֥ף לְכָל־הַֽמַּחֲנֹ֖ת לְצִבְאֹתָ֑ם וְעַ֨ל־צְבָא֔וֹ אֲחִיעֶ֖זֶר בֶּן־עַמִּישַׁדָּֽי׃
וְעַ֨ל־צְבָ֔א מַטֵּ֖ה בְּנֵ֣י אָשֵׁ֑ר פַּגְעִיאֵ֖ל בֶּן־עָכְרָֽן׃
וְעַ֨ל־צְבָ֔א מַטֵּ֖ה בְּנֵ֣י נַפְתָּלִ֑י אֲחִירַ֖ע בֶּן־עֵינָֽן׃
אֵ֛לֶּה מַסְעֵ֥י בְנֵֽי־יִשְׂרָאֵ֖ל לְצִבְאֹתָ֑ם וַיִּסָּֽעוּ׃{ס} 
וַיֹּ֣אמֶר מֹשֶׁ֗ה לְ֠חֹבָב בֶּן־רְעוּאֵ֣ל הַמִּדְיָנִי֘ חֹתֵ֣ן מֹשֶׁה֒ נֹסְעִ֣ים ׀ אֲנַ֗חְנוּ אֶל־הַמָּקוֹם֙ אֲשֶׁ֣ר אָמַ֣ר יְהוָ֔ה אֹת֖וֹ אֶתֵּ֣ן לָכֶ֑ם לְכָ֤ה אִתָּ֙נוּ֙ וְהֵטַ֣בְנוּ לָ֔ךְ כִּֽי־יְהוָ֥ה דִּבֶּר־ט֖וֹב עַל־יִשְׂרָאֵֽל׃
וַיֹּ֥אמֶר אֵלָ֖יו לֹ֣א אֵלֵ֑ךְ כִּ֧י אִם־אֶל־אַרְצִ֛י וְאֶל־מוֹלַדְתִּ֖י אֵלֵֽךְ׃
וַיֹּ֕אמֶר אַל־נָ֖א תַּעֲזֹ֣ב אֹתָ֑נוּ כִּ֣י׀ עַל־כֵּ֣ן יָדַ֗עְתָּ חֲנֹתֵ֙נוּ֙ בַּמִּדְבָּ֔ר וְהָיִ֥יתָ לָּ֖נוּ לְעֵינָֽיִם׃
וְהָיָ֖ה כִּי־תֵלֵ֣ךְ עִמָּ֑נוּ וְהָיָ֣ה׀ הַטּ֣וֹב הַה֗וּא אֲשֶׁ֨ר יֵיטִ֧יב יְהוָ֛ה עִמָּ֖נוּ וְהֵטַ֥בְנוּ לָֽךְ׃
וַיִּסְעוּ֙ מֵהַ֣ר יְהוָ֔ה דֶּ֖רֶךְ שְׁלֹ֣שֶׁת יָמִ֑ים וַאֲר֨וֹן בְּרִית־יְהוָ֜ה נֹסֵ֣עַ לִפְנֵיהֶ֗ם דֶּ֚רֶךְ שְׁלֹ֣שֶׁת יָמִ֔ים לָת֥וּר לָהֶ֖ם מְנוּחָֽה׃
וַעֲנַ֧ן יְהוָ֛ה עֲלֵיהֶ֖ם יוֹמָ֑ם בְּנָסְעָ֖ם מִן־הַֽמַּחֲנֶֽה׃{ס} 
{ששי} וַיְהִ֛י בִּנְסֹ֥עַ הָאָרֹ֖ן וַיֹּ֣אמֶר מֹשֶׁ֑ה קוּמָ֣ה ׀ יְהוָ֗ה וְיָפֻ֙צוּ֙ אֹֽיְבֶ֔יךָ וְיָנֻ֥סוּ מְשַׂנְאֶ֖יךָ מִפָּנֶֽיךָ׃
וּבְנֻחֹ֖ה יֹאמַ֑ר שׁוּבָ֣ה יְהוָ֔ה רִֽבֲב֖וֹת אַלְפֵ֥י יִשְׂרָאֵֽל׃{פ}
