{רביעי} וְאֵ֛לֶּה תּוֹלְדֹ֥ת אַהֲרֹ֖ן וּמֹשֶׁ֑ה בְּי֗וֹם דִּבֶּ֧ר יהו֛ה אֶת־מֹשֶׁ֖ה בְּהַ֥ר סִינָֽי׃
וְאֵ֛לֶּה שְׁמ֥וֹת בְּֽנֵי־אַהֲרֹ֖ן הַבְּכֹ֣ר׀ נָדָ֑ב וַאֲבִיה֕וּא אֶלְעָזָ֖ר וְאִיתָמָֽר׃
אֵ֗לֶּה שְׁמוֹת֙ בְּנֵ֣י אַהֲרֹ֔ן הַכֹּהֲנִ֖ים הַמְּשֻׁחִ֑ים אֲשֶׁר־מִלֵּ֥א יָדָ֖ם לְכַהֵֽן׃
וַיָּ֣מָת נָדָ֣ב וַאֲבִיה֣וּא לִפְנֵ֣י יהו֡ה בְּֽהַקְרִבָם֩ אֵ֨שׁ זָרָ֜ה לִפְנֵ֤י יהוה֙ בְּמִדְבַּ֣ר סִינַ֔י וּבָנִ֖ים לֹא־הָי֣וּ לָהֶ֑ם וַיְכַהֵ֤ן אֶלְעָזָר֙ וְאִ֣יתָמָ֔ר עַל־פְּנֵ֖י אַהֲרֹ֥ן אֲבִיהֶֽם׃{פ} 
וַיְדַבֵּ֥ר יהו֖ה אֶל־מֹשֶׁ֥ה לֵּאמֹֽר׃
הַקְרֵב֙ אֶת־מַטֵּ֣ה לֵוִ֔י וְהַעֲמַדְתָּ֣ אֹת֔וֹ לִפְנֵ֖י אַהֲרֹ֣ן הַכֹּהֵ֑ן וְשֵׁרְת֖וּ אֹתֽוֹ׃
וְשָׁמְר֣וּ אֶת־מִשְׁמַרְתּ֗וֹ וְאֶת־מִשְׁמֶ֙רֶת֙ כָּל־הָ֣עֵדָ֔ה לִפְנֵ֖י אֹ֣הֶל מוֹעֵ֑ד לַעֲבֹ֖ד אֶת־עֲבֹדַ֥ת הַמִּשְׁכָּֽן׃
וְשָׁמְר֗וּ אֶֽת־כָּל־כְּלֵי֙ אֹ֣הֶל מוֹעֵ֔ד וְאֶת־מִשְׁמֶ֖רֶת בְּנֵ֣י יִשְׂרָאֵ֑ל לַעֲבֹ֖ד אֶת־עֲבֹדַ֥ת הַמִּשְׁכָּֽן׃
וְנָתַתָּה֙ אֶת־הַלְוִיִּ֔ם לְאַהֲרֹ֖ן וּלְבָנָ֑יו נְתוּנִ֨ם נְתוּנִ֥ם הֵ֙מָּה֙ ל֔וֹ מֵאֵ֖ת בְּנֵ֥י יִשְׂרָאֵֽל׃
וְאֶת־אַהֲרֹ֤ן וְאֶת־בָּנָיו֙ תִּפְקֹ֔ד וְשָׁמְר֖וּ אֶת־כְּהֻנָּתָ֑ם וְהַזָּ֥ר הַקָּרֵ֖ב יוּמָֽת׃{פ} 
וַיְדַבֵּ֥ר יהו֖ה אֶל־מֹשֶׁ֥ה לֵּאמֹֽר׃
וַאֲנִ֞י הִנֵּ֧ה לָקַ֣חְתִּי אֶת־הַלְוִיִּ֗ם מִתּוֹךְ֙ בְּנֵ֣י יִשְׂרָאֵ֔ל תַּ֧חַת כָּל־בְּכ֛וֹר פֶּ֥טֶר רֶ֖חֶם מִבְּנֵ֣י יִשְׂרָאֵ֑ל וְהָ֥יוּ לִ֖י הַלְוִיִּֽם׃
כִּ֣י לִי֘ כָּל־בְּכוֹר֒ בְּיוֹם֩ הַכֹּתִ֨י כָל־בְּכ֜וֹר בְּאֶ֣רֶץ מִצְרַ֗יִם הִקְדַּ֨שְׁתִּי לִ֤י כָל־בְּכוֹר֙ בְּיִשְׂרָאֵ֔ל מֵאָדָ֖ם עַד־בְּהֵמָ֑ה לִ֥י יִהְי֖וּ אֲנִ֥י יהוֽה׃{פ} 
{חמישי} וַיְדַבֵּ֤ר יהוה֙ אֶל־מֹשֶׁ֔ה בְּמִדְבַּ֥ר סִינַ֖י לֵאמֹֽר׃
פְּקֹד֙ אֶת־בְּנֵ֣י לֵוִ֔י לְבֵ֥ית אֲבֹתָ֖ם לְמִשְׁפְּחֹתָ֑ם כָּל־זָכָ֛ר מִבֶּן־חֹ֥דֶשׁ וָמַ֖עְלָה תִּפְקְדֵֽם׃
וַיִּפְקֹ֥ד אֹתָ֛ם מֹשֶׁ֖ה עַל־פִּ֣י יהו֑ה כַּאֲשֶׁ֖ר צֻוָּֽה׃
וַיִּֽהְיוּ־אֵ֥לֶּה בְנֵֽי־לֵוִ֖י בִּשְׁמֹתָ֑ם גֵּרְשׁ֕וֹן וּקְהָ֖ת וּמְרָרִֽי׃
וְאֵ֛לֶּה שְׁמ֥וֹת בְּֽנֵי־גֵרְשׁ֖וֹן לְמִשְׁפְּחֹתָ֑ם לִבְנִ֖י וְשִׁמְעִֽי׃
וּבְנֵ֥י קֳהָ֖ת לְמִשְׁפְּחֹתָ֑ם עַמְרָ֣ם וְיִצְהָ֔ר חֶבְר֖וֹן וְעֻזִּיאֵֽל׃
וּבְנֵ֧י מְרָרִ֛י לְמִשְׁפְּחֹתָ֖ם מַחְלִ֣י וּמוּשִׁ֑י אֵ֥לֶּה הֵ֛ם מִשְׁפְּחֹ֥ת הַלֵּוִ֖י לְבֵ֥ית אֲבֹתָֽם׃
לְגֵ֣רְשׁ֔וֹן מִשְׁפַּ֙חַת֙ הַלִּבְנִ֔י וּמִשְׁפַּ֖חַת הַשִּׁמְעִ֑י אֵ֣לֶּה הֵ֔ם מִשְׁפְּחֹ֖ת הַגֵּרְשֻׁנִּֽי׃
פְּקֻדֵיהֶם֙ בְּמִסְפַּ֣ר כָּל־זָכָ֔ר מִבֶּן־חֹ֖דֶשׁ וָמָ֑עְלָה פְּקֻ֣דֵיהֶ֔ם שִׁבְעַ֥ת אֲלָפִ֖ים וַחֲמֵ֥שׁ מֵאֽוֹת׃
מִשְׁפְּחֹ֖ת הַגֵּרְשֻׁנִּ֑י אַחֲרֵ֧י הַמִּשְׁכָּ֛ן יַחֲנ֖וּ יָֽמָּה׃
וּנְשִׂ֥יא בֵֽית־אָ֖ב לַגֵּרְשֻׁנִּ֑י אֶלְיָסָ֖ף בֶּן־לָאֵֽל׃
וּמִשְׁמֶ֤רֶת בְּנֵֽי־גֵרְשׁוֹן֙ בְּאֹ֣הֶל מוֹעֵ֔ד הַמִּשְׁכָּ֖ן וְהָאֹ֑הֶל מִכְסֵ֕הוּ וּמָסַ֕ךְ פֶּ֖תַח אֹ֥הֶל מוֹעֵֽד׃
וְקַלְעֵ֣י הֶחָצֵ֗ר וְאֶת־מָסַךְ֙ פֶּ֣תַח הֶחָצֵ֔ר אֲשֶׁ֧ר עַל־הַמִּשְׁכָּ֛ן וְעַל־הַמִּזְבֵּ֖חַ סָבִ֑יב וְאֵת֙ מֵֽיתָרָ֔יו לְכֹ֖ל עֲבֹדָתֽוֹ׃{ס} 
וְלִקְהָ֗ת מִשְׁפַּ֤חַת הַֽעַמְרָמִי֙ וּמִשְׁפַּ֣חַת הַיִּצְהָרִ֔י וּמִשְׁפַּ֙חַת֙ הַֽחֶבְרֹנִ֔י וּמִשְׁפַּ֖חַת הָֽעָזִּיאֵלִ֑י אֵ֥לֶּה הֵ֖ם מִשְׁפְּחֹ֥ת הַקֳּהָתִֽי׃
בְּמִסְפַּר֙ כָּל־זָכָ֔ר מִבֶּן־חֹ֖דֶשׁ וָמָ֑עְלָה שְׁמֹנַ֤ת אֲלָפִים֙ וְשֵׁ֣שׁ מֵא֔וֹת שֹׁמְרֵ֖י מִשְׁמֶ֥רֶת הַקֹּֽדֶשׁ׃
מִשְׁפְּחֹ֥ת בְּנֵי־קֳהָ֖ת יַחֲנ֑וּ עַ֛ל יֶ֥רֶךְ הַמִּשְׁכָּ֖ן תֵּימָֽנָה׃
וּנְשִׂ֥יא בֵֽית־אָ֖ב לְמִשְׁפְּחֹ֣ת הַקֳּהָתִ֑י אֱלִיצָפָ֖ן בֶּן־עֻזִּיאֵֽל׃
וּמִשְׁמַרְתָּ֗ם הָאָרֹ֤ן וְהַשֻּׁלְחָן֙ וְהַמְּנֹרָ֣ה וְהַֽמִּזְבְּחֹ֔ת וּכְלֵ֣י הַקֹּ֔דֶשׁ אֲשֶׁ֥ר יְשָׁרְת֖וּ בָּהֶ֑ם וְהַ֨מָּסָ֔ךְ וְכֹ֖ל עֲבֹדָתֽוֹ׃
וּנְשִׂיא֙ נְשִׂיאֵ֣י הַלֵּוִ֔י אֶלְעָזָ֖ר בֶּן־אַהֲרֹ֣ן הַכֹּהֵ֑ן פְּקֻדַּ֕ת שֹׁמְרֵ֖י מִשְׁמֶ֥רֶת הַקֹּֽדֶשׁ׃
לִמְרָרִ֕י מִשְׁפַּ֙חַת֙ הַמַּחְלִ֔י וּמִשְׁפַּ֖חַת הַמּוּשִׁ֑י אֵ֥לֶּה הֵ֖ם מִשְׁפְּחֹ֥ת מְרָרִֽי׃
וּפְקֻדֵיהֶם֙ בְּמִסְפַּ֣ר כָּל־זָכָ֔ר מִבֶּן־חֹ֖דֶשׁ וָמָ֑עְלָה שֵׁ֥שֶׁת אֲלָפִ֖ים וּמָאתָֽיִם׃
וּנְשִׂ֤יא בֵֽית־אָב֙ לְמִשְׁפְּחֹ֣ת מְרָרִ֔י צוּרִיאֵ֖ל בֶּן־אֲבִיחָ֑יִל עַ֣ל יֶ֧רֶךְ הַמִּשְׁכָּ֛ן יַחֲנ֖וּ צָפֹֽנָה׃
וּפְקֻדַּ֣ת מִשְׁמֶרֶת֘ בְּנֵ֣י מְרָרִי֒ קַרְשֵׁי֙ הַמִּשְׁכָּ֔ן וּבְרִיחָ֖יו וְעַמֻּדָ֣יו וַאֲדָנָ֑יו וְכָ֨ל־כֵּלָ֔יו וְכֹ֖ל עֲבֹדָתֽוֹ׃
וְעַמֻּדֵ֧י הֶחָצֵ֛ר סָבִ֖יב וְאַדְנֵיהֶ֑ם וִיתֵדֹתָ֖ם וּמֵֽיתְרֵיהֶֽם׃
וְהַחֹנִ֣ים לִפְנֵ֣י הַמִּשְׁכָּ֡ן קֵ֣דְמָה לִפְנֵי֩ אֹֽהֶל־מוֹעֵ֨ד׀ מִזְרָ֜חָה מֹשֶׁ֣ה׀ וְאַהֲרֹ֣ן וּבָנָ֗יו שֹֽׁמְרִים֙ מִשְׁמֶ֣רֶת הַמִּקְדָּ֔שׁ לְמִשְׁמֶ֖רֶת בְּנֵ֣י יִשְׂרָאֵ֑ל וְהַזָּ֥ר הַקָּרֵ֖ב יוּמָֽת׃
כָּל־פְּקוּדֵ֨י הַלְוִיִּ֜ם אֲשֶׁר֩ פָּקַ֨ד מֹשֶׁ֧ה וְאַהֲרֹ֛ן עַל־פִּ֥י יהו֖ה לְמִשְׁפְּחֹתָ֑ם כָּל־זָכָר֙ מִבֶּן־חֹ֣דֶשׁ וָמַ֔עְלָה שְׁנַ֥יִם וְעֶשְׂרִ֖ים אָֽלֶף׃{ס} 
{ששי} וַיֹּ֨אמֶר יהו֜ה אֶל־מֹשֶׁ֗ה פְּקֹ֨ד כָּל־בְּכֹ֤ר זָכָר֙ לִבְנֵ֣י יִשְׂרָאֵ֔ל מִבֶּן־חֹ֖דֶשׁ וָמָ֑עְלָה וְשָׂ֕א אֵ֖ת מִסְפַּ֥ר שְׁמֹתָֽם׃
וְלָקַחְתָּ֨ אֶת־הַלְוִיִּ֥ם לִי֙ אֲנִ֣י יהו֔ה תַּ֥חַת כָּל־בְּכֹ֖ר בִּבְנֵ֣י יִשְׂרָאֵ֑ל וְאֵת֙ בֶּהֱמַ֣ת הַלְוִיִּ֔ם תַּ֣חַת כָּל־בְּכ֔וֹר בְּבֶהֱמַ֖ת בְּנֵ֥י יִשְׂרָאֵֽל׃
וַיִּפְקֹ֣ד מֹשֶׁ֔ה כַּאֲשֶׁ֛ר צִוָּ֥ה יהו֖ה אֹת֑וֹ אֶֽת־כָּל־בְּכ֖וֹר בִּבְנֵ֥י יִשְׂרָאֵֽל׃
וַיְהִי֩ כָל־בְּכ֨וֹר זָכָ֜ר בְּמִסְפַּ֥ר שֵׁמֹ֛ת מִבֶּן־חֹ֥דֶשׁ וָמַ֖עְלָה לִפְקֻדֵיהֶ֑ם שְׁנַ֤יִם וְעֶשְׂרִים֙ אֶ֔לֶף שְׁלֹשָׁ֥ה וְשִׁבְעִ֖ים וּמָאתָֽיִם׃{פ} 
וַיְדַבֵּ֥ר יהו֖ה אֶל־מֹשֶׁ֥ה לֵּאמֹֽר׃
קַ֣ח אֶת־הַלְוִיִּ֗ם תַּ֤חַת כָּל־בְּכוֹר֙ בִּבְנֵ֣י יִשְׂרָאֵ֔ל וְאֶת־בֶּהֱמַ֥ת הַלְוִיִּ֖ם תַּ֣חַת בְּהֶמְתָּ֑ם וְהָיוּ־לִ֥י הַלְוִיִּ֖ם אֲנִ֥י יהוֽה׃
וְאֵת֙ פְּדוּיֵ֣י הַשְּׁלֹשָׁ֔ה וְהַשִּׁבְעִ֖ים וְהַמָּאתָ֑יִם הָעֹֽדְפִים֙ עַל־הַלְוִיִּ֔ם מִבְּכ֖וֹר בְּנֵ֥י יִשְׂרָאֵֽל׃
וְלָקַחְתָּ֗ חֲמֵ֧שֶׁת חֲמֵ֛שֶׁת שְׁקָלִ֖ים לַגֻּלְגֹּ֑לֶת בְּשֶׁ֤קֶל הַקֹּ֙דֶשׁ֙ תִּקָּ֔ח עֶשְׂרִ֥ים גֵּרָ֖ה הַשָּֽׁקֶל׃
וְנָתַתָּ֣ה הַכֶּ֔סֶף לְאַהֲרֹ֖ן וּלְבָנָ֑יו פְּדוּיֵ֕י הָעֹדְפִ֖ים בָּהֶֽם׃
וַיִּקַּ֣ח מֹשֶׁ֔ה אֵ֖ת כֶּ֣סֶף הַפִּדְי֑וֹם מֵאֵת֙ הָעֹ֣דְפִ֔ים עַ֖ל פְּדוּיֵ֥י הַלְוִיִּֽם׃
מֵאֵ֗ת בְּכ֛וֹר בְּנֵ֥י יִשְׂרָאֵ֖ל לָקַ֣ח אֶת־הַכָּ֑סֶף חֲמִשָּׁ֨ה וְשִׁשִּׁ֜ים וּשְׁלֹ֥שׁ מֵא֛וֹת וָאֶ֖לֶף בְּשֶׁ֥קֶל הַקֹּֽדֶשׁ׃
וַיִּתֵּ֨ן מֹשֶׁ֜ה אֶת־כֶּ֧סֶף הַפְּדֻיִ֛ם לְאַהֲרֹ֥ן וּלְבָנָ֖יו עַל־פִּ֣י יהו֑ה כַּאֲשֶׁ֛ר צִוָּ֥ה יהו֖ה אֶת־מֹשֶֽׁה׃{פ}
