{שביעי} כִּ֤י יְבִֽיאֲךָ֙ יְהוָ֣ה אֱלֹהֶ֔יךָ אֶל־הָאָ֕רֶץ אֲשֶׁר־אַתָּ֥ה בָא־שָׁ֖מָּה לְרִשְׁתָּ֑הּ וְנָשַׁ֣ל גּֽוֹיִם־רַבִּ֣ים ׀ מִפָּנֶ֡יךָ הַחִתִּי֩ וְהַגִּרְגָּשִׁ֨י וְהָאֱמֹרִ֜י וְהַכְּנַעֲנִ֣י וְהַפְּרִזִּ֗י וְהַֽחִוִּי֙ וְהַיְבוּסִ֔י שִׁבְעָ֣ה גוֹיִ֔ם רַבִּ֥ים וַעֲצוּמִ֖ים מִמֶּֽךָּ׃
וּנְתָנָ֞ם יְהוָ֧ה אֱלֹהֶ֛יךָ לְפָנֶ֖יךָ וְהִכִּיתָ֑ם הַחֲרֵ֤ם תַּחֲרִים֙ אֹתָ֔ם לֹא־תִכְרֹ֥ת לָהֶ֛ם בְּרִ֖ית וְלֹ֥א תְחָנֵּֽם׃
וְלֹ֥א תִתְחַתֵּ֖ן בָּ֑ם בִּתְּךָ֙ לֹא־תִתֵּ֣ן לִבְנ֔וֹ וּבִתּ֖וֹ לֹא־תִקַּ֥ח לִבְנֶֽךָ׃
כִּֽי־יָסִ֤יר אֶת־בִּנְךָ֙ מֵֽאַחֲרַ֔י וְעָבְד֖וּ אֱלֹהִ֣ים אֲחֵרִ֑ים וְחָרָ֤ה אַף־יְהוָה֙ בָּכֶ֔ם וְהִשְׁמִידְךָ֖ מַהֵֽר׃
כִּֽי־אִם־כֹּ֤ה תַֽעֲשׂוּ֙ לָהֶ֔ם מִזְבְּחֹתֵיהֶ֣ם תִּתֹּ֔צוּ וּמַצֵּבֹתָ֖ם תְּשַׁבֵּ֑רוּ וַאֲשֵֽׁירֵהֶם֙ תְּגַדֵּע֔וּן וּפְסִילֵיהֶ֖ם תִּשְׂרְפ֥וּן בָּאֵֽשׁ׃
כִּ֣י עַ֤ם קָדוֹשׁ֙ אַתָּ֔ה לַיהוָ֖ה אֱלֹהֶ֑יךָ בְּךָ֞ בָּחַ֣ר׀ יְהוָ֣ה אֱלֹהֶ֗יךָ לִהְי֥וֹת לוֹ֙ לְעַ֣ם סְגֻלָּ֔ה מִכֹּל֙ הָֽעַמִּ֔ים אֲשֶׁ֖ר עַל־פְּנֵ֥י הָאֲדָמָֽה׃
לֹ֣א מֵרֻבְּכֶ֞ם מִכָּל־הָעַמִּ֗ים חָשַׁ֧ק יְהוָ֛ה בָּכֶ֖ם וַיִּבְחַ֣ר בָּכֶ֑ם כִּֽי־אַתֶּ֥ם הַמְעַ֖ט מִכָּל־הָעַמִּֽים׃
כִּי֩ מֵאַהֲבַ֨ת יְהוָ֜ה אֶתְכֶ֗ם וּמִשָּׁמְר֤וֹ אֶת־הַשְּׁבֻעָה֙ אֲשֶׁ֤ר נִשְׁבַּע֙ לַאֲבֹ֣תֵיכֶ֔ם הוֹצִ֧יא יְהוָ֛ה אֶתְכֶ֖ם בְּיָ֣ד חֲזָקָ֑ה וַֽיִּפְדְּךָ֙ מִבֵּ֣ית עֲבָדִ֔ים מִיַּ֖ד פַּרְעֹ֥ה מֶלֶךְ־מִצְרָֽיִם׃
{מפטיר} וְיָ֣דַעְתָּ֔ כִּֽי־יְהוָ֥ה אֱלֹהֶ֖יךָ ה֣וּא הָאֱלֹהִ֑ים הָאֵל֙ הַֽנֶּאֱמָ֔ן שֹׁמֵ֧ר הַבְּרִ֣ית וְהַחֶ֗סֶד לְאֹהֲבָ֛יו וּלְשֹׁמְרֵ֥י [מִצְוֺתָ֖ו] מִצְוֺתָ֖יו לְאֶ֥לֶף דּֽוֹר׃
וּמְשַׁלֵּ֧ם לְשֹׂנְאָ֛יו אֶל־פָּנָ֖יו לְהַאֲבִיד֑וֹ לֹ֤א יְאַחֵר֙ לְשֹׂ֣נְא֔וֹ אֶל־פָּנָ֖יו יְשַׁלֶּם־לֽוֹ׃
וְשָׁמַרְתָּ֨ אֶת־הַמִּצְוָ֜ה וְאֶת־הַחֻקִּ֣ים וְאֶת־הַמִּשְׁפָּטִ֗ים אֲשֶׁ֨ר אָנֹכִ֧י מְצַוְּךָ֛ הַיּ֖וֹם לַעֲשׂוֹתָֽם׃{פ} 
{{עקב}} וְהָיָ֣ה׀ עֵ֣קֶב תִּשְׁמְע֗וּן אֵ֤ת הַמִּשְׁפָּטִים֙ הָאֵ֔לֶּה וּשְׁמַרְתֶּ֥ם וַעֲשִׂיתֶ֖ם אֹתָ֑ם וְשָׁמַר֩ יְהוָ֨ה אֱלֹהֶ֜יךָ לְךָ֗ אֶֽת־הַבְּרִית֙ וְאֶת־הַחֶ֔סֶד אֲשֶׁ֥ר נִשְׁבַּ֖ע לַאֲבֹתֶֽיךָ׃
וַאֲהֵ֣בְךָ֔ וּבֵרַכְךָ֖ וְהִרְבֶּ֑ךָ וּבֵרַ֣ךְ פְּרִֽי־בִטְנְךָ֣ וּפְרִֽי־אַ֠דְמָתֶךָ דְּגָ֨נְךָ֜ וְתִירֹשְׁךָ֣ וְיִצְהָרֶ֗ךָ שְׁגַר־אֲלָפֶ֙יךָ֙ וְעַשְׁתְּרֹ֣ת צֹאנֶ֔ךָ עַ֚ל הָאֲדָמָ֔ה אֲשֶׁר־נִשְׁבַּ֥ע לַאֲבֹתֶ֖יךָ לָ֥תֶת לָֽךְ׃
בָּר֥וּךְ תִּֽהְיֶ֖ה מִכָּל־הָעַמִּ֑ים לֹא־יִהְיֶ֥ה בְךָ֛ עָקָ֥ר וַעֲקָרָ֖ה וּבִבְהֶמְתֶּֽךָ׃
וְהֵסִ֧יר יְהוָ֛ה מִמְּךָ֖ כָּל־חֹ֑לִי וְכָל־מַדְוֵי֩ מִצְרַ֨יִם הָרָעִ֜ים אֲשֶׁ֣ר יָדַ֗עְתָּ לֹ֤א יְשִׂימָם֙ בָּ֔ךְ וּנְתָנָ֖ם בְּכָל־שֹׂנְאֶֽיךָ׃
וְאָכַלְתָּ֣ אֶת־כָּל־הָעַמִּ֗ים אֲשֶׁ֨ר יְהוָ֤ה אֱלֹהֶ֙יךָ֙ נֹתֵ֣ן לָ֔ךְ לֹא־תָח֥וֹס עֵֽינְךָ֖ עֲלֵיהֶ֑ם וְלֹ֤א תַֽעֲבֹד֙ אֶת־אֱלֹ֣הֵיהֶ֔ם כִּֽי־מוֹקֵ֥שׁ ה֖וּא לָֽךְ׃{ס} 
כִּ֤י תֹאמַר֙ בִּלְבָ֣בְךָ֔ רַבִּ֛ים הַגּוֹיִ֥ם הָאֵ֖לֶּה מִמֶּ֑נִּי אֵיכָ֥ה אוּכַ֖ל לְהוֹרִישָֽׁם׃
לֹ֥א תִירָ֖א מֵהֶ֑ם זָכֹ֣ר תִּזְכֹּ֗ר אֵ֤ת אֲשֶׁר־עָשָׂה֙ יְהוָ֣ה אֱלֹהֶ֔יךָ לְפַרְעֹ֖ה וּלְכָל־מִצְרָֽיִם׃
הַמַּסֹּ֨ת הַגְּדֹלֹ֜ת אֲשֶׁר־רָא֣וּ עֵינֶ֗יךָ וְהָאֹתֹ֤ת וְהַמֹּֽפְתִים֙ וְהַיָּ֤ד הַחֲזָקָה֙ וְהַזְּרֹ֣עַ הַנְּטוּיָ֔ה אֲשֶׁ֥ר הוֹצִאֲךָ֖ יְהוָ֣ה אֱלֹהֶ֑יךָ כֵּֽן־יַעֲשֶׂ֞ה יְהוָ֤ה אֱלֹהֶ֙יךָ֙ לְכָל־הָ֣עַמִּ֔ים אֲשֶׁר־אַתָּ֥ה יָרֵ֖א מִפְּנֵיהֶֽם׃
וְגַם֙ אֶת־הַצִּרְעָ֔ה יְשַׁלַּ֛ח יְהוָ֥ה אֱלֹהֶ֖יךָ בָּ֑ם עַד־אֲבֹ֗ד הַנִּשְׁאָרִ֛ים וְהַנִּסְתָּרִ֖ים מִפָּנֶֽיךָ׃
לֹ֥א תַעֲרֹ֖ץ מִפְּנֵיהֶ֑ם כִּֽי־יְהוָ֤ה אֱלֹהֶ֙יךָ֙ בְּקִרְבֶּ֔ךָ אֵ֥ל גָּד֖וֹל וְנוֹרָֽא׃
וְנָשַׁל֩ יְהוָ֨ה אֱלֹהֶ֜יךָ אֶת־הַגּוֹיִ֥ם הָאֵ֛ל מִפָּנֶ֖יךָ מְעַ֣ט מְעָ֑ט לֹ֤א תוּכַל֙ כַּלֹּתָ֣ם מַהֵ֔ר פֶּן־תִּרְבֶּ֥ה עָלֶ֖יךָ חַיַּ֥ת הַשָּׂדֶֽה׃
וּנְתָנָ֛ם יְהוָ֥ה אֱלֹהֶ֖יךָ לְפָנֶ֑יךָ וְהָמָם֙ מְהוּמָ֣ה גְדֹלָ֔ה עַ֖ד הִשָּׁמְדָֽם׃
וְנָתַ֤ן מַלְכֵיהֶם֙ בְּיָדֶ֔ךָ וְהַאֲבַדְתָּ֣ אֶת־שְׁמָ֔ם מִתַּ֖חַת הַשָּׁמָ֑יִם לֹא־יִתְיַצֵּ֥ב אִישׁ֙ בְּפָנֶ֔יךָ עַ֥ד הִשְׁמִֽדְךָ֖ אֹתָֽם׃
פְּסִילֵ֥י אֱלֹהֵיהֶ֖ם תִּשְׂרְפ֣וּן בָּאֵ֑שׁ לֹֽא־תַחְמֹד֩ כֶּ֨סֶף וְזָהָ֤ב עֲלֵיהֶם֙ וְלָקַחְתָּ֣ לָ֔ךְ פֶּ֚ן תִּוָּקֵ֣שׁ בּ֔וֹ כִּ֧י תוֹעֲבַ֛ת יְהוָ֥ה אֱלֹהֶ֖יךָ הֽוּא׃
וְלֹא־תָבִ֤יא תֽוֹעֵבָה֙ אֶל־בֵּיתֶ֔ךָ וְהָיִ֥יתָ חֵ֖רֶם כָּמֹ֑הוּ שַׁקֵּ֧ץ ׀ תְּשַׁקְּצֶ֛נּוּ וְתַעֵ֥ב ׀ תְּֽתַעֲבֶ֖נּוּ כִּי־חֵ֥רֶם הֽוּא׃{פ}
