וַיֵּ֤לֶךְ דָּוִד֙ מִשָּׁ֔ם וַיִּמָּלֵ֖ט אֶל־מְעָרַ֣ת עֲדֻלָּ֑ם וַיִּשְׁמְע֤וּ אֶחָיו֙ וְכָל־בֵּ֣ית אָבִ֔יו וַיֵּרְד֥וּ אֵלָ֖יו שָֽׁמָּה׃
וַיִּֽתְקַבְּצ֣וּ אֵ֠לָיו כָּל־אִ֨ישׁ מָצ֜וֹק וְכָל־אִ֨ישׁ אֲשֶׁר־ל֤וֹ נֹשֶׁא֙ וְכָל־אִ֣ישׁ מַר־נֶ֔פֶשׁ וַיְהִ֥י עֲלֵיהֶ֖ם לְשָׂ֑ר וַיִּהְי֣וּ עִמּ֔וֹ כְּאַרְבַּ֥ע מֵא֖וֹת אִֽישׁ׃
וַיֵּ֧לֶךְ דָּוִ֛ד מִשָּׁ֖ם מִצְפֵּ֣ה מוֹאָ֑ב וַיֹּ֣אמֶר׀ אֶל־מֶ֣לֶךְ מוֹאָ֗ב יֵֽצֵא־נָ֞א אָבִ֤י וְאִמִּי֙ אִתְּכֶ֔ם עַ֚ד אֲשֶׁ֣ר אֵדַ֔ע מַה־יַּעֲשֶׂה־לִּ֖י אֱלֹהִֽים׃
וַיַּנְחֵ֕ם אֶת־פְּנֵ֖י מֶ֣לֶךְ מוֹאָ֑ב וַיֵּשְׁב֣וּ עִמּ֔וֹ כָּל־יְמֵ֥י הֱיוֹת־דָּוִ֖ד בַּמְּצוּדָֽה׃{ס} 
וַיֹּאמֶר֩ גָּ֨ד הַנָּבִ֜יא אֶל־דָּוִ֗ד לֹ֤א תֵשֵׁב֙ בַּמְּצוּדָ֔ה לֵ֥ךְ וּבָֽאתָ־לְּךָ֖ אֶ֣רֶץ יְהוּדָ֑ה וַיֵּ֣לֶךְ דָּוִ֔ד וַיָּבֹ֖א יַ֥עַר חָֽרֶת׃{ס} 
וַיִּשְׁמַ֣ע שָׁא֔וּל כִּ֚י נוֹדַ֣ע דָּוִ֔ד וַאֲנָשִׁ֖ים אֲשֶׁ֣ר אִתּ֑וֹ וְשָׁאוּל֩ יוֹשֵׁ֨ב בַּגִּבְעָ֜ה תַּֽחַת־הָאֶ֤שֶׁל בָּֽרָמָה֙ וַחֲנִית֣וֹ בְיָד֔וֹ וְכָל־עֲבָדָ֖יו נִצָּבִ֥ים עָלָֽיו׃
וַיֹּ֣אמֶר שָׁא֗וּל לַֽעֲבָדָיו֙ הַנִּצָּבִ֣ים עָלָ֔יו שִׁמְעוּ־נָ֖א בְּנֵ֣י יְמִינִ֑י גַּם־לְכֻלְּכֶ֗ם יִתֵּ֤ן בֶּן־יִשַׁי֙ שָׂד֣וֹת וּכְרָמִ֔ים לְכֻלְּכֶ֣ם יָשִׂ֔ים שָׂרֵ֥י אֲלָפִ֖ים וְשָׂרֵ֥י מֵאֽוֹת׃
כִּי֩ קְשַׁרְתֶּ֨ם כֻּלְּכֶ֜ם עָלַ֗י וְאֵין־גֹּלֶ֤ה אֶת־אָזְנִי֙ בִּכְרָת־בְּנִ֣י עִם־בֶּן־יִשַׁ֔י וְאֵין־חֹלֶ֥ה מִכֶּ֛ם עָלַ֖י וְגֹלֶ֣ה אֶת־אָזְנִ֑י כִּ֣י הֵקִים֩ בְּנִ֨י אֶת־עַבְדִּ֥י עָלַ֛י לְאֹרֵ֖ב כַּיּ֥וֹם הַזֶּֽה׃{ס} 
וַיַּ֜עַן דֹּאֵ֣ג הָאֲדֹמִ֗י וְה֛וּא נִצָּ֥ב עַל־עַבְדֵֽי־שָׁא֖וּל וַיֹּאמַ֑ר רָאִ֙יתִי֙ אֶת־בֶּן־יִשַׁ֔י בָּ֣א נֹ֔בֶה אֶל־אֲחִימֶ֖לֶךְ בֶּן־אֲחִטֽוּב׃
וַיִּשְׁאַל־לוֹ֙ בַּֽיהוָ֔ה וְצֵידָ֖ה נָ֣תַן ל֑וֹ וְאֵ֗ת חֶ֛רֶב גָּלְיָ֥ת הַפְּלִשְׁתִּ֖י נָ֥תַן לֽוֹ׃
וַיִּשְׁלַ֣ח הַמֶּ֡לֶךְ לִקְרֹא֩ אֶת־אֲחִימֶ֨לֶךְ בֶּן־אֲחִיט֜וּב הַכֹּהֵ֗ן וְאֵ֨ת כָּל־בֵּ֥ית אָבִ֛יו הַכֹּהֲנִ֖ים אֲשֶׁ֣ר בְּנֹ֑ב וַיָּבֹ֥אוּ כֻלָּ֖ם אֶל־הַמֶּֽלֶךְ׃{ס} 
וַיֹּ֣אמֶר שָׁא֔וּל שְֽׁמַֽע־נָ֖א בֶּן־אֲחִיט֑וּב וַיֹּ֖אמֶר הִנְנִ֥י אֲדֹנִֽי׃
וַיֹּ֤אמֶר אֵלָו֙ שָׁא֔וּל לָ֚מָּה קְשַׁרְתֶּ֣ם עָלַ֔י אַתָּ֖ה וּבֶן־יִשָׁ֑י בְּתִתְּךָ֨ ל֜וֹ לֶ֣חֶם וְחֶ֗רֶב וְשָׁא֥וֹל לוֹ֙ בֵּֽאלֹהִ֔ים לָק֥וּם אֵלַ֛י לְאֹרֵ֖ב כַּיּ֥וֹם הַזֶּֽה׃{ס} 
וַיַּ֧עַן אֲחִימֶ֛לֶךְ אֶת־הַמֶּ֖לֶךְ וַיֹּאמַ֑ר וּמִ֤י בְכָל־עֲבָדֶ֙יךָ֙ כְּדָוִ֣ד נֶאֱמָ֔ן וַחֲתַ֥ן הַמֶּ֛לֶךְ וְסָ֥ר אֶל־מִשְׁמַעְתֶּ֖ךָ וְנִכְבָּ֥ד בְּבֵיתֶֽךָ׃
הַיּ֧וֹם הַחִלֹּ֛תִי לִשְׁאָול־ל֥וֹ בֵאלֹהִ֖ים חָלִ֣ילָה לִּ֑י אַל־יָשֵׂם֩ הַמֶּ֨לֶךְ בְּעַבְדּ֤וֹ דָבָר֙ בְּכָל־בֵּ֣ית אָבִ֔י כִּ֠י לֹֽא־יָדַ֤ע עַבְדְּךָ֙ בְּכָל־זֹ֔את דָּבָ֥ר קָטֹ֖ן א֥וֹ גָדֽוֹל׃
וַיֹּ֣אמֶר הַמֶּ֔לֶךְ מ֥וֹת תָּמ֖וּת אֲחִימֶ֑לֶךְ אַתָּ֖ה וְכָל־בֵּ֥ית אָבִֽיךָ׃
וַיֹּ֣אמֶר הַמֶּ֡לֶךְ לָרָצִים֩ הַנִּצָּבִ֨ים עָלָ֜יו סֹ֥בּוּ וְהָמִ֣יתוּ׀ כֹּהֲנֵ֣י יְהוָ֗ה כִּ֤י גַם־יָדָם֙ עִם־דָּוִ֔ד וְכִ֤י יָֽדְעוּ֙ כִּֽי־בֹרֵ֣חַֽ ה֔וּא וְלֹ֥א גָל֖וּ אֶת־[אָזְנִ֑ו] אָזְנִ֑י וְלֹֽא־אָב֞וּ עַבְדֵ֤י הַמֶּ֙לֶךְ֙ לִשְׁלֹ֣חַ אֶת־יָדָ֔ם לִפְגֹ֖עַ בְּכֹהֲנֵ֥י יְהוָֽה׃{ס} 
וַיֹּ֤אמֶר הַמֶּ֙לֶךְ֙ [לְדוֹיֵ֔ג] לְדוֹאֵ֔ג סֹ֣ב אַתָּ֔ה וּפְגַ֖ע בַּכֹּהֲנִ֑ים וַיִּסֹּ֞ב [דּוֹיֵ֣ג] דּוֹאֵ֣ג הָאֲדֹמִ֗י וַיִּפְגַּע־הוּא֙ בַּכֹּ֣הֲנִ֔ים וַיָּ֣מֶת׀ בַּיּ֣וֹם הַה֗וּא שְׁמֹנִ֤ים וַֽחֲמִשָּׁה֙ אִ֔ישׁ נֹשֵׂ֖א אֵפ֥וֹד בָּֽד׃
וְאֵ֨ת נֹ֤ב עִיר־הַכֹּֽהֲנִים֙ הִכָּ֣ה לְפִי־חֶ֔רֶב מֵאִישׁ֙ וְעַד־אִשָּׁ֔ה מֵֽעוֹלֵ֖ל וְעַד־יוֹנֵ֑ק וְשׁ֧וֹר וַחֲמ֛וֹר וָשֶׂ֖ה לְפִי־חָֽרֶב׃
וַיִּמָּלֵ֣ט בֵּן־אֶחָ֗ד לַאֲחִימֶ֙לֶךְ֙ בֶּן־אֲחִט֔וּב וּשְׁמ֖וֹ אֶבְיָתָ֑ר וַיִּבְרַ֖ח אַחֲרֵ֥י דָוִֽד׃
וַיַּגֵּ֥ד אֶבְיָתָ֖ר לְדָוִ֑ד כִּ֚י הָרַ֣ג שָׁא֔וּל אֵ֖ת כֹּהֲנֵ֥י יְהוָֽה׃
וַיֹּ֨אמֶר דָּוִ֜ד לְאֶבְיָתָ֗ר יָדַ֜עְתִּי בַּיּ֤וֹם הַהוּא֙ כִּי־שָׁם֙ [דּוֹיֵ֣ג] דּוֹאֵ֣ג הָאֲדֹמִ֔י כִּֽי־הַגֵּ֥ד יַגִּ֖יד לְשָׁא֑וּל אָנֹכִ֣י סַבֹּ֔תִי בְּכָל־נֶ֖פֶשׁ בֵּ֥ית אָבִֽיךָ׃
שְׁבָ֤ה אִתִּי֙ אַל־תִּירָ֔א כִּ֛י אֲשֶׁר־יְבַקֵּ֥שׁ אֶת־נַפְשִׁ֖י יְבַקֵּ֣שׁ אֶת־נַפְשֶׁ֑ךָ כִּֽי־מִשְׁמֶ֥רֶת אַתָּ֖ה עִמָּדִֽי׃{ס}
