חֲזוֹן֙ יְשַֽׁעְיָ֣הוּ בֶן־אָמ֔וֹץ אֲשֶׁ֣ר חָזָ֔ה עַל־יְהוּדָ֖ה וִירֽוּשָׁלִָ֑ם בִּימֵ֨י עֻזִּיָּ֧הוּ יוֹתָ֛ם אָחָ֥ז יְחִזְקִיָּ֖הוּ מַלְכֵ֥י יְהוּדָֽה׃
שִׁמְע֤וּ שָׁמַ֙יִם֙ וְהַאֲזִ֣ינִי אֶ֔רֶץ כִּ֥י יְהוָ֖ה דִּבֵּ֑ר בָּנִים֙ גִּדַּ֣לְתִּי וְרוֹמַ֔מְתִּי וְהֵ֖ם פָּ֥שְׁעוּ בִֽי׃
יָדַ֥ע שׁוֹר֙ קֹנֵ֔הוּ וַחֲמ֖וֹר אֵב֣וּס בְּעָלָ֑יו יִשְׂרָאֵל֙ לֹ֣א יָדַ֔ע עַמִּ֖י לֹ֥א הִתְבּוֹנָֽן׃
ה֣וֹי׀ גּ֣וֹי חֹטֵ֗א עַ֚ם כֶּ֣בֶד עָוֺ֔ן זֶ֣רַע מְרֵעִ֔ים בָּנִ֖ים מַשְׁחִיתִ֑ים עָזְב֣וּ אֶת־יְהוָ֗ה נִֽאֲצ֛וּ אֶת־קְד֥וֹשׁ יִשְׂרָאֵ֖ל נָזֹ֥רוּ אָחֽוֹר׃
עַ֣ל מֶ֥ה תֻכּ֛וּ ע֖וֹד תּוֹסִ֣יפוּ סָרָ֑ה כָּל־רֹ֣אשׁ לָֽחֳלִ֔י וְכָל־לֵבָ֖ב דַּוָּֽי׃
מִכַּף־רֶ֤גֶל וְעַד־רֹאשׁ֙ אֵֽין־בּ֣וֹ מְתֹ֔ם פֶּ֥צַע וְחַבּוּרָ֖ה וּמַכָּ֣ה טְרִיָּ֑ה לֹא־זֹ֙רוּ֙ וְלֹ֣א חֻבָּ֔שׁוּ וְלֹ֥א רֻכְּכָ֖ה בַּשָּֽׁמֶן׃
אַרְצְכֶ֣ם שְׁמָמָ֔ה עָרֵיכֶ֖ם שְׂרֻפ֣וֹת אֵ֑שׁ אַדְמַתְכֶ֗ם לְנֶגְדְּכֶם֙ זָרִים֙ אֹכְלִ֣ים אֹתָ֔הּ וּשְׁמָמָ֖ה כְּמַהְפֵּכַ֥ת זָרִֽים׃
וְנוֹתְרָ֥ה בַת־צִיּ֖וֹן כְּסֻכָּ֣ה בְכָ֑רֶם כִּמְלוּנָ֥ה בְמִקְשָׁ֖ה כְּעִ֥יר נְצוּרָֽה׃
לוּלֵי֙ יְהוָ֣ה צְבָא֔וֹת הוֹתִ֥יר לָ֛נוּ שָׂרִ֖יד כִּמְעָ֑ט כִּסְדֹ֣ם הָיִ֔ינוּ לַעֲמֹרָ֖ה דָּמִֽינוּ׃{פ} 
שִׁמְע֥וּ דְבַר־יְהוָ֖ה קְצִינֵ֣י סְדֹ֑ם הַאֲזִ֛ינוּ תּוֹרַ֥ת אֱלֹהֵ֖ינוּ עַ֥ם עֲמֹרָֽה׃
לָמָּה־לִּ֤י רֹב־זִבְחֵיכֶם֙ יֹאמַ֣ר יְהוָ֔ה שָׂבַ֛עְתִּי עֹל֥וֹת אֵילִ֖ים וְחֵ֣לֶב מְרִיאִ֑ים וְדַ֨ם פָּרִ֧ים וּכְבָשִׂ֛ים וְעַתּוּדִ֖ים לֹ֥א חָפָֽצְתִּי׃
כִּ֣י תָבֹ֔אוּ לֵֽרָא֖וֹת פָּנָ֑י מִֽי־בִקֵּ֥שׁ זֹ֛את מִיֶּדְכֶ֖ם רְמֹ֥ס חֲצֵרָֽי׃
לֹ֣א תוֹסִ֗יפוּ הָבִיא֙ מִנְחַת־שָׁ֔וְא קְטֹ֧רֶת תּוֹעֵבָ֛ה הִ֖יא לִ֑י חֹ֤דֶשׁ וְשַׁבָּת֙ קְרֹ֣א מִקְרָ֔א לֹא־אוּכַ֥ל אָ֖וֶן וַעֲצָרָֽה׃
חָדְשֵׁיכֶ֤ם וּמֽוֹעֲדֵיכֶם֙ שָֽׂנְאָ֣ה נַפְשִׁ֔י הָי֥וּ עָלַ֖י לָטֹ֑רַח נִלְאֵ֖יתִי נְשֹֽׂא׃
וּבְפָרִשְׂכֶ֣ם כַּפֵּיכֶ֗ם אַעְלִ֤ים עֵינַי֙ מִכֶּ֔ם גַּ֛ם כִּֽי־תַרְבּ֥וּ תְפִלָּ֖ה אֵינֶ֣נִּי שֹׁמֵ֑עַ יְדֵיכֶ֖ם דָּמִ֥ים מָלֵֽאוּ׃
רַֽחֲצוּ֙ הִזַּכּ֔וּ הָסִ֛ירוּ רֹ֥עַ מַעַלְלֵיכֶ֖ם מִנֶּ֣גֶד עֵינָ֑י חִדְל֖וּ הָרֵֽעַ׃
לִמְד֥וּ הֵיטֵ֛ב דִּרְשׁ֥וּ מִשְׁפָּ֖ט אַשְּׁר֣וּ חָמ֑וֹץ שִׁפְט֣וּ יָת֔וֹם רִ֖יבוּ אַלְמָנָֽה׃{ס} 
לְכוּ־נָ֛א וְנִוָּכְחָ֖ה יֹאמַ֣ר יְהוָ֑ה אִם־יִהְי֨וּ חֲטָאֵיכֶ֤ם כַּשָּׁנִים֙ כַּשֶּׁ֣לֶג יַלְבִּ֔ינוּ אִם־יַאְדִּ֥ימוּ כַתּוֹלָ֖ע כַּצֶּ֥מֶר יִֽהְיֽוּ׃
אִם־תֹּאב֖וּ וּשְׁמַעְתֶּ֑ם ט֥וּב הָאָ֖רֶץ תֹּאכֵֽלוּ׃
וְאִם־תְּמָאֲנ֖וּ וּמְרִיתֶ֑ם חֶ֣רֶב תְּאֻכְּל֔וּ כִּ֛י פִּ֥י יְהוָ֖ה דִּבֵּֽר׃{פ} 
אֵיכָה֙ הָיְתָ֣ה לְזוֹנָ֔ה קִרְיָ֖ה נֶאֱמָנָ֑ה מְלֵאֲתִ֣י מִשְׁפָּ֗ט צֶ֛דֶק יָלִ֥ין בָּ֖הּ וְעַתָּ֥ה מְרַצְּחִֽים׃
כַּסְפֵּ֖ךְ הָיָ֣ה לְסִיגִ֑ים סָבְאֵ֖ךְ מָה֥וּל בַּמָּֽיִם׃
שָׂרַ֣יִךְ סוֹרֲרִ֗ים וְחַבְרֵי֙ גַּנָּבִ֔ים כֻּלּוֹ֙ אֹהֵ֣ב שֹׁ֔חַד וְרֹדֵ֖ף שַׁלְמֹנִ֑ים יָתוֹם֙ לֹ֣א יִשְׁפֹּ֔טוּ וְרִ֥יב אַלְמָנָ֖ה לֹא־יָב֥וֹא אֲלֵיהֶֽם׃{ס} 
לָכֵ֗ן נְאֻ֤ם הָאָדוֹן֙ יְהוָ֣ה צְבָא֔וֹת אֲבִ֖יר יִשְׂרָאֵ֑ל ה֚וֹי אֶנָּחֵ֣ם מִצָּרַ֔י וְאִנָּקְמָ֖ה מֵאוֹיְבָֽי׃
וְאָשִׁ֤יבָה יָדִי֙ עָלַ֔יִךְ וְאֶצְרֹ֥ף כַּבֹּ֖ר סִיגָ֑יִךְ וְאָסִ֖ירָה כָּל־בְּדִילָֽיִךְ׃
וְאָשִׁ֤יבָה שֹׁפְטַ֙יִךְ֙ כְּבָרִ֣אשֹׁנָ֔ה וְיֹעֲצַ֖יִךְ כְּבַתְּחִלָּ֑ה אַֽחֲרֵי־כֵ֗ן יִקָּ֤רֵא לָךְ֙ עִ֣יר הַצֶּ֔דֶק קִרְיָ֖ה נֶאֱמָנָֽה׃
צִיּ֖וֹן בְּמִשְׁפָּ֣ט תִּפָּדֶ֑ה וְשָׁבֶ֖יהָ בִּצְדָקָֽה׃
וְשֶׁ֧בֶר פֹּשְׁעִ֛ים וְחַטָּאִ֖ים יַחְדָּ֑ו וְעֹזְבֵ֥י יְהוָ֖ה יִכְלֽוּ׃
כִּ֣י יֵבֹ֔שׁוּ מֵאֵילִ֖ים אֲשֶׁ֣ר חֲמַדְתֶּ֑ם וְתַ֨חְפְּר֔וּ מֵהַגַּנּ֖וֹת אֲשֶׁ֥ר בְּחַרְתֶּֽם׃
כִּ֣י תִֽהְי֔וּ כְּאֵלָ֖ה נֹבֶ֣לֶת עָלֶ֑הָ וּֽכֲגַנָּ֔ה אֲשֶׁר־מַ֖יִם אֵ֥ין לָֽהּ׃
וְהָיָ֤ה הֶחָסֹן֙ לִנְעֹ֔רֶת וּפֹעֲל֖וֹ לְנִיצ֑וֹץ וּבָעֲר֧וּ שְׁנֵיהֶ֛ם יַחְדָּ֖ו וְאֵ֥ין מְכַבֶּֽה׃{פ}
