ה֥וֹי הַחֹקֲקִ֖ים חִקְקֵי־אָ֑וֶן וּֽמְכַתְּבִ֥ים עָמָ֖ל כִּתֵּֽבוּ׃
לְהַטּ֤וֹת מִדִּין֙ דַּלִּ֔ים וְלִגְזֹ֕ל מִשְׁפַּ֖ט עֲנִיֵּ֣י עַמִּ֑י לִֽהְי֤וֹת אַלְמָנוֹת֙ שְׁלָלָ֔ם וְאֶת־יְתוֹמִ֖ים יָבֹֽזּוּ׃
וּמַֽה־תַּעֲשׂוּ֙ לְי֣וֹם פְּקֻדָּ֔ה וּלְשׁוֹאָ֖ה מִמֶּרְחָ֣ק תָּב֑וֹא עַל־מִי֙ תָּנ֣וּסוּ לְעֶזְרָ֔ה וְאָ֥נָה תַעַזְב֖וּ כְּבוֹדְכֶֽם׃
בִּלְתִּ֤י כָרַע֙ תַּ֣חַת אַסִּ֔יר וְתַ֥חַת הֲרוּגִ֖ים יִפֹּ֑לוּ בְּכָל־זֹאת֙ לֹא־שָׁ֣ב אַפּ֔וֹ וְע֖וֹד יָד֥וֹ נְטוּיָֽה׃{פ} 
ה֥וֹי אַשּׁ֖וּר שֵׁ֣בֶט אַפִּ֑י וּמַטֶּה־ה֥וּא בְיָדָ֖ם זַעְמִֽי׃
בְּג֤וֹי חָנֵף֙ אֲשַׁלְּחֶ֔נּוּ וְעַל־עַ֥ם עֶבְרָתִ֖י אֲצַוֶּ֑נּוּ לִשְׁלֹ֤ל שָׁלָל֙ וְלָבֹ֣ז בַּ֔ז [וּלְשׂיּמ֥וֹ] וּלְשׂוּמ֥וֹ מִרְמָ֖ס כְּחֹ֥מֶר חוּצֽוֹת׃
וְהוּא֙ לֹא־כֵ֣ן יְדַמֶּ֔ה וּלְבָב֖וֹ לֹא־כֵ֣ן יַחְשֹׁ֑ב כִּ֚י לְהַשְׁמִ֣יד בִּלְבָב֔וֹ וּלְהַכְרִ֥ית גּוֹיִ֖ם לֹ֥א מְעָֽט׃
כִּ֖י יֹאמַ֑ר הֲלֹ֥א שָׂרַ֛י יַחְדָּ֖ו מְלָכִֽים׃
הֲלֹ֥א כְּכַרְכְּמִ֖ישׁ כַּלְנ֑וֹ אִם־לֹ֤א כְאַרְפַּד֙ חֲמָ֔ת אִם־לֹ֥א כְדַמֶּ֖שֶׂק שֹׁמְרֽוֹן׃
כַּֽאֲשֶׁר֙ מָצְאָ֣ה יָדִ֔י לְמַמְלְכֹ֖ת הָאֱלִ֑יל וּפְסִ֣ילֵיהֶ֔ם מִירוּשָׁלִַ֖ם וּמִשֹּׁמְרֽוֹן׃
הֲלֹ֗א כַּאֲשֶׁ֥ר עָשִׂ֛יתִי לְשֹׁמְר֖וֹן וְלֶאֱלִילֶ֑יהָ כֵּ֛ן אֶעֱשֶׂ֥ה לִירוּשָׁלִַ֖ם וְלַעֲצַבֶּֽיהָ׃{פ} 
וְהָיָ֗ה כִּֽי־יְבַצַּ֤ע אֲדנָי֙ אֶת־כָּל־מַֽעֲשֵׂ֔הוּ בְּהַ֥ר צִיּ֖וֹן וּבִירוּשָׁלִָ֑ם אֶפְקֹ֗ד עַל־פְּרִֽי־גֹ֙דֶל֙ לְבַ֣ב מֶלֶךְ־אַשּׁ֔וּר וְעַל־תִּפְאֶ֖רֶת ר֥וּם עֵינָֽיו׃
כִּ֣י אָמַ֗ר בְּכֹ֤חַ יָדִי֙ עָשִׂ֔יתִי וּבְחָכְמָתִ֖י כִּ֣י נְבֻנ֑וֹתִי וְאָסִ֣יר׀ גְּבוּלֹ֣ת עַמִּ֗ים [וַעֲתֽיּדֹתֵיהֶם֙] וַעֲתֽוּדֹתֵיהֶם֙ שׁוֹשֵׂ֔תִי וְאוֹרִ֥יד כַּאבִּ֖יר יוֹשְׁבִֽים׃
וַתִּמְצָ֨א כַקֵּ֤ן ׀ יָדִי֙ לְחֵ֣יל הָעַמִּ֔ים וְכֶֽאֱסֹף֙ בֵּיצִ֣ים עֲזֻב֔וֹת כָּל־הָאָ֖רֶץ אֲנִ֣י אָסָ֑פְתִּי וְלֹ֤א הָיָה֙ נֹדֵ֣ד כָּנָ֔ף וּפֹצֶ֥ה פֶ֖ה וּמְצַפְצֵֽף׃
הֲיִתְפָּאֵר֙ הַגַּרְזֶ֔ן עַ֖ל הַחֹצֵ֣ב בּ֑וֹ אִם־יִתְגַּדֵּ֤ל הַמַּשּׂוֹר֙ עַל־מְנִיפ֔וֹ כְּהָנִ֥יף שֵׁ֙בֶט֙ וְאֶת־מְרִימָ֔יו כְּהָרִ֥ים מַטֶּ֖ה לֹא־עֵֽץ׃{פ} 
לָ֠כֵן יְשַׁלַּ֨ח הָאָד֜וֹן יְהוָ֧ה צְבָא֛וֹת בְּמִשְׁמַנָּ֖יו רָז֑וֹן וְתַ֧חַת כְּבֹד֛וֹ יֵקַ֥ד יְקֹ֖ד כִּיק֥וֹד אֵֽשׁ׃
וְהָיָ֤ה אֽוֹר־יִשְׂרָאֵל֙ לְאֵ֔שׁ וּקְדוֹשׁ֖וֹ לְלֶהָבָ֑ה וּבָעֲרָ֗ה וְאָ֥כְלָ֛ה שִׁית֥וֹ וּשְׁמִיר֖וֹ בְּי֥וֹם אֶחָֽד׃
וּכְב֤וֹד יַעְרוֹ֙ וְכַרְמִלּ֔וֹ מִנֶּ֥פֶשׁ וְעַד־בָּשָׂ֖ר יְכַלֶּ֑ה וְהָיָ֖ה כִּמְסֹ֥ס נֹסֵֽס׃
וּשְׁאָ֥ר עֵ֛ץ יַעְר֖וֹ מִסְפָּ֣ר יִהְי֑וּ וְנַ֖עַר יִכְתְּבֵֽם׃{ס} 
וְהָיָ֣ה׀ בַּיּ֣וֹם הַה֗וּא לֹא־יוֹסִ֨יף ע֜וֹד שְׁאָ֤ר יִשְׂרָאֵל֙ וּפְלֵיטַ֣ת בֵּֽית־יַעֲקֹ֔ב לְהִשָּׁעֵ֖ן עַל־מַכֵּ֑הוּ וְנִשְׁעַ֗ן עַל־יְהוָ֛ה קְד֥וֹשׁ יִשְׂרָאֵ֖ל בֶּאֱמֶֽת׃
שְׁאָ֥ר יָשׁ֖וּב שְׁאָ֣ר יַעֲקֹ֑ב אֶל־אֵ֖ל גִּבּֽוֹר׃
כִּ֣י אִם־יִהְיֶ֞ה עַמְּךָ֤ יִשְׂרָאֵל֙ כְּח֣וֹל הַיָּ֔ם שְׁאָ֖ר יָשׁ֣וּב בּ֑וֹ כִּלָּי֥וֹן חָר֖וּץ שׁוֹטֵ֥ף צְדָקָֽה׃
כִּ֥י כָלָ֖ה וְנֶחֱרָצָ֑ה אֲדנָ֤י יְהֹוִה֙ צְבָא֔וֹת עֹשֶׂ֖ה בְּקֶ֥רֶב כָּל־הָאָֽרֶץ׃{פ} 
לָכֵ֗ן כֹּֽה־אָמַ֞ר אֲדנָ֤י יְהֹוִה֙ צְבָא֔וֹת אַל־תִּירָ֥א עַמִּ֛י יֹשֵׁ֥ב צִיּ֖וֹן מֵאַשּׁ֑וּר בַּשֵּׁ֣בֶט יַכֶּ֔כָּה וּמַטֵּ֥הוּ יִשָּֽׂא־עָלֶ֖יךָ בְּדֶ֥רֶךְ מִצְרָֽיִם׃
כִּי־ע֖וֹד מְעַ֣ט מִזְעָ֑ר וְכָ֣לָה זַ֔עַם וְאַפִּ֖י עַל־תַּבְלִיתָֽם׃
וְעוֹרֵ֨ר עָלָ֜יו יְהוָ֤ה צְבָאוֹת֙ שׁ֔וֹט כְּמַכַּ֥ת מִדְיָ֖ן בְּצ֣וּר עוֹרֵ֑ב וּמַטֵּ֙הוּ֙ עַל־הַיָּ֔ם וּנְשָׂא֖וֹ בְּדֶ֥רֶךְ מִצְרָֽיִם׃
וְהָיָ֣ה׀ בַּיּ֣וֹם הַה֗וּא יָס֤וּר סֻבֳּלוֹ֙ מֵעַ֣ל שִׁכְמֶ֔ךָ וְעֻלּ֖וֹ מֵעַ֣ל צַוָּארֶ֑ךָ וְחֻבַּ֥ל עֹ֖ל מִפְּנֵי־שָֽׁמֶן׃
בָּ֥א עַל־עַיַּ֖ת עָבַ֣ר בְּמִגְר֑וֹן לְמִכְמָ֖שׂ יַפְקִ֥יד כֵּלָֽיו׃
עָֽבְרוּ֙ מַעְבָּרָ֔ה גֶּ֖בַע מָל֣וֹן לָ֑נוּ חָֽרְדָה֙ הָרָמָ֔ה גִּבְעַ֥ת שָׁא֖וּל נָֽסָה׃
צַהֲלִ֥י קוֹלֵ֖ךְ בַּת־גַּלִּ֑ים הַקְשִׁ֥יבִי לַ֖יְשָׁה עֲנִיָּ֥ה עֲנָתֽוֹת׃
נָדֲדָ֖ה מַדְמֵנָ֑ה יֹשְׁבֵ֥י הַגֵּבִ֖ים הֵעִֽיזוּ׃
ע֥וֹד הַיּ֖וֹם בְּנֹ֣ב לַעֲמֹ֑ד יְנֹפֵ֤ף יָדוֹ֙ הַ֣ר [בַּית]־בַּת־צִיּ֔וֹן גִּבְעַ֖ת יְרוּשָׁלִָֽם׃{פ} 
הִנֵּ֤ה הָאָדוֹן֙ יְהוָ֣ה צְבָא֔וֹת מְסָעֵ֥ף פֻּארָ֖ה בְּמַעֲרָצָ֑ה וְרָמֵ֤י הַקּוֹמָה֙ גְּדוּעִ֔ים וְהַגְּבֹהִ֖ים יִשְׁפָּֽלוּ׃
וְנִקַּ֛ף סִֽבְכֵ֥י הַיַּ֖עַר בַּבַּרְזֶ֑ל וְהַלְּבָנ֖וֹן בְּאַדִּ֥יר יִפּֽוֹל׃{ס}
