ה֣וֹי רֹעִ֗ים מְאַבְּדִ֧ים וּמְפִצִ֛ים אֶת־צֹ֥אן מַרְעִיתִ֖י נְאֻם־יְהוָֽה׃{ס} 
לָ֠כֵן כֹּה־אָמַ֨ר יְהוָ֜ה אֱלֹהֵ֣י יִשְׂרָאֵ֗ל עַֽל־הָרֹעִים֘ הָרֹעִ֣ים אֶת־עַמִּי֒ אַתֶּ֞ם הֲפִצֹתֶ֤ם אֶת־צֹאנִי֙ וַתַּדִּח֔וּם וְלֹ֥א פְקַדְתֶּ֖ם אֹתָ֑ם הִנְנִ֨י פֹקֵ֧ד עֲלֵיכֶ֛ם אֶת־רֹ֥עַ מַעַלְלֵיכֶ֖ם נְאֻם־יְהוָֽה׃
וַאֲנִ֗י אֲקַבֵּץ֙ אֶת־שְׁאֵרִ֣ית צֹאנִ֔י מִכֹּל֙ הָאֲרָצ֔וֹת אֲשֶׁר־הִדַּ֥חְתִּי אֹתָ֖ם שָׁ֑ם וַהֲשִׁבֹתִ֥י אֶתְהֶ֛ן עַל־נְוֵהֶ֖ן וּפָר֥וּ וְרָבֽוּ׃
וַהֲקִמֹתִ֧י עֲלֵיהֶ֛ם רֹעִ֖ים וְרָע֑וּם וְלֹא־יִֽירְא֨וּ ע֧וֹד וְלֹא־יֵחַ֛תּוּ וְלֹ֥א יִפָּקֵ֖דוּ נְאֻם־יְהוָֽה׃{ס} 
הִנֵּ֨ה יָמִ֤ים בָּאִים֙ נְאֻם־יְהוָ֔ה וַהֲקִמֹתִ֥י לְדָוִ֖ד צֶ֣מַח צַדִּ֑יק וּמָ֤לַךְ מֶ֙לֶךְ֙ וְהִשְׂכִּ֔יל וְעָשָׂ֛ה מִשְׁפָּ֥ט וּצְדָקָ֖ה בָּאָֽרֶץ׃
בְּיָמָיו֙ תִּוָּשַׁ֣ע יְהוּדָ֔ה וְיִשְׂרָאֵ֖ל יִשְׁכֹּ֣ן לָבֶ֑טַח וְזֶה־שְּׁמ֥וֹ אֲֽשֶׁר־יִקְרְא֖וֹ יְהוָ֥ה ׀ צִדְקֵֽנוּ׃{פ} 
לָכֵ֛ן הִנֵּה־יָמִ֥ים בָּאִ֖ים נְאֻם־יְהוָ֑ה וְלֹא־יֹ֤אמְרוּ עוֹד֙ חַי־יְהוָ֔ה אֲשֶׁ֧ר הֶעֱלָ֛ה אֶת־בְּנֵ֥י יִשְׂרָאֵ֖ל מֵאֶ֥רֶץ מִצְרָֽיִם׃
כִּ֣י אִם־חַי־יְהוָ֗ה אֲשֶׁ֣ר הֶעֱלָה֩ וַאֲשֶׁ֨ר הֵבִ֜יא אֶת־זֶ֨רַע בֵּ֤ית יִשְׂרָאֵל֙ מֵאֶ֣רֶץ צָפ֔וֹנָה וּמִכֹּל֙ הָאֲרָצ֔וֹת אֲשֶׁ֥ר הִדַּחְתִּ֖ים שָׁ֑ם וְיָשְׁב֖וּ עַל־אַדְמָתָֽם׃{פ} 
לַנְּבִאִ֞ים נִשְׁבַּ֧ר לִבִּ֣י בְקִרְבִּ֗י רָֽחֲפוּ֙ כָּל־עַצְמוֹתַ֔י הָיִ֙יתִי֙ כְּאִ֣ישׁ שִׁכּ֔וֹר וּכְגֶ֖בֶר עֲבָ֣רוֹ יָ֑יִן מִפְּנֵ֣י יְהוָ֔ה וּמִפְּנֵ֖י דִּבְרֵ֥י קָדְשֽׁוֹ׃
כִּ֤י מְנָֽאֲפִים֙ מָלְאָ֣ה הָאָ֔רֶץ כִּֽי־מִפְּנֵ֤י אָלָה֙ אָבְלָ֣ה הָאָ֔רֶץ יָבְשׁ֖וּ נְא֣וֹת מִדְבָּ֑ר וַתְּהִ֤י מְרֽוּצָתָם֙ רָעָ֔ה וּגְבוּרָתָ֖ם לֹא־כֵֽן׃
כִּֽי־גַם־נָבִ֥יא גַם־כֹּהֵ֖ן חָנֵ֑פוּ גַּם־בְּבֵיתִ֛י מָצָ֥אתִי רָעָתָ֖ם נְאֻם־יְהוָֽה׃
לָכֵן֩ יִהְיֶ֨ה דַרְכָּ֜ם לָהֶ֗ם כַּחֲלַקְלַקּוֹת֙ בָּאֲפֵלָ֔ה יִדַּ֖חוּ וְנָ֣פְלוּ בָ֑הּ כִּי־אָבִ֨יא עֲלֵיהֶ֥ם רָעָ֛ה שְׁנַ֥ת פְּקֻדָּתָ֖ם נְאֻם־יְהוָֽה׃
וּבִנְבִיאֵ֥י שֹׁמְר֖וֹן רָאִ֣יתִי תִפְלָ֑ה הִנַּבְּא֣וּ בַבַּ֔עַל וַיַּתְע֥וּ אֶת־עַמִּ֖י אֶת־יִשְׂרָאֵֽל׃
וּבִנְבִאֵ֨י יְרוּשָׁלִַ֜ם רָאִ֣יתִי שַׁעֲרוּרָ֗ה נָא֞וֹף וְהָלֹ֤ךְ בַּשֶּׁ֙קֶר֙ וְחִזְּקוּ֙ יְדֵ֣י מְרֵעִ֔ים לְבִ֨לְתִּי־שָׁ֔בוּ אִ֖ישׁ מֵרָעָת֑וֹ הָיוּ־לִ֤י כֻלָּם֙ כִּסְדֹ֔ם וְיֹשְׁבֶ֖יהָ כַּעֲמֹרָֽה׃{פ} 
לָכֵ֞ן כֹּה־אָמַ֨ר יְהוָ֤ה צְבָאוֹת֙ עַל־הַנְּבִאִ֔ים הִנְנִ֨י מַאֲכִ֤יל אוֹתָם֙ לַעֲנָ֔ה וְהִשְׁקִתִ֖ים מֵי־רֹ֑אשׁ כִּ֗י מֵאֵת֙ נְבִיאֵ֣י יְרוּשָׁלִַ֔ם יָצְאָ֥ה חֲנֻפָּ֖ה לְכָל־הָאָֽרֶץ׃{פ} 
כֹּה־אָמַ֞ר יְהוָ֣ה צְבָא֗וֹת אַֽל־תִּשְׁמְע֞וּ עַל־דִּבְרֵ֤י הַנְּבִאִים֙ הַנִּבְּאִ֣ים לָכֶ֔ם מַהְבִּלִ֥ים הֵ֖מָּה אֶתְכֶ֑ם חֲז֤וֹן לִבָּם֙ יְדַבֵּ֔רוּ לֹ֖א מִפִּ֥י יְהוָֽה׃
אֹמְרִ֤ים אָמוֹר֙ לִֽמְנַאֲצַ֔י דִּבֶּ֣ר יְהוָ֔ה שָׁל֖וֹם יִהְיֶ֣ה לָכֶ֑ם וְ֠כֹל הֹלֵ֞ךְ בִּשְׁרִר֤וּת לִבּוֹ֙ אָֽמְר֔וּ לֹא־תָב֥וֹא עֲלֵיכֶ֖ם רָעָֽה׃
כִּ֣י מִ֤י עָמַד֙ בְּס֣וֹד יְהוָ֔ה וְיֵ֖רֶא וְיִשְׁמַ֣ע אֶת־דְּבָר֑וֹ מִי־הִקְשִׁ֥יב [דְּבָרֹ֖י] דְּבָר֖וֹ וַיִּשְׁמָֽע׃{ס} 
הִנֵּ֣ה׀ סַעֲרַ֣ת יְהוָ֗ה חֵמָה֙ יָֽצְאָ֔ה וְסַ֖עַר מִתְחוֹלֵ֑ל עַ֛ל רֹ֥אשׁ רְשָׁעִ֖ים יָחֽוּל׃
לֹ֤א יָשׁוּב֙ אַף־יְהוָ֔ה עַד־עֲשֹׂת֥וֹ וְעַד־הֲקִימ֖וֹ מְזִמּ֣וֹת לִבּ֑וֹ בְּאַֽחֲרִית֙ הַיָּמִ֔ים תִּתְבּ֥וֹנְנוּ בָ֖הּ בִּינָֽה׃
לֹא־שָׁלַ֥חְתִּי אֶת־הַנְּבִאִ֖ים וְהֵ֣ם רָ֑צוּ לֹא־דִבַּ֥רְתִּי אֲלֵיהֶ֖ם וְהֵ֥ם נִבָּֽאוּ׃
וְאִם־עָמְד֖וּ בְּסוֹדִ֑י וְיַשְׁמִ֤עוּ דְבָרַי֙ אֶת־עַמִּ֔י וִֽישִׁבוּם֙ מִדַּרְכָּ֣ם הָרָ֔ע וּמֵרֹ֖עַ מַעַלְלֵיהֶֽם׃{ס} 
הַאֱלֹהֵ֧י מִקָּרֹ֛ב אָ֖נִי נְאֻם־יְהוָ֑ה וְלֹ֥א אֱלֹהֵ֖י מֵרָחֹֽק׃
אִם־יִסָּתֵ֨ר אִ֧ישׁ בַּמִּסְתָּרִ֛ים וַאֲנִ֥י לֹֽא־אֶרְאֶ֖נּוּ נְאֻם־יְהוָ֑ה הֲל֨וֹא אֶת־הַשָּׁמַ֧יִם וְאֶת־הָאָ֛רֶץ אֲנִ֥י מָלֵ֖א נְאֻם־יְהוָֽה׃
שָׁמַ֗עְתִּי אֵ֤ת אֲשֶׁר־אָֽמְרוּ֙ הַנְּבִאִ֔ים הַֽנִּבְּאִ֥ים בִּשְׁמִ֛י שֶׁ֖קֶר לֵאמֹ֑ר חָלַ֖מְתִּי חָלָֽמְתִּי׃
עַד־מָתַ֗י הֲיֵ֛שׁ בְּלֵ֥ב הַנְּבִאִ֖ים נִבְּאֵ֣י הַשָּׁ֑קֶר וּנְבִיאֵ֖י תַּרְמִ֥ת לִבָּֽם׃
הַחֹשְׁבִ֗ים לְהַשְׁכִּ֤יחַ אֶת־עַמִּי֙ שְׁמִ֔י בַּחֲל֣וֹמֹתָ֔ם אֲשֶׁ֥ר יְסַפְּר֖וּ אִ֣ישׁ לְרֵעֵ֑הוּ כַּאֲשֶׁ֨ר שָׁכְח֧וּ אֲבוֹתָ֛ם אֶת־שְׁמִ֖י בַּבָּֽעַל׃
הַנָּבִ֞יא אֲשֶׁר־אִתּ֤וֹ חֲלוֹם֙ יְסַפֵּ֣ר חֲל֔וֹם וַאֲשֶׁ֤ר דְּבָרִי֙ אִתּ֔וֹ יְדַבֵּ֥ר דְּבָרִ֖י אֱמֶ֑ת מַה־לַתֶּ֥בֶן אֶת־הַבָּ֖ר נְאֻם־יְהוָֽה׃
הֲל֨וֹא כֹ֧ה דְבָרִ֛י כָּאֵ֖שׁ נְאֻם־יְהוָ֑ה וּכְפַטִּ֖ישׁ יְפֹ֥צֵֽץ סָֽלַע׃{ס} 
לָכֵ֛ן הִנְנִ֥י עַל־הַנְּבִאִ֖ים נְאֻם־יְהוָ֑ה מְגַנְּבֵ֣י דְבָרַ֔י אִ֖ישׁ מֵאֵ֥ת רֵעֵֽהוּ׃
הִנְנִ֥י עַל־הַנְּבִיאִ֖ם נְאֻם־יְהוָ֑ה הַלֹּקְחִ֣ים לְשׁוֹנָ֔ם וַֽיִּנְאֲמ֖וּ נְאֻֽם׃
הִ֠נְנִי עַֽל־נִבְּאֵ֞י חֲלֹמ֥וֹת שֶׁ֙קֶר֙ נְאֻם־יְהוָ֔ה וַֽיְסַפְּרוּם֙ וַיַּתְע֣וּ אֶת־עַמִּ֔י בְּשִׁקְרֵיהֶ֖ם וּבְפַחֲזוּתָ֑ם וְאָנֹכִ֨י לֹֽא־שְׁלַחְתִּ֜ים וְלֹ֣א צִוִּיתִ֗ים וְהוֹעֵ֛יל לֹא־יוֹעִ֥ילוּ לָעָם־הַזֶּ֖ה נְאֻם־יְהוָֽה׃
וְכִֽי־יִשְׁאָלְךָ֩ הָעָ֨ם הַזֶּ֜ה אֽוֹ־הַנָּבִ֤יא אֽוֹ־כֹהֵן֙ לֵאמֹ֔ר מַה־מַּשָּׂ֖א יְהוָ֑ה וְאָמַרְתָּ֤ אֲלֵיהֶם֙ אֶת־מַה־מַּשָּׂ֔א וְנָטַשְׁתִּ֥י אֶתְכֶ֖ם נְאֻם־יְהוָֽה׃
וְהַנָּבִ֤יא וְהַכֹּהֵן֙ וְהָעָ֔ם אֲשֶׁ֥ר יֹאמַ֖ר מַשָּׂ֣א יְהוָ֑ה וּפָקַדְתִּ֛י עַל־הָאִ֥ישׁ הַה֖וּא וְעַל־בֵּיתֽוֹ׃
כֹּ֥ה תֹאמְר֛וּ אִ֥ישׁ עַל־רֵעֵ֖הוּ וְאִ֣ישׁ אֶל־אָחִ֑יו מֶה־עָנָ֣ה יְהוָ֔ה וּמַה־דִּבֶּ֖ר יְהוָֽה׃
וּמַשָּׂ֥א יְהוָ֖ה לֹ֣א תִזְכְּרוּ־ע֑וֹד כִּ֣י הַמַּשָּׂ֗א יִֽהְיֶה֙ לְאִ֣ישׁ דְּבָר֔וֹ וַהֲפַכְתֶּ֗ם אֶת־דִּבְרֵי֙ אֱלֹהִ֣ים חַיִּ֔ים יְהוָ֥ה צְבָא֖וֹת אֱלֹהֵֽינוּ׃
כֹּ֥ה תֹאמַ֖ר אֶל־הַנָּבִ֑יא מֶה־עָנָ֣ךְ יְהוָ֔ה וּמַה־דִּבֶּ֖ר יְהוָֽה׃
וְאִם־מַשָּׂ֣א יְהוָה֘ תֹּאמֵרוּ֒ לָכֵ֗ן כֹּ֚ה אָמַ֣ר יְהוָ֔ה יַ֧עַן אֲמָרְכֶ֛ם אֶת־הַדָּבָ֥ר הַזֶּ֖ה מַשָּׂ֣א יְהוָ֑ה וָאֶשְׁלַ֤ח אֲלֵיכֶם֙ לֵאמֹ֔ר לֹ֥א תֹאמְר֖וּ מַשָּׂ֥א יְהוָֽה׃
לָכֵ֣ן הִנְנִ֔י וְנָשִׁ֥יתִי אֶתְכֶ֖ם נָשֹׁ֑א וְנָטַשְׁתִּ֣י אֶתְכֶ֗ם וְאֶת־הָעִיר֙ אֲשֶׁ֨ר נָתַ֧תִּי לָכֶ֛ם וְלַאֲבוֹתֵיכֶ֖ם מֵעַ֥ל פָּנָֽי׃
וְנָתַתִּ֥י עֲלֵיכֶ֖ם חֶרְפַּ֣ת עוֹלָ֑ם וּכְלִמּ֣וּת עוֹלָ֔ם אֲשֶׁ֖ר לֹ֥א תִשָּׁכֵֽחַ׃{פ}
