וַיִּקְרָ֣א בְאָזְנַ֗י ק֤וֹל גָּדוֹל֙ לֵאמֹ֔ר קָרְב֖וּ פְּקֻדּ֣וֹת הָעִ֑יר וְאִ֛ישׁ כְּלִ֥י מַשְׁחֵת֖וֹ בְּיָדֽוֹ׃
וְהִנֵּ֣ה שִׁשָּׁ֣ה אֲנָשִׁ֡ים בָּאִ֣ים׀ מִדֶּרֶךְ־שַׁ֨עַר הָעֶלְי֜וֹן אֲשֶׁ֣ר׀ מָפְנֶ֣ה צָפ֗וֹנָה וְאִ֨ישׁ כְּלִ֤י מַפָּצוֹ֙ בְּיָד֔וֹ וְאִישׁ־אֶחָ֤ד בְּתוֹכָם֙ לָבֻ֣שׁ בַּדִּ֔ים וְקֶ֥סֶת הַסֹּפֵ֖ר בְּמָתְנָ֑יו וַיָּבֹ֙אוּ֙ וַיַּ֣עַמְד֔וּ אֵ֖צֶל מִזְבַּ֥ח הַנְּחֹֽשֶׁת׃
וּכְב֣וֹד׀ אֱלֹהֵ֣י יִשְׂרָאֵ֗ל נַֽעֲלָה֙ מֵעַ֤ל הַכְּרוּב֙ אֲשֶׁ֣ר הָיָ֣ה עָלָ֔יו אֶ֖ל מִפְתַּ֣ן הַבָּ֑יִת וַיִּקְרָ֗א אֶל־הָאִישׁ֙ הַלָּבֻ֣שׁ הַבַּדִּ֔ים אֲשֶׁ֛ר קֶ֥סֶת הַסֹּפֵ֖ר בְּמָתְנָֽיו׃{פ} 
וַיֹּ֤אמֶר יְהוָה֙ אֵלָ֔ו עֲבֹר֙ בְּת֣וֹךְ הָעִ֔יר בְּת֖וֹךְ יְרוּשָׁלִָ֑ם וְהִתְוִ֨יתָ תָּ֜ו עַל־מִצְח֣וֹת הָאֲנָשִׁ֗ים הַנֶּֽאֱנָחִים֙ וְהַנֶּ֣אֱנָקִ֔ים עַ֚ל כָּל־הַתּ֣וֹעֵב֔וֹת הַֽנַּעֲשׂ֖וֹת בְּתוֹכָֽהּ׃
וּלְאֵ֙לֶּה֙ אָמַ֣ר בְּאָזְנַ֔י עִבְר֥וּ בָעִ֛יר אַחֲרָ֖יו וְהַכּ֑וּ [עַל]־אַל־תָּחֹ֥ס [עֵינְיכֶ֖ם] עֵינְכֶ֖ם וְאַל־תַּחְמֹֽלוּ׃
זָקֵ֡ן בָּח֣וּר וּבְתוּלָה֩ וְטַ֨ף וְנָשִׁ֜ים תַּהַרְג֣וּ לְמַשְׁחִ֗ית וְעַל־כָּל־אִ֨ישׁ אֲשֶׁר־עָלָ֤יו הַתָּו֙ אַל־תִּגַּ֔שׁוּ וּמִמִּקְדָּשִׁ֖י תָּחֵ֑לּוּ וַיָּחֵ֙לּוּ֙ בָּאֲנָשִׁ֣ים הַזְּקֵנִ֔ים אֲשֶׁ֖ר לִפְנֵ֥י הַבָּֽיִת׃
וַיֹּ֨אמֶר אֲלֵיהֶ֜ם טַמְּא֣וּ אֶת־הַבַּ֗יִת וּמַלְא֧וּ אֶת־הַחֲצֵר֛וֹת חֲלָלִ֖ים צֵ֑אוּ וְיָצְא֖וּ וְהִכּ֥וּ בָעִֽיר׃
וַֽיְהִי֙ כְּהַכּוֹתָ֔ם וְנֵֽאשֲׁאַ֖ר אָ֑נִי וָאֶפְּלָ֨ה עַל־פָּנַ֜י וָאֶזְעַ֗ק וָֽאֹמַר֙ אֲהָהּ֙ אֲדנָ֣י יְהֹוִ֔ה הֲמַשְׁחִ֣ית אַתָּ֗ה אֵ֚ת כָּל־שְׁאֵרִ֣ית יִשְׂרָאֵ֔ל בְּשָׁפְכְּךָ֥ אֶת־חֲמָתְךָ֖ עַל־יְרוּשָׁלִָֽם׃
וַיֹּ֣אמֶר אֵלַ֗י עֲוֺ֨ן בֵּֽית־יִשְׂרָאֵ֤ל וִֽיהוּדָה֙ גָּדוֹל֙ בִּמְאֹ֣ד מְאֹ֔ד וַתִּמָּלֵ֤א הָאָ֙רֶץ֙ דָּמִ֔ים וְהָעִ֖יר מָלְאָ֣ה מֻטֶּ֑ה כִּ֣י אָמְר֗וּ עָזַ֤ב יְהוָה֙ אֶת־הָאָ֔רֶץ וְאֵ֥ין יְהוָ֖ה רֹאֶֽה׃
וְגַ֨ם־אֲנִ֔י לֹא־תָח֥וֹס עֵינִ֖י וְלֹ֣א אֶחְמֹ֑ל דַּרְכָּ֖ם בְּרֹאשָׁ֥ם נָתָֽתִּי׃
וְהִנֵּ֞ה הָאִ֣ישׁ׀ לְבֻ֣שׁ הַבַּדִּ֗ים אֲשֶׁ֤ר הַקֶּ֙סֶת֙ בְּמָתְנָ֔יו מֵשִׁ֥יב דָּבָ֖ר לֵאמֹ֑ר עָשִׂ֕יתִי [כְּ֖אֲשֶׁ֥ר] כְּכֹ֖ל אֲשֶׁ֥ר צִוִּיתָֽנִי׃{פ}
