ה֖וֹי עִ֣יר דָּמִ֑ים כֻּלָּ֗הּ כַּ֤חַשׁ פֶּ֙רֶק֙ מְלֵאָ֔ה לֹ֥א יָמִ֖ישׁ טָֽרֶף׃
ק֣וֹל שׁ֔וֹט וְק֖וֹל רַ֣עַשׁ אוֹפָ֑ן וְס֣וּס דֹּהֵ֔ר וּמֶרְכָּבָ֖ה מְרַקֵּדָֽה׃
פָּרָ֣שׁ מַעֲלֶ֗ה וְלַ֤הַב חֶ֙רֶב֙ וּבְרַ֣ק חֲנִ֔ית וְרֹ֥ב חָלָ֖ל וְכֹ֣בֶד פָּ֑גֶר וְאֵ֥ין קֵ֙צֶה֙ לַגְּוִיָּ֔ה [יְכָשְׁל֖וּ] וְכָשְׁל֖וּ בִּגְוִיָּתָֽם׃
מֵרֹב֙ זְנוּנֵ֣י זוֹנָ֔ה ט֥וֹבַת חֵ֖ן בַּעֲלַ֣ת כְּשָׁפִ֑ים הַמֹּכֶ֤רֶת גּוֹיִם֙ בִּזְנוּנֶ֔יהָ וּמִשְׁפָּח֖וֹת בִּכְשָׁפֶֽיהָ׃
הִנְנִ֣י אֵלַ֗יִךְ נְאֻם֙ יְהוָ֣ה צְבָא֔וֹת וְגִלֵּיתִ֥י שׁוּלַ֖יִךְ עַל־פָּנָ֑יִךְ וְהַרְאֵיתִ֤י גוֹיִם֙ מַעְרֵ֔ךְ וּמַמְלָכ֖וֹת קְלוֹנֵֽךְ׃
וְהִשְׁלַכְתִּ֥י עָלַ֛יִךְ שִׁקֻּצִ֖ים וְנִבַּלְתִּ֑יךְ וְשַׂמְתִּ֖יךְ כְּרֹֽאִי׃
וְהָיָ֤ה כָל־רֹאַ֙יִךְ֙ יִדּ֣וֹד מִמֵּ֔ךְ וְאָמַר֙ שָׁדְּדָ֣ה נִֽינְוֵ֔ה מִ֖י יָנ֣וּד לָ֑הּ מֵאַ֛יִן אֲבַקֵּ֥שׁ מְנַחֲמִ֖ים לָֽךְ׃
הֲתֵֽיטְבִי֙ מִנֹּ֣א אָמ֔וֹן הַיֹּֽשְׁבָה֙ בַּיְאֹרִ֔ים מַ֖יִם סָבִ֣יב לָ֑הּ אֲשֶׁר־חֵ֣יל יָ֔ם מִיָּ֖ם חוֹמָתָֽהּ׃
כּ֥וּשׁ עָצְמָ֛ה וּמִצְרַ֖יִם וְאֵ֣ין קֵ֑צֶה פּ֣וּט וְלוּבִ֔ים הָי֖וּ בְּעֶזְרָתֵֽךְ׃
גַּם־הִ֗יא לַגֹּלָה֙ הָלְכָ֣ה בַשֶּׁ֔בִי גַּ֧ם עֹלָלֶ֛יהָ יְרֻטְּשׁ֖וּ בְּרֹ֣אשׁ כָּל־חוּצ֑וֹת וְעַל־נִכְבַּדֶּ֙יהָ֙ יַדּ֣וּ גוֹרָ֔ל וְכָל־גְּדוֹלֶ֖יהָ רֻתְּק֥וּ בַזִּקִּֽים׃
גַּם־אַ֣תְּ תִּשְׁכְּרִ֔י תְּהִ֖י נַעֲלָמָ֑ה גַּם־אַ֛תְּ תְּבַקְשִׁ֥י מָע֖וֹז מֵאוֹיֵֽב׃
כָּ֨ל־מִבְצָרַ֔יִךְ תְּאֵנִ֖ים עִם־בִּכּוּרִ֑ים אִם־יִנּ֕וֹעוּ וְנָפְל֖וּ עַל־פִּ֥י אוֹכֵֽל׃
הִנֵּ֨ה עַמֵּ֤ךְ נָשִׁים֙ בְּקִרְבֵּ֔ךְ לְאֹ֣יְבַ֔יִךְ פָּת֥וֹחַ נִפְתְּח֖וּ שַׁעֲרֵ֣י אַרְצֵ֑ךְ אָכְלָ֥ה אֵ֖שׁ בְּרִיחָֽיִךְ׃
מֵ֤י מָצוֹר֙ שַֽׁאֲבִי־לָ֔ךְ חַזְּקִ֖י מִבְצָרָ֑יִךְ בֹּ֧אִי בַטִּ֛יט וְרִמְסִ֥י בַחֹ֖מֶר הַחֲזִ֥יקִי מַלְבֵּֽן׃
שָׁ֚ם תֹּאכְלֵ֣ךְ אֵ֔שׁ תַּכְרִיתֵ֣ךְ חֶ֔רֶב תֹּאכְלֵ֖ךְ כַּיָּ֑לֶק הִתְכַּבֵּ֣ד כַּיֶּ֔לֶק הִֽתְכַּבְּדִ֖י כָּאַרְבֶּֽה׃
הִרְבֵּית֙ רֹכְלַ֔יִךְ מִכּוֹכְבֵ֖י הַשָּׁמָ֑יִם יֶ֥לֶק פָּשַׁ֖ט וַיָּעֹֽף׃
מִנְּזָרַ֙יִךְ֙ כָּֽאַרְבֶּ֔ה וְטַפְסְרַ֖יִךְ כְּג֣וֹב גֹּבָ֑י הַחוֹנִ֤ים בַּגְּדֵרוֹת֙ בְּי֣וֹם קָרָ֔ה שֶׁ֤מֶשׁ זָֽרְחָה֙ וְנֹדַ֔ד וְלֹא־נוֹדַ֥ע מְקוֹמ֖וֹ אַיָּֽם׃
נָמ֤וּ רֹעֶ֙יךָ֙ מֶ֣לֶךְ אַשּׁ֔וּר יִשְׁכְּנ֖וּ אַדִּירֶ֑יךָ נָפֹ֧שׁוּ עַמְּךָ֛ עַל־הֶהָרִ֖ים וְאֵ֥ין מְקַבֵּֽץ׃
אֵין־כֵּהָ֣ה לְשִׁבְרֶ֔ךָ נַחְלָ֖ה מַכָּתֶ֑ךָ כֹּ֣ל׀ שֹׁמְעֵ֣י שִׁמְעֲךָ֗ תָּ֤קְעוּ כַף֙ עָלֶ֔יךָ כִּ֗י עַל־מִ֛י לֹא־עָבְרָ֥ה רָעָתְךָ֖ תָּמִֽיד׃
