לַמְנַצֵּ֥חַ אַל־תַּשְׁחֵ֗ת לְדָוִ֥ד מִכְתָּֽם׃{פ} 
הַאֻמְנָ֗ם אֵ֣לֶם צֶ֭דֶק תְּדַבֵּר֑וּן מֵישָׁרִ֥ים תִּ֝שְׁפְּט֗וּ בְּנֵ֣י אָדָֽם׃
אַף־בְּלֵב֮ עוֹלֹ֪ת תִּפְעָ֫ל֥וּן בָּאָ֡רֶץ חֲמַ֥ס יְ֝דֵיכֶ֗ם תְּפַלֵּסֽוּן׃
זֹ֣רוּ רְשָׁעִ֣ים מֵרָ֑חֶם תָּע֥וּ מִ֝בֶּ֗טֶן דֹּבְרֵ֥י כָזָֽב׃
חֲמַת־לָ֗מוֹ כִּדְמ֥וּת חֲמַת־נָחָ֑שׁ כְּמוֹ־פֶ֥תֶן חֵ֝רֵ֗שׁ יַאְטֵ֥ם אָזְנֽוֹ׃
אֲשֶׁ֣ר לֹֽא־יִ֭שְׁמַע לְק֣וֹל מְלַחֲשִׁ֑ים חוֹבֵ֖ר חֲבָרִ֣ים מְחֻכָּֽם׃
אֱֽלֹהִ֗ים הֲרָס־שִׁנֵּ֥ימֽוֹ בְּפִ֑ימוֹ מַלְתְּע֥וֹת כְּ֝פִירִ֗ים נְתֹ֣ץ ׀ יְהוָֽה׃
יִמָּאֲס֣וּ כְמוֹ־מַ֭יִם יִתְהַלְּכוּ־לָ֑מוֹ יִדְרֹ֥ךְ [חִ֝צָּ֗ו] חִ֝צָּ֗יו כְּמ֣וֹ יִתְמֹלָֽלוּ׃
כְּמ֣וֹ שַׁ֭בְּלוּל תֶּ֣מֶס יַהֲלֹ֑ךְ נֵ֥פֶל אֵ֝שֶׁת בַּל־חָ֥זוּ שָֽׁמֶשׁ׃
בְּטֶ֤רֶם ׀ יָבִ֣ינוּ סִּירֹתֵכֶ֣ם אָטָ֑ד כְּמוֹ־חַ֥י כְּמוֹ־חָ֝ר֗וֹן יִשְׂעָרֶֽנּוּ׃
יִשְׂמַ֣ח צַ֭דִּיק כִּי־חָזָ֣ה נָקָ֑ם פְּעָמָ֥יו יִ֝רְחַ֗ץ בְּדַ֣ם הָרָשָֽׁע׃
וְיֹאמַ֣ר אָ֭דָם אַךְ־פְּרִ֣י לַצַּדִּ֑יק אַ֥ךְ יֵשׁ־אֱ֝לֹהִ֗ים שֹׁפְטִ֥ים בָּאָֽרֶץ׃{פ}
