לָ֭מָּה רָגְשׁ֣וּ גוֹיִ֑ם, וּ֝לְאֻמִּ֗ים יֶהְגּוּ־רִֽיק,׃
יִ֥תְיַצְּב֨וּ׀ מַלְכֵי־אֶ֗רֶץ, וְרוֹזְנִ֥ים נֽוֹסְדוּ־יָ֑חַד,Rעַל־י֝הו֗ה וְעַל־מְשִׁיחֽוֹ׃
נְֽ֭נַתְּקָה אֶת־מֽוֹסְרוֹתֵ֑ימוֹ,Rוְנַשְׁלִ֖יכָה מִמֶּ֣נּוּ עֲבֹתֵֽימוֹ׃
יוֹשֵׁ֣ב בַּשָּׁמַ֣יִם יִשְׂחָ֑ק,Rאֲ֝דנָ֗י יִלְעַג־לָֽמוֹ׃
אָ֤ז יְדַבֵּ֣ר אֵלֵ֣ימוֹ בְאַפּ֑וֹ, וּֽבַחֲרוֹנ֥וֹ יְבַהֲלֵֽמוֹ׃
וַ֭אֲנִי נָסַ֣כְתִּי מַלְכִּ֑י, עַל־צִ֝יּ֗וֹן הַר־קׇדְשִֽׁי׃
אֲסַפְּרָ֗ה אֶֽ֫ל חֹ֥ק יֽהו֗ה, אָמַ֮ר אֵלַ֥י: "בְּנִ֥י אַ֑תָּה, אֲ֝נִ֗י הַיּ֥וֹם יְלִדְתִּֽיךָ,׃
שְׁאַ֤ל מִמֶּ֗נִּי, וְאֶתְּנָ֣ה ג֭וֹיִם נַחֲלָתֶ֑ךָ, וַ֝אֲחֻזָּתְךָ֗ אַפְסֵי־אָֽרֶץ׃
תְּ֭רֹעֵם בְּשֵׁ֣בֶט בַּרְזֶ֑ל, כִּכְלִ֖י יוֹצֵ֣ר תְּנַפְּצֵֽם׃
וְ֭עַתָּה, מְלָכִ֣ים הַשְׂכִּ֑ילוּ, הִ֝וָּסְר֗וּ שֹׁ֣פְטֵי אָֽרֶץ׃
עִבְד֣וּ אֶת־יהו֣ה בְּיִרְאָ֑ה, וְ֝גִ֗ילוּ בִּרְעָדָֽה׃
נַשְּׁקוּ־בַ֡ר, פֶּן־יֶאֱנַ֤ף׀ וְתֹ֬אבְדוּ דֶ֗רֶךְ, כִּֽי־יִבְעַ֣ר כִּמְעַ֣ט אַפּ֑וֹ, אַ֝שְׁרֵ֗י כׇּל־ח֥וֹסֵי בֽוֹ׃{פ}
