לְדָוִ֨ד ׀ שׇׁפְטֵ֤נִי יְהוָ֗ה, כִּֽי־אֲ֭נִי בְּתֻמִּ֣י הָלַ֑כְתִּי, וּבַיהוָ֥ה בָּ֝טַ֗חְתִּי, לֹ֣א אֶמְעָֽד׃
בְּחָנֵ֣נִי יְהוָ֣ה וְנַסֵּ֑נִי, [צׇרְופָ֖ה] צׇרְפָ֖ה כִלְיוֹתַ֣י וְלִבִּֽי׃
כִּֽי־חַ֭סְדְּךָ לְנֶ֣גֶד עֵינָ֑י, וְ֝הִתְהַלַּ֗כְתִּי בַּאֲמִתֶּֽךָ׃
לֹֽא־יָ֭שַׁבְתִּי עִם־מְתֵי־שָׁ֑וְא, וְעִ֥ם נַ֝עֲלָמִ֗ים לֹ֣א אָבֽוֹא׃
שָׂ֭נֵאתִי קְהַ֣ל מְרֵעִ֑ים, וְעִם־רְ֝שָׁעִ֗ים לֹ֣א אֵשֵֽׁב׃
אֶרְחַ֣ץ בְּנִקָּי֣וֹן כַּפָּ֑י, וַאֲסֹבֲבָ֖ה אֶת־מִזְבַּחֲךָ֣, יְהוָֽה׃
לַ֭שְׁמִעַ בְּק֣וֹל תּוֹדָ֑ה, וּ֝לְסַפֵּ֗ר כׇּל־נִפְלְאוֹתֶֽיךָ׃
יְֽהוָ֗ה, אָ֭הַבְתִּי מְע֣וֹן בֵּיתֶ֑ךָ, וּ֝מְק֗וֹם מִשְׁכַּ֥ן כְּבוֹדֶֽךָ׃
אַל־תֶּאֱסֹ֣ף עִם־חַטָּאִ֣ים, נַפְשִׁ֑י וְעִם־אַנְשֵׁ֖י דָמִ֣ים חַיָּֽי׃
אֲשֶׁר־בִּידֵיהֶ֥ם זִמָּ֑ה, וִ֝ימִינָ֗ם מָ֣לְאָה שֹּֽׁחַד׃
וַ֭אֲנִי בְּתֻמִּ֥י אֵלֵ֗ךְ, פְּדֵ֣נִי וְחׇנֵּֽנִי׃
רַ֭גְלִי עָמְדָ֣ה בְמִישׁ֑וֹר, בְּ֝מַקְהֵלִ֗ים אֲבָרֵ֥ךְ יְהוָֽה׃{פ}
