מִזְמ֗וֹר לְאָ֫סָ֥ף {פ} אַ֤ךְ ט֖וֹב לְיִשְׂרָאֵ֥ל אֱלֹהִ֗ים לְבָרֵ֥י לֵבָֽב׃
וַאֲנִ֗י כִּ֭מְעַט [נָטָ֣וּי] נָטָ֣יוּ רַגְלָ֑י כְּ֝אַ֗יִן [שֻׁפְּכֻ֥ה] שֻׁפְּכ֥וּ אֲשֻׁרָֽי׃
כִּֽי־קִ֭נֵּאתִי בַּהוֹלֲלִ֑ים שְׁל֖וֹם רְשָׁעִ֣ים אֶרְאֶֽה׃
כִּ֤י אֵ֖ין חַרְצֻבּ֥וֹת לְמוֹתָ֗ם וּבָרִ֥יא אוּלָֽם׃
בַּעֲמַ֣ל אֱנ֣וֹשׁ אֵינֵ֑מוֹ וְעִם־אָ֝דָ֗ם לֹ֣א יְנֻגָּֽעוּ׃
לָ֭כֵן עֲנָקַ֣תְמוֹ גַאֲוָ֑ה יַעֲטָף־שִׁ֝ית חָמָ֥ס לָֽמוֹ׃
יָ֭צָא מֵחֵ֣לֶב עֵינֵ֑מוֹ עָ֝בְר֗וּ מַשְׂכִּיּ֥וֹת לֵבָֽב׃
יָמִ֤יקוּ ׀ וִידַבְּר֣וּ בְרָ֣ע עֹ֑שֶׁק מִמָּר֥וֹם יְדַבֵּֽרוּ׃
שַׁתּ֣וּ בַשָּׁמַ֣יִם פִּיהֶ֑ם וּ֝לְשׁוֹנָ֗ם תִּהֲלַ֥ךְ בָּאָֽרֶץ׃
לָכֵ֤ן ׀ [יָשׁ֣יּב] יָשׁ֣וּב עַמּ֣וֹ הֲלֹ֑ם וּמֵ֥י מָ֝לֵ֗א יִמָּ֥צוּ לָֽמוֹ׃
וְֽאָמְר֗וּ אֵיכָ֥ה יָדַֽע־אֵ֑ל וְיֵ֖שׁ דֵּעָ֣ה בְעֶלְיֽוֹן׃
הִנֵּה־אֵ֥לֶּה רְשָׁעִ֑ים וְשַׁלְוֵ֥י ע֝וֹלָ֗ם הִשְׂגּוּ־חָֽיִל׃
אַךְ־רִ֭יק זִכִּ֣יתִי לְבָבִ֑י וָאֶרְחַ֖ץ בְּנִקָּי֣וֹן כַּפָּֽי׃
וָאֱהִ֣י נָ֭גוּעַ כָּל־הַיּ֑וֹם וְ֝תוֹכַחְתִּ֗י לַבְּקָרִֽים׃
אִם־אָ֭מַרְתִּי אֲסַפְּרָ֥ה כְמ֑וֹ הִנֵּ֤ה ד֖וֹר בָּנֶ֣יךָ בָגָֽדְתִּי׃
וָ֭אֲחַשְּׁבָה לָדַ֣עַת זֹ֑את עָמָ֖ל [ה֣יּא] ה֣וּא בְעֵינָֽי׃
עַד־אָ֭בוֹא אֶל־מִקְדְּשֵׁי־אֵ֑ל אָ֝בִ֗ינָה לְאַחֲרִיתָֽם׃
אַ֣ךְ בַּ֭חֲלָקוֹת תָּשִׁ֣ית לָ֑מוֹ הִ֝פַּלְתָּ֗ם לְמַשּׁוּאֽוֹת׃
אֵ֤יךְ הָי֣וּ לְשַׁמָּ֣ה כְרָ֑גַע סָ֥פוּ תַ֝מּוּ מִן־בַּלָּהֽוֹת׃
כַּחֲל֥וֹם מֵהָקִ֑יץ אֲ֝דנָ֗י בָּעִ֤יר ׀ צַלְמָ֬ם תִּבְזֶֽה׃
כִּ֭י יִתְחַמֵּ֣ץ לְבָבִ֑י וְ֝כִלְיוֹתַ֗י אֶשְׁתּוֹנָֽן׃
וַאֲנִי־בַ֭עַר וְלֹ֣א אֵדָ֑ע בְּ֝הֵמ֗וֹת הָיִ֥יתִי עִמָּֽךְ׃
וַאֲנִ֣י תָמִ֣יד עִמָּ֑ךְ אָ֝חַ֗זְתָּ בְּיַד־יְמִינִֽי׃
בַּעֲצָתְךָ֥ תַנְחֵ֑נִי וְ֝אַחַ֗ר כָּב֥וֹד תִּקָּחֵֽנִי׃
מִי־לִ֥י בַשָּׁמָ֑יִם וְ֝עִמְּךָ֗ לֹא־חָפַ֥צְתִּי בָאָֽרֶץ׃
כָּלָ֥ה שְׁאֵרִ֗י וּלְבָ֫בִ֥י צוּר־לְבָבִ֥י וְחֶלְקִ֗י אֱלֹהִ֥ים לְעוֹלָֽם׃
כִּֽי־הִנֵּ֣ה רְחֵקֶ֣יךָ יֹאבֵ֑דוּ הִ֝צְמַ֗תָּה כָּל־זוֹנֶ֥ה מִמֶּֽךָּ׃
וַאֲנִ֤י ׀ קִ֥רֲבַ֥ת אֱלֹהִ֗ים לִ֫י ט֥וֹב שַׁתִּ֤י ׀ בַּאדנָ֣י יְהֹוִ֣ה מַחְסִ֑י לְ֝סַפֵּ֗ר כָּל־מַלְאֲכוֹתֶֽיךָ׃{פ}
