שִׁ֥יר הַֽמַּעֲל֗וֹת לְדָ֫וִ֥ד {פ} שָׂ֭מַחְתִּי בְּאֹמְרִ֣ים לִ֑י בֵּ֖ית יְהוָ֣ה נֵלֵֽךְ׃
עֹ֭מְדוֹת הָי֣וּ רַגְלֵ֑ינוּ בִּ֝שְׁעָרַ֗יִךְ יְרוּשָׁלִָֽם׃
יְרוּשָׁלִַ֥ם הַבְּנוּיָ֑ה כְּ֝עִ֗יר שֶׁחֻבְּרָה־לָּ֥הּ יַחְדָּֽו׃
שֶׁשָּׁ֨ם עָל֪וּ שְׁבָטִ֡ים שִׁבְטֵי־יָ֭הּ עֵד֣וּת לְיִשְׂרָאֵ֑ל לְ֝הֹד֗וֹת לְשֵׁ֣ם יְהוָֽה׃
כִּ֤י שָׁ֨מָּה ׀ יָשְׁב֣וּ כִסְא֣וֹת לְמִשְׁפָּ֑ט כִּ֝סְא֗וֹת לְבֵ֣ית דָּוִֽד׃
שַׁ֭אֲלוּ שְׁל֣וֹם יְרוּשָׁלִָ֑ם יִ֝שְׁלָ֗יוּ אֹהֲבָֽיִךְ׃
יְהִי־שָׁל֥וֹם בְּחֵילֵ֑ךְ שַׁ֝לְוָ֗ה בְּאַרְמְנוֹתָֽיִךְ׃
לְ֭מַעַן אַחַ֣י וְרֵעָ֑י אֲדַבְּרָה־נָּ֖א שָׁל֣וֹם בָּֽךְ׃
לְ֭מַעַן בֵּית־יְהוָ֣ה אֱלֹהֵ֑ינוּ אֲבַקְשָׁ֖ה ט֣וֹב לָֽךְ׃{פ}
