הַ֥לֲלוּ יָ֨הּ ׀ {פ} שִׁ֣ירוּ לַֽ֭יהוָה שִׁ֣יר חָדָ֑שׁ תְּ֝הִלָּת֗וֹ בִּקְהַ֥ל חֲסִידִֽים׃
יִשְׂמַ֣ח יִשְׂרָאֵ֣ל בְּעֹשָׂ֑יו בְּנֵֽי־צִ֝יּ֗וֹן יָגִ֥ילוּ בְמַלְכָּֽם׃
יְהַלֲל֣וּ שְׁמ֣וֹ בְמָח֑וֹל בְּתֹ֥ף וְ֝כִנּ֗וֹר יְזַמְּרוּ־לֽוֹ׃
כִּֽי־רוֹצֶ֣ה יְהוָ֣ה בְּעַמּ֑וֹ יְפָאֵ֥ר עֲ֝נָוִ֗ים בִּישׁוּעָֽה׃
יַעְלְז֣וּ חֲסִידִ֣ים בְּכָב֑וֹד יְ֝רַנְּנ֗וּ עַל־מִשְׁכְּבוֹתָֽם׃
רוֹמֲמ֣וֹת אֵ֭ל בִּגְרוֹנָ֑ם וְחֶ֖רֶב פִּיפִיּ֣וֹת בְּיָדָֽם׃
לַעֲשׂ֣וֹת נְ֭קָמָה בַּגּוֹיִ֑ם תּ֝וֹכֵח֗וֹת בַּלְאֻמִּֽים׃
לֶאְסֹ֣ר מַלְכֵיהֶ֣ם בְּזִקִּ֑ים וְ֝נִכְבְּדֵיהֶ֗ם בְּכַבְלֵ֥י בַרְזֶֽל׃
לַעֲשׂ֤וֹת בָּהֶ֨ם ׀ מִשְׁפָּ֬ט כָּת֗וּב הָדָ֣ר ה֭וּא לְכָל־חֲסִידָ֗יו הַֽלֲלוּ־יָֽהּ׃{פ}
