עַ֥ל נַהֲר֨וֹת ׀ בָּבֶ֗ל שָׁ֣ם יָ֭שַׁבְנוּ גַּם־בָּכִ֑ינוּ בְּ֝זָכְרֵ֗נוּ אֶת־צִיּֽוֹן׃
עַֽל־עֲרָבִ֥ים בְּתוֹכָ֑הּ תָּ֝לִ֗ינוּ כִּנֹּרוֹתֵֽינוּ׃
כִּ֤י שָׁ֨ם שְֽׁאֵל֪וּנוּ שׁוֹבֵ֡ינוּ דִּבְרֵי־שִׁ֭יר וְתוֹלָלֵ֣ינוּ שִׂמְחָ֑ה שִׁ֥ירוּ לָ֝נוּ מִשִּׁ֥יר צִיּֽוֹן׃
אֵ֗יךְ נָשִׁ֥יר אֶת־שִׁיר־יְהוָ֑ה עַ֝ל אַדְמַ֥ת נֵכָֽר׃
אִֽם־אֶשְׁכָּחֵ֥ךְ יְֽרוּשָׁלִָ֗ם תִּשְׁכַּ֥ח יְמִינִֽי׃
תִּדְבַּֽק־לְשׁוֹנִ֨י ׀ לְחִכִּי֮ אִם־לֹ֪א אֶ֫זְכְּרֵ֥כִי אִם־לֹ֣א אַ֭עֲלֶה אֶת־יְרוּשָׁלִַ֑ם עַ֝ל רֹ֣אשׁ שִׂמְחָתִֽי׃
זְכֹ֤ר יְהוָ֨ה ׀ לִבְנֵ֬י אֱד֗וֹם אֵת֮ י֤וֹם יְֽרוּשָׁ֫לִָ֥ם הָ֖אֹ֣מְרִים עָ֤רוּ ׀ עָ֑רוּ עַ֝ד הַיְס֥וֹד בָּֽהּ׃
בַּת־בָּבֶ֗ל הַשְּׁד֫וּדָ֥ה אַשְׁרֵ֥י שֶׁיְשַׁלֶּם־לָ֑ךְ אֶת־גְּ֝מוּלֵ֗ךְ שֶׁגָּמַ֥לְתְּ לָֽנוּ׃
אַשְׁרֵ֤י ׀ שֶׁיֹּאחֵ֓ז וְנִפֵּ֬ץ אֶֽת־עֹלָלַ֗יִךְ אֶל־הַסָּֽלַע׃{פ}
