מִ֭שְׁלֵי שְׁלֹמֹ֣ה בֶן־דָּוִ֑ד מֶ֝לֶךְ יִשְׂרָאֵֽל׃
לָדַ֣עַת חָכְמָ֣ה וּמוּסָ֑ר לְ֝הָבִ֗ין אִמְרֵ֥י בִינָֽה׃
לָ֭קַחַת מוּסַ֣ר הַשְׂכֵּ֑ל צֶ֥דֶק וּ֝מִשְׁפָּ֗ט וּמֵשָׁרִֽים׃
לָתֵ֣ת לִפְתָאיִ֣ם עָרְמָ֑ה לְ֝נַ֗עַר דַּ֣עַת וּמְזִמָּֽה׃
יִשְׁמַ֣ע חָ֭כָם וְי֣וֹסֶף לֶ֑קַח וְ֝נָב֗וֹן תַּחְבֻּל֥וֹת יִקְנֶֽה׃
לְהָבִ֣ין מָ֭שָׁל וּמְלִיצָ֑ה דִּבְרֵ֥י חֲ֝כָמִ֗ים וְחִידֹתָֽם׃
יִרְאַ֣ת יְ֭הוָה רֵאשִׁ֣ית דָּ֑עַת חָכְמָ֥ה וּ֝מוּסָ֗ר אֱוִילִ֥ים בָּֽזוּ׃{פ} 
שְׁמַ֣ע בְּ֭נִי מוּסַ֣ר אָבִ֑יךָ וְאַל־תִּ֝טֹּ֗שׁ תּוֹרַ֥ת אִמֶּֽךָ׃
כִּ֤י׀ לִוְיַ֤ת חֵ֓ן הֵ֬ם לְרֹאשֶׁ֑ךָ וַ֝עֲנָקִ֗ים לְגַרְגְּרֹתֶֽךָ׃
בְּנִ֡י אִם־יְפַתּ֥וּךָ חַ֝טָּאִ֗ים אַל־תֹּבֵֽא׃
אִם־יֹאמְרוּ֮ לְכָ֪ה אִ֫תָּ֥נוּ נֶאֶרְבָ֥ה לְדָ֑ם נִצְפְּנָ֖ה לְנָקִ֣י חִנָּֽם׃
נִ֭בְלָעֵם כִּשְׁא֣וֹל חַיִּ֑ים וּ֝תְמִימִ֗ים כְּי֣וֹרְדֵי בֽוֹר׃
כָּל־ה֣וֹן יָקָ֣ר נִמְצָ֑א נְמַלֵּ֖א בָתֵּ֣ינוּ שָׁלָֽל׃
גּ֭וֹרָ֣לְךָ תַּפִּ֣יל בְּתוֹכֵ֑נוּ כִּ֥יס אֶ֝חָ֗ד יִהְיֶ֥ה לְכֻלָּֽנוּ׃
בְּנִ֗י אַל־תֵּלֵ֣ךְ בְּדֶ֣רֶךְ אִתָּ֑ם מְנַ֥ע רַ֝גְלְךָ֗ מִנְּתִיבָתָֽם׃
כִּ֣י רַ֭גְלֵיהֶם לָרַ֣ע יָר֑וּצוּ וִ֝ימַהֲר֗וּ לִשְׁפָּךְ־דָּֽם׃
כִּֽי־חִ֭נָּם מְזֹרָ֣ה הָרָ֑שֶׁת בְּ֝עֵינֵ֗י כָּל־בַּ֥עַל כָּנָֽף׃
וְ֭הֵם לְדָמָ֣ם יֶאֱרֹ֑בוּ יִ֝צְפְּנ֗וּ לְנַפְשֹׁתָֽם׃
כֵּ֗ן אָ֭רְחוֹת כָּל־בֹּ֣צֵֽעַ בָּ֑צַע אֶת־נֶ֖פֶשׁ בְּעָלָ֣יו יִקָּֽח׃{פ} 
חָ֭כְמוֹת בַּח֣וּץ תָּרֹ֑נָּה בָּ֝רְחֹב֗וֹת תִּתֵּ֥ן קוֹלָֽהּ׃
בְּרֹ֥אשׁ הֹמִיּ֗וֹת תִּ֫קְרָ֥א בְּפִתְחֵ֖י שְׁעָרִ֥ים בָּעִ֗יר אֲמָרֶ֥יהָ תֹאמֵֽר׃
עַד־מָתַ֣י ׀ פְּתָיִם֮ תְּֽאֵהֲב֫וּ פֶ֥תִי וְלֵצִ֗ים לָ֭צוֹן חָמְד֣וּ לָהֶ֑ם וּ֝כְסִילִ֗ים יִשְׂנְאוּ־דָֽעַת׃
תָּשׁ֗וּבוּ לְֽת֫וֹכַחְתִּ֥י הִנֵּ֤ה אַבִּ֣יעָה לָכֶ֣ם רוּחִ֑י אוֹדִ֖יעָה דְבָרַ֣י אֶתְכֶֽם׃
יַ֣עַן קָ֭רָאתִי וַתְּמָאֵ֑נוּ נָטִ֥יתִי יָ֝דִ֗י וְאֵ֣ין מַקְשִֽׁיב׃
וַתִּפְרְע֥וּ כָל־עֲצָתִ֑י וְ֝תוֹכַחְתִּ֗י לֹ֣א אֲבִיתֶֽם׃
גַּם־אֲ֭נִי בְּאֵידְכֶ֣ם אֶשְׂחָ֑ק אֶ֝לְעַ֗ג בְּבֹ֣א פַחְדְּכֶֽם׃
בְּבֹ֤א [כְשֹׁאָ֨וה׀] כְשׁוֹאָ֨ה׀ פַּחְדְּכֶ֗ם וְֽ֭אֵידְכֶם כְּסוּפָ֣ה יֶאֱתֶ֑ה בְּבֹ֥א עֲ֝לֵיכֶ֗ם צָרָ֥ה וְצוּקָֽה׃
אָ֣ז יִ֭קְרָאֻנְנִי וְלֹ֣א אֶעֱנֶ֑ה יְ֝שַׁחֲרֻ֗נְנִי וְלֹ֣א יִמְצָאֻֽנְנִי׃
תַּ֭חַת כִּֽי־שָׂ֣נְאוּ דָ֑עַת וְיִרְאַ֥ת יְ֝הוָ֗ה לֹ֣א בָחָֽרוּ׃
לֹא־אָב֥וּ לַעֲצָתִ֑י נָ֝אֲצ֗וּ כָּל־תּוֹכַחְתִּֽי׃
וְֽ֭יֹאכְלוּ מִפְּרִ֣י דַרְכָּ֑ם וּֽמִמֹּעֲצֹ֖תֵיהֶ֣ם יִשְׂבָּֽעוּ׃
כִּ֤י מְשׁוּבַ֣ת פְּתָיִ֣ם תַּהַרְגֵ֑ם וְשַׁלְוַ֖ת כְּסִילִ֣ים תְּאַבְּדֵֽם׃
וְשֹׁמֵ֣עַֽ לִ֭י יִשְׁכָּן־בֶּ֑טַח וְ֝שַׁאֲנַ֗ן מִפַּ֥חַד רָעָֽה׃{פ}
