אָ֚נָה הָלַ֣ךְ דּוֹדֵ֔ךְ הַיָּפָ֖ה בַּנָּשִׁ֑ים אָ֚נָה פָּנָ֣ה דוֹדֵ֔ךְ וּנְבַקְשֶׁ֖נּוּ עִמָּֽךְ׃
דּוֹדִי֙ יָרַ֣ד לְגַנּ֔וֹ לַעֲרֻג֖וֹת הַבֹּ֑שֶׂם לִרְעוֹת֙ בַּגַּנִּ֔ים וְלִלְקֹ֖ט שׁוֹשַׁנִּֽים׃
אֲנִ֤י לְדוֹדִי֙ וְדוֹדִ֣י לִ֔י הָרֹעֶ֖ה בַּשּׁוֹשַׁנִּֽים׃{ס} 
יָפָ֨ה אַ֤תְּ רַעְיָתִי֙ כְּתִרְצָ֔ה נָאוָ֖ה כִּירוּשָׁלִָ֑ם אֲיֻמָּ֖ה כַּנִּדְגָּלֽוֹת׃
הָסֵ֤בִּי עֵינַ֙יִךְ֙ מִנֶּגְדִּ֔י שֶׁ֥הֵ֖ם הִרְהִיבֻ֑נִי שַׂעְרֵךְ֙ כְּעֵ֣דֶר הָעִזִּ֔ים שֶׁגָּלְשׁ֖וּ מִן־הַגִּלְעָֽד׃
שִׁנַּ֙יִךְ֙ כְּעֵ֣דֶר הָרְחֵלִ֔ים שֶׁעָל֖וּ מִן־הָרַחְצָ֑ה שֶׁכֻּלָּם֙ מַתְאִימ֔וֹת וְשַׁכֻּלָ֖ה אֵ֥ין בָּהֶֽם׃
כְּפֶ֤לַח הָרִמּוֹן֙ רַקָּתֵ֔ךְ מִבַּ֖עַד לְצַמָּתֵֽךְ׃
שִׁשִּׁ֥ים הֵ֙מָּה֙ מְלָכ֔וֹת וּשְׁמֹנִ֖ים פִּֽילַגְשִׁ֑ים וַעֲלָמ֖וֹת אֵ֥ין מִסְפָּֽר׃
אַחַ֥ת הִיא֙ יוֹנָתִ֣י תַמָּתִ֔י אַחַ֥ת הִיא֙ לְאִמָּ֔הּ בָּרָ֥ה הִ֖יא לְיוֹלַדְתָּ֑הּ רָא֤וּהָ בָנוֹת֙ וַֽיְאַשְּׁר֔וּהָ מְלָכ֥וֹת וּפִֽילַגְשִׁ֖ים וַֽיְהַלֲלֽוּהָ׃{ס} 
מִי־זֹ֥את הַנִּשְׁקָפָ֖ה כְּמוֹ־שָׁ֑חַר יָפָ֣ה כַלְּבָנָ֗ה בָּרָה֙ כַּחַמָּ֔ה אֲיֻמָּ֖ה כַּנִּדְגָּלֽוֹת׃{ס} 
אֶל־גִּנַּ֤ת אֱגוֹז֙ יָרַ֔דְתִּי לִרְא֖וֹת בְּאִבֵּ֣י הַנָּ֑חַל לִרְאוֹת֙ הֲפָרְחָ֣ה הַגֶּ֔פֶן הֵנֵ֖צוּ הָרִמֹּנִֽים׃
לֹ֣א יָדַ֔עְתִּי נַפְשִׁ֣י שָׂמַ֔תְנִי מַרְכְּב֖וֹת עַמִּ֥י נָדִֽיב׃
