וַיַּמְלִיכוּ֩ יוֹשְׁבֵ֨י יְרוּשָׁלִַ֜ם אֶת־אֲחַזְיָ֨הוּ בְנ֤וֹ הַקָּטֹן֙ תַּחְתָּ֔יו כִּ֤י כָל־הָרִֽאשֹׁנִים֙ הָרַ֣ג הַגְּד֔וּד הַבָּ֥א בָעַרְבִ֖ים לַֽמַּחֲנֶ֑ה וַיִּמְלֹ֛ךְ אֲחַזְיָ֥הוּ בֶן־יְהוֹרָ֖ם מֶ֥לֶךְ יְהוּדָֽה׃{פ} 
בֶּן־אַרְבָּעִ֨ים וּשְׁתַּ֤יִם שָׁנָה֙ אֲחַזְיָ֣הוּ בְמָלְכ֔וֹ וְשָׁנָ֣ה אַחַ֔ת מָלַ֖ךְ בִּירוּשָׁלִָ֑ם וְשֵׁ֣ם אִמּ֔וֹ עֲתַלְיָ֖הוּ בַּת־עָמְרִֽי׃
גַּם־ה֣וּא הָלַ֔ךְ בְּדַרְכֵ֖י בֵּ֣ית אַחְאָ֑ב כִּ֥י אִמּ֛וֹ הָיְתָ֥ה יוֹעַצְתּ֖וֹ לְהַרְשִֽׁיעַ׃
וַיַּ֧עַשׂ הָרַ֛ע בְּעֵינֵ֥י יְהוָ֖ה כְּבֵ֣ית אַחְאָ֑ב כִּי־הֵ֜מָּה הָיוּ־ל֣וֹ יוֹעֲצִ֗ים אַחֲרֵ֛י מ֥וֹת אָבִ֖יו לְמַשְׁחִ֥ית לֽוֹ׃
גַּ֣ם בַּעֲצָתָם֘ הָלַךְ֒ וַיֵּלֶךְ֩ אֶת־יְהוֹרָ֨ם בֶּן־אַחְאָ֜ב מֶ֣לֶךְ יִשְׂרָאֵ֗ל לַמִּלְחָמָ֛ה עַל־חֲזָאֵ֥ל מֶלֶךְ־אֲרָ֖ם בְּרָמ֣וֹת גִּלְעָ֑ד וַיַּכּ֥וּ הָרַמִּ֖ים אֶת־יוֹרָֽם׃
וַיָּ֜שָׁב לְהִתְרַפֵּ֣א בְיִזְרְעֶ֗אל כִּ֤י הַמַּכִּים֙ אֲשֶׁ֣ר הִכֻּ֣הוּ בָרָמָ֔ה בְּהִלָּ֣חֲמ֔וֹ אֶת־חֲזָהאֵ֖ל מֶ֣לֶךְ אֲרָ֑ם וַעֲזַרְיָ֨הוּ בֶן־יְהוֹרָ֜ם מֶ֣לֶךְ יְהוּדָ֗ה יָרַ֡ד לִרְא֞וֹת אֶת־יְהוֹרָ֧ם בֶּן־אַחְאָ֛ב בְּיִזְרְעֶ֖אל כִּי־חֹלֶ֥ה הֽוּא׃
וּמֵאֱלֹהִ֗ים הָֽיְתָה֙ תְּבוּסַ֣ת אֲחַזְיָ֔הוּ לָב֖וֹא אֶל־יוֹרָ֑ם וּבְבֹא֗וֹ יָצָ֤א עִם־יְהוֹרָם֙ אֶל־יֵה֣וּא בֶן־נִמְשִׁ֔י אֲשֶׁ֣ר מְשָׁח֣וֹ יְהוָ֔ה לְהַכְרִ֖ית אֶת־בֵּ֥ית אַחְאָֽב׃
וַיְהִ֕י כְּהִשָּׁפֵ֥ט יֵה֖וּא עִם־בֵּ֣ית אַחְאָ֑ב וַיִּמְצָא֩ אֶת־שָׂרֵ֨י יְהוּדָ֜ה וּבְנֵ֨י אֲחֵ֧י אֲחַזְיָ֛הוּ מְשָׁרְתִ֥ים לַאֲחַזְיָ֖הוּ וַיַּהַרְגֵֽם׃
וַיְבַקֵּשׁ֩ אֶת־אֲחַזְיָ֨הוּ וַֽיִּלְכְּדֻ֜הוּ וְה֧וּא מִתְחַבֵּ֣א בְשֹׁמְר֗וֹן וַיְבִאֻ֣הוּ אֶל־יֵהוּא֘ וַיְמִיתֻהוּ֒ וַֽיִּקְבְּרֻ֔הוּ כִּ֤י אָֽמְרוּ֙ בֶּן־יְהוֹשָׁפָ֣ט ה֔וּא אֲשֶׁר־דָּרַ֥שׁ אֶת־יְהוָ֖ה בְּכָל־לְבָב֑וֹ וְאֵין֙ לְבֵ֣ית אֲחַזְיָ֔הוּ לַעְצֹ֥ר כֹּ֖חַ לְמַמְלָכָֽה׃
וַעֲתַלְיָ֙הוּ֙ אֵ֣ם אֲחַזְיָ֔הוּ רָאֲתָ֖ה כִּ֣י מֵ֣ת בְּנָ֑הּ וַתָּ֗קָם וַתְּדַבֵּ֛ר אֶת־כָּל־זֶ֥רַע הַמַּמְלָכָ֖ה לְבֵ֥ית יְהוּדָֽה׃
וַתִּקַּח֩ יְהוֹשַׁבְעַ֨ת בַּת־הַמֶּ֜לֶךְ אֶת־יוֹאָ֣שׁ בֶּן־אֲחַזְיָ֗הוּ וַתִּגְנֹ֤ב אֹתוֹ֙ מִתּ֤וֹךְ בְּנֵֽי־הַמֶּ֙לֶךְ֙ הַמּ֣וּמָתִ֔ים וַתִּתֵּ֥ן אֹת֛וֹ וְאֶת־מֵינִקְתּ֖וֹ בַּחֲדַ֣ר הַמִּטּ֑וֹת וַתַּסְתִּירֵ֡הוּ יְהוֹשַׁבְעַ֣ת בַּת־הַמֶּ֣לֶךְ יְהוֹרָ֡ם אֵשֶׁת֩ יְהוֹיָדָ֨ע הַכֹּהֵ֜ן כִּ֣י הִיא֩ הָיְתָ֨ה אֲח֧וֹת אֲחַזְיָ֛הוּ מִפְּנֵ֥י עֲתַלְיָ֖הוּ וְלֹ֥א הֱמִיתָֽתְהוּ׃
וַיְהִ֤י אִתָּם֙ בְּבֵ֣ית הָאֱלֹהִ֔ים מִתְחַבֵּ֖א שֵׁ֣שׁ שָׁנִ֑ים וַעֲתַלְיָ֖ה מֹלֶ֥כֶת עַל־הָאָֽרֶץ׃{פ}
