בֶּן־עֶשְׂרִ֨ים וְחָמֵ֤שׁ שָׁנָה֙ מָלַ֣ךְ אֲמַצְיָ֔הוּ וְעֶשְׂרִ֤ים וָתֵ֙שַׁע֙ שָׁנָ֔ה מָלַ֖ךְ בִּירוּשָׁלִָ֑ם וְשֵׁ֣ם אִמּ֔וֹ יְהוֹעַדָּ֖ן מִירוּשָׁלָֽיִם׃
וַיַּ֥עַשׂ הַיָּשָׁ֖ר בְּעֵינֵ֣י יְהוָ֑ה רַ֕ק לֹ֖א בְּלֵבָ֥ב שָׁלֵֽם׃
וַיְהִ֕י כַּאֲשֶׁ֛ר חָזְקָ֥ה הַמַּמְלָכָ֖ה עָלָ֑יו וַֽיַּהֲרֹג֙ אֶת־עֲבָדָ֔יו הַמַּכִּ֖ים אֶת־הַמֶּ֥לֶךְ אָבִֽיו׃
וְאֶת־בְּנֵיהֶ֖ם לֹ֣א הֵמִ֑ית כִּ֣י כַכָּת֣וּב בַּתּוֹרָ֡ה בְּסֵ֣פֶר מֹשֶׁה֩ אֲשֶׁר־צִוָּ֨ה יְהוָ֜ה לֵאמֹ֗ר לֹא־יָמ֨וּתוּ אָב֤וֹת עַל־בָּנִים֙ וּבָנִים֙ לֹא־יָמ֣וּתוּ עַל־אָב֔וֹת כִּ֛י אִ֥ישׁ בְּחֶטְא֖וֹ יָמֽוּתוּ׃
וַיִּקְבֹּ֤ץ אֲמַצְיָ֙הוּ֙ אֶת־יְהוּדָ֔ה וַיַּעֲמִידֵ֣ם לְבֵית־אָב֗וֹת לְשָׂרֵ֤י הָאֲלָפִים֙ וּלְשָׂרֵ֣י הַמֵּא֔וֹת לְכָל־יְהוּדָ֖ה וּבִנְיָמִ֑ן וַֽיִּפְקְדֵ֗ם לְמִבֶּ֨ן עֶשְׂרִ֤ים שָׁנָה֙ וָמַ֔עְלָה וַיִּמְצָאֵ֗ם שְׁלֹשׁ־מֵא֨וֹת אֶ֤לֶף בָּחוּר֙ יוֹצֵ֣א צָבָ֔א אֹחֵ֖ז רֹ֥מַח וְצִנָּֽה׃
וַיִּשְׂכֹּ֣ר מִיִּשְׂרָאֵ֗ל מֵ֥אָה אֶ֛לֶף גִּבּ֥וֹר חָ֖יִל בְּמֵאָ֥ה כִכַּר־כָּֽסֶף׃
וְאִ֣ישׁ הָאֱלֹהִ֗ים בָּ֤א אֵלָיו֙ לֵאמֹ֔ר הַמֶּ֕לֶךְ אַל־יָב֥וֹא עִמְּךָ֖ צְבָ֣א יִשְׂרָאֵ֑ל כִּ֣י אֵ֤ין יְהוָה֙ עִם־יִשְׂרָאֵ֔ל כֹּ֖ל בְּנֵ֥י אֶפְרָֽיִם׃
כִּ֚י אִם־בֹּ֣א אַתָּ֔ה עֲשֵׂ֖ה חֲזַ֣ק לַמִּלְחָמָ֑ה יַכְשִֽׁילְךָ֤ הָאֱלֹהִים֙ לִפְנֵ֣י אוֹיֵ֔ב כִּ֥י יֶשׁ־כֹּ֛חַ בֵּאלֹהִ֖ים לַעְז֥וֹר וּלְהַכְשִֽׁיל׃
וַיֹּ֤אמֶר אֲמַצְיָ֙הוּ֙ לְאִ֣ישׁ הָאֱלֹהִ֔ים וּמַֽה־לַּעֲשׂוֹת֙ לִמְאַ֣ת הַכִּכָּ֔ר אֲשֶׁ֥ר נָתַ֖תִּי לִגְד֣וּד יִשְׂרָאֵ֑ל וַיֹּ֙אמֶר֙ אִ֣ישׁ הָאֱלֹהִ֔ים יֵ֚שׁ לַֽיהוָ֔ה לָ֥תֶת לְךָ֖ הַרְבֵּ֥ה מִזֶּֽה׃
וַיַּבְדִּילֵ֣ם אֲמַצְיָ֗הוּ לְהַגְּדוּד֙ אֲשֶׁר־בָּ֤א אֵלָיו֙ מֵאֶפְרַ֔יִם לָלֶ֖כֶת לִמְקוֹמָ֑ם וַיִּ֨חַר אַפָּ֤ם מְאֹד֙ בִּֽיהוּדָ֔ה וַיָּשׁ֥וּבוּ לִמְקוֹמָ֖ם בָּחֳרִי־אָֽף׃{ס} 
וַאֲמַצְיָ֙הוּ֙ הִתְחַזַּ֔ק וַיִּנְהַג֙ אֶת־עַמּ֔וֹ וַיֵּ֖לֶךְ גֵּ֣יא הַמֶּ֑לַח וַיַּ֥ךְ אֶת־בְּנֵֽי־שֵׂעִ֖יר עֲשֶׂ֥רֶת אֲלָפִֽים׃
וַעֲשֶׂ֨רֶת אֲלָפִ֜ים חַיִּ֗ים שָׁבוּ֙ בְּנֵ֣י יְהוּדָ֔ה וַיְבִיא֖וּם לְרֹ֣אשׁ הַסָּ֑לַע וַיַּשְׁלִיכ֥וּם מֵֽרֹאשׁ־הַסֶּ֖לַע וְכֻלָּ֥ם נִבְקָֽעוּ׃
וּבְנֵ֣י הַגְּד֗וּד אֲשֶׁ֨ר הֵשִׁ֤יב אֲמַצְיָ֙הוּ֙ מִלֶּ֤כֶת עִמּוֹ֙ לַמִּלְחָמָ֔ה וַֽיִּפְשְׁטוּ֙ בְּעָרֵ֣י יְהוּדָ֔ה מִשֹּׁמְר֖וֹן וְעַד־בֵּ֣ית חוֹר֑וֹן וַיַּכּ֤וּ מֵהֶם֙ שְׁלֹ֣שֶׁת אֲלָפִ֔ים וַיָּבֹ֖זּוּ בִּזָּ֥ה רַבָּֽה׃{פ} 
וַיְהִ֗י אַחֲרֵ֨י ב֤וֹא אֲמַצְיָ֙הוּ֙ מֵהַכּ֣וֹת אֶת־אֲדוֹמִ֔ים וַיָּבֵ֗א אֶת־אֱלֹהֵי֙ בְּנֵ֣י שֵׂעִ֔יר וַיַּעֲמִידֵ֥ם ל֖וֹ לֵאלֹהִ֑ים וְלִפְנֵיהֶ֥ם יִֽשְׁתַּחֲוֶ֖ה וְלָהֶ֥ם יְקַטֵּֽר׃
וַיִּֽחַר־אַ֥ף יְהוָ֖ה בַּאֲמַצְיָ֑הוּ וַיִּשְׁלַ֤ח אֵלָיו֙ נָבִ֔יא וַיֹּ֣אמֶר ל֗וֹ לָ֤מָּה דָרַ֙שְׁתָּ֙ אֶת־אֱלֹהֵ֣י הָעָ֔ם אֲשֶׁ֛ר לֹא־הִצִּ֥ילוּ אֶת־עַמָּ֖ם מִיָּדֶֽךָ׃
וַיְהִ֣י׀ בְּדַבְּר֣וֹ אֵלָ֗יו וַיֹּ֤אמֶר לוֹ֙ הַלְיוֹעֵ֤ץ לַמֶּ֙לֶךְ֙ נְתַנּ֔וּךָ חֲדַל־לְךָ֖ לָ֣מָּה יַכּ֑וּךָ וַיֶּחְדַּ֣ל הַנָּבִ֗יא וַיֹּ֙אמֶר֙ יָדַ֗עְתִּי כִּֽי־יָעַ֤ץ אֱלֹהִים֙ לְהַשְׁחִיתֶ֔ךָ כִּֽי־עָשִׂ֣יתָ זֹּ֔את וְלֹ֥א שָׁמַ֖עְתָּ לַעֲצָתִֽי׃{פ} 
וַיִּוָּעַ֗ץ אֲמַצְיָ֙הוּ֙ מֶ֣לֶךְ יְהוּדָ֔ה וַ֠יִּשְׁלַח אֶל־יוֹאָ֨שׁ בֶּן־יְהוֹאָחָ֧ז בֶּן־יֵה֛וּא מֶ֥לֶךְ יִשְׂרָאֵ֖ל לֵאמֹ֑ר לְךָ֖ נִתְרָאֶ֥ה פָנִֽים׃
וַיִּשְׁלַ֞ח יוֹאָ֣שׁ מֶֽלֶךְ־יִשְׂרָאֵ֗ל אֶל־אֲמַצְיָ֣הוּ מֶלֶךְ־יְהוּדָה֘ לֵאמֹר֒ הַח֜וֹחַ אֲשֶׁ֣ר בַּלְּבָנ֗וֹן שָׁ֠לַח אֶל־הָאֶ֜רֶז אֲשֶׁ֤ר בַּלְּבָנוֹן֙ לֵאמֹ֔ר תְּנָֽה־אֶת־בִּתְּךָ֥ לִבְנִ֖י לְאִשָּׁ֑ה וַֽתַּעֲבֹ֞ר חַיַּ֤ת הַשָּׂדֶה֙ אֲשֶׁ֣ר בַּלְּבָנ֔וֹן וַתִּרְמֹ֖ס אֶת־הַחֽוֹחַ׃
אָמַ֗רְתָּ הִנֵּ֤ה הִכִּ֙יתָ֙ אֶת־אֱד֔וֹם וּנְשָׂאֲךָ֥ לִבְּךָ֖ לְהַכְבִּ֑יד עַתָּה֙ שְׁבָ֣ה בְּבֵיתֶ֔ךָ לָ֤מָּה תִתְגָּרֶה֙ בְּרָעָ֔ה וְנָ֣פַלְתָּ֔ אַתָּ֖ה וִיהוּדָ֥ה עִמָּֽךְ׃
וְלֹא־שָׁמַ֣ע אֲמַצְיָ֔הוּ כִּ֤י מֵהָֽאֱלֹהִים֙ הִ֔יא לְמַ֖עַן תִּתָּ֣ם בְּיָ֑ד כִּ֣י דָֽרְשׁ֔וּ אֵ֖ת אֱלֹהֵ֥י אֱדֽוֹם׃
וַיַּ֨עַל יוֹאָ֤שׁ מֶֽלֶךְ־יִשְׂרָאֵל֙ וַיִּתְרָא֣וּ פָנִ֔ים ה֖וּא וַאֲמַצְיָ֣הוּ מֶלֶךְ־יְהוּדָ֑ה בְּבֵ֥ית שֶׁ֖מֶשׁ אֲשֶׁ֥ר לִיהוּדָֽה׃
וַיִּנָּ֥גֶף יְהוּדָ֖ה לִפְנֵ֣י יִשְׂרָאֵ֑ל וַיָּנֻ֖סוּ אִ֥ישׁ לְאֹהָלָֽיו׃
וְאֵת֩ אֲמַצְיָ֨הוּ מֶלֶךְ־יְהוּדָ֜ה בֶּן־יוֹאָ֣שׁ בֶּן־יְהוֹאָחָ֗ז תָּפַ֛שׂ יוֹאָ֥שׁ מֶלֶךְ־יִשְׂרָאֵ֖ל בְּבֵ֣ית שָׁ֑מֶשׁ וַיְבִיאֵ֙הוּ֙ יְר֣וּשָׁלִַ֔ם וַיִּפְרֹ֞ץ בְּחוֹמַ֣ת יְרוּשָׁלִַ֗ם מִשַּׁ֤עַר אֶפְרַ֙יִם֙ עַד־שַׁ֣עַר הַפּוֹנֶ֔ה אַרְבַּ֥ע מֵא֖וֹת אַמָּֽה׃
וְכָֽל־הַזָּהָ֣ב וְהַכֶּ֡סֶף וְאֵ֣ת כָּל־הַ֠כֵּלִים הַנִּמְצְאִ֨ים בְּבֵית־הָאֱלֹהִ֜ים עִם־עֹבֵ֣ד אֱד֗וֹם וְאֶת־אֽוֹצְרוֹת֙ בֵּ֣ית הַמֶּ֔לֶךְ וְאֵ֖ת בְּנֵ֣י הַתַּעֲרֻב֑וֹת וַיָּ֖שָׁב שֹׁמְרֽוֹן׃{פ} 
וַיְחִ֨י אֲמַצְיָ֤הוּ בֶן־יוֹאָשׁ֙ מֶ֣לֶךְ יְהוּדָ֔ה אַחֲרֵ֣י מ֔וֹת יוֹאָ֥שׁ בֶּן־יְהוֹאָחָ֖ז מֶ֣לֶךְ יִשְׂרָאֵ֑ל חֲמֵ֥שׁ עֶשְׂרֵ֖ה שָׁנָֽה׃
וְיֶ֙תֶר֙ דִּבְרֵ֣י אֲמַצְיָ֔הוּ הָרִאשֹׁנִ֖ים וְהָאַחֲרוֹנִ֑ים הֲלֹא֙ הִנָּ֣ם כְּתוּבִ֔ים עַל־סֵ֥פֶר מַלְכֵֽי־יְהוּדָ֖ה וְיִשְׂרָאֵֽל׃
וּמֵעֵ֗ת אֲשֶׁר־סָ֤ר אֲמַצְיָ֙הוּ֙ מֵאַחֲרֵ֣י יְהוָ֔ה וַיִּקְשְׁר֨וּ עָלָ֥יו קֶ֛שֶׁר בִּירוּשָׁלִַ֖ם וַיָּ֣נָס לָכִ֑ישָׁה וַיִּשְׁלְח֤וּ אַחֲרָיו֙ לָכִ֔ישָׁה וַיְמִיתֻ֖הוּ שָֽׁם׃
וַיִּשָּׂאֻ֖הוּ עַל־הַסּוּסִ֑ים וַֽיִּקְבְּר֥וּ אֹת֛וֹ עִם־אֲבֹתָ֖יו בְּעִ֥יר יְהוּדָֽה׃
