חֲמִשָּׁה דְבָרִים חַיָּבִים בַּחַלָּה, הַחִטִּים וְהַשְּׂעוֹרִים וְהַכֻּסְּמִין וְשִׁבֹּלֶת שׁוּעָל וְשִׁיפוֹן. הֲרֵי אֵלּוּ חַיָּבִין בַּחַלָּה, וּמִצְטָרְפִין זֶה עִם זֶה, וַאֲסוּרִין בֶּחָדָשׁ מִלִּפְנֵי הַפֶּסַח, וּמִלִּקְצֹר מִלִּפְנֵי הָעֹמֶר. וְאִם הִשְׁרִישׁוּ קֹדֶם לָעֹמֶר, הָעֹמֶר מַתִּירָן. וְאִם לָאו, אֲסוּרִין עַד שֶׁיָּבֹא הָעֹמֶר הַבָּא:
הָאוֹכֵל מֵהֶם כַּזַּיִת מַצָּה בְּפֶסַח, יָצָא יְדֵי חוֹבָתוֹ. כַּזַּיִת חָמֵץ, חַיָּב בְּהִכָּרֵת. נִתְעָרֵב אֶחָד מֵהֶם בְּכָל הַמִּינִים, הֲרֵי זֶה עוֹבֵר בְּפֶסַח. הַנּוֹדֵר מִן הַפַּת וּמִן הַתְּבוּאָה, אָסוּר בָּהֶם, דִּבְרֵי רַבִּי מֵאִיר. וַחֲכָמִים אוֹמְרִים, הַנּוֹדֵר מִן הַדָּגָן אֵינוֹ אָסוּר אֶלָּא מֵהֶן. וְחַיָּבִין בַּחַלָּה וּבַמַּעַשְׂרוֹת:
אֵלּוּ חַיָּבִין בַּחַלָּה וּפְטוּרִים מִן הַמַּעַשְׂרוֹת. הַלֶּקֶט, וְהַשִּׁכְחָה, וְהַפֵּאָה, וְהַהֶפְקֵר, וּמַעֲשֵׂר רִאשׁוֹן שֶׁנִּטְּלָה תְרוּמָתוֹ, וּמַעֲשֵׂר שֵׁנִי וְהֶקְדֵּשׁ שֶׁנִּפְדּוּ, וּמוֹתַר הָעֹמֶר, וּתְבוּאָה שֶׁלֹּא הֵבִיאָה שְׁלִישׁ. רַבִּי אֱלִיעֶזֶר אוֹמֵר, תְּבוּאָה שֶׁלֹּא הֵבִיאָה שְׁלִישׁ, פְּטוּרָה מִן הַחַלָּה:
אֵלּוּ חַיָּבִין בַּמַּעַשְׂרוֹת וּפְטוּרִים מִן הַחַלָּה, הָאֹרֶז, וְהַדֹּחַן, וְהַפְּרָגִים, וְהַשֻּׁמְשְׁמִין, וְהַקִּטְנִיּוֹת, וּפָחוֹת מֵחֲמֵשֶׁת רְבָעִים בַּתְּבוּאָה. הַסֻּפְגָּנִין, וְהַדֻּבְשָׁנִין, וְהָאִסְקְרִיטִין, וְחַלַּת הַמַּשְׂרֵת, וְהַמְדֻמָּע, פְּטוּרִין מִן הַחַלָּה:
עִסָּה שֶׁתְּחִלָּתָהּ סֻפְגָּנִין וְסוֹפָהּ סֻפְגָּנִין, פְּטוּרָה מִן הַחַלָּה. תְּחִלָּתָהּ עִסָּה וְסוֹפָהּ סֻפְגָּנִין, תְּחִלָּתָהּ סֻפְגָּנִין וְסוֹפָהּ עִסָּה, חַיָּבִין בַּחַלָּה. וְכֵן הַקְּנוּבְקָאוֹת חַיָּבוֹת:
הַמְּעִסָּה, בֵּית שַׁמַּאי פּוֹטְרִין, וּבֵית הִלֵּל מְחַיְּבִין. הַחֲלִיטָה, בֵּית שַׁמַּאי מְחַיְּבִין, וּבֵית הִלֵּל פּוֹטְרִין. חַלּוֹת תּוֹדָה וּרְקִיקֵי נָזִיר, עֲשָׂאָן לְעַצְמוֹ, פָּטוּר. לִמְכֹּר בַּשּׁוּק, חַיָּב:
נַחְתּוֹם שֶׁעָשָׂה שְׂאֹר לְחַלֵּק, חַיָּב בַּחַלָּה. נָשִׁים שֶׁנָּתְנוּ לְנַחְתּוֹם לַעֲשׂוֹת לָהֶן שְׂאֹר, אִם אֵין בְּשֶׁל אַחַת מֵהֶן כַּשִּׁעוּר, פְּטוּרָה מִן הַחַלָּה:
עִסַּת הַכְּלָבִים, בִּזְמַן שֶׁהָרוֹעִים אוֹכְלִין מִמֶּנָּה, חַיֶּבֶת בַּחַלָּה, וּמְעָרְבִין בָּהּ, וּמִשְׁתַּתְּפִין בָּהּ, וּמְבָרְכִין עָלֶיהָ, וּמְזַמְּנִין עָלֶיהָ, וְנַעֲשֵׂית בְּיוֹם טוֹב, וְיוֹצֵא בָהּ אָדָם יְדֵי חוֹבָתוֹ בְּפֶסַח. אִם אֵין הָרוֹעִים אוֹכְלִין מִמֶּנָּה, אֵינָהּ חַיֶּבֶת בַּחַלָּה, וְאֵין מְעָרְבִין בָּהּ, וְאֵין מִשְׁתַּתְּפִין בָּהּ, וְאֵין מְבָרְכִין עָלֶיהָ, וְאֵין מְזַמְּנִין עָלֶיהָ, וְאֵינָהּ נַעֲשֵׂית בְּיוֹם טוֹב, וְאֵין אָדָם יוֹצֵא בָהּ יְדֵי חוֹבָתוֹ בְּפֶסַח. בֵּין כָּךְ וּבֵין כָּךְ, מִטַּמְּאָה טֻמְאַת אֳכָלִין:
הַחַלָּה וְהַתְּרוּמָה, חַיָּבִין עָלֶיהָ מִיתָה וְחֹמֶשׁ, וַאֲסוּרִים לְזָרִים, וְהֵם נִכְסֵי כֹהֵן, וְעוֹלִין בְּאֶחָד וּמֵאָה, וּטְעוּנִין רְחִיצַת יָדַיִם וְהַעֲרֵב שֶׁמֶשׁ, וְאֵין נִטָּלִין מִן הַטָּהוֹר עַל הַטָּמֵא, אֶלָּא מִן הַמֻּקָּף וּמִן הַדָּבָר הַגָּמוּר. הָאוֹמֵר, כָּל גָּרְנִי תְרוּמָה וְכָל עִסָּתִי חַלָּה, לֹא אָמַר כְּלוּם, עַד שֶׁיְּשַׁיֵּר מִקְצָת:

פֵּרוֹת חוּצָה לָאָרֶץ שֶׁנִּכְנְסוּ לָאָרֶץ, חַיָּבִים בַּחַלָּה. יָצְאוּ מִכָּאן לְשָׁם, רַבִּי אֱלִיעֶזֶר מְחַיֵּב, וְרַבִּי עֲקִיבָא פּוֹטֵר:
עֲפַר חוּצָה לָאָרֶץ שֶׁבָּא בִסְפִינָה לָאָרֶץ, חַיֶּבֶת בַּמַּעַשְׂרוֹת וּבַשְּׁבִיעִית. אָמַר רַבִּי יְהוּדָה, אֵימָתַי, בִּזְמַן שֶׁהַסְּפִינָה גוֹשֶׁשֶׁת. עִסָּה שֶׁנִּלּוֹשָׁה בְמֵי פֵרוֹת, חַיֶּבֶת בַּחַלָּה, וְנֶאֱכֶלֶת בְּיָדַיִם מְסוֹאָבוֹת:
הָאִשָּׁה יוֹשֶׁבֶת וְקוֹצָה חַלָּתָהּ עֲרֻמָּה, מִפְּנֵי שֶׁהִיא יְכוֹלָה לְכַסּוֹת עַצְמָהּ, אֲבָל לֹא הָאִישׁ. מִי שֶׁאֵינוֹ יָכוֹל לַעֲשׂוֹת עִסָּתוֹ בְטָהֳרָה, יַעֲשֶׂנָּה קַבִּין, וְאַל יַעֲשֶׂנָּה בְטֻמְאָה. וְרַבִּי עֲקִיבָא אוֹמֵר, יַעֲשֶׂנָּה בְטֻמְאָה וְאַל יַעֲשֶׂנָּה קַבִּים, שֶׁכְּשֵׁם שֶׁהוּא קוֹרֵא לַטְּהוֹרָה, כָּךְ הוּא קוֹרֵא לַטְּמֵאָה, לְזוֹ קוֹרֵא חַלָּה בַשֵּׁם וּלְזוֹ קוֹרֵא חַלָּה בַשֵּׁם, אֲבָל קַבַּיִם אֵין לָהֶם חֵלֶק בַּשֵּׁם:
הָעוֹשֶׂה עִסָּתוֹ קַבִּים וְנָגְעוּ זֶה בָזֶה, פְּטוּרִים מִן הַחַלָּה עַד שֶׁיִּשּׁוֹכוּ. רַבִּי אֱלִיעֶזֶר אוֹמֵר, אַף הָרוֹדֶה וְנוֹתֵן לַסַּל, הַסַּל מְצָרְפָן לַחַלָּה:
הַמַּפְרִישׁ חַלָּתוֹ קֶמַח, אֵינָהּ חַלָּה, וְגָזֵל בְּיַד כֹּהֵן. הָעִסָּה עַצְמָהּ, חַיֶּבֶת בַּחַלָּה. וְהַקֶּמַח, אִם יֶשׁ בּוֹ כַשִּׁעוּר, חַיֶּבֶת בַּחַלָּה, וַאֲסוּרָה לְזָרִים, דִּבְרֵי רַבִּי יְהוֹשֻׁעַ. אָמְרוּ לוֹ, מַעֲשֶׂה וּקְפָשָׁהּ זָקֵן זָר. אָמַר לָהֶם, אַף הוּא קִלְקֵל לְעַצְמוֹ וְתִקֵּן לַאֲחֵרִים:
חֲמֵשֶׁת רְבָעִים קֶמַח, חַיָּבִים בַּחַלָּה. הֵם וּשְׂאֹרָן וְסֻבָּן וּמֻרְסָנָן חֲמֵשֶׁת רְבָעִים, חַיָּבִין. נִטַּל מֻרְסָנָן מִתּוֹכָן וְחָזַר לְתוֹכָן, הֲרֵי אֵלּוּ פְטוּרִין:
שִׁעוּר הַחַלָּה, אֶחָד מֵעֶשְׂרִים וְאַרְבָּעָה. הָעוֹשֶׂה עִסָּה לְעַצְמוֹ, וְהָעוֹשֶׂה לְמִשְׁתֵּה בְנוֹ, אֶחָד מֵעֶשְׂרִים וְאַרְבָּעָה. נַחְתּוֹם שֶׁהוּא עוֹשֶׂה לִמְכֹּר בַּשּׁוּק, וְכֵן הָאִשָּׁה שֶׁהִיא עוֹשָׂה לִמְכֹּר בַּשּׁוּק, אֶחָד מֵאַרְבָּעִים וּשְׁמֹנָה. נִטְמֵאת עִסָּתָהּ שׁוֹגֶגֶת אוֹ אֲנוּסָה, אֶחָד מֵאַרְבָּעִים וּשְׁמֹנָה. נִטְמֵאת מְזִידָה, אֶחָד מֵעֶשְׂרִים וְאַרְבָּעָה, כְּדֵי שֶׁלֹּא יְהֵא חוֹטֵא נִשְׂכָּר:
רַבִּי אֱלִיעֶזֶר אוֹמֵר, נִטֶּלֶת מִן הַטָּהוֹר עַל הַטָּמֵא. כֵּיצַד, עִסָּה טְהוֹרָה וְעִסָּה טְמֵאָה, נוֹטֵל כְּדֵי חַלָּה מֵעִסָּה שֶׁלֹּא הוּרָם חַלָּתָהּ, וְנוֹתֵן פָּחוֹת מִכַּבֵּיצָה בָּאֶמְצַע, כְּדֵי שֶׁיִּטֹּל מִן הַמֻּקָּף. וַחֲכָמִים אוֹסְרִין:

אוֹכְלִין עֲרַאי מִן הָעִסָּה, עַד שֶׁתִּתְגַּלְגֵּל בַּחִטִּים וְתִטַּמְטֵם בַּשְּׂעוֹרִים. גִּלְגְּלָהּ בַּחִטִּים וְטִמְטְמָהּ בַּשְּׂעוֹרִים, הָאוֹכֵל מִמֶּנָּה חַיָּב מִיתָה. כֵּיוָן שֶׁהִיא נוֹתֶנֶת אֶת הַמַּיִם, מַגְבַּהַת חַלָּתָהּ, וּבִלְבַד שֶׁלֹּא יְהֵא שָׁם חֲמִשָּׁה רִבְעֵי קֶמַח:
נִדְמְעָה עִסָּתָהּ עַד שֶׁלֹּא גִלְגְּלָה, פְּטוּרָה, שֶׁהַמְּדֻמָּע פָּטוּר. וּמִשֶּׁגִּלְגְּלָה, חַיֶּבֶת. נוֹלַד לָהּ סְפֵק טֻמְאָה עַד שֶׁלֹּא גִלְגְּלָה, תֵּעָשֶׂה בְטֻמְאָה, וּמִשֶּׁגִּלְגְּלָה, תֵּעָשֶׂה בְטָהֳרָה:
הִקְדִּישָׁה עִסָּתָהּ עַד שֶׁלֹּא גִלְגְּלָה, וּפְדָאַתָּהּ, חַיֶּבֶת. מִשֶּׁגִּלְגְּלָה, וּפְדָאַתָּה, חַיֶּבֶת. הִקְדִּישַׁתָּהּ עַד שֶׁלֹּא גִלְגְּלָה, וְגִלְגְּלָהּ הַגִּזְבָּר, וְאַחַר כָּךְ פְּדָאַתָּהּ, פְּטוּרָה, שֶׁבִּשְׁעַת חוֹבָתָהּ הָיְתָה פְטוּרָה:
כַּיּוֹצֵא בוֹ, הַמַּקְדִּישׁ פֵּרוֹתָיו עַד שֶׁלֹּא בָאוּ לְעוֹנַת הַמַּעַשְׂרוֹת, וּפְדָאָן, חַיָּבִין. וּמִשֶּׁבָּאוּ לְעוֹנַת הַמַּעַשְׂרוֹת, וּפְדָאָן, חַיָּבִין. הִקְדִּישָׁן עַד שֶׁלֹּא נִגְמְרוּ, וּגְמָרָן הַגִּזְבָּר, וְאַחַר כָּךְ פְּדָאָן, פְּטוּרִין, שֶׁבִּשְׁעַת חוֹבָתָן הָיוּ פְטוּרִין:
נָכְרִי שֶׁנָּתַן לְיִשְׂרָאֵל לַעֲשׂוֹת לוֹ עִסָּה, פְּטוּרָה מִן הַחַלָּה. נְתָנָהּ לוֹ מַתָּנָה, עַד שֶׁלֹּא גִלְגֵּל, חַיָּב, וּמִשֶּׁגִּלְגֵּל, פָּטוּר. הָעוֹשֶׂה עִסָּה עִם הַנָּכְרִי, אִם אֵין בְּשֶׁל יִשְׂרָאֵל כְּשִׁעוּר חַלָּה, פְּטוּרָה מִן הַחַלָּה:
גֵּר שֶׁנִּתְגַּיֵּר וְהָיְתָה לוֹ עִסָּה, נַעֲשֵׂית עַד שֶׁלֹּא נִתְגַּיֵּר, פָּטוּר, וּמִשֶּׁנִּתְגַיֵּר, חַיָּב. וְאִם סָפֵק, חַיָּב, וְאֵין חַיָּבִין עָלֶיהָ חֹמֶשׁ. רַבִּי עֲקִיבָא אוֹמֵר, הַכֹּל הוֹלֵךְ אַחַר הַקְּרִימָה בַתַּנּוּר:
הָעוֹשֶׂה עִסָּה מִן הַחִטִּים וּמִן הָאֹרֶז, אִם יֶשׁ בָּהּ טַעַם דָּגָן, חַיֶּבֶת בַּחַלָּה, וְיוֹצֵא בָהּ אָדָם יְדֵי חוֹבָתוֹ בְּפֶסַח. וְאִם אֵין בָּהּ טַעַם דָּגָן, אֵינָהּ חַיֶּבֶת בַּחַלָּה, וְאֵין אָדָם יוֹצֵא בָהּ יְדֵי חוֹבָתוֹ בְּפֶסַח:
הַנּוֹטֵל שְׂאֹר מֵעִסָּה שֶׁלֹּא הוּרְמָה חַלָּתָהּ וְנוֹתֵן לְתוֹךְ עִסָּה שֶׁהוּרְמָה חַלָּתָהּ, אִם יֶשׁ לוֹ פַרְנָסָה מִמָּקוֹם אַחֵר, מוֹצִיא לְפִי חֶשְׁבּוֹן. וְאִם לָאו, מוֹצִיא חַלָּה אַחַת עַל הַכֹּל:
כַּיּוֹצֵא בוֹ, זֵיתֵי מָסִיק שֶׁנִּתְעָרְבוּ עִם זֵיתֵי נִקּוּף, עִנְּבֵי בָצִיר עִם עִנְּבֵי עוֹלְלוֹת, אִם יֶשׁ לוֹ פַרְנָסָה מִמָּקוֹם אַחֵר, מוֹצִיא לְפִי חֶשְׁבּוֹן. וְאִם לָאו, מוֹצִיא תְרוּמָה וּתְרוּמַת מַעֲשֵׂר לַכֹּל, וְהַשְּׁאָר מַעֲשֵׂר וּמַעֲשֵׂר שֵׁנִי לְפִי חֶשְׁבּוֹן:
הַנּוֹטֵל שְׂאֹר מֵעִסַּת חִטִּים וְנוֹתֵן לְתוֹךְ עִסַּת אֹרֶז, אִם יֶשׁ בָּהּ טַעַם דָּגָן חַיֶּבֶת בַּחַלָּה. וְאִם לָאו, פְּטוּרָה. אִם כֵּן, לָמָּה אָמְרוּ הַטֶּבֶל אוֹסֵר כָּל שֶׁהוּא, מִין בְּמִינוֹ. וְשֶׁלֹּא בְמִינוֹ, בְּנוֹתֵן טָעַם:

שְׁתֵּי נָשִׁים שֶׁעָשׂוּ שְׁנֵי קַבִּין, וְנָגְעוּ זֶה בָזֶה, אֲפִלּוּ הֵם מִמִּין אֶחָד, פְּטוּרִים. וּבִזְמַן שֶׁהֵם שֶׁל אִשָּׁה אַחַת, מִין בְּמִינוֹ, חַיָּב. וְשֶׁלֹּא בְמִינוֹ, פָּטוּר:
אֵיזֶה הוּא מִין בְּמִינוֹ, הַחִטִּים אֵינָן מִצְטָרְפוֹת עִם הַכֹּל, אֶלָּא עִם הַכֻּסְּמִין. הַשְּׂעוֹרִים מִצְטָרְפוֹת עִם הַכֹּל, חוּץ מִן הַחִטִּים. רַבִּי יוֹחָנָן בֶּן נוּרִי אוֹמֵר, שְׁאָר הַמִּינִים מִצְטָרְפִין זֶה עִם זֶה:
שְׁנֵי קַבִּים, וְקַב אֹרֶז אוֹ קַב תְּרוּמָה בָּאֶמְצַע, אֵינָן מִצְטָרְפִין. דָּבָר שֶׁנִּטְּלָה חַלָּתוֹ בָּאֶמְצַע, מִצְטָרְפִין, שֶׁכְּבָר נִתְחַיֵּב בַּחַלָּה:
קַב חָדָשׁ וְקַב יָשָׁן שֶׁנָּשְׁכוּ זֶה בָזֶה, רַבִּי יִשְׁמָעֵאל אוֹמֵר, יִטֹּל מִן הָאֶמְצַע, וַחֲכָמִים אוֹסְרִים, הַנּוֹטֵל חַלָּה מִן הַקַּב, רַבִּי עֲקִיבָא אוֹמֵר, חַלָּה. וַחֲכָמִים אוֹמְרִים, אֵינָהּ חַלָּה:
שְׁנֵי קַבִּין שֶׁנִּטְּלָה חַלָּתוֹ שֶׁל זֶה בִּפְנֵי עַצְמוֹ וְשֶׁל זֶה בִּפְנֵי עַצְמוֹ, חָזַר וַעֲשָׂאוֹ עִסָּה אַחַת, רַבִּי עֲקִיבָא פוֹטֵר, וַחֲכָמִים מְחַיְּבִין. נִמְצָא חֻמְרוֹ קֻלּוֹ:
נוֹטֵל אָדָם כְּדֵי חַלָּה מֵעִסָּה שֶׁלֹּא הוּרְמָה חַלָּתָהּ, לַעֲשׂוֹתָה בְּטָהֳרָה, לִהְיוֹת מַפְרִישׁ עָלֶיהָ וְהוֹלֵךְ חַלַּת דְּמַאי עַד שֶׁתִּסָּרֵחַ. שֶׁחַלַּת דְּמַאי נִטֶּלֶת מִן הַטָּהוֹר עַל הַטָּמֵא, וְשֶׁלֹּא מִן הַמֻּקָּף:
יִשְׂרָאֵל שֶׁהָיוּ אֲרִיסִין לְנָכְרִים בְּסוּרְיָא, רַבִּי אֱלִיעֶזֶר מְחַיֵּב פֵּרוֹתֵיהֶם בַּמַּעַשְׂרוֹת וּבַשְּׁבִיעִית, וְרַבָּן גַּמְלִיאֵל פּוֹטֵר. רַבָּן גַּמְלִיאֵל אוֹמֵר, שְׁתֵּי חַלּוֹת בְּסוּרְיָא. וְרַבִּי אֱלִיעֶזֶר אוֹמֵר, חַלָּה אֶחָת. אָחֲזוּ קֻלּוֹ שֶׁל רַבָּן גַּמְלִיאֵל וְקֻלּוֹ שֶׁל רַבִּי אֱלִיעֶזֶר. חָזְרוּ לִנְהוֹג כְּדִבְרֵי רַבָּן גַּמְלִיאֵל בִּשְׁתֵּי דְרָכִים:
רַבָּן גַּמְלִיאֵל אוֹמֵר, שָׁלֹשׁ אֲרָצוֹת לַחַלָּה. מֵאֶרֶץ יִשְׂרָאֵל וְעַד כְּזִיב, חַלָּה אֶחָת. מִכְּזִיב וְעַד הַנָּהָר וְעַד אֲמָנָה, שְׁתֵּי חַלּוֹת, אַחַת לָאוּר וְאַחַת לַכֹּהֵן. שֶׁל אוּר יֶשׁ לָהּ שִׁעוּר, וְשֶׁל כֹּהֵן אֵין לָהּ שִׁעוּר. מִן הַנָּהָר וְעַד אֲמָנָה וְלִפְנִים, שְׁתֵּי חַלּוֹת, אַחַת לָאוּר וְאַחַת לַכֹּהֵן. שֶׁל אוּר אֵין לָהּ שִׁעוּר, וְשֶׁל כֹּהֵן יֶשׁ לָהּ שִׁעוּר. וּטְבוּל יוֹם אוֹכְלָהּ. רַבִּי יוֹסֵי אוֹמֵר, אֵינוֹ צָרִיךְ טְבִילָה. וַאֲסוּרָה לַזָּבִים וְלַזָּבוֹת לַנִּדָּה וְלַיּוֹלְדוֹת, וְנֶאֱכֶלֶת עִם הַזָּר עַל הַשֻּׁלְחָן, וְנִתֶּנֶת לְכָל כֹּהֵן:
וְאֵלּוּ נִתָּנִין לְכָל כֹּהֵן, הַחֲרָמִים, וְהַבְּכוֹרוֹת, וּפִדְיוֹן הַבֵּן, וּפִדְיוֹן פֶּטֶר חֲמוֹר, וְהַזְּרוֹעַ, וְהַלְּחָיַיִם, וְהַקֵּבָה, וְרֵאשִׁית הַגֵּז, וְשֶׁמֶן שְׂרֵפָה, וְקָדְשֵׁי הַמִּקְדָּשׁ, וְהַבִּכּוּרִים. רַבִּי יְהוּדָה אוֹסֵר בַּבִּכּוּרִים. כַּרְשִׁינֵי תְרוּמָה, רַבִּי עֲקִיבָא מַתִּיר וַחֲכָמִים אוֹסְרִים:
נִתַּאי אִישׁ תְּקוֹעַ הֵבִיא חַלּוֹת מִבֵּיתָר, וְלֹא קִבְּלוּ מִמֶּנּוּ. אַנְשֵׁי אֲלֶכְּסַנְדְּרִיָּא הֵבִיאוּ חַלּוֹתֵיהֶן מֵאֲלֶכְּסַנְדְּרִיָּא, וְלֹא קִבְּלוּ מֵהֶם. אַנְשֵׁי הַר צְבוֹעִים הֵבִיאוּ בִכּוּרֵיהֶם קֹדֶם עֲצֶרֶת, וְלֹא קִבְּלוּ מֵהֶם, מִפְּנֵי הַכָּתוּב שֶׁבַּתּוֹרָה (שמות כג), וְחַג הַקָּצִיר בִּכּוּרֵי מַעֲשֶׂיךָ אֲשֶׁר תִּזְרַע בַּשָּׂדֶה:
בֶּן אַנְטִינוֹס הֶעֱלָה בְכוֹרוֹת מִבָּבֶל, וְלֹא קִבְּלוּ מִמֶּנּוּ. יוֹסֵף הַכֹּהֵן הֵבִיא בִכּוּרֵי יַיִן וְשֶׁמֶן, וְלֹא קִבְּלוּ מִמֶּנּוּ. אַף הוּא הֶעֱלָה אֶת בָּנָיו וּבְנֵי בֵיתוֹ לַעֲשׂוֹת פֶּסַח קָטָן בִּירוּשָׁלַיִם, וְהֶחֱזִירוּהוּ, שֶׁלֹּא יִקָּבַע הַדָּבָר חוֹבָה. אֲרִיסְטוֹן הֵבִיא בִכּוּרָיו מֵאַפַּמְיָא, וְקִבְּלוּ מִמֶּנּוּ, מִפְּנֵי שֶׁאָמְרוּ, הַקּוֹנֶה בְסוּרְיָא, כְּקוֹנֶה בְּפַרְוָר שֶׁבִּירוּשָׁלָיִם: