אַרְבָּעָה אֲבוֹת נְזִיקִין, הַשּׁוֹר וְהַבּוֹר וְהַמַּבְעֶה וְהַהֶבְעֵר. לֹא הֲרֵי הַשּׁוֹר כַּהֲרֵי הַמַּבְעֶה, וְלֹא הֲרֵי הַמַּבְעֶה כַּהֲרֵי הַשּׁוֹר. וְלֹא זֶה וָזֶה, שֶׁיֵּשׁ בָּהֶן רוּחַ חַיִּים, כַּהֲרֵי הָאֵשׁ, שֶׁאֵין בּוֹ רוּחַ חַיִּים. וְלֹא זֶה וָזֶה, שֶׁדַּרְכָּן לֵילֵךְ וּלְהַזִּיק, כַּהֲרֵי הַבּוֹר, שֶׁאֵין דַּרְכּוֹ לֵילֵךְ וּלְהַזִּיק. הַצַּד הַשָּׁוֶה שֶׁבָּהֶן, שֶׁדַּרְכָּן לְהַזִּיק וּשְׁמִירָתָן עָלֶיךָ. וּכְשֶׁהִזִּיק, חָב הַמַּזִּיק לְשַׁלֵּם תַּשְׁלוּמֵי נֶזֶק בְּמֵיטַב הָאָרֶץ:
כָּל שֶׁחַבְתִּי בִשְׁמִירָתוֹ, הִכְשַׁרְתִּי אֶת נִזְקוֹ. הִכְשַׁרְתִּי בְמִקְצָת נִזְקוֹ, חַבְתִּי בְתַשְׁלוּמִין כְּהֶכְשֵׁר כָּל נִזְקוֹ. נְכָסִים שֶׁאֵין בָּהֶם מְעִילָה, נְכָסִים שֶׁל בְּנֵי בְרִית, נְכָסִים הַמְיֻחָדִים, וּבְכָל מָקוֹם חוּץ מֵרְשׁוּת הַמְיֻחֶדֶת לַמַּזִּיק וּרְשׁוּת הַנִּזָּק וְהַמַּזִּיק. וּכְשֶׁהִזִּיק, חָב הַמַּזִּיק לְשַׁלֵּם תַּשְׁלוּמֵי נֶזֶק בְּמֵיטַב הָאָרֶץ:
שׁוּם כֶּסֶף, וְשָׁוֶה כֶסֶף, בִּפְנֵי בֵית דִּין, וְעַל פִּי עֵדִים בְּנֵי חוֹרִין בְּנֵי בְרִית. וְהַנָּשִׁים בִּכְלָל הַנֶּזֶק. וְהַנִּזָּק וְהַמַּזִּיק בַּתַּשְׁלוּמִין:
חֲמִשָּׁה תַמִּין וַחֲמִשָּׁה מוּעָדִין, הַבְּהֵמָה אֵינָהּ מוּעֶדֶת לֹא לִגַּח וְלֹא לִגֹּף וְלֹא לִשֹּׁךְ וְלֹא לִרְבֹּץ וְלֹא לִבְעֹט. הַשֵּׁן מוּעֶדֶת לֶאֱכֹל אֶת הָרָאוּי לָהּ, הָרֶגֶל מוּעֶדֶת לְשַׁבֵּר בְּדֶרֶךְ הִלּוּכָהּ, וְשׁוֹר הַמּוּעָד, וְשׁוֹר הַמַּזִּיק בִּרְשׁוּת הַנִּזָּק, וְהָאָדָם. הַזְּאֵב וְהָאֲרִי וְהַדֹּב וְהַנָּמֵר וְהַבַּרְדְּלָס וְהַנָּחָשׁ, הֲרֵי אֵלּוּ מוּעָדִין. רַבִּי אֱלִיעֶזֶר אוֹמֵר, בִּזְמַן שֶׁהֵן בְּנֵי תַרְבּוּת, אֵינָן מוּעָדִין. וְהַנָּחָשׁ מוּעָד לְעוֹלָם. מַה בֵּין תָּם לְמוּעָד. אֶלָּא שֶׁהַתָּם מְשַׁלֵּם חֲצִי נֶזֶק מִגּוּפוֹ, וּמוּעָד מְשַׁלֵּם נֶזֶק שָׁלֵם מִן הָעֲלִיָּה:

כֵּיצַד הָרֶגֶל מוּעֶדֶת. לְשַׁבֵּר בְּדֶרֶךְ הִלּוּכָהּ. הַבְּהֵמָה מוּעֶדֶת לְהַלֵּךְ כְּדַרְכָּהּ וּלְשַׁבֵּר. הָיְתָה מְבַעֶטֶת, אוֹ שֶׁהָיוּ צְרוֹרוֹת מְנַתְּזִין מִתַּחַת רַגְלֶיהָ וְשִׁבְּרָה אֶת הַכֵּלִים, מְשַׁלֵּם חֲצִי נֶזֶק. דָּרְסָה עַל הַכְּלִי וְשִׁבְּרַתּוֹ, וְנָפַל עַל כְּלִי וּשְׁבָרוֹ, עַל הָרִאשׁוֹן מְשַׁלֵּם נֶזֶק שָׁלֵם, וְעַל הָאַחֲרוֹן מְשַׁלֵּם חֲצִי נֶזֶק. הַתַּרְנְגוֹלִים מוּעָדִין לְהַלֵּךְ כְּדַרְכָּן וּלְשַׁבֵּר. הָיָה דְלִיל קָשׁוּר בְּרַגְלָיו, אוֹ שֶׁהָיָה מְהַדֵּס וּמְשַׁבֵּר אֶת הַכֵּלִים, מְשַׁלֵּם חֲצִי נֶזֶק:
כֵּיצַד הַשֵּׁן מוּעֶדֶת. לֶאֱכֹל אֶת הָרָאוּי לָהּ. הַבְּהֵמָה מוּעֶדֶת לֶאֱכֹל פֵּרוֹת וִירָקוֹת. אָכְלָה כְסוּת אוֹ כֵלִים, מְשַׁלֵּם חֲצִי נֶזֶק. בַּמֶּה דְבָרִים אֲמוּרִים. בִּרְשׁוּת הַנִּזָּק, אֲבָל בִּרְשׁוּת הָרַבִּים, פָּטוּר. אִם נֶהֱנֵית, מְשַׁלֵּם מַה שֶּׁנֶּהֱנֵית. כֵּיצַד מְשַׁלֵּם מַה שֶּׁנֶּהֱנֵית. אָכְלָה מִתּוֹךְ הָרְחָבָה, מְשַׁלֵּם מַה שֶּׁנֶּהֱנֵית. מִצִּדֵּי הָרְחָבָה, מְשַׁלֵּם מַה שֶּׁהִזִּיקָה. מִפֶּתַח הַחֲנוּת, מְשַׁלֵּם מַה שֶּׁנֶּהֱנֵית. מִתּוֹךְ הַחֲנוּת, מְשַׁלֵּם מַה שֶּׁהִזִּיקָה:
הַכֶּלֶב וְהַגְּדִי שֶׁקָּפְצוּ מֵרֹאשׁ הַגָּג וְשִׁבְּרוּ אֶת הַכֵּלִים, מְשַׁלֵּם נֶזֶק שָׁלֵם, מִפְּנֵי שֶׁהֵן מוּעָדִין. הַכֶּלֶב שֶׁנָּטַל חֲרָרָה וְהָלַךְ לַגָּדִישׁ, אָכַל הַחֲרָרָה וְהִדְלִיק הַגָּדִישׁ, עַל הַחֲרָרָה מְשַׁלֵּם נֶזֶק שָׁלֵם, וְעַל הַגָּדִישׁ מְשַׁלֵּם חֲצִי נֶזֶק:
אֵיזֶה הוּא תָם, וְאֵיזֶה הוּא מוּעָד. מוּעָד, כֹּל שֶׁהֵעִידוּ בוֹ שְׁלשָׁה יָמִים. וְתָם, מִשֶּׁיַּחֲזֹר בּוֹ שְׁלשָׁה יָמִים, דִּבְרֵי רַבִּי יְהוּדָה. רַבִּי מֵאִיר אוֹמֵר, מוּעָד, שֶׁהֵעִידוּ בוֹ שָׁלשׁ פְּעָמִים. וְתָם, כֹּל שֶׁיְּהוּ הַתִּינוֹקוֹת מְמַשְׁמְשִׁין בּוֹ וְאֵינוֹ נוֹגֵחַ:
שׁוֹר הַמַּזִּיק בִּרְשׁוּת הַנִּזָּק כֵּיצַד. נָגַח, נָגַף, נָשַׁךְ, רָבַץ, בָּעַט, בִּרְשׁוּת הָרַבִּים, מְשַׁלֵּם חֲצִי נֶזֶק. בִּרְשׁוּת הַנִּזָּק, רַבִּי טַרְפוֹן אוֹמֵר נֶזֶק שָׁלֵם, וַחֲכָמִים אוֹמְרִים חֲצִי נֶזֶק. אָמַר לָהֶם רַבִּי טַרְפוֹן, וּמַה בִּמְקוֹם שֶׁהֵקֵל עַל הַשֵּׁן וְעַל הָרֶגֶל בִּרְשׁוּת הָרַבִּים, שֶׁהוּא פָטוּר, הֶחְמִיר עֲלֵיהֶם בִּרְשׁוּת הַנִּזָּק לְשַׁלֵּם נֶזֶק שָׁלֵם, מְקוֹם שֶׁהֶחְמִיר עַל הַקֶּרֶן בִּרְשׁוּת הָרַבִּים, לְשַׁלֵּם חֲצִי נֶזֶק, אֵינוֹ דִין שֶׁנַּחְמִיר עָלֶיהָ בִּרְשׁוּת הַנִּזָּק לְשַׁלֵּם נֶזֶק שָׁלֵם. אָמְרוּ לוֹ, דַּיּוֹ לַבָּא מִן הַדִּין לִהְיוֹת כַּנִּדּוֹן, מַה בִרְשׁוּת הָרַבִּים חֲצִי נֶזֶק, אַף בִּרְשׁוּת הַנִּזָּק חֲצִי נֶזֶק. אָמַר לָהֶם, אֲנִי לֹא אָדוּן קֶרֶן מִקֶּרֶן, אֲנִי אָדוּן קֶרֶן מֵרֶגֶל. וּמַה בִמְקוֹם שֶׁהֵקֵל עַל הַשֵּׁן וְעַל הָרֶגֶל, בִּרְשׁוּת הָרַבִּים, הֶחְמִיר בַּקֶּרֶן, מְקוֹם שֶׁהֶחְמִיר עַל הַשֵּׁן וְעַל הָרֶגֶל, בִּרְשׁוּת הַנִּזָּק, אֵינוֹ דִין שֶׁנַּחְמִיר בַּקֶּרֶן. אָמְרוּ לוֹ, דַּיּוֹ לַבָּא מִן הַדִּין לִהְיוֹת כַּנִּדּוֹן, מַה בִּרְשׁוּת הָרַבִּים חֲצִי נֶזֶק, אַף בִּרְשׁוּת הַנִּזָּק חֲצִי נֶזֶק:
אָדָם מוּעָד לְעוֹלָם, בֵּין שׁוֹגֵג, בֵּין מֵזִיד, בֵּין עֵר, בֵּין יָשֵׁן. סִמֵּא אֶת עֵין חֲבֵרוֹ וְשִׁבֵּר אֶת הַכֵּלִים, מְשַׁלֵּם נֶזֶק שָׁלֵם:

הַמַּנִּיחַ אֶת הַכַּד בִּרְשׁוּת הָרַבִּים וּבָא אַחֵר וְנִתְקַל בָּהּ וּשְׁבָרָהּ, פָּטוּר. וְאִם הֻזַּק בָּהּ, בַּעַל הֶחָבִית חַיָּב בְּנִזְקוֹ. נִשְׁבְּרָה כַדּוֹ בִּרְשׁוּת הָרַבִּים, וְהֻחְלַק אֶחָד בַּמַּיִם, אוֹ שֶׁלָּקָה בַחֲרָסֶיהָ, חַיָּב. רַבִּי יְהוּדָה אוֹמֵר, בְּמִתְכַּוֵּן, חַיָּב. בְּאֵינוֹ מִתְכַּוֵּן, פָּטוּר:
הַשּׁוֹפֵךְ מַיִם בִּרְשׁוּת הָרַבִּים, וְהֻזַּק בָּהֶן אַחֵר, חַיָּב בְּנִזְקוֹ. הַמַּצְנִיעַ אֶת הַקּוֹץ, וְאֶת הַזְּכוּכִית, וְהַגּוֹדֵר אֶת גְּדֵרוֹ בְּקוֹצִים, וְגָדֵר שֶׁנָּפַל לִרְשׁוּת הָרַבִּים, וְהֻזְּקוּ בָהֶן אֲחֵרִים, חַיָּב בְּנִזְקָן:
הַמּוֹצִיא אֶת תִּבְנוֹ וְאֶת קַשּׁוֹ לִרְשׁוּת הָרַבִּים לִזְבָלִים, וְהֻזַּק בָּהֶן אַחֵר, חַיָּב בְּנִזְקוֹ, וְכָל הַקּוֹדֵם בָּהֶן זָכָה. רַבָּן שִׁמְעוֹן בֶּן גַּמְלִיאֵל אוֹמֵר, כָּל הַמְקַלְקְלִין בִּרְשׁוּת הָרַבִּים וְהִזִּיקוּ, חַיָּבִין לְשַׁלֵּם, וְכָל הַקּוֹדֵם בָּהֶן זָכָה. הַהוֹפֵךְ אֶת הַגָּלָל בִּרְשׁוּת הָרַבִּים, וְהֻזַּק בָּהֶן אַחֵר, חַיָּב בְּנִזְקוֹ:
שְׁנֵי קַדָּרִין שֶׁהָיוּ מְהַלְּכִין זֶה אַחַר זֶה, וְנִתְקַל הָרִאשׁוֹן וְנָפַל, וְנִתְקַל הַשֵּׁנִי בָּרִאשׁוֹן, הָרִאשׁוֹן חַיָּב בְּנִזְקֵי שֵׁנִי:
זֶה בָּא בְחָבִיתוֹ, וְזֶה בָּא בְקוֹרָתוֹ, נִשְׁבְּרָה כַדּוֹ שֶׁל זֶה בְּקוֹרָתוֹ שֶׁל זֶה, פָּטוּר, שֶׁלָּזֶה רְשׁוּת לְהַלֵּךְ וְלָזֶה רְשׁוּת לְהַלֵּךְ. הָיָה בַעַל קוֹרָה רִאשׁוֹן, וּבַעַל חָבִית אַחֲרוֹן, נִשְׁבְּרָה חָבִית בַּקּוֹרָה, פָּטוּר בַּעַל הַקּוֹרָה. וְאִם עָמַד בַּעַל הַקּוֹרָה, חַיָּב. וְאִם אָמַר לְבַעַל הֶחָבִית עֲמֹד, פָּטוּר. הָיָה בַעַל חָבִית רִאשׁוֹן וּבַעַל קוֹרָה אַחֲרוֹן, נִשְׁבְּרָה חָבִית בַּקּוֹרָה, חַיָּב. וְאִם עָמַד בַּעַל חָבִית, פָּטוּר. וְאִם אָמַר לְבַעַל קוֹרָה עֲמֹד, חַיָּב. וְכֵן זֶה בָא בְנֵרוֹ וְזֶה בְפִשְׁתָּנוֹ:
שְׁנַיִם שֶׁהָיוּ מְהַלְּכִין בִּרְשׁוּת הָרַבִּים אֶחָד רָץ וְאֶחָד מְהַלֵּךְ, אוֹ שֶׁהָיוּ שְׁנֵיהֶם רָצִים, וְהִזִּיקוּ זֶה אֶת זֶה, שְׁנֵיהֶם פְּטוּרִין:
הַמְבַקֵּעַ בִּרְשׁוּת הַיָּחִיד וְהִזִּיק בִּרְשׁוּת הָרַבִּים, בִּרְשׁוּת הָרַבִּים וְהִזִּיק בִּרְשׁוּת הַיָּחִיד, בִּרְשׁוּת הַיָּחִיד וְהִזִּיק בִּרְשׁוּת הַיָּחִיד אַחֵר, חַיָּב:
שְׁנֵי שְׁוָרִים תַּמִּים שֶׁחָבְלוּ זֶה אֶת זֶה, מְשַׁלְּמִים בַּמּוֹתָר חֲצִי נֶזֶק. שְׁנֵיהֶם מוּעָדִים, מְשַׁלְּמִים בַּמּוֹתָר נֶזֶק שָׁלֵם. אֶחָד תָּם וְאֶחָד מוּעָד, מוּעָד בַּתָּם מְשַׁלֵּם בַּמּוֹתָר נֶזֶק שָׁלֵם, תָּם בַּמּוּעָד מְשַׁלֵּם בַּמּוֹתָר חֲצִי נֶזֶק. וְכֵן שְׁנֵי אֲנָשִׁים שֶׁחָבְלוּ זֶה בָזֶה, מְשַׁלְּמִים בַּמּוֹתָר נֶזֶק שָׁלֵם. אָדָם בְּמוּעָד וּמוּעָד בְּאָדָם, מְשַׁלֵּם בַּמּוֹתָר נֶזֶק שָׁלֵם. אָדָם בְּתָם וְתָם בְּאָדָם, אָדָם בְּתָם מְשַׁלֵּם בַּמּוֹתָר נֶזֶק שָׁלֵם, תָּם בְּאָדָם מְשַׁלֵּם בַּמּוֹתָר חֲצִי נֶזֶק. רַבִּי עֲקִיבָא אוֹמֵר, אַף תָּם שֶׁחָבַל בְּאָדָם, מְשַׁלֵּם בַּמּוֹתָר נֶזֶק שָׁלֵם:
שׁוֹר שָׁוֶה מָנֶה שֶׁנָּגַח שׁוֹר שָׁוֶה מָאתַיִם, וְאֵין הַנְּבֵלָה יָפָה כְלוּם, נוֹטֵל אֶת הַשּׁוֹר. שׁוֹר שָׁוֶה מָאתַיִם שֶׁנָּגַח שׁוֹר שָׁוֶה מָאתַיִם, וְאֵין הַנְּבֵלָה יָפָה כְלוּם, אָמַר רַבִּי מֵאִיר, עַל זֶה נֶאֱמַר (שמות כא) וּמָכְרוּ אֶת הַשּׁוֹר הַחַי וְחָצוּ אֶת כַּסְפּוֹ. אָמַר לוֹ רַבִּי יְהוּדָה, וְכֵן הֲלָכָה, קִיַּמְתָּ וּמָכְרוּ אֶת הַשּׁוֹר הַחַי וְחָצוּ אֶת כַּסְפּוֹ, וְלֹא קִיַּמְתָּ (שם) וְגַם אֶת הַמֵּת יֶחֱצוּן, וְאֵיזֶה, זֶה שׁוֹר שָׁוֶה מָאתַיִם שֶׁנָּגַח שׁוֹר שָׁוֶה מָאתַיִם, וְהַנְּבֵלָה יָפָה חֲמִשִּׁים זוּז, שֶׁזֶּה נוֹטֵל חֲצִי הַחַי וַחֲצִי הַמֵּת, וְזֶה נוֹטֵל חֲצִי הַחַי וַחֲצִי הַמֵּת:
יֵשׁ חַיָּב עַל מַעֲשֵׂה שׁוֹרוֹ וּפָטוּר עַל מַעֲשֵׂה עַצְמוֹ, פָּטוּר עַל מַעֲשֵׂה שׁוֹרוֹ וְחַיָּב עַל מַעֲשֵׂה עַצְמוֹ. שׁוֹרוֹ שֶׁבִּיֵּשׁ, פָּטוּר, וְהוּא שֶׁבִּיֵּשׁ, חַיָּב. שׁוֹרוֹ שֶׁסִּמֵּא אֶת עֵין עַבְדּוֹ, וְהִפִּיל אֶת שִׁנּוֹ, פָּטוּר, וְהוּא שֶׁסִּמֵּא אֶת עֵין עַבְדּוֹ, וְהִפִּיל אֶת שִׁנּוֹ, חַיָּב. שׁוֹרוֹ שֶׁחָבַל בְּאָבִיו וְאִמּוֹ, חַיָּב, וְהוּא שֶׁחָבַל בְּאָבִיו וְאִמּוֹ, פָּטוּר. שׁוֹרוֹ שֶׁהִדְלִיק אֶת הַגָּדִישׁ בְּשַׁבָּת, חַיָּב, וְהוּא שֶׁהִדְלִיק אֶת הַגָּדִישׁ בְּשַׁבָּת, פָּטוּר, מִפְּנֵי שֶׁהוּא מִתְחַיֵּב בְּנַפְשׁוֹ:
שׁוֹר שֶׁהָיָה רוֹדֵף אַחַר שׁוֹר אַחֵר, וְהֻזַּק, זֶה אוֹמֵר שׁוֹרְךָ הִזִּיק, וְזֶה אוֹמֵר לֹא כִי, אֶלָּא בְסֶלַע לָקָה, הַמּוֹצִיא מֵחֲבֵרוֹ עָלָיו הָרְאָיָה. הָיוּ שְׁנַיִם רוֹדְפִים אַחַר אֶחָד, זֶה אוֹמֵר שׁוֹרְךָ הִזִּיק, וְזֶה אוֹמֵר שׁוֹרְךָ הִזִּיק, שְׁנֵיהֶם פְּטוּרִין. אִם הָיוּ שְׁנֵיהֶן שֶׁל אִישׁ אֶחָד, שְׁנֵיהֶן חַיָּבִין. הָיָה אֶחָד גָּדוֹל וְאֶחָד קָטָן, הַנִּזָּק אוֹמֵר גָּדוֹל הִזִּיק, וְהַמַּזִּיק אוֹמֵר לֹא כִי, אֶלָּא קָטָן הִזִּיק. אֶחָד תָּם וְאֶחָד מוּעָד, הַנִּזָּק אוֹמֵר, מוּעָד הִזִּיק, וְהַמַּזִּיק אוֹמֵר לֹא כִי, אֶלָּא תָם הִזִּיק, הַמּוֹצִיא מֵחֲבֵרוֹ עָלָיו הָרְאָיָה. הָיוּ הַנִּזּוֹקִין שְׁנַיִם, אֶחָד גָּדוֹל וְאֶחָד קָטָן, וְהַמַּזִּיקִים שְׁנַיִם, אֶחָד גָּדוֹל וְאֶחָד קָטָן, הַנִּזָּק אוֹמֵר, גָּדוֹל הִזִּיק אֶת הַגָּדוֹל וְקָטָן אֶת הַקָּטָן, וּמַזִּיק אוֹמֵר לֹא כִי, אֶלָּא קָטָן אֶת הַגָּדוֹל וְגָדוֹל אֶת הַקָּטָן. אֶחָד תָּם וְאֶחָד מוּעָד, הַנִּזָּק אוֹמֵר, מוּעָד הִזִּיק אֶת הַגָּדוֹל וְתָם אֶת הַקָּטָן, וְהַמַּזִּיק אוֹמֵר לֹא כִי, אֶלָּא תָם אֶת הַגָּדוֹל וּמוּעָד אֶת הַקָּטָן, הַמּוֹצִיא מֵחֲבֵרוֹ עָלָיו הָרְאָיָה:

שׁוֹר שֶׁנָּגַח אַרְבָּעָה וַחֲמִשָּׁה שְׁוָרִים זֶה אַחַר זֶה, יְשַׁלֵּם לָאַחֲרוֹן שֶׁבָּהֶם. וְאִם יֶשׁ בּוֹ מוֹתָר, יַחֲזִיר לְשֶׁלְּפָנָיו. וְאִם יֶשׁ בּוֹ מוֹתָר, יַחֲזִיר לְשֶׁלִּפְנֵי פָנָיו. וְהָאַחֲרוֹן אַחֲרוֹן נִשְׂכָּר, דִּבְרֵי רַבִּי מֵאִיר. רַבִּי שִׁמְעוֹן אוֹמֵר, שׁוֹר שָׁוֶה מָאתַיִם שֶׁנָּגַח שׁוֹר שָׁוֶה מָאתַיִם, וְאֵין הַנְּבֵלָה יָפָה כְלוּם, זֶה נוֹטֵל מָנֶה וְזֶה נוֹטֵל מָנֶה. חָזַר וְנָגַח שׁוֹר אַחֵר שָׁוֶה מָאתַיִם, הָאַחֲרוֹן נוֹטֵל מָנֶה, וְשֶׁלְּפָנָיו, זֶה נוֹטֵל חֲמִשִּׁים זוּז וְזֶה נוֹטֵל חֲמִשִּׁים זוּז. חָזַר וְנָגַח שׁוֹר אַחֵר שָׁוֶה מָאתַיִם, הָאַחֲרוֹן נוֹטֵל מָנֶה, וְשֶׁלְּפָנָיו, חֲמִשִּׁים זוּז, וּשְׁנַיִם הָרִאשׁוֹנִים, דִּינַר זָהָב:
שׁוֹר שֶׁהוּא מוּעָד לְמִינוֹ וְאֵינוֹ מוּעָד לְשֶׁאֵינוֹ מִינוֹ, מוּעָד לְאָדָם וְאֵינוֹ מוּעָד לִבְהֵמָה, מוּעָד לִקְטַנִּים וְאֵינוֹ מוּעָד לִגְדוֹלִים, אֶת שֶׁהוּא מוּעָד לוֹ מְשַׁלֵּם נֶזֶק שָׁלֵם, וְאֶת שֶׁאֵינוֹ מוּעָד לוֹ מְשַׁלֵּם חֲצִי נֶזֶק. אָמְרוּ לִפְנֵי רַבִּי יְהוּדָה, הֲרֵי שֶׁהָיָה מוּעָד לְשַׁבָּתוֹת וְאֵינוֹ מוּעָד לְחֹל. אָמַר לָהֶם, לַשַּׁבָּתוֹת מְשַׁלֵּם נֶזֶק שָׁלֵם, לִימוֹת הַחֹל מְשַׁלֵּם חֲצִי נֶזֶק. אֵימָתַי הוּא תָם. מִשֶּׁיַּחֲזֹר בּוֹ שְׁלשָׁה יְמֵי שַׁבָּתוֹת:
שׁוֹר שֶׁל יִשְׂרָאֵל שֶׁנָּגַח שׁוֹר שֶׁל הֶקְדֵּשׁ, וְשֶׁל הֶקְדֵּשׁ שֶׁנָּגַח לְשׁוֹר שֶׁל יִשְׂרָאֵל, פָּטוּר, שֶׁנֶּאֱמַר (שמות כא) שׁוֹר רֵעֵהוּ, וְלֹא שׁוֹר שֶׁל הֶקְדֵּשׁ. שׁוֹר שֶׁל יִשְׂרָאֵל שֶׁנָּגַח לְשׁוֹר שֶׁל נָכְרִי, פָּטוּר. וְשֶׁל נָכְרִי שֶׁנָּגַח לְשׁוֹר שֶׁל יִשְׂרָאֵל, בֵּין תָּם בֵּין מוּעָד מְשַׁלֵּם נֶזֶק שָׁלֵם:
שׁוֹר שֶׁל פִּקֵּחַ שֶׁנָּגַח שׁוֹר שֶׁל חֵרֵשׁ, שׁוֹטֶה וְקָטָן, חַיָּב. וְשֶׁל חֵרֵשׁ, שׁוֹטֶה וְקָטָן, שֶׁנָּגַח שׁוֹר שֶׁל פִּקֵּחַ, פָּטוּר. שׁוֹר שֶׁל חֵרֵשׁ, שׁוֹטֶה וְקָטָן שֶׁנָּגַח, בֵּית דִּין מַעֲמִידִין לָהֶן אַפּוֹטְרוֹפּוֹס וּמְעִידִין לָהֶן בִּפְנֵי אַפּוֹטְרוֹפּוֹס. נִתְפַּקַּח הַחֵרֵשׁ, נִשְׁתַּפָּה הַשּׁוֹטֶה וְהִגְדִּיל הַקָּטָן, חָזַר לְתַמּוּתוֹ, דִּבְרֵי רַבִּי מֵאִיר. רַבִּי יוֹסֵי אוֹמֵר, הֲרֵי הוּא בְחֶזְקָתוֹ. שׁוֹר הָאִצְטָדִין אֵינוֹ חַיָּב מִיתָה, שֶׁנֶּאֱמַר (שמות כא) כִּי יִגַּח, וְלֹא שֶׁיַּגִּיחוּהוּ:
שׁוֹר שֶׁנָּגַח אֶת הָאָדָם וָמֵת, מוּעָד, מְשַׁלֵּם כֹּפֶר, וְתָם, פָּטוּר מִן הַכֹּפֶר. וְזֶה וָזֶה חַיָּבִים מִיתָה. וְכֵן בְּבֵן וְכֵן בְּבַת. נָגַח עֶבֶד אוֹ אָמָה, נוֹתֵן שְׁלשִׁים סְלָעִים, בֵּין שֶׁהוּא יָפֶה מָנֶה וּבֵין שֶׁאֵינוֹ יָפֶה אֶלָּא דִּינָר אֶחָד:
שׁוֹר שֶׁהָיָה מִתְחַכֵּךְ בְּכֹתֶל וְנָפַל עַל הָאָדָם, נִתְכַּוֵּן לַהֲרֹג אֶת הַבְּהֵמָה וְהָרַג אֶת הָאָדָם, לְנָכְרִי וְהָרַג אֶת יִשְׂרָאֵל, לִנְפָלִים וְהָרַג בֶּן קְיָמָא, פָּטוּר:
שׁוֹר הָאִשָּׁה, שׁוֹר הַיְתוֹמִים, שׁוֹר הָאַפּוֹטְרוֹפּוֹס, שׁוֹר הַמִּדְבָּר, שׁוֹר הַהֶקְדֵּשׁ, שׁוֹר הַגֵּר שֶׁמֵּת וְאֵין לוֹ יוֹרְשִׁים, הֲרֵי אֵלּוּ חַיָּבִים מִיתָה. רַבִּי יְהוּדָה אוֹמֵר, שׁוֹר הַמִּדְבָּר, שׁוֹר הַהֶקְדֵּשׁ, שׁוֹר הַגֵּר שֶׁמֵּת, פְּטוּרִים מִן הַמִּיתָה, לְפִי שֶׁאֵין לָהֶם בְּעָלִים:
שׁוֹר שֶׁהוּא יוֹצֵא לְהִסָּקֵל וְהִקְדִּישׁוֹ בְעָלָיו, אֵינוֹ מֻקְדָּשׁ. שְׁחָטוֹ, בְּשָׂרוֹ אָסוּר. וְאִם עַד שֶׁלֹּא נִגְמַר דִּינוֹ הִקְדִּישׁוֹ בְעָלָיו, מֻקְדָּשׁ. וְאִם שְׁחָטוֹ, בְּשָׂרוֹ מֻתָּר:
מְסָרוֹ לְשׁוֹמֵר חִנָּם, וּלְשׁוֹאֵל, לְנוֹשֵׂא שָׂכָר, וּלְשׂוֹכֵר, נִכְנְסוּ תַחַת הַבְּעָלִים, מוּעָד מְשַׁלֵּם נֶזֶק שָׁלֵם, וְתָם מְשַׁלֵּם חֲצִי נֶזֶק. קְשָׁרוֹ בְעָלָיו בְּמוֹסֵרָה, וְנָעַל בְּפָנָיו כָּרָאוּי, וְיָצָא וְהִזִּיק, אֶחָד תָּם וְאֶחָד מוּעָד חַיָּב, דִּבְרֵי רַבִּי מֵאִיר. רַבִּי יְהוּדָה אוֹמֵר, תָּם חַיָּב וּמוּעָד פָּטוּר, שֶׁנֶּאֱמַר (שמות כא) וְלֹא יִשְׁמְרֶנּוּ בְּעָלָיו, וְשָׁמוּר הוּא זֶה. רַבִּי אֱלִיעֶזֶר אוֹמֵר, אֵין לוֹ שְׁמִירָה אֶלָּא סַכִּין:

שׁוֹר שֶׁנָּגַח אֶת הַפָּרָה וְנִמְצָא עֻבָּרָהּ בְּצִדָּהּ, וְאֵין יָדוּעַ אִם עַד שֶׁלֹּא נְגָחָהּ יָלְדָה, אִם מִשֶּׁנְּגָחָהּ יָלְדָה, מְשַׁלֵּם חֲצִי נֶזֶק לַפָּרָה וּרְבִיעַ נֶזֶק לַוָּלָד. וְכֵן פָּרָה שֶׁנָּגְחָה אֶת הַשּׁוֹר וְנִמְצָא וְלָדָהּ בְּצִדָּהּ, וְאֵין יָדוּעַ אִם עַד שֶׁלֹּא נָגְחָה יָלְדָה, אִם מִשֶּׁנָּגְחָה יָלְדָה, מְשַׁלֵּם חֲצִי נֶזֶק מִן הַפָּרָה וּרְבִיעַ נֶזֶק מִן הַוָּלָד:
הַקַּדָּר שֶׁהִכְנִיס קְדֵרוֹתָיו לַחֲצַר בַּעַל הַבַּיִת שֶׁלֹּא בִרְשׁוּת, וְשִׁבְּרָתַן בְּהֶמְתּוֹ שֶׁל בַּעַל הַבַּיִת, פָּטוּר. וְאִם הֻזְּקָה בָהֶן, בַּעַל הַקְּדֵרוֹת חַיָּב. וְאִם הִכְנִיס בִּרְשׁוּת, בַּעַל חָצֵר חַיָּב. הִכְנִיס פֵּרוֹתָיו לַחֲצַר בַּעַל הַבַּיִת שֶׁלֹּא בִרְשׁוּת, וַאֲכָלָתַן בְּהֶמְתּוֹ שֶׁל בַּעַל הַבַּיִת, פָּטוּר. וְאִם הֻזְּקָה בָהֶן, בַּעַל הַפֵּרוֹת חַיָּב. וְאִם הִכְנִיס בִּרְשׁוּת, בַּעַל הֶחָצֵר חַיָּב:
הִכְנִיס שׁוֹרוֹ לַחֲצַר בַּעַל הַבַּיִת שֶׁלֹּא בִרְשׁוּת, וּנְגָחוֹ שׁוֹרוֹ שֶׁל בַּעַל הַבַּיִת, אוֹ שֶׁנְּשָׁכוֹ כַלְבּוֹ שֶׁל בַּעַל הַבַּיִת, פָּטוּר. נָגַח הוּא שׁוֹרוֹ שֶׁל בַּעַל הַבַּיִת, חַיָּב. נָפַל לְבוֹרוֹ וְהִבְאִישׁ מֵימָיו, חַיָּב. הָיָה אָבִיו אוֹ בְנוֹ לְתוֹכוֹ, מְשַׁלֵּם אֶת הַכֹּפֶר. וְאִם הִכְנִיס בִּרְשׁוּת, בַּעַל הֶחָצֵר חַיָּב. רַבִּי אוֹמֵר, בְּכֻלָּן אֵינוֹ חַיָּב, עַד שֶׁיְּקַבֵּל עָלָיו לִשְׁמֹר:
שׁוֹר שֶׁהָיָה מִתְכַּוֵּן לַחֲבֵרוֹ וְהִכָּה אֶת הָאִשָּׁה וְיָצְאוּ יְלָדֶיהָ, פָּטוּר מִדְּמֵי וְלָדוֹת. וְאָדָם שֶׁהָיָה מִתְכַּוֵּן לַחֲבֵרוֹ וְהִכָּה אֶת הָאִשָּׁה וְיָצְאוּ יְלָדֶיהָ, מְשַׁלֵּם דְּמֵי וְלָדוֹת. כֵּיצַד מְשַׁלֵּם דְּמֵי וְלָדוֹת, שָׁמִין אֶת הָאִשָּׁה כַּמָּה הִיא יָפָה עַד שֶׁלֹּא יָלְדָה וְכַמָּה הִיא יָפָה מִשֶּׁיָּלָדָה. אָמַר רַבָּן שִׁמְעוֹן בֶּן גַּמְלִיאֵל, אִם כֵּן, מִשֶּׁהָאִשָּׁה יוֹלֶדֶת, מַשְׁבַּחַת. אֶלָּא שָׁמִין אֶת הַוְּלָדוֹת כַּמָּה הֵן יָפִין, וְנוֹתֵן לַבַּעַל. וְאִם אֵין לָהּ בַּעַל, נוֹתֵן לְיוֹרְשָׁיו. הָיְתָה שִׁפְחָה וְנִשְׁתַּחְרְרָה, אוֹ גִיּוֹרֶת, פָּטוּר:
הַחוֹפֵר בּוֹר בִּרְשׁוּת הַיָּחִיד וּפְתָחוֹ לִרְשׁוּת הָרַבִּים, אוֹ בִרְשׁוּת הָרַבִּים וּפְתָחוֹ לִרְשׁוּת הַיָּחִיד, בִּרְשׁוּת הַיָּחִיד וּפְתָחוֹ לִרְשׁוּת הַיָּחִיד אַחֵר, חַיָּב. הַחוֹפֵר בּוֹר בִּרְשׁוּת הָרַבִּים, וְנָפַל לְתוֹכוֹ שׁוֹר אוֹ חֲמוֹר וָמֵת, חַיָּב. אֶחָד הַחוֹפֵר בּוֹר, שִׁיחַ וּמְעָרָה, חֲרִיצִין וּנְעִיצִין, חַיָּב. אִם כֵּן, לָמָּה נֶאֱמַר בּוֹר, מַה בּוֹר שֶׁיֶּשׁ בּוֹ כְדֵי לְהָמִית, עֲשָׂרָה טְפָחִים, אַף כֹּל שֶׁיֶּשׁ בּוֹ כְדֵי לְהָמִית, עֲשָׂרָה טְפָחִים. הָיוּ פְחוּתִין מֵעֲשָׂרָה טְפָחִים, וְנָפַל לְתוֹכוֹ שׁוֹר אוֹ חֲמוֹר וָמֵת, פָּטוּר. וְאִם הֻזַּק בּוֹ, חַיָּב:
בּוֹר שֶׁל שְׁנֵי שֻׁתָּפִין, עָבַר עָלָיו הָרִאשׁוֹן וְלֹא כִסָּהוּ, וְהַשֵּׁנִי וְלֹא כִסָּהוּ, הַשֵּׁנִי חַיָּב. כִּסָּהוּ הָרִאשׁוֹן, וּבָא הַשֵּׁנִי וּמְצָאוֹ מְגֻלֶּה וְלֹא כִסָּהוּ, הַשֵּׁנִי חַיָּב. כִּסָּהוּ כָרָאוּי, וְנָפַל לְתוֹכוֹ שׁוֹר אוֹ חֲמוֹר וָמֵת, פָּטוּר. לֹא כִסָּהוּ כָרָאוּי, וְנָפַל לְתוֹכוֹ שׁוֹר אוֹ חֲמוֹר וָמֵת, חַיָּב. נָפַל לְפָנָיו מִקּוֹל הַכְּרִיָּה, חַיָּב. לְאַחֲרָיו מִקּוֹל הַכְּרִיָּה, פָּטוּר. נָפַל לְתוֹכוֹ שׁוֹר וְכֵלָיו וְנִשְׁתַּבְּרוּ, חֲמוֹר וְכֵלָיו וְנִתְקָרְעוּ, חַיָּב עַל הַבְּהֵמָה וּפָטוּר עַל הַכֵּלִים. נָפַל לְתוֹכוֹ שׁוֹר חֵרֵשׁ, שׁוֹטֶה וְקָטָן, חַיָּב. בֵּן אוֹ בַת, עֶבֶד אוֹ אָמָה, פָּטוּר:
אֶחָד שׁוֹר וְאֶחָד כָּל בְּהֵמָה לִנְפִילַת הַבּוֹר, וּלְהַפְרָשַׁת הַר סִינַי, וּלְתַשְׁלוּמֵי כֶפֶל, וְלַהֲשָׁבַת אֲבֵדָה, לִפְרִיקָה, לַחֲסִימָה, לְכִלְאַיִם, וּלְשַׁבָּת. וְכֵן חַיָּה וָעוֹף כַּיּוֹצֵא בָהֶן. אִם כֵּן, לָמָּה נֶאֱמַר שׁוֹר אוֹ חֲמוֹר. אֶלָּא שֶׁדִּבֵּר הַכָּתוּב בַּהֹוֶה:

הַכּוֹנֵס צֹאן לַדִּיר, וְנָעַל בְּפָנֶיהָ כָּרָאוּי, וְיָצְאָה וְהִזִּיקָה, פָּטוּר. לֹא נָעַל בְּפָנֶיהָ כָּרָאוּי, וְיָצְאָה וְהִזִּיקָה, חַיָּב. נִפְרְצָה בַלַּיְלָה אוֹ שֶׁפְּרָצוּהָ לִסְטִים, וְיָצְאָה וְהִזִּיקָה, פָּטוּר. הוֹצִיאוּהָ לִסְטִים, לִסְטִים חַיָּבִים:
הִנִּיחָהּ בַּחַמָּה, אוֹ שֶׁמְּסָרָהּ לְחֵרֵשׁ, שׁוֹטֶה וְקָטָן, וְיָצְאָה וְהִזִּיקָה, חַיָּב. מְסָרָהּ לְרוֹעֶה, נִכְנָס רוֹעֶה תַּחְתָּיו. נָפְלָה לְגִנָּה וְנֶהֱנֵית, מְשַׁלֶּמֶת מַה שֶּׁנֶּהֶנֵית. יָרְדָה כְדַרְכָּהּ וְהִזִּיקָה, מְשַׁלֶּמֶת מַה שֶּׁהִזִּיקָה. כֵּיצַד מְשַׁלֶּמֶת מַה שֶּׁהִזִּיקָה, שָׁמִין בֵּית סְאָה בְּאוֹתָה שָׂדֶה, כַּמָּה הָיְתָה יָפָה וְכַמָּה הִיא יָפָה. רַבִּי שִׁמְעוֹן אוֹמֵר, אָכְלָה פֵּרוֹת גְּמוּרִים מְשַׁלֶּמֶת פֵּרוֹת גְּמוּרִים. אִם סְאָה סְאָה, אִם סָאתַיִם סָאתָיִם:
הַמַּגְדִּישׁ בְּתוֹךְ שָׂדֶה שֶׁל חֲבֵרוֹ שֶׁלֹּא בִרְשׁוּת, וַאֲכָלָתַן בְּהֶמְתּוֹ שֶׁל בַּעַל הַשָּׂדֶה, פָּטוּר. וְאִם הֻזְּקָה בָהֶן, בַּעַל הַגָּדִישׁ חַיָּב. וְאִם הִגְדִּישׁ בִּרְשׁוּת, בַּעַל הַשָּׂדֶה חַיָּב:
הַשּׁוֹלֵחַ אֶת הַבְּעֵרָה בְּיַד חֵרֵשׁ, שׁוֹטֶה וְקָטָן, פָּטוּר בְּדִינֵי אָדָם וְחַיָּב בְּדִינֵי שָׁמָיִם. שָׁלַח בְּיַד פִּקֵּחַ, הַפִּקֵּחַ חַיָּב. אֶחָד הֵבִיא אֶת הָאוּר, וְאֶחָד הֵבִיא אֶת הָעֵצִים, הַמֵּבִיא אֶת הָעֵצִים חַיָּב. אֶחָד הֵבִיא אֶת הָעֵצִים, וְאֶחָד הֵבִיא אֶת הָאוּר, הַמֵּבִיא אֶת הָאוּר חַיָּב. בָּא אַחֵר וְלִבָּה, הַמְּלַבֶּה חַיָּב. לִבְּתָה הָרוּחַ, כֻּלָּן פְּטוּרִין. הַשּׁוֹלֵחַ אֶת הַבְּעֵרָה וְאָכְלָה עֵצִים, אוֹ אֲבָנִים, אוֹ עָפָר, חַיָּב, שֶׁנֶּאֱמַר (שמות כב) כִּי תֵצֵא אֵשׁ וּמָצְאָה קוֹצִים וְנֶאֱכַל גָּדִישׁ אוֹ הַקָּמָה אוֹ הַשָּׂדֶה, שַׁלֵּם יְשַׁלֵּם הַמַּבְעִיר אֶת הַבְּעֵרָה. עָבְרָה גָּדֵר שֶׁהוּא גָּבוֹהַּ אַרְבַּע אַמּוֹת, אוֹ דֶּרֶךְ הָרַבִּים, אוֹ נָהָר, פָּטוּר. הַמַּדְלִיק בְּתוֹךְ שֶׁלּוֹ, עַד כַּמָּה תַעֲבֹר הַדְּלֵקָה. רַבִּי אֶלְעָזָר בֶּן עֲזַרְיָה אוֹמֵר, רוֹאִין אוֹתוֹ כְּאִלוּ הוּא בְאֶמְצַע בֵּית כּוֹר. רַבִּי אֱלִיעֶזֶר אוֹמֵר, שֵׁשׁ עֶשְׂרֵה אַמּוֹת, כְּדֶרֶךְ רְשׁוּת הָרַבִּים. רַבִּי עֲקִיבָא אוֹמֵר, חֲמִשִּׁים אַמָּה. רַבִּי שִׁמְעוֹן אוֹמֵר, שַׁלֵּם יְשַׁלֵּם הַמַּבְעִיר אֶת הַבְּעֵרָה (שמות כב), הַכֹּל לְפִי הַדְּלֵקָה:
הַמַּדְלִיק אֶת הַגָּדִישׁ, וְהָיוּ בּוֹ כֵלִים וְדָלָקוּ. רַבִּי יְהוּדָה אוֹמֵר, יְשַׁלֵּם מַה שֶּׁבְּתוֹכוֹ. וַחֲכָמִים אוֹמְרִים, אֵינוֹ מְשַׁלֵּם אֶלָּא גָּדִישׁ שֶׁל חִטִּין אוֹ שֶׁל שְׂעֹרִים. הָיָה גְדִי כָפוּת לוֹ וְעֶבֶד סָמוּךְ לוֹ וְנִשְׂרַף עִמּוֹ, חַיָּב. עֶבֶד כָּפוּת לוֹ וּגְדִי סָמוּךְ לוֹ וְנִשְׂרַף עִמּוֹ, פָּטוּר. וּמוֹדִים חֲכָמִים לְרַבִּי יְהוּדָה בְּמַדְלִיק אֶת הַבִּירָה, שֶׁהוּא מְשַׁלֵּם כָּל מַה שֶּׁבְּתוֹכוֹ, שֶׁכֵּן דֶּרֶךְ בְּנֵי אָדָם לְהַנִּיחַ בַּבָּתִּים:
גֵּץ שֶׁיָּצָא מִתַּחַת הַפַּטִּישׁ וְהִזִּיק, חַיָּב. גָּמָל שֶׁהָיָה טָעוּן פִּשְׁתָּן וְעָבַר בִּרְשׁוּת הָרַבִּים, וְנִכְנַס פִּשְׁתָּנוֹ לְתוֹךְ הַחֲנוּת, וְדָלְקוּ בְּנֵרוֹ שֶׁל חֶנְוָנִי וְהִדְלִיק אֶת הַבִּירָה, בַּעַל הַגָּמָל חַיָּב. הִנִּיחַ חֶנְוָנִי נֵרוֹ מִבַּחוּץ, הַחֶנְוָנִי חַיָּב. רַבִּי יְהוּדָה אוֹמֵר, בְּנֵר חֲנֻכָּה פָּטוּר:

מְרֻבָּה מִדַּת תַּשְׁלוּמֵי כֶפֶל מִמִּדַּת תַּשְׁלוּמֵי אַרְבָּעָה וַחֲמִשָּׁה, שֶׁמִּדַּת תַּשְׁלוּמֵי כֶפֶל נוֹהֶגֶת בֵּין בְּדָבָר שֶׁיֶּשׁ בּוֹ רוּחַ חַיִּים וּבֵין בְּדָבָר שֶׁאֵין בּוֹ רוּחַ חַיִּים, וּמִדַּת תַּשְׁלוּמֵי אַרְבָּעָה וַחֲמִשָּׁה אֵינָהּ נוֹהֶגֶת אֶלָּא בְּשׁוֹר וָשֶׂה בִּלְבַד, שֶׁנֶּאֱמַר (שמות כא) כִּי יִגְנֹב אִישׁ שׁוֹר אוֹ שֶׂה וּטְבָחוֹ אוֹ מְכָרוֹ וְגוֹ'. אֵין הַגּוֹנֵב אַחַר הַגַּנָּב מְשַׁלֵּם תַּשְׁלוּמֵי כֶפֶל, וְלֹא הַטּוֹבֵחַ וְלֹא הַמּוֹכֵר אַחַר הַגַּנָּב מְשַׁלֵּם תַּשְׁלוּמֵי אַרְבָּעָה וַחֲמִשָּׁה:
גָּנַב עַל פִּי שְׁנַיִם, וְטָבַח וּמָכַר עַל פִּיהֶם אוֹ עַל פִּי שְׁנַיִם אֲחֵרִים, מְשַׁלֵּם תַּשְׁלוּמֵי אַרְבָּעָה וַחֲמִשָּׁה. גָּנַב וּמָכַר בְּשַׁבָּת, גָּנַב וּמָכַר לַעֲבוֹדָה זָרָה, גָּנַב וְטָבַח בְּיוֹם הַכִּפּוּרִים, גָּנַב מִשֶּׁל אָבִיו וְטָבַח וּמָכַר וְאַחַר כָּךְ מֵת אָבִיו, גָּנַב וְטָבַח וְאַחַר כָּךְ הִקְדִּישׁ, מְשַׁלֵּם תַּשְׁלוּמֵי אַרְבָּעָה וַחֲמִשָּׁה. גָּנַב וְטָבַח לִרְפוּאָה אוֹ לִכְלָבִים, הַשּׁוֹחֵט וְנִמְצָא טְרֵפָה, הַשּׁוֹחֵט חֻלִּין בָּעֲזָרָה, מְשַׁלֵּם תַּשְׁלוּמֵי אַרְבָּעָה וַחֲמִשָּׁה. רַבִּי שִׁמְעוֹן פּוֹטֵר בִּשְׁנֵי אֵלּוּ:
גָּנַב עַל פִּי שְׁנַיִם וְטָבַח וּמָכַר עַל פִּיהֶם, וְנִמְצְאוּ זוֹמְמִין, מְשַׁלְּמִין הַכֹּל. גָּנַב עַל פִּי שְׁנַיִם וְטָבַח וּמָכַר עַל פִּי שְׁנַיִם אֲחֵרִים, אֵלּוּ וְאֵלּוּ נִמְצְאוּ זוֹמְמִין, הָרִאשׁוֹנִים מְשַׁלְּמִים תַּשְׁלוּמֵי כֶפֶל, וְהָאַחֲרוֹנִים מְשַׁלְּמִין תַּשְׁלוּמֵי שְׁלֹשָׁה. נִמְצְאוּ אַחֲרוֹנִים זוֹמְמִין, הוּא מְשַׁלֵּם תַּשְׁלוּמֵי כֶפֶל, וְהֵן מְשַׁלְּמִין תַּשְׁלוּמֵי שְׁלֹשָׁה. אֶחָד מִן הָאַחֲרוֹנִים זוֹמֵם, בָּטְלָה עֵדוּת שְׁנִיָּה. אֶחָד מִן הָרִאשׁוֹנִים זוֹמֵם, בָּטְלָה כָּל הָעֵדוּת, שֶׁאִם אֵין גְּנֵיבָה אֵין טְבִיחָה וְאֵין מְכִירָה:
גָּנַב עַל פִּי שְׁנַיִם, וְטָבַח וּמָכַר עַל פִּי עֵד אֶחָד, אוֹ עַל פִּי עַצְמוֹ, מְשַׁלֵּם תַּשְׁלוּמֵי כֶפֶל, וְאֵינוֹ מְשַׁלֵּם תַּשְׁלוּמֵי אַרְבָּעָה וַחֲמִשָּׁה. גָּנַב וְטָבַח בְּשַׁבָּת, גָּנַב וְטָבַח לַעֲבוֹדָה זָרָה, גָּנַב מִשֶּׁל אָבִיו, וּמֵת אָבִיו, וְאַחַר כָּךְ טָבַח וּמָכַר, גָּנַב וְהִקְדִּישׁ וְאַחַר כָּךְ טָבַח וּמָכַר, מְשַׁלֵּם תַּשְׁלוּמֵי כֶפֶל וְאֵינוֹ מְשַׁלֵּם תַּשְׁלוּמֵי אַרְבָּעָה וַחֲמִשָּׁה. רַבִּי שִׁמְעוֹן אוֹמֵר, קָדָשִׁים שֶׁחַיָּב בְּאַחֲרָיוּתָם, מְשַׁלֵּם תַּשְׁלוּמֵי אַרְבָּעָה וַחֲמִשָּׁה. שֶׁאֵין חַיָּב בְּאַחֲרָיוּתָם, פָּטוּר:
מְכָרוֹ חוּץ מֵאֶחָד מִמֵּאָה שֶׁבּוֹ, אוֹ שֶׁהָיְתָה לוֹ בוֹ שֻׁתָּפוּת, הַשּׁוֹחֵט וְנִתְנַבְּלָה בְיָדוֹ, הַנּוֹחֵר, וְהַמְעַקֵּר, מְשַׁלֵּם תַּשְׁלוּמֵי כֶפֶל וְאֵינוֹ מְשַׁלֵּם תַּשְׁלוּמֵי אַרְבָּעָה וַחֲמִשָּׁה. גָּנַב בִּרְשׁוּת הַבְּעָלִים וְטָבַח וּמָכַר חוּץ מֵרְשׁוּתָם, אוֹ שֶׁגָּנַב חוּץ מֵרְשׁוּתָם וְטָבַח וּמָכַר בִּרְשׁוּתָם, אוֹ שֶׁגָּנַב וְטָבַח וּמָכַר חוּץ מֵרְשׁוּתָם, מְשַׁלֵּם תַּשְׁלוּמֵי אַרְבָּעָה וַחֲמִשָּׁה. אֲבָל גָּנַב וְטָבַח וּמָכַר בִּרְשׁוּתָם, פָּטוּר:
הָיָה מוֹשְׁכוֹ וְיוֹצֵא, וּמֵת בִּרְשׁוּת הַבְּעָלִים, פָּטוּר. הִגְבִּיהוֹ אוֹ שֶׁהוֹצִיאוֹ מֵרְשׁוּת הַבְּעָלִים, וּמֵת, חַיָּב. נְתָנוֹ לִבְכוֹרוֹת בְּנוֹ אוֹ לְבַעַל חוֹבוֹ, לְשׁוֹמֵר חִנָּם, וּלְשׁוֹאֵל, לְנוֹשֵׂא שָׂכָר, וּלְשׂוֹכֵר, וְהָיָה מוֹשְׁכוֹ, וּמֵת בִּרְשׁוּת הַבְּעָלִים, פָּטוּר. הִגְבִּיהוֹ אוֹ שֶׁהוֹצִיאוֹ מֵרְשׁוּת הַבְּעָלִים, וּמֵת, חַיָּב:
אֵין מְגַדְּלִין בְּהֵמָה דַּקָּה בְּאֶרֶץ יִשְׂרָאֵל, אֲבָל מְגַדְּלִין בְּסוּרְיָא, וּבַמִּדְבָּרוֹת שֶׁבְּאֶרֶץ יִשְׂרָאֵל. אֵין מְגַדְּלִין תַּרְנְגוֹלִים בִּירוּשָׁלַיִם, מִפְּנֵי הַקָּדָשִׁים, וְלֹא כֹהֲנִים בְּאֶרֶץ יִשְׂרָאֵל, מִפְּנֵי הַטָּהֳרוֹת. אֵין מְגַדְּלִין חֲזִירִים בְּכָל מָקוֹם. לֹא יְגַדֵּל אָדָם אֶת הַכֶּלֶב, אֶלָּא אִם כֵּן הָיָה קָשׁוּר בְּשַׁלְשֶׁלֶת. אֵין פּוֹרְסִין נִשְׁבִּים לַיּוֹנִים. אֶלָּא אִם כֵּן הָיָה רָחוֹק מִן הַיִּשׁוּב שְׁלֹשִׁים רִיס:

הַחוֹבֵל בַּחֲבֵרוֹ חַיָּב עָלָיו מִשּׁוּם חֲמִשָּׁה דְבָרִים, בְּנֶזֶק, בְּצַעַר, בְּרִפּוּי, בְּשֶׁבֶת, וּבְבֹשֶׁת. בְּנֶזֶק כֵּיצַד. סִמָּא אֶת עֵינוֹ, קָטַע אֶת יָדוֹ, שִׁבֵּר אֶת רַגְלוֹ, רוֹאִין אוֹתוֹ כְּאִלּוּ הוּא עֶבֶד נִמְכָּר בַּשּׁוּק וְשָׁמִין כַּמָּה הָיָה יָפֶה וְכַמָּה הוּא יָפֶה. צַעַר, כְּוָאוֹ בְשַׁפּוּד אוֹ בְמַסְמֵר, וַאֲפִלּוּ עַל צִפָּרְנוֹ, מְקוֹם שֶׁאֵינוֹ עוֹשֶׂה חַבּוּרָה, אוֹמְדִין כַּמָּה אָדָם כַּיּוֹצֵא בָזֶה רוֹצֶה לִטֹּל לִהְיוֹת מִצְטַעֵר כָּךְ. רִפּוּי, הִכָּהוּ חַיָּב לְרַפְּאֹתוֹ. עָלוּ בוֹ צְמָחִים, אִם מֵחֲמַת הַמַּכָּה, חַיָּב. שֶׁלֹּא מֵחֲמַת הַמַּכָּה, פָּטוּר. חָיְתָה וְנִסְתְּרָה, חָיְתָה וְנִסְתְּרָה, חַיָּב לְרַפְּאֹתוֹ. חָיְתָה כָל צָרְכָּהּ, אֵינוֹ חַיָּב לְרַפְּאֹתוֹ. שֶׁבֶת, רוֹאִין אוֹתוֹ כְּאִלוּ הוּא שׁוֹמֵר קִשּׁוּאִין, שֶׁכְּבָר נָתַן לוֹ דְמֵי יָדוֹ וּדְמֵי רַגְלוֹ. בֹּשֶׁת, הַכֹּל לְפִי הַמְבַיֵּשׁ וְהַמִּתְבַּיֵּשׁ. הַמְבַיֵּשׁ אֶת הֶעָרֹם, הַמְבַיֵּשׁ אֶת הַסּוּמָא, וְהַמְבַיֵּשׁ אֶת הַיָּשֵׁן, חַיָּב. וְיָשֵׁן שֶׁבִּיֵּשׁ, פָּטוּר. נָפַל מִן הַגָּג, וְהִזִּיק וּבִיֵּשׁ, חַיָּב עַל הַנֶּזֶק וּפָטוּר עַל הַבֹּשֶׁת, שֶׁנֶּאֱמַר (דברים כה) וְשָׁלְחָה יָדָהּ וְהֶחֱזִיקָה בִּמְבֻשָׁיו, אֵינוֹ חַיָּב עַל הַבֹּשֶׁת עַד שֶׁיְהֵא מִתְכַּוֵּן:
זֶה חֹמֶר בָּאָדָם מִבַּשּׁוֹר, שֶׁהָאָדָם מְשַׁלֵּם נֶזֶק, צַעַר, רִפּוּי, שֶׁבֶת, וּבֹשֶׁת, וּמְשַׁלֵּם דְּמֵי וְלָדוֹת, וְשׁוֹר אֵינוֹ מְשַׁלֵּם אֶלָּא נֶזֶק, וּפָטוּר מִדְּמֵי וְלָדוֹת:
הַמַּכֶּה אֶת אָבִיו וְאֶת אִמּוֹ וְלֹא עָשָׂה בָהֶם חַבּוּרָה, וְחוֹבֵל בַּחֲבֵרוֹ בְּיוֹם הַכִּפּוּרִים, חַיָּב בְּכֻלָּן. הַחוֹבֵל בְּעֶבֶד עִבְרִי, חַיָּב בְּכֻלָּן חוּץ מִן הַשֶּׁבֶת, בִּזְמַן שֶׁהוּא שֶׁלּוֹ. הַחוֹבֵל בְּעֶבֶד כְּנַעֲנִי שֶׁל אֲחֵרִים, חַיָּב בְּכֻלָּן. רַבִּי יְהוּדָה אוֹמֵר, אֵין לָעֲבָדִים בֹּשֶׁת:
חֵרֵשׁ, שׁוֹטֶה וְקָטָן, פְּגִיעָתָן רָעָה. הַחוֹבֵל בָּהֶן חַיָּב, וְהֵם שֶׁחָבְלוּ בַּאֲחֵרִים פְּטוּרִין. הָעֶבֶד וְהָאִשָּׁה, פְּגִיעָתָן רָעָה. הַחוֹבֵל בָּהֶן חַיָּב, וְהֵם שֶׁחָבְלוּ בָּאֲחֵרִים, פְּטוּרִין, אֲבָל מְשַׁלְּמִין לְאַחַר זְמָן. נִתְגָּרְשָׁה הָאִשָּׁה, נִשְׁתַּחְרֵר הָעֶבֶד, חַיָּבִין לְשַׁלֵּם:
הַמַּכֶּה אָבִיו וְאִמּוֹ וְעָשָׂה בָהֶן חַבּוּרָה, וְהַחוֹבֵל בַּחֲבֵרוֹ בְּשַׁבָּת, פָּטוּר מִכֻּלָּן, מִפְּנֵי שֶׁהוּא נִדּוֹן בְּנַפְשׁוֹ. וְהַחוֹבֵל בְּעֶבֶד כְּנַעֲנִי שֶׁלּוֹ, פָּטוּר מִכֻּלָּן:
הַתּוֹקֵעַ לַחֲבֵרוֹ, נוֹתֵן לוֹ סֶלַע. רַבִּי יְהוּדָה אוֹמֵר מִשּׁוּם רַבִּי יוֹסֵי הַגְּלִילִי, מָנֶה. סְטָרוֹ, נוֹתֵן לוֹ מָאתַיִם זוּז. לְאַחַר יָדוֹ, נוֹתֵן לוֹ אַרְבַּע מֵאוֹת זוּז. צָרַם בְּאָזְנוֹ, תָּלַשׁ בִּשְׂעָרוֹ, רָקַק וְהִגִּיעַ בּוֹ רֻקּוֹ, הֶעֱבִיר טַלִּיתוֹ מִמֶּנּוּ, פָּרַע רֹאשׁ הָאִשָּׁה בַּשּׁוּק, נוֹתֵן אַרְבַּע מֵאוֹת זוּז. זֶה הַכְּלָל הַכֹּל לְפִי כְבוֹדוֹ. אָמַר רַבִּי עֲקִיבָא, אֲפִילוּ עֲנִיִּים שֶׁבְּיִשְׂרָאֵל, רוֹאִין אוֹתָם כְּאִלּוּ הֵם בְּנֵי חוֹרִין שֶׁיָּרְדוּ מִנִּכְסֵיהֶם, שֶׁהֵם בְּנֵי אַבְרָהָם, יִצְחָק וְיַעֲקֹב. וּמַעֲשֶׂה בְּאֶחָד שֶׁפָּרַע רֹאשׁ הָאִשָּׁה בַּשּׁוּק, בָּאת לִפְנֵי רַבִּי עֲקִיבָא, וְחִיְּבוֹ לִתֵּן לָהּ אַרְבַּע מֵאוֹת זוּז. אָמַר לוֹ רַבִּי, תֶּן לִי זְמַן. וְנָתַן לוֹ זְמַן. שְׁמָרָהּ עוֹמֶדֶת עַל פֶּתַח חֲצֵרָהּ וְשָׁבַר אֶת הַכַּד בְּפָנֶיהָ, וּבוֹ כְּאִסָּר שֶׁמֶן. גִּלְּתָה אֶת רֹאשָׁהּ, וְהָיְתָה מְטַפַּחַת וּמַנַּחַת יָדָהּ עַל רֹאשָׁהּ. הֶעֱמִיד עָלֶיהָ עֵדִים, וּבָא לִפְנֵי רַבִּי עֲקִיבָא. אָמַר לוֹ, רַבִּי, לָזוֹ אֲנִי נוֹתֵן אַרְבַּע מֵאוֹת זוּז. אָמַר לוֹ, לֹא אָמַרְתָּ כְּלוּם. הַחוֹבֵל בְּעַצְמוֹ, אַף עַל פִּי שֶׁאֵינוֹ רַשַּׁאי, פָּטוּר. אֲחֵרִים שֶׁחָבְלוּ בּוֹ, חַיָּבִין. וְהַקּוֹצֵץ נְטִיעוֹתָיו, אַף עַל פִּי שֶׁאֵינוֹ רַשַּׁאי, פָּטוּר. אֲחֵרִים שֶׁקָּצְצוּ אֶת נְטִיעוֹתָיו, חַיָּבִים:
אַף עַל פִּי שֶׁהוּא נוֹתֵן לוֹ, אֵין נִמְחָל לוֹ עַד שֶׁיְּבַקֵּשׁ מִמֶּנּוּ, שֶׁנֶּאֱמַר (בראשית כ) וְעַתָּה הָשֵׁב אֵשֶׁת וְגוֹ'. וּמִנַּיִן שֶׁלֹּא יְהֵא הַמּוֹחֵל אַכְזָרִי, שֶׁנֶּאֱמַר (שם) וַיִּתְפַּלֵּל אַבְרָהָם אֶל הָאֱלֹהִים וַיִּרְפָּא אֱלֹהִים אֶת אֲבִימֶלֶךְ וְגוֹ'. הָאוֹמֵר סַמֵּא אֶת עֵינִי, קְטַע אֶת יָדִי, שְׁבֹר אֶת רַגְלִי, חַיָּב. עַל מְנָת לִפְטֹר, חַיָּב. קְרַע אֶת כְּסוּתִי, שְׁבֹר אֶת כַּדִּי, חַיָּב. עַל מְנָת לִפְטֹר, פָּטוּר. עֲשֵׂה כֵן לְאִישׁ פְּלוֹנִי, עַל מְנָת לִפְטֹר, חַיָּב, בֵּין בְּגוּפוֹ בֵּין בְּמָמוֹנוֹ:

הַגּוֹזֵל עֵצִים, וַעֲשָׂאָן כֵּלִים, צֶמֶר, וַעֲשָׂאָן בְּגָדִים, מְשַׁלֵּם כִּשְׁעַת הַגְּזֵלָה. גָּזַל פָּרָה מְעֻבֶּרֶת, וְיָלְדָה, רָחֵל טְעוּנָה, וּגְזָזָהּ, מְשַׁלֵּם דְּמֵי פָרָה הָעוֹמֶדֶת לֵילֵד, דְּמֵי רָחֵל הָעוֹמֶדֶת לִגָּזֵז. גָּזַל פָּרָה, וְנִתְעַבְּרָה אֶצְלוֹ וְיָלְדָה, רָחֵל, וְנִטְעֲנָה אֶצְלוֹ וּגְזָזָהּ, מְשַׁלֵּם כִּשְׁעַת הַגְּזֵלָה. זֶה הַכְּלָל, כָּל הַגַּזְלָנִים מְשַׁלְּמִין כִּשְׁעַת הַגְּזֵלָה:
גָּזַל בְּהֵמָה וְהִזְקִינָה, עֲבָדִים וְהִזְקִינוּ, מְשַׁלֵּם כִּשְׁעַת הַגְּזֵלָה. רַבִּי מֵאִיר אוֹמֵר, בַּעֲבָדִים אוֹמֵר לוֹ, הֲרֵי שֶׁלְּךָ לְפָנֶיךָ. גָּזַל מַטְבֵּעַ וְנִסְדַּק, פֵּרוֹת וְהִרְקִיבוּ, יַיִן וְהֶחְמִיץ, מְשַׁלֵּם כִּשְׁעַת הַגְּזֵלָה. מַטְבֵּעַ וְנִפְסַל, תְּרוּמָה וְנִטְמֵאת, חָמֵץ וְעָבַר עָלָיו הַפֶּסַח, בְּהֵמָה וְנֶעֶבְדָה בָהּ עֲבֵרָה, אוֹ שֶׁנִּפְסְלָה מֵעַל גַּבֵּי הַמִּזְבֵּחַ, אוֹ שֶׁהָיְתָה יוֹצֵאת לִסָּקֵל, אוֹמֵר לוֹ, הֲרֵי שֶׁלְּךָ לְפָנֶיךָ:
נָתַן לְאֻמָּנִין לְתַקֵּן, וְקִלְקְלוּ, חַיָּבִין לְשַׁלֵּם. נָתַן לְחָרָשׁ שִׁדָּה, תֵּבָה וּמִגְדָּל לְתַקֵּן, וְקִלְקֵל, חַיָּב לְשַׁלֵּם. וְהַבַּנַּאי שֶׁקִּבֵּל עָלָיו לִסְתֹּר אֶת הַכֹּתֶל, וְשִׁבֵּר אֶת הָאֲבָנִים אוֹ שֶׁהִזִּיק, חַיָּב לְשַׁלֵּם. הָיָה סוֹתֵר מִצַּד זֶה וְנָפַל מִצַּד אַחֵר, פָּטוּר. וְאִם מֵחֲמַת הַמַּכָּה, חַיָּב:
הַנּוֹתֵן צֶמֶר לְצַבָּע, וְהִקְדִּיחָתוֹ יוֹרָה, נוֹתֵן לוֹ דְּמֵי צַמְרוֹ. צְבָעוֹ כָאוּר, אִם הַשֶּׁבַח יוֹתֵר עַל הַיְצִיאָה, נוֹתֵן לוֹ אֶת הַיְצִיאָה, וְאִם הַיְצִיאָה יְתֵרָה עַל הַשֶּׁבַח, נוֹתֵן לוֹ אֶת הַשֶּׁבַח. לִצְבֹּעַ לוֹ אָדֹם, וּצְבָעוֹ שָׁחֹר, שָׁחֹר, וּצְבָעוֹ אָדֹם, רַבִּי מֵאִיר אוֹמֵר, נוֹתֵן לוֹ דְּמֵי צַמְרוֹ. רַבִּי יְהוּדָה אוֹמֵר, אִם הַשֶּׁבַח יָתֵר עַל הַיְצִיאָה, נוֹתֵן לוֹ אֶת הַיְצִיאָה, וְאִם הַיְצִיאָה יְתֵרָה עַל הַשֶּׁבַח, נוֹתֵן לוֹ אֶת הַשֶּׁבַח:
הַגּוֹזֵל אֶת חֲבֵרוֹ שָׁוֶה פְרוּטָה, וְנִשְׁבַּע לוֹ, יוֹלִיכֶנּוּ אַחֲרָיו אֲפִלּוּ לְמָדַי. לֹא יִתֵּן לֹא לִבְנוֹ וְלֹא לִשְׁלוּחוֹ, אֲבָל נוֹתֵן לִשְׁלִיחַ בֵּית דִּין. וְאִם מֵת, יַחֲזִיר לְיוֹרְשָׁיו:
נָתַן לוֹ אֶת הַקֶּרֶן וְלֹא נָתַן לוֹ אֶת הַחֹמֶשׁ, מָחַל לוֹ עַל הַקֶּרֶן וְלֹא מָחַל לוֹ עַל הַחֹמֶשׁ, מָחַל לוֹ עַל זֶה וְעַל זֶה חוּץ מִפָּחוֹת מִשָּׁוֶה פְרוּטָה בַקֶּרֶן, אֵינוֹ צָרִיךְ לֵילֵךְ אַחֲרָיו. נָתַן לוֹ אֶת הַחֹמֶשׁ וְלֹא נָתַן לוֹ אֶת הַקֶּרֶן, מָחַל לוֹ עַל הַחֹמֶשׁ וְלֹא מָחַל לוֹ עַל הַקֶּרֶן, מָחַל לוֹ עַל זֶה וְעַל זֶה חוּץ מִשָּׁוֶה פְרוּטָה בַקֶּרֶן, צָרִיךְ לֵילֵךְ אַחֲרָיו:
נָתַן לוֹ אֶת הַקֶּרֶן וְנִשְׁבַּע לוֹ עַל הַחֹמֶשׁ, הֲרֵי זֶה מְשַׁלֵּם חֹמֶשׁ עַל חֹמֶשׁ, עַד שֶׁיִּתְמַעֵט הַקֶּרֶן פָּחוֹת מִשָּׁוֶה פְרוּטָה. וְכֵן בְּפִקָּדוֹן, שֶׁנֶּאֱמַר (ויקרא ה) בְּפִקָּדוֹן אוֹ בִתְשׂוּמֶת יָד אוֹ בְגָזֵל אוֹ עָשַׁק אֶת עֲמִיתוֹ אוֹ מָצָא אֲבֵדָה וְכִחֶשׁ בָּהּ וְנִשְׁבַּע עַל שָׁקֶר, הֲרֵי זֶה מְשַׁלֵּם קֶרֶן וָחֹמֶשׁ וְאָשָׁם. הֵיכָן פִּקְדוֹנִי, אָמַר לוֹ אָבָד, מַשְׁבִּיעֲךָ אָנִי, וְאָמַר אָמֵן, וְהָעֵדִים מְעִידִים אוֹתוֹ שֶׁאֲכָלוֹ, מְשַׁלֵּם קֶרֶן. הוֹדָה מֵעַצְמוֹ, מְשַׁלֵּם קֶרֶן וָחֹמֶשׁ וְאָשָׁם:
הֵיכָן פִּקְדוֹנִי, אָמַר לוֹ נִגְנָב, מַשְׁבִּיעֲךָ אָנִי, וְאָמַר אָמֵן, וְהָעֵדִים מְעִידִין אוֹתוֹ שֶׁגְּנָבוֹ, מְשַׁלֵּם תַּשְׁלוּמֵי כֶפֶל. הוֹדָה מֵעַצְמוֹ, מְשַׁלֵּם קֶרֶן וָחֹמֶשׁ וְאָשָׁם:
הַגּוֹזֵל אֶת אָבִיו, וְנִשְׁבַּע לוֹ, וּמֵת, הֲרֵי זֶה מְשַׁלֵּם קֶרֶן וָחֹמֶשׁ לְבָנָיו אוֹ לְאֶחָיו. וְאִם אֵינוֹ רוֹצֶה, אוֹ שֶׁאֵין לוֹ, לֹוֶה וּבַעֲלֵי חוֹב בָּאִים וְנִפְרָעִים:
הָאוֹמֵר לִבְנוֹ, קוֹנָם אִי אַתָּה נֶהֱנֶה מִשֶּׁלִּי, אִם מֵת, יִירָשֶׁנּוּ. בְּחַיָּיו וּבְמוֹתוֹ, אִם מֵת, לֹא יִירָשֶׁנּוּ, וְיַחֲזִיר לְבָנָיו אוֹ לְאֶחָיו. וְאִם אֵין לוֹ, לֹוֶה, וּבַעֲלֵי חוֹב בָּאִים וְנִפְרָעִים:
הַגּוֹזֵל אֶת הַגֵּר וְנִשְׁבַּע לוֹ, וּמֵת, הֲרֵי זֶה מְשַׁלֵּם קֶרֶן וָחֹמֶשׁ לַכֹּהֲנִים וְאָשָׁם לַמִּזְבֵּחַ, שֶׁנֶּאֱמַר (במדבר ה) וְאִם אֵין לָאִישׁ גֹּאֵל לְהָשִׁיב הָאָשָׁם אֵלָיו, הָאָשָׁם הַמּוּשָׁב לַה' לַכֹּהֵן, מִלְּבַד אֵיל הַכִּפֻּרִים אֲשֶׁר יְכַפֶּר בּוֹ עָלָיו. הָיָה מַעֲלֶה אֶת הַכֶּסֶף וְאֶת הָאָשָׁם, וּמֵת, הַכֶּסֶף יִנָּתֵן לְבָנָיו, וְהָאָשָׁם יִרְעֶה עַד שֶׁיִּסְתָּאֵב, וְיִמָּכֵר וְיִפְּלוּ דָמָיו לִנְדָבָה:
נָתַן הַכֶּסֶף לְאַנְשֵׁי מִשְׁמָר, וּמֵת, אֵין הַיּוֹרְשִׁים יְכוֹלִין לְהוֹצִיא מִיָּדָם, שֶׁנֶּאֱמַר (שם) אִישׁ אֲשֶׁר יִתֵּן לַכֹּהֵן לוֹ יִהְיֶה. נָתַן הַכֶּסֶף לִיהוֹיָרִיב וְאָשָׁם לִידַעְיָה, יָצָא. אָשָׁם לִיהוֹיָרִיב וְכֶסֶף לִידַעְיָה, אִם קַיָּם הָאָשָׁם, יַקְרִיבוּהוּ בְנֵי יְדַעְיָה, וְאִם לֹא, יַחֲזִיר וְיָבִיא אָשָׁם אַחֵר, שֶׁהַמֵּבִיא גְזֵלוֹ עַד שֶׁלֹּא הֵבִיא אֲשָׁמוֹ, יָצָא. הֵבִיא אֲשָׁמוֹ עַד שֶׁלֹּא הֵבִיא גְזֵלוֹ, לֹא יָצָא. נָתַן אֶת הַקֶּרֶן וְלֹא נָתַן אֶת הַחֹמֶשׁ, אֵין הַחֹמֶשׁ מְעַכֵּב:

הַגּוֹזֵל וּמַאֲכִיל אֶת בָּנָיו, וְהִנִּיחַ לִפְנֵיהֶם, פְּטוּרִין מִלְּשַׁלֵּם. וְאִם הָיָה דָבָר שֶׁיֶּשׁ בּוֹ אַחֲרָיוּת, חַיָּבִין לְשַׁלֵּם. אֵין פּוֹרְטִין לֹא מִתֵּבַת הַמּוֹכְסִין, וְלֹא מִכִּיס שֶׁל גַּבָּאִין, וְאֵין נוֹטְלִין מֵהֶם צְדָקָה. אֲבָל נוֹטֵל הוּא מִתּוֹךְ בֵּיתוֹ אוֹ מִן הַשּׁוּק:
נָטְלוּ מוֹכְסִין אֶת חֲמוֹרוֹ וְנָתְנוּ לוֹ חֲמוֹר אַחֵר, גָּזְלוּ לִסְטִים אֶת כְּסוּתוֹ וְנָתְנוּ לוֹ כְסוּת אַחֶרֶת, הֲרֵי אֵלּוּ שֶׁלּוֹ, מִפְּנֵי שֶׁהַבְּעָלִים מִתְיָאֲשִׁין מֵהֶן. הַמַּצִּיל מִן הַנָּהָר אוֹ מִן הַגַּיִס אוֹ מִן הַלִּסְטִים, אִם נִתְיָאֲשׁוּ הַבְּעָלִים, הֲרֵי אֵלּוּ שֶׁלּוֹ. וְכֵן נָחִיל שֶׁל דְּבוֹרִים, אִם נִתְיָאֲשׁוּ הַבְּעָלִים, הֲרֵי אֵלּוּ שֶׁלּוֹ. אָמַר רַבִּי יוֹחָנָן בֶּן בְּרוֹקָה, נֶאֱמֶנֶת אִשָּׁה אוֹ קָטָן לוֹמַר, מִכָּאן יָצָא נָחִיל זֶה. וּמְהַלֵּךְ בְּתוֹךְ שְׂדֵה חֲבֵרוֹ לְהַצִּיל אֶת נְחִילוֹ. וְאִם הִזִּיק, מְשַׁלֵּם מַה שֶּׁהִזִּיק. אֲבָל לֹא יָקֹץ אֶת סוֹכוֹ עַל מְנָת לִתֵּן אֶת הַדָּמִים. רַבִּי יִשְׁמָעֵאל בְּנוֹ שֶׁל רַבִּי יוֹחָנָן בֶּן בְּרוֹקָה אוֹמֵר, אַף קוֹצֵץ וְנוֹתֵן אֶת הַדָּמִים:
הַמַּכִּיר כֵּלָיו וּסְפָרָיו בְּיַד אַחֵר, וְיָצָא לוֹ שֵׁם גְּנֵבָה בָּעִיר, יִשָּׁבַע לוֹ לוֹקֵחַ כַּמָּה נָתַן, וְיִטֹּל. וְאִם לָאו, לֹא כֹּל הֵימֶנּוּ, שֶׁאֲנִי אוֹמֵר מְכָרָן לְאַחֵר וּלְקָחָן זֶה הֵימֶנּוּ:
זֶה בָּא בְחָבִיתוֹ שֶׁל יַיִן וְזֶה בָּא בְכַדּוֹ שֶׁל דְּבַשׁ. נִסְדְּקָה חָבִית שֶׁל דְּבַשׁ, וְשָׁפַךְ זֶה אֶת יֵינוֹ וְהִצִּיל אֶת הַדְּבַשׁ לְתוֹכוֹ, אֵין לוֹ אֶלָּא שְׂכָרוֹ. וְאִם אָמַר, אַצִּיל אֶת שֶׁלְּךָ וְאַתָּה נוֹתֵן לִי דְּמֵי שֶׁלִּי, חַיָּב לִתֵּן לוֹ. שָׁטַף נָהָר חֲמוֹרוֹ וַחֲמוֹר חֲבֵרוֹ, שֶׁלּוֹ יָפֶה מָנֶה וְשֶׁל חֲבֵרוֹ מָאתַיִם, הִנִּיחַ זֶה אֶת שֶׁלּוֹ וְהִצִּיל אֶת שֶׁל חֲבֵרוֹ, אֵין לוֹ אֶלָּא שְׂכָרוֹ. וְאִם אָמַר לוֹ, אֲנִי אַצִּיל אֶת שֶׁלְּךָ וְאַתָּה נוֹתֵן לִי אֶת שֶׁלִּי, חַיָּב לִתֵּן לוֹ:
הַגּוֹזֵל שָׂדֶה מֵחֲבֵרוֹ וּנְטָלוּהוּ מְסִיקִין, אִם מַכַּת מְדִינָה הִיא, אוֹמֵר לוֹ הֲרֵי שֶׁלְּךָ לְפָנֶיךָ, וְאִם מֵחֲמַת הַגַּזְלָן, חַיָּב לְהַעֲמִיד לוֹ שָׂדֶה אַחֶרֶת. שְׁטָפָהּ נָהָר, אוֹמֵר לוֹ, הֲרֵי שֶׁלְּךָ לְפָנֶיךָ:
הַגּוֹזֵל אֶת חֲבֵרוֹ, אוֹ שֶׁלָּוָה הֵימֶנּוּ, אוֹ שֶׁהִפְקִיד לוֹ. בַּיִּשּׁוּב, לֹא יַחֲזִיר לוֹ בַמִּדְבָּר. עַל מְנָת לָצֵאת בַּמִּדְבָּר, יַחֲזִיר לוֹ בַמִּדְבָּר:
הָאוֹמֵר לַחֲבֵרוֹ, גְּזַלְתִּיךָ, הִלְוִיתַנִי, הִפְקַדְתָּ אֶצְלִי, וְאֵינִי יוֹדֵעַ אִם הֶחֱזַרְתִּי לְךָ אִם לֹא הֶחֱזַרְתִּי לְךָ, חַיָּב לְשַׁלֵּם. אֲבָל אִם אָמַר לוֹ, אֵינִי יוֹדֵעַ אִם גְּזַלְתִּיךָ, אִם הִלְוִיתַנִי, אִם הִפְקַדְתָּ אֶצְלִי, פָּטוּר מִלְּשַׁלֵּם:
הַגּוֹנֵב טָלֶה מִן הָעֵדֶר וְהֶחֱזִירוֹ, וּמֵת אוֹ נִגְנַב, חַיָּב בְּאַחֲרָיוּתוֹ. לֹא יָדְעוּ בְעָלִים לֹא בִגְנֵבָתוֹ וְלֹא בַחֲזִירָתוֹ, וּמָנוּ אֶת הַצֹּאן וּשְׁלֵמָה הִיא, פָּטוּר:
אֵין לוֹקְחִים מִן הָרוֹעִים צֶמֶר וְחָלָב וּגְדָיִים, וְלֹא מִשּׁוֹמְרֵי פֵרוֹת עֵצִים וּפֵרוֹת. אֲבָל לוֹקְחִין מִן הַנָּשִׁים כְּלֵי צֶמֶר בִּיהוּדָה, וּכְלֵי פִשְׁתָּן בַּגָּלִיל, וַעֲגָלִים בַּשָּׁרוֹן. וְכֻלָּן שֶׁאָמְרוּ לְהַטְמִין, אָסוּר. וְלוֹקְחִין בֵּיצִים וְתַרְנְגוֹלִים מִכָּל מָקוֹם:
מוֹכִין שֶׁהַכּוֹבֵס מוֹצִיא, הֲרֵי אֵלּוּ שֶׁלּוֹ. וְשֶׁהַסּוֹרֵק מוֹצִיא, הֲרֵי אֵלּוּ שֶׁל בַּעַל הַבָּיִת. הַכּוֹבֵס נוֹטֵל שְׁלשָׁה חוּטִין וְהֵן שֶׁלּוֹ. יָתֵר מִכֵּן, הֲרֵי אֵלּוּ שֶׁל בַּעַל הַבָּיִת. אִם הָיָה הַשָּׁחוֹר עַל גַּבֵּי הַלָּבָן, נוֹטֵל אֶת הַכֹּל וְהֵן שֶׁלּוֹ. הַחַיָּט שֶׁשִּׁיֵּר מִן הַחוּט כְּדֵי לִתְפֹּר בּוֹ, וּמַטְלִית שֶׁהִיא שָׁלשׁ עַל שָׁלשׁ, הֲרֵי אֵלּוּ שֶׁל בַּעַל הַבָּיִת. מַה שֶּׁהֶחָרָשׁ מוֹצִיא בַמַּעֲצָד, הֲרֵי אֵלּוּ שֶׁלּוֹ, וּבַכַּשִּׁיל, שֶׁל בַּעַל הַבָּיִת. וְאִם הָיָה עוֹשֶׂה אֵצֶל בַּעַל הַבַּיִת, אַף הַנְּסֹרֶת שֶׁל בַּעַל הַבָּיִת: