וּמַלֵל יְיָ עִם יְהוֹשֻׁעַ לְמֵימָר:
מַלֵיל עִם בְּנֵי יִשְׂרָאֵל לְמֵימַר הָבוּ לְכוֹן יַת קִרְוֵי שֵׁיזָבוּתָא דְמַלֵילִית עִמְכוֹן בִּידָא דְמֹשֶׁה:
לְמֵעֲרוֹק לְתַמָן קָטוֹלָא דְיִקְטוֹל נַפְשָׁא בְּשָׁלוּ בְּלָא מַדְעֵיה וְיֶהֱוְיָן לְכוֹן לְשֵׁזָבָא מִגָאֵל דְמָא:
וְיַעֲרוֹק לַחֲדָא מִקִרְוַיָא הָאִלֵין וִיקוּם בְּמַעֲלָנָא דִתְרַע קַרְתָּא וִימַלֵיל קֳדָם סָבֵי קַרְתָּא הַהִיא יַת פִּתְגָמוֹהִי וִיכַנְשׁוּן יָתֵיהּ לְקַרְתָּא לְוַתְהוֹן וְיִתְּנוּן לֵיהּ אֲתַר וִיתֵיב עִמְהוֹן:
וַאֲרֵי יִרְדוֹף גָאֵל דְמָא בַּתְרוֹהִי וְלָא יִמְסְרוּן יַת קָטוֹלָא בִּידֵיהּ אֲרֵי בְּלָא מַדָעֵיהּ קְטַל יַת חַבְרֵיהּ וְלָא שָׂנֵי הוּא לֵיהּ מֵאִתְמָלֵי וּמִדְקֳדָמוֹהִי:
וִיתֵיב בְּקַרְתָּא הַהִיא עַד דִיקוּם קֳדָם כְנִשְׁתָּא לְדִינָא עַד דִימוּת כַּהֲנָא רַבָּא דִי יְהֵי בְיוֹמַיָא הָאִינוּן בְּכֵן יְתוּב קְטוֹלָא וְיֵיעוֹל לְקַרְתֵּיהּ וּלְבֵיתֵיהּ לְקַרְתָּא דִי עֲרַק מִתַּמָן:
וְזַמִינוּ יַת קֶדֶשׁ בְּגִלִילָא בְּטוּרָא דְבֵית נַפְתָּלִי וְיַת שְׁכֶם בְּטוּרָא דְבֵית אֶפְרָיִם וְיַת קִרְיַת אַרְבַּע הִיא חֶבְרוֹן בְּטוּרָא דְבֵית יְהוּדָה:
וּמֵעִיבְרָא לְיַרְדְנָא דִירִיחוֹ מַדִינְחָא יְהָבוּ יַת בֶּצֶר בְּמַדְבְּרָא בְּמֵישְׁרָא מִשִׁבְטָא דִרְאוּבֵן וְיַת רָאמוֹת בְּגִלְעָד מִשִׁבְטָא דְגָד וְיַת גוֹלָן בְּמַתְנָן מִשִׁבְטָא דִמְנַשֶׁה:
אִלֵין הֲוָאָה קִרְוַיָא דִמְזַמְנָן לְכֹל בְּנֵי יִשְׂרָאֵל וּלְגִיוֹרַיָא דִי יִתְגַיְירוּן בֵּינֵיהוֹן לְמֶעְרָק לְתַמָן כָּל דְיִקְטוֹל נַפְשָׁא בְּשָׁלוּ וְלָא יְמוּת בִּידָא דְגָאֵיל דְמָא עַד דִיקוּם קֳדָם כְּנִשְׁתָּא:
