וַאֲמַר דָוִד הֲאִית בָּא עוֹד דִי אִשְׁתָּאֵר לְבֵית שָׁאוּל וְאַעְבֵיד עִמֵיהּ טִיבוּ בְּדִיל יְהוֹנָתָן:
וּלְבֵית שָׁאוּל עַבְדָא וּשְׁמֵיהּ צִיבָא וּקְרוֹ לֵיהּ לְוַת דָוִד וַאֲמַר מַלְכָּא לֵיהּ הַאַתְּ צִיבָא וַאֲמַר עַבְדָךְ:
וַאֲמַר מַלְכָּא הֲאִית עוֹד גַבְרָא לְבֵית שָׁאוּל וְאַעְבֵּיד עִמֵיהּ טִיבוּ מִן קֳדָם יְיָ וַאֲמַר צִיבָא לְמַלְכָּא עוֹד בְּרָא לִיהוֹנָתָן לָקֵי בְּתַרְתֵּין רַגְלוֹהִי:
וַאֲמַר לֵיהּ מַלְכָּא הֵיכָא הוּא וַאֲמַר צִיבָא לְמַלְכָּא הָא הוּא בֵּית מָכִיר בַּר עַמִיאֵל בְּלוֹ דְבָר:
וּשְׁלַח מַלְכָּא דָוִד וְדַבְרֵיהּ מִבֵּית מְכִיר בַּר עַמִיאֵל מִלוֹ דְבָר:
וַאֲתָא מְפִיבֹשֶׁת בַּר יְהוֹנָתָן בַּר שָׁאוּל לְוַת דָוִד וּנְפַל עַל אַפּוֹהִי וּסְגִיד וַאֲמַר דָוִד מְפִיבֹשֶׁת וַאֲמַר הָא עַבְדָךְ:
וַאֲמַר לֵיהּ דָוִד לָא תִדְחַל אֲרֵי מֶעְבַד אַעְבִּיד עִמָךְ טִיבוּ בְּדִיל יְהוֹנָתָן אֲבוּךְ וְאָתֵיב לָךְ יַת כָּל אַחֲסָנַת שָׁאוּל אֲבוּךְ וְאַתְּ תֵּיכוּל לַחְמָא עַל פְּתוֹרִי תְּדִירָא:
וּסְגִיד וַאֲמַר מָה עַבְדָךְ אֲרֵי אִתְפְּנִיתָא עַל גְבַר הֶדְיוֹט דִכְוָתִי:
וּקְרָא מַלְכָּא לְצִיבָא עוּלֵימָא דְשָׁאוּל וַאֲמַר לֵיהּ כָּל דַהֲוָה לְשָׁאוּל וּלְכָל בֵּיתֵיהּ יְהָבִית לְבַר רִבּוֹנָךְ:
וְתִפְלַח לֵיהּ יַת אַרְעָא אַתְּ וּבְנָךְ וְעַבְדָיִךְ וְתֵיעוּל וִיהֵי לְבַר רִבּוֹנָךְ מָזוֹן וְיִתְפַּרְנֵס וּמְפִיבֹשֶׁת בַר רִבּוֹנָךְ אָכֵיל תְּדִירָא לַחְמָא עַל פְּתוֹרִי וּלְצִיבָא חַמְשַׁת עֲסַר בְּנִין וְעַסְרִין עַבְדִין:
וַאֲמַר צִיבָא לְמַלְכָּא כְּכֹל דִי פַקֵיד רִבּוֹנִי מַלְכָּא יַת עַבְדֵיהּ כֵּן יַעְבֵּד עַבְדָךְ וּמְפִיבֹשֶׁת אָכַל עַל פְּתוֹרִי כְּחַד מִבְּנֵי מַלְכָּא:
וְלִמְפִיבֹשֶׁת בָּרָא זְעֵירָא וּשְׁמֵיהּ מִיכָה וְכֹל מוֹתַב בֵּית צִיבָא עַבְדִין לִמְפִיבֹשֶׁת:
וּמְפִיבֹשֶׁת יְתִיב בִּירוּשְׁלֵם אֲרֵי עַל פְּתוֹרָא דְמַלְכָּא תְּדִירָא הוּא אָכֵל וְהוּא לָקֵי בְּתַרְתֵּין רִגְלוֹהִי:
