וַאֲתוֹ כָּל שִׁבְטַיָא דְיִשְׂרָאֵל לְוַת דָוִד לְחֶבְרוֹן וַאֲמַרוּ לְמֵימָר הָא אֲנָא קְרִיבָךְ וּבִסְרָךְ אֲנַחְנָא:
אַף מֵאִתְמָלֵי אַף מִדְקָמוֹהִי כַּד הֲוָה שָׁאוּל מַלְכָּא עֲלָנָא אַתְּ הֲוֵיתָא נָפֵיק וְעָלֵיל בְּרֵישׁ יִשְׂרָאֵל וַאֲמַר יְיָ לָךְ אַתְּ תְּפַרְנֵס יַת עַמִי יַת ישְׂרָאֵל וְאַתְּ תֶּהֱוֵי לְמַלְכָּא עַל יִשְׂרָאֵל:
וַאֲתוֹ כָּל סָבֵי יִשְׂרָאֵל לְוַת מַלְכָּא בְּחֶבְרוֹן וּגְזַר לְהוֹן מַלְכָּא דָוִד קְיָם בְּחֶבְרוֹן קֳדָם יְיָ וּמְשָׁחוּ יַת דָוִד לְמֶהֱוֵי מַלְכָּא עַל יִשְׂרָאֵל:
בַּר תְּלָתִין שְׁנִין דָוִד כַּד מְלַךְ וְאַרְבְּעִין שְׁנִין מְלָךְ:
בְּחֶבְרוֹן מְלַךְ עַל דְּבֵית יְהוּדָה שְׁבַע שְׁנִין וְשִׁתָּא יַרְחִין וּבִירוּשָׁלַם מְלַךְ תְּלָתִין וּתְלַת שְׁנִין עַל כָּל יִשְׂרָאֵל וִיהוּדָה:
וַאֲזַל מַלְכָּא וְגַבְרוֹהִי לִירוּשָׁלַם לְוַת יְבוּסָאָה יַתְבֵי אַרְעָא וַאֲמַרוּ לְדָוִד לְמֵימַר לָא תֵיעוּל הַלְכָא אֱלָהֵין בְּאַעְדָיוּתָךְ חַטָאַיָא וְחַיָבַיָא דְאַמְרִין לָא יֵעוּל דָוִד הַלְכָא:
וַאֲחַד דָוִד יַת חַקְרָא דְצִיוֹן הִיא קַרְתָּא דְדָוִד:
וַאֲמַר דָוִד בְּיוֹמָא הַהוּא כָּל דְיִקְטַל יְבוּסָאָה וְיִשְׁרֵי לְמִכְבַּשׁ כְּרַכָּא וְיַת חַטָאַיָא וְיַת חַיָבַיָא רְחִיקָא נַפְשָׁא דְדָוִד עַל כֵּן יֵימְרוּן חַטָאַיָא וְחַיָבַיָא לָא יַעֲלוּן לְבֵיתָא:
וְיָתִיב דָוִד בִּחַקְרָא וּקְרָא לָהּ קַרְתָּא דְדָוִד וּבְנָא דָוִד סְחוֹר סְחוֹר מִן מַלְיָתָא וּלְגָיו:
וַאֲזַל דָוִד אָזֵיל וּסְגִי וּמֵימְרָא דַייָ אֱלָהָא צְבָאוֹת בְּסַעֲדֵיהּ:
וּשְׁלַח חִירָם מַלְכָּא דְצוֹר אִזְגַדִין לְוַת דָוִד וַאֲעֵי אַרְזִין וְנַגָרִין דְאוּמָנִין לְמִיקָץ אָעִין וְאַבְנִין וְאַרְדִיכְלִין דְאוּמָנִין בְּבִנְיַן כּוֹתָלִין וּבְנוֹ בֵיתָא לְדָוִד:
וִידַע דָוִד אֲרֵי אַתְקְנֵיהּ יְיָ לְמֶהֱוֵי מַלְכָּא עַל יִשְׂרָאֵל וַאֲרֵי מְנַטְלָא מַלְכוּתֵיהּ בְּדִיל עַמֵיהּ יִשְׂרָאֵל:
וּנְסִיב דָוִד עוֹד לְחֵינָן וּנְשִׁין מִירוּשְׁלֵם בָּתַר דַאֲתָא מֵחֶבְרוֹן וְאִתְיְלִידוּ עוֹד לְדָוִד בְּנִין וּבְנָן:
וְאִלֵין שְׁמָהַת דְאִתְיְלִידוּ לֵיהּ בִּירוּשְׁלֵם שַׁמוּעַ וְשׁוֹבָב וְנָתָן וּשְׁלֹמֹה:
וְיִבְחָר וֶאֱלִישׁוּעַ וְנֶפֶג וְיָפִיעַ:
וֶאֱלִישָׁמָע וְאֶלְיָדָע וֶאֱלִיפָלֶט:
וּשְׁמָעוּ פְלִשְׁתָּאֵי אֲרֵי מְשָׁחוּ יַת דָוִד לְמֶהֱוֵי מַלְכָּא עַל יִשְׂרָאֵל וּסְלִיקוּ כָּל פְּלִשְׁתָּאֵי לְמִבְעֵי יַת דָוִד וּשְׁמַע דָוִד וּנְחַת לְחַקְרָא:
וּפְלִשְׁתָּאֵי אֲתוֹ וְאִתְרַטִישׁוּ בְּמֵישַׁר גִבָּרַיָא:
וּשְׁאֵיל דָוִד בְּמֵימְרָא דַייָ לְמֵימַר הַאֶסַק עַל פְּלִשְׁתָּאֵי הֲתִמְסְרִינוּן בִּידִי וַאֲמַר יְיָ לְדָוִד סַק אֲרֵי מִמְסַר אֶמְסָר יַת פְּלִשְׁתָּאֵי בִּידָךְ:
וַאֲתָא דָוִד בְּמֵישַׁר פְּרָצִים וּמְחָנוּן תַּמָן דָוִד וַאֲמַר תְּבַר יְיָ יַת בַּעֲלֵי דְבָבֵי קֳדָמַי כְּתִבּוּר מָאן דַחֲסַף דְמָלֵי מַיָין עַל כֵּן קְרָא שְׁמֵיהּ דְאַתְרָא הַהוּא מֵישַׁר פְרָצִים:
וּשְׁבַקוּ תַּמָן יַת טַעֲוַתְהוֹן וְאוֹקֵידִינוּן דָוִד וְגַבְרוֹהִי:
וְאוֹסִיפוּ עוֹד פְּלִשְׁתָּאֵי לְמֵיסַק וְאִיתְרַטִישׁוּ בְּמֵישַׁר גִיבָּרַיָא:
וּשְׁאֵיל דָוִד בְּמֵימְרָא דַייָ וַאֲמַר לָא תֵיסַק אִסְתַּחֵר לַאֲחוֹרֵיהוֹן וּתְהַךְ לְהוֹן מִקָבֵיל אִילָנַיָא:
וִיהֵי כְמִישְׁמְעָךְ יַת קַל צְוַחְתָּא בְּרֵישֵׁי אִילָנַיָא בְּכֵן תִּתְקַף אֲרֵי בְּכֵן נְפִיק מַלְאָכָא דַייָ לְאַצְלָחָא קֳדָמָךְ לְמִקְטַל בְּמַשִׁרְיַת פְּלִשְׁתָּאֵי:
וַעֲבַד דָוִד כֵּן כְּמָא דִי פַקְדֵיהּ יְיָ וּקְטַל יַת פְּלִשְׁתָּאֵי מִגֶבַע עַד מַעֲלָנָא דְגָזַר:
