= גוּלְגַּלְתָּא


- בְּגֻולְגֻּלְתָּא, יָתְבִין (בְּכָל יוֹמָא) תְּלֵיסַר אַלְפֵי רִבּוֹא עָלְמִין, דְּנָטְלִין עֲלוֹי רַגְלִין, וְסַמְּכִין עֲלוֹהִי. וּמֵהַאי גֻּולְגֻּלְתָּא נָטֵיף טַלָּא לְהַהוּא דִּלְבַר, וּמַלְּיָיא לְרֵישֵׁיהּ בְּכָל יוֹמָא, דִּכְתִיב: "שֶׁרֹּאשִׁי נִמְלָא טַל" (שיר־השירים ה ב).


- וּמֵהַהוּא טַלָּא דְּאַנְעַר מֵרֵישֵׁיהּ הַהוּא דְּאִיהוּ לְבַר, יִתְּעָרוּן מֵתַיָּיא לְעָלְמָא דְּאָתֵי, דִּכְתִיב: "כִּי טַל אוֹרֹת טַלֶּךָ" (ישעיה כו יט), 'אוֹרוֹת' - נְהוֹרָא דְּחִוַּורְתָּא דְּעַתִּיקָא. וּמֵהַהוּא טַלָּא מִתְקַיְּימִין קַדִּישֵׁי עֶלְיוֹנִין, וְהוּא מַנָּא דְּטָחֲנִין לְצַדִּיקַיָּיא לְעָלְמָא דְאָתֵי, וְנָטֵיף הַהוּא טַלָּא לְחַקְלָא דְּתַפּוּחִין קַדִּישִׁין, הָדָא הוּא דִכְתִיב: "וַתַּעַל שִׁכְבַת הַטָּל, וְהִנֵּה עַל־פְּנֵי הַמִּדְבָּר דַּק מְחֻסְפָּס" (שמות טז יד).

וְחֵיזוּ דְּהַהוּא טַלָּא חִוָּור, כְּהַאי גַּוְונָא דְּאַבְנִין דִּבְדֹֻּלְחָא, דְּאִתְחַזְיָיא כָּל גַּוְונִין בְּגַוֵּויהּ, הָדָא הוּא דִכְתִיב: "וְעֵינוֹ כְּעֵין הַבְּדֹלַח" (במדבר יא ז).


- הַאי גּוּלְגַּלְתָּא - חִוָּורָא דִּילֵיהּ אַנְהִיר לִתְלֵיסַר עֵיבֶר גְּלִיפִין בְּסַחֲרָנוֹי: לְאַרְבַּע עֵיבֶר בְּסִטְרָא חַד, וּלְאַרְבַּע עֵיבֶר בְּסִטְרָא דָּא, בְּסִטְרָא דְּאַנְפּוֹי, וּלְאַרְבַּע עֵיבֶר בְּסִטְרָא דָּא, לְסִטְרָא דַּאֲחוֹרָא, וְחַד לְעֵילָּא דְּגוּלְגַּלְתָּא.


- וּמֵהַאי אִתְפַּשַׁט אוּרְכָּא דְּאַנְפּוֹהִי לִתְלַת מְאָה וְשִׁבְעִין רִבּוֹא עָלְמִין, וְהַהוּא אִתְקְרֵי 'אֶרֶךְ אַפַּיִם'. וְהַאי עַתִּיקָא דְּעַתִּיקִין אִתְקְרֵי 'אֲרִיכָא־דְּאַנְפִּין'. וְהַהוּא דִּלְבַר אִתְקְרֵי 'זְעֵיר־אַנְפִּין', לָקֳבְלֵיהּ דְּעַתִּיקָא סָבָא, קֹדֶשׁ קֳדָשִׁים דְּקֻדְשַׁיָא. וּזְעֵיר־אַנְפִּין כַּד אִסְתַּכַּל לְהַאי, כֹּלָּא דִּלְתַתָּא אִתְתַּקַּן, וְאַנְפּוֹי מִתְפַּשְּׁטִין וַאֲרִיכִין בְּהַהוּא זִמְנָא, אֲבָל לָא כָּל שַׁעֲתָא כְּמָה דְּעַתִּיקָא.


- וּמֵהַאי גּוּלְגַּלְתָּא, נָפֵיק חַד עֵיבֶר חִיוָּור לְגוּלְגַּלְתָּא דִּזְעֵיר־אַנְפִּין, לְתַקְּנָא רֵישֵׁיהּ, וּמֵהַאי לִשְׁאַר גּוּלְגַּלְתִּין דִּלְתַּתָּא, דְּלֵית לוֹן חוּשְׁבָּנָא. וְכָל גּוּלְגַּלְתָּא יָהֲבִין אֲגַר חִיוַרְתָּא לְעַתִּיק־יוֹמִין, כַּד עָאלִין בְּחוּשְׁבָּנָא תְּחוֹת שַׁרְבִיטָא. וְלָקֳבֵיל דָּא, בֶּקַע לַגוּלְגּוֹלֶת לְתַתָּא, כַּד עָאלִין בְּחוּשְׁבָּנָא.